%!PS-Adobe-3.0 EPSF-3.0
%%Creator: (MATLAB, The Mathworks, Inc. Version 9.5.0.944444 \(R2018b\). Operating System: Windows 10)
%%Title: F:/Studium/__Bachelorarbeit/tex/images/cgls-k=3000.eps
%%CreationDate: 2020-07-26T22:49:05
%%Pages: (atend)
%%BoundingBox: 0 0 420 315
%%LanguageLevel: 3
%%EndComments
%%BeginProlog
%%BeginResource: procset (Apache XML Graphics Std ProcSet) 1.2 0
%%Version: 1.2 0
%%Copyright: (Copyright 2001-2003,2010 The Apache Software Foundation. License terms: http://www.apache.org/licenses/LICENSE-2.0)
/bd{bind def}bind def
/ld{load def}bd
/GR/grestore ld
/GS/gsave ld
/RM/rmoveto ld
/C/curveto ld
/t/show ld
/L/lineto ld
/ML/setmiterlimit ld
/CT/concat ld
/f/fill ld
/N/newpath ld
/S/stroke ld
/CC/setcmykcolor ld
/A/ashow ld
/cp/closepath ld
/RC/setrgbcolor ld
/LJ/setlinejoin ld
/GC/setgray ld
/LW/setlinewidth ld
/M/moveto ld
/re {4 2 roll M
1 index 0 rlineto
0 exch rlineto
neg 0 rlineto
cp } bd
/_ctm matrix def
/_tm matrix def
/BT { _ctm currentmatrix pop matrix _tm copy pop 0 0 moveto } bd
/ET { _ctm setmatrix } bd
/iTm { _ctm setmatrix _tm concat } bd
/Tm { _tm astore pop iTm 0 0 moveto } bd
/ux 0.0 def
/uy 0.0 def
/F {
  /Tp exch def
  /Tf exch def
  Tf findfont Tp scalefont setfont
  /cf Tf def  /cs Tp def
} bd
/ULS {currentpoint /uy exch def /ux exch def} bd
/ULE {
  /Tcx currentpoint pop def
  gsave
  newpath
  cf findfont cs scalefont dup
  /FontMatrix get 0 get /Ts exch def /FontInfo get dup
  /UnderlinePosition get Ts mul /To exch def
  /UnderlineThickness get Ts mul /Tt exch def
  ux uy To add moveto  Tcx uy To add lineto
  Tt setlinewidth stroke
  grestore
} bd
/OLE {
  /Tcx currentpoint pop def
  gsave
  newpath
  cf findfont cs scalefont dup
  /FontMatrix get 0 get /Ts exch def /FontInfo get dup
  /UnderlinePosition get Ts mul /To exch def
  /UnderlineThickness get Ts mul /Tt exch def
  ux uy To add cs add moveto Tcx uy To add cs add lineto
  Tt setlinewidth stroke
  grestore
} bd
/SOE {
  /Tcx currentpoint pop def
  gsave
  newpath
  cf findfont cs scalefont dup
  /FontMatrix get 0 get /Ts exch def /FontInfo get dup
  /UnderlinePosition get Ts mul /To exch def
  /UnderlineThickness get Ts mul /Tt exch def
  ux uy To add cs 10 mul 26 idiv add moveto Tcx uy To add cs 10 mul 26 idiv add lineto
  Tt setlinewidth stroke
  grestore
} bd
/QT {
/Y22 exch store
/X22 exch store
/Y21 exch store
/X21 exch store
currentpoint
/Y21 load 2 mul add 3 div exch
/X21 load 2 mul add 3 div exch
/X21 load 2 mul /X22 load add 3 div
/Y21 load 2 mul /Y22 load add 3 div
/X22 load /Y22 load curveto
} bd
/SSPD {
dup length /d exch dict def
{
/v exch def
/k exch def
currentpagedevice k known {
/cpdv currentpagedevice k get def
v cpdv ne {
/upd false def
/nullv v type /nulltype eq def
/nullcpdv cpdv type /nulltype eq def
nullv nullcpdv or
{
/upd true def
} {
/sametype v type cpdv type eq def
sametype {
v type /arraytype eq {
/vlen v length def
/cpdvlen cpdv length def
vlen cpdvlen eq {
0 1 vlen 1 sub {
/i exch def
/obj v i get def
/cpdobj cpdv i get def
obj cpdobj ne {
/upd true def
exit
} if
} for
} {
/upd true def
} ifelse
} {
v type /dicttype eq {
v {
/dv exch def
/dk exch def
/cpddv cpdv dk get def
dv cpddv ne {
/upd true def
exit
} if
} forall
} {
/upd true def
} ifelse
} ifelse
} if
} ifelse
upd true eq {
d k v put
} if
} if
} if
} forall
d length 0 gt {
d setpagedevice
} if
} bd
/RE { % /NewFontName [NewEncodingArray] /FontName RE -
  findfont dup length dict begin
  {
    1 index /FID ne
    {def} {pop pop} ifelse
  } forall
  /Encoding exch def
  /FontName 1 index def
  currentdict definefont pop
  end
} bind def
%%EndResource
%%BeginResource: procset (Apache XML Graphics EPS ProcSet) 1.0 0
%%Version: 1.0 0
%%Copyright: (Copyright 2002-2003 The Apache Software Foundation. License terms: http://www.apache.org/licenses/LICENSE-2.0)
/BeginEPSF { %def
/b4_Inc_state save def         % Save state for cleanup
/dict_count countdictstack def % Count objects on dict stack
/op_count count 1 sub def      % Count objects on operand stack
userdict begin                 % Push userdict on dict stack
/showpage { } def              % Redefine showpage, { } = null proc
0 setgray 0 setlinecap         % Prepare graphics state
1 setlinewidth 0 setlinejoin
10 setmiterlimit [ ] 0 setdash newpath
/languagelevel where           % If level not equal to 1 then
{pop languagelevel             % set strokeadjust and
1 ne                           % overprint to their defaults.
{false setstrokeadjust false setoverprint
} if
} if
} bd
/EndEPSF { %def
count op_count sub {pop} repeat            % Clean up stacks
countdictstack dict_count sub {end} repeat
b4_Inc_state restore
} bd
%%EndResource
%FOPBeginFontDict
%%IncludeResource: font Courier-Oblique
%%IncludeResource: font Courier-BoldOblique
%%IncludeResource: font Courier-Bold
%%IncludeResource: font ZapfDingbats
%%IncludeResource: font Symbol
%%IncludeResource: font Helvetica
%%IncludeResource: font Helvetica-Oblique
%%IncludeResource: font Helvetica-Bold
%%IncludeResource: font Helvetica-BoldOblique
%%IncludeResource: font Times-Roman
%%IncludeResource: font Times-Italic
%%IncludeResource: font Times-Bold
%%IncludeResource: font Times-BoldItalic
%%IncludeResource: font Courier
%FOPEndFontDict
%%BeginResource: encoding WinAnsiEncoding
/WinAnsiEncoding [
/.notdef /.notdef /.notdef /.notdef /.notdef
/.notdef /.notdef /.notdef /.notdef /.notdef
/.notdef /.notdef /.notdef /.notdef /.notdef
/.notdef /.notdef /.notdef /.notdef /.notdef
/.notdef /.notdef /.notdef /.notdef /.notdef
/.notdef /.notdef /.notdef /.notdef /.notdef
/.notdef /.notdef /space /exclam /quotedbl
/numbersign /dollar /percent /ampersand /quotesingle
/parenleft /parenright /asterisk /plus /comma
/hyphen /period /slash /zero /one
/two /three /four /five /six
/seven /eight /nine /colon /semicolon
/less /equal /greater /question /at
/A /B /C /D /E
/F /G /H /I /J
/K /L /M /N /O
/P /Q /R /S /T
/U /V /W /X /Y
/Z /bracketleft /backslash /bracketright /asciicircum
/underscore /quoteleft /a /b /c
/d /e /f /g /h
/i /j /k /l /m
/n /o /p /q /r
/s /t /u /v /w
/x /y /z /braceleft /bar
/braceright /asciitilde /bullet /Euro /bullet
/quotesinglbase /florin /quotedblbase /ellipsis /dagger
/daggerdbl /circumflex /perthousand /Scaron /guilsinglleft
/OE /bullet /Zcaron /bullet /bullet
/quoteleft /quoteright /quotedblleft /quotedblright /bullet
/endash /emdash /asciitilde /trademark /scaron
/guilsinglright /oe /bullet /zcaron /Ydieresis
/space /exclamdown /cent /sterling /currency
/yen /brokenbar /section /dieresis /copyright
/ordfeminine /guillemotleft /logicalnot /sfthyphen /registered
/macron /degree /plusminus /twosuperior /threesuperior
/acute /mu /paragraph /middot /cedilla
/onesuperior /ordmasculine /guillemotright /onequarter /onehalf
/threequarters /questiondown /Agrave /Aacute /Acircumflex
/Atilde /Adieresis /Aring /AE /Ccedilla
/Egrave /Eacute /Ecircumflex /Edieresis /Igrave
/Iacute /Icircumflex /Idieresis /Eth /Ntilde
/Ograve /Oacute /Ocircumflex /Otilde /Odieresis
/multiply /Oslash /Ugrave /Uacute /Ucircumflex
/Udieresis /Yacute /Thorn /germandbls /agrave
/aacute /acircumflex /atilde /adieresis /aring
/ae /ccedilla /egrave /eacute /ecircumflex
/edieresis /igrave /iacute /icircumflex /idieresis
/eth /ntilde /ograve /oacute /ocircumflex
/otilde /odieresis /divide /oslash /ugrave
/uacute /ucircumflex /udieresis /yacute /thorn
/ydieresis
] def
%%EndResource
%FOPBeginFontReencode
/Courier-Oblique findfont
dup length dict begin
  {1 index /FID ne {def} {pop pop} ifelse} forall
  /Encoding WinAnsiEncoding def
  currentdict
end
/Courier-Oblique exch definefont pop
/Courier-BoldOblique findfont
dup length dict begin
  {1 index /FID ne {def} {pop pop} ifelse} forall
  /Encoding WinAnsiEncoding def
  currentdict
end
/Courier-BoldOblique exch definefont pop
/Courier-Bold findfont
dup length dict begin
  {1 index /FID ne {def} {pop pop} ifelse} forall
  /Encoding WinAnsiEncoding def
  currentdict
end
/Courier-Bold exch definefont pop
/Helvetica findfont
dup length dict begin
  {1 index /FID ne {def} {pop pop} ifelse} forall
  /Encoding WinAnsiEncoding def
  currentdict
end
/Helvetica exch definefont pop
/Helvetica-Oblique findfont
dup length dict begin
  {1 index /FID ne {def} {pop pop} ifelse} forall
  /Encoding WinAnsiEncoding def
  currentdict
end
/Helvetica-Oblique exch definefont pop
/Helvetica-Bold findfont
dup length dict begin
  {1 index /FID ne {def} {pop pop} ifelse} forall
  /Encoding WinAnsiEncoding def
  currentdict
end
/Helvetica-Bold exch definefont pop
/Helvetica-BoldOblique findfont
dup length dict begin
  {1 index /FID ne {def} {pop pop} ifelse} forall
  /Encoding WinAnsiEncoding def
  currentdict
end
/Helvetica-BoldOblique exch definefont pop
/Times-Roman findfont
dup length dict begin
  {1 index /FID ne {def} {pop pop} ifelse} forall
  /Encoding WinAnsiEncoding def
  currentdict
end
/Times-Roman exch definefont pop
/Times-Italic findfont
dup length dict begin
  {1 index /FID ne {def} {pop pop} ifelse} forall
  /Encoding WinAnsiEncoding def
  currentdict
end
/Times-Italic exch definefont pop
/Times-Bold findfont
dup length dict begin
  {1 index /FID ne {def} {pop pop} ifelse} forall
  /Encoding WinAnsiEncoding def
  currentdict
end
/Times-Bold exch definefont pop
/Times-BoldItalic findfont
dup length dict begin
  {1 index /FID ne {def} {pop pop} ifelse} forall
  /Encoding WinAnsiEncoding def
  currentdict
end
/Times-BoldItalic exch definefont pop
/Courier findfont
dup length dict begin
  {1 index /FID ne {def} {pop pop} ifelse} forall
  /Encoding WinAnsiEncoding def
  currentdict
end
/Courier exch definefont pop
%FOPEndFontReencode
%%EndProlog
%%Page: 1 1
%%PageBoundingBox: 0 0 420 315
%%BeginPageSetup
[1 0 0 -1 0 315] CT
%%EndPageSetup
GS
[0.75 0 0 0.75 0 0] CT
1 GC
N
0 0 560 420 re
f
GR
GS
[0.75 0 0 0.75 0 0] CT
1 GC
N
0 0 560 420 re
f
GR
GS
[0.75 0 0 0.75 0 0] CT
1 GC
N
73 374 M
507 374 L
507 31 L
73 31 L
cp
f
GR
GS
[0.75 0 0 0.75 0 0] CT
0.149 GC
2 setlinecap
1 LJ
0.667 LW
N
73 374 M
507 374 L
S
GR
GS
[0.75 0 0 0.75 0 0] CT
0.149 GC
2 setlinecap
1 LJ
0.667 LW
N
73 374 M
73 382.68 L
S
GR
GS
[0.75 0 0 0.75 0 0] CT
0.149 GC
2 setlinecap
1 LJ
0.667 LW
N
116.4 374 M
116.4 382.68 L
S
GR
GS
[0.75 0 0 0.75 0 0] CT
0.149 GC
2 setlinecap
1 LJ
0.667 LW
N
159.8 374 M
159.8 382.68 L
S
GR
GS
[0.75 0 0 0.75 0 0] CT
0.149 GC
2 setlinecap
1 LJ
0.667 LW
N
203.2 374 M
203.2 382.68 L
S
GR
GS
[0.75 0 0 0.75 0 0] CT
0.149 GC
2 setlinecap
1 LJ
0.667 LW
N
246.6 374 M
246.6 382.68 L
S
GR
GS
[0.75 0 0 0.75 0 0] CT
0.149 GC
2 setlinecap
1 LJ
0.667 LW
N
290 374 M
290 382.68 L
S
GR
GS
[0.75 0 0 0.75 0 0] CT
0.149 GC
2 setlinecap
1 LJ
0.667 LW
N
333.4 374 M
333.4 382.68 L
S
GR
GS
[0.75 0 0 0.75 0 0] CT
0.149 GC
2 setlinecap
1 LJ
0.667 LW
N
376.8 374 M
376.8 382.68 L
S
GR
GS
[0.75 0 0 0.75 0 0] CT
0.149 GC
2 setlinecap
1 LJ
0.667 LW
N
420.2 374 M
420.2 382.68 L
S
GR
GS
[0.75 0 0 0.75 0 0] CT
0.149 GC
2 setlinecap
1 LJ
0.667 LW
N
463.6 374 M
463.6 382.68 L
S
GR
GS
[0.75 0 0 0.75 0 0] CT
0.149 GC
2 setlinecap
1 LJ
0.667 LW
N
507 374 M
507 382.68 L
S
GR
GS
[0.75 0 0 0.75 0 0] CT
0.149 GC
2 setlinecap
1 LJ
0.667 LW
N
81.68 374 M
81.68 378.34 L
S
GR
GS
[0.75 0 0 0.75 0 0] CT
0.149 GC
2 setlinecap
1 LJ
0.667 LW
N
90.36 374 M
90.36 378.34 L
S
GR
GS
[0.75 0 0 0.75 0 0] CT
0.149 GC
2 setlinecap
1 LJ
0.667 LW
N
99.04 374 M
99.04 378.34 L
S
GR
GS
[0.75 0 0 0.75 0 0] CT
0.149 GC
2 setlinecap
1 LJ
0.667 LW
N
107.72 374 M
107.72 378.34 L
S
GR
GS
[0.75 0 0 0.75 0 0] CT
0.149 GC
2 setlinecap
1 LJ
0.667 LW
N
125.08 374 M
125.08 378.34 L
S
GR
GS
[0.75 0 0 0.75 0 0] CT
0.149 GC
2 setlinecap
1 LJ
0.667 LW
N
133.76 374 M
133.76 378.34 L
S
GR
GS
[0.75 0 0 0.75 0 0] CT
0.149 GC
2 setlinecap
1 LJ
0.667 LW
N
142.44 374 M
142.44 378.34 L
S
GR
GS
[0.75 0 0 0.75 0 0] CT
0.149 GC
2 setlinecap
1 LJ
0.667 LW
N
151.12 374 M
151.12 378.34 L
S
GR
GS
[0.75 0 0 0.75 0 0] CT
0.149 GC
2 setlinecap
1 LJ
0.667 LW
N
168.48 374 M
168.48 378.34 L
S
GR
GS
[0.75 0 0 0.75 0 0] CT
0.149 GC
2 setlinecap
1 LJ
0.667 LW
N
177.16 374 M
177.16 378.34 L
S
GR
GS
[0.75 0 0 0.75 0 0] CT
0.149 GC
2 setlinecap
1 LJ
0.667 LW
N
185.84 374 M
185.84 378.34 L
S
GR
GS
[0.75 0 0 0.75 0 0] CT
0.149 GC
2 setlinecap
1 LJ
0.667 LW
N
194.52 374 M
194.52 378.34 L
S
GR
GS
[0.75 0 0 0.75 0 0] CT
0.149 GC
2 setlinecap
1 LJ
0.667 LW
N
211.88 374 M
211.88 378.34 L
S
GR
GS
[0.75 0 0 0.75 0 0] CT
0.149 GC
2 setlinecap
1 LJ
0.667 LW
N
220.56 374 M
220.56 378.34 L
S
GR
GS
[0.75 0 0 0.75 0 0] CT
0.149 GC
2 setlinecap
1 LJ
0.667 LW
N
229.24 374 M
229.24 378.34 L
S
GR
GS
[0.75 0 0 0.75 0 0] CT
0.149 GC
2 setlinecap
1 LJ
0.667 LW
N
237.92 374 M
237.92 378.34 L
S
GR
GS
[0.75 0 0 0.75 0 0] CT
0.149 GC
2 setlinecap
1 LJ
0.667 LW
N
255.28 374 M
255.28 378.34 L
S
GR
GS
[0.75 0 0 0.75 0 0] CT
0.149 GC
2 setlinecap
1 LJ
0.667 LW
N
263.96 374 M
263.96 378.34 L
S
GR
GS
[0.75 0 0 0.75 0 0] CT
0.149 GC
2 setlinecap
1 LJ
0.667 LW
N
272.64 374 M
272.64 378.34 L
S
GR
GS
[0.75 0 0 0.75 0 0] CT
0.149 GC
2 setlinecap
1 LJ
0.667 LW
N
281.32 374 M
281.32 378.34 L
S
GR
GS
[0.75 0 0 0.75 0 0] CT
0.149 GC
2 setlinecap
1 LJ
0.667 LW
N
298.68 374 M
298.68 378.34 L
S
GR
GS
[0.75 0 0 0.75 0 0] CT
0.149 GC
2 setlinecap
1 LJ
0.667 LW
N
307.36 374 M
307.36 378.34 L
S
GR
GS
[0.75 0 0 0.75 0 0] CT
0.149 GC
2 setlinecap
1 LJ
0.667 LW
N
316.04 374 M
316.04 378.34 L
S
GR
GS
[0.75 0 0 0.75 0 0] CT
0.149 GC
2 setlinecap
1 LJ
0.667 LW
N
324.72 374 M
324.72 378.34 L
S
GR
GS
[0.75 0 0 0.75 0 0] CT
0.149 GC
2 setlinecap
1 LJ
0.667 LW
N
342.08 374 M
342.08 378.34 L
S
GR
GS
[0.75 0 0 0.75 0 0] CT
0.149 GC
2 setlinecap
1 LJ
0.667 LW
N
350.76 374 M
350.76 378.34 L
S
GR
GS
[0.75 0 0 0.75 0 0] CT
0.149 GC
2 setlinecap
1 LJ
0.667 LW
N
359.44 374 M
359.44 378.34 L
S
GR
GS
[0.75 0 0 0.75 0 0] CT
0.149 GC
2 setlinecap
1 LJ
0.667 LW
N
368.12 374 M
368.12 378.34 L
S
GR
GS
[0.75 0 0 0.75 0 0] CT
0.149 GC
2 setlinecap
1 LJ
0.667 LW
N
385.48 374 M
385.48 378.34 L
S
GR
GS
[0.75 0 0 0.75 0 0] CT
0.149 GC
2 setlinecap
1 LJ
0.667 LW
N
394.16 374 M
394.16 378.34 L
S
GR
GS
[0.75 0 0 0.75 0 0] CT
0.149 GC
2 setlinecap
1 LJ
0.667 LW
N
402.84 374 M
402.84 378.34 L
S
GR
GS
[0.75 0 0 0.75 0 0] CT
0.149 GC
2 setlinecap
1 LJ
0.667 LW
N
411.52 374 M
411.52 378.34 L
S
GR
GS
[0.75 0 0 0.75 0 0] CT
0.149 GC
2 setlinecap
1 LJ
0.667 LW
N
428.88 374 M
428.88 378.34 L
S
GR
GS
[0.75 0 0 0.75 0 0] CT
0.149 GC
2 setlinecap
1 LJ
0.667 LW
N
437.56 374 M
437.56 378.34 L
S
GR
GS
[0.75 0 0 0.75 0 0] CT
0.149 GC
2 setlinecap
1 LJ
0.667 LW
N
446.24 374 M
446.24 378.34 L
S
GR
GS
[0.75 0 0 0.75 0 0] CT
0.149 GC
2 setlinecap
1 LJ
0.667 LW
N
454.92 374 M
454.92 378.34 L
S
GR
GS
[0.75 0 0 0.75 0 0] CT
0.149 GC
2 setlinecap
1 LJ
0.667 LW
N
472.28 374 M
472.28 378.34 L
S
GR
GS
[0.75 0 0 0.75 0 0] CT
0.149 GC
2 setlinecap
1 LJ
0.667 LW
N
480.96 374 M
480.96 378.34 L
S
GR
GS
[0.75 0 0 0.75 0 0] CT
0.149 GC
2 setlinecap
1 LJ
0.667 LW
N
489.64 374 M
489.64 378.34 L
S
GR
GS
[0.75 0 0 0.75 0 0] CT
0.149 GC
2 setlinecap
1 LJ
0.667 LW
N
498.32 374 M
498.32 378.34 L
S
GR
GS
[0.75 0 0 0.75 54.75 291.01] CT
0.149 GC
/Helvetica 13.333 F
GS
[1 0 0 1 0 0] CT
-4 14 moveto 
1 -1 scale
(0) t 
GR
GR
GS
[0.75 0 0 0.75 87.3 291.01] CT
0.149 GC
/Helvetica 13.333 F
GS
[1 0 0 1 0 0] CT
-9.5 14 moveto 
1 -1 scale
(0.1) t 
GR
GR
GS
[0.75 0 0 0.75 119.85 291.01] CT
0.149 GC
/Helvetica 13.333 F
GS
[1 0 0 1 0 0] CT
-9.5 14 moveto 
1 -1 scale
(0.2) t 
GR
GR
GS
[0.75 0 0 0.75 152.40001 291.01] CT
0.149 GC
/Helvetica 13.333 F
GS
[1 0 0 1 0 0] CT
-9.5 14 moveto 
1 -1 scale
(0.3) t 
GR
GR
GS
[0.75 0 0 0.75 184.95 291.01] CT
0.149 GC
/Helvetica 13.333 F
GS
[1 0 0 1 0 0] CT
-9.5 14 moveto 
1 -1 scale
(0.4) t 
GR
GR
GS
[0.75 0 0 0.75 217.5 291.01] CT
0.149 GC
/Helvetica 13.333 F
GS
[1 0 0 1 0 0] CT
-9.5 14 moveto 
1 -1 scale
(0.5) t 
GR
GR
GS
[0.75 0 0 0.75 250.05002 291.01] CT
0.149 GC
/Helvetica 13.333 F
GS
[1 0 0 1 0 0] CT
-9.5 14 moveto 
1 -1 scale
(0.6) t 
GR
GR
GS
[0.75 0 0 0.75 282.59999 291.01] CT
0.149 GC
/Helvetica 13.333 F
GS
[1 0 0 1 0 0] CT
-9.5 14 moveto 
1 -1 scale
(0.7) t 
GR
GR
GS
[0.75 0 0 0.75 315.15001 291.01] CT
0.149 GC
/Helvetica 13.333 F
GS
[1 0 0 1 0 0] CT
-9.5 14 moveto 
1 -1 scale
(0.8) t 
GR
GR
GS
[0.75 0 0 0.75 347.69998 291.01] CT
0.149 GC
/Helvetica 13.333 F
GS
[1 0 0 1 0 0] CT
-9.5 14 moveto 
1 -1 scale
(0.9) t 
GR
GR
GS
[0.75 0 0 0.75 380.25 291.01] CT
0.149 GC
/Helvetica 13.333 F
GS
[1 0 0 1 0 0] CT
-4 14 moveto 
1 -1 scale
(1) t 
GR
GR
GS
[0.75 0 0 0.75 0 0] CT
0.149 GC
2 setlinecap
1 LJ
0.667 LW
N
73 374 M
73 31 L
S
GR
GS
[0.75 0 0 0.75 0 0] CT
0.149 GC
2 setlinecap
1 LJ
0.667 LW
N
73 374 M
64.32 374 L
S
GR
GS
[0.75 0 0 0.75 0 0] CT
0.149 GC
2 setlinecap
1 LJ
0.667 LW
N
73 331.125 M
64.32 331.125 L
S
GR
GS
[0.75 0 0 0.75 0 0] CT
0.149 GC
2 setlinecap
1 LJ
0.667 LW
N
73 288.25 M
64.32 288.25 L
S
GR
GS
[0.75 0 0 0.75 0 0] CT
0.149 GC
2 setlinecap
1 LJ
0.667 LW
N
73 245.375 M
64.32 245.375 L
S
GR
GS
[0.75 0 0 0.75 0 0] CT
0.149 GC
2 setlinecap
1 LJ
0.667 LW
N
73 202.5 M
64.32 202.5 L
S
GR
GS
[0.75 0 0 0.75 0 0] CT
0.149 GC
2 setlinecap
1 LJ
0.667 LW
N
73 159.625 M
64.32 159.625 L
S
GR
GS
[0.75 0 0 0.75 0 0] CT
0.149 GC
2 setlinecap
1 LJ
0.667 LW
N
73 116.75 M
64.32 116.75 L
S
GR
GS
[0.75 0 0 0.75 0 0] CT
0.149 GC
2 setlinecap
1 LJ
0.667 LW
N
73 73.875 M
64.32 73.875 L
S
GR
GS
[0.75 0 0 0.75 0 0] CT
0.149 GC
2 setlinecap
1 LJ
0.667 LW
N
73 31 M
64.32 31 L
S
GR
GS
[0.75 0 0 0.75 0 0] CT
0.149 GC
2 setlinecap
1 LJ
0.667 LW
N
73 365.425 M
68.66 365.425 L
S
GR
GS
[0.75 0 0 0.75 0 0] CT
0.149 GC
2 setlinecap
1 LJ
0.667 LW
N
73 356.85 M
68.66 356.85 L
S
GR
GS
[0.75 0 0 0.75 0 0] CT
0.149 GC
2 setlinecap
1 LJ
0.667 LW
N
73 348.275 M
68.66 348.275 L
S
GR
GS
[0.75 0 0 0.75 0 0] CT
0.149 GC
2 setlinecap
1 LJ
0.667 LW
N
73 339.7 M
68.66 339.7 L
S
GR
GS
[0.75 0 0 0.75 0 0] CT
0.149 GC
2 setlinecap
1 LJ
0.667 LW
N
73 322.55 M
68.66 322.55 L
S
GR
GS
[0.75 0 0 0.75 0 0] CT
0.149 GC
2 setlinecap
1 LJ
0.667 LW
N
73 313.975 M
68.66 313.975 L
S
GR
GS
[0.75 0 0 0.75 0 0] CT
0.149 GC
2 setlinecap
1 LJ
0.667 LW
N
73 305.4 M
68.66 305.4 L
S
GR
GS
[0.75 0 0 0.75 0 0] CT
0.149 GC
2 setlinecap
1 LJ
0.667 LW
N
73 296.825 M
68.66 296.825 L
S
GR
GS
[0.75 0 0 0.75 0 0] CT
0.149 GC
2 setlinecap
1 LJ
0.667 LW
N
73 279.675 M
68.66 279.675 L
S
GR
GS
[0.75 0 0 0.75 0 0] CT
0.149 GC
2 setlinecap
1 LJ
0.667 LW
N
73 271.1 M
68.66 271.1 L
S
GR
GS
[0.75 0 0 0.75 0 0] CT
0.149 GC
2 setlinecap
1 LJ
0.667 LW
N
73 262.525 M
68.66 262.525 L
S
GR
GS
[0.75 0 0 0.75 0 0] CT
0.149 GC
2 setlinecap
1 LJ
0.667 LW
N
73 253.95 M
68.66 253.95 L
S
GR
GS
[0.75 0 0 0.75 0 0] CT
0.149 GC
2 setlinecap
1 LJ
0.667 LW
N
73 236.8 M
68.66 236.8 L
S
GR
GS
[0.75 0 0 0.75 0 0] CT
0.149 GC
2 setlinecap
1 LJ
0.667 LW
N
73 228.225 M
68.66 228.225 L
S
GR
GS
[0.75 0 0 0.75 0 0] CT
0.149 GC
2 setlinecap
1 LJ
0.667 LW
N
73 219.65 M
68.66 219.65 L
S
GR
GS
[0.75 0 0 0.75 0 0] CT
0.149 GC
2 setlinecap
1 LJ
0.667 LW
N
73 211.075 M
68.66 211.075 L
S
GR
GS
[0.75 0 0 0.75 0 0] CT
0.149 GC
2 setlinecap
1 LJ
0.667 LW
N
73 193.925 M
68.66 193.925 L
S
GR
GS
[0.75 0 0 0.75 0 0] CT
0.149 GC
2 setlinecap
1 LJ
0.667 LW
N
73 185.35 M
68.66 185.35 L
S
GR
GS
[0.75 0 0 0.75 0 0] CT
0.149 GC
2 setlinecap
1 LJ
0.667 LW
N
73 176.775 M
68.66 176.775 L
S
GR
GS
[0.75 0 0 0.75 0 0] CT
0.149 GC
2 setlinecap
1 LJ
0.667 LW
N
73 168.2 M
68.66 168.2 L
S
GR
GS
[0.75 0 0 0.75 0 0] CT
0.149 GC
2 setlinecap
1 LJ
0.667 LW
N
73 151.05 M
68.66 151.05 L
S
GR
GS
[0.75 0 0 0.75 0 0] CT
0.149 GC
2 setlinecap
1 LJ
0.667 LW
N
73 142.475 M
68.66 142.475 L
S
GR
GS
[0.75 0 0 0.75 0 0] CT
0.149 GC
2 setlinecap
1 LJ
0.667 LW
N
73 133.9 M
68.66 133.9 L
S
GR
GS
[0.75 0 0 0.75 0 0] CT
0.149 GC
2 setlinecap
1 LJ
0.667 LW
N
73 125.325 M
68.66 125.325 L
S
GR
GS
[0.75 0 0 0.75 0 0] CT
0.149 GC
2 setlinecap
1 LJ
0.667 LW
N
73 108.175 M
68.66 108.175 L
S
GR
GS
[0.75 0 0 0.75 0 0] CT
0.149 GC
2 setlinecap
1 LJ
0.667 LW
N
73 99.6 M
68.66 99.6 L
S
GR
GS
[0.75 0 0 0.75 0 0] CT
0.149 GC
2 setlinecap
1 LJ
0.667 LW
N
73 91.025 M
68.66 91.025 L
S
GR
GS
[0.75 0 0 0.75 0 0] CT
0.149 GC
2 setlinecap
1 LJ
0.667 LW
N
73 82.45 M
68.66 82.45 L
S
GR
GS
[0.75 0 0 0.75 0 0] CT
0.149 GC
2 setlinecap
1 LJ
0.667 LW
N
73 65.3 M
68.66 65.3 L
S
GR
GS
[0.75 0 0 0.75 0 0] CT
0.149 GC
2 setlinecap
1 LJ
0.667 LW
N
73 56.725 M
68.66 56.725 L
S
GR
GS
[0.75 0 0 0.75 0 0] CT
0.149 GC
2 setlinecap
1 LJ
0.667 LW
N
73 48.15 M
68.66 48.15 L
S
GR
GS
[0.75 0 0 0.75 0 0] CT
0.149 GC
2 setlinecap
1 LJ
0.667 LW
N
73 39.575 M
68.66 39.575 L
S
GR
GS
[0.75 0 0 0.75 44.24 280.5] CT
0.149 GC
/Helvetica 13.333 F
GS
[1 0 0 1 0 0] CT
-12 5.5 moveto 
1 -1 scale
(-2) t 
GR
GR
GS
[0.75 0 0 0.75 44.24 248.34375] CT
0.149 GC
/Helvetica 13.333 F
GS
[1 0 0 1 0 0] CT
-23 5.5 moveto 
1 -1 scale
(-1.5) t 
GR
GR
GS
[0.75 0 0 0.75 44.24 216.1875] CT
0.149 GC
/Helvetica 13.333 F
GS
[1 0 0 1 0 0] CT
-12 5.5 moveto 
1 -1 scale
(-1) t 
GR
GR
GS
[0.75 0 0 0.75 44.24 184.03125] CT
0.149 GC
/Helvetica 13.333 F
GS
[1 0 0 1 0 0] CT
-23 5.5 moveto 
1 -1 scale
(-0.5) t 
GR
GR
GS
[0.75 0 0 0.75 44.24 151.875] CT
0.149 GC
/Helvetica 13.333 F
GS
[1 0 0 1 0 0] CT
-8 5.5 moveto 
1 -1 scale
(0) t 
GR
GR
GS
[0.75 0 0 0.75 44.24 119.71875] CT
0.149 GC
/Helvetica 13.333 F
GS
[1 0 0 1 0 0] CT
-19 5.5 moveto 
1 -1 scale
(0.5) t 
GR
GR
GS
[0.75 0 0 0.75 44.24 87.5625] CT
0.149 GC
/Helvetica 13.333 F
GS
[1 0 0 1 0 0] CT
-8 5.5 moveto 
1 -1 scale
(1) t 
GR
GR
GS
[0.75 0 0 0.75 44.24 55.40625] CT
0.149 GC
/Helvetica 13.333 F
GS
[1 0 0 1 0 0] CT
-19 5.5 moveto 
1 -1 scale
(1.5) t 
GR
GR
GS
[0.75 0 0 0.75 44.24 23.25] CT
0.149 GC
/Helvetica 13.333 F
GS
[1 0 0 1 0 0] CT
-8 5.5 moveto 
1 -1 scale
(2) t 
GR
GR
GS
[0.75 0 0 0.75 54.75 21] CT
0.149 GC
N
1.906 -0.375 M
1.906 -0.469 1.969 -0.563 QT
4.672 -3.25 L
1.969 -5.953 L
1.906 -6.016 1.906 -6.125 QT
1.906 -6.219 1.984 -6.305 QT
2.063 -6.391 2.172 -6.391 QT
2.266 -6.391 2.375 -6.297 QT
5.063 -3.609 L
7.734 -6.297 L
7.844 -6.391 7.922 -6.391 QT
8.031 -6.391 8.109 -6.313 QT
8.188 -6.234 8.188 -6.125 QT
8.188 -6.016 8.125 -5.953 QT
5.422 -3.25 L
8.125 -0.563 L
8.188 -0.469 8.188 -0.375 QT
8.188 -0.266 8.109 -0.188 QT
8.031 -0.109 7.922 -0.109 QT
7.828 -0.109 7.734 -0.203 QT
5.063 -2.891 L
2.375 -0.203 L
2.266 -0.109 2.172 -0.109 QT
2.063 -0.109 1.984 -0.195 QT
1.906 -0.281 1.906 -0.375 QT
cp
f
GR
GS
[0.75 0 0 0.75 63 21] CT
0.149 GC
/Helvetica 13.333 F
GS
[1 0 0 1 0 0] CT
0 0 moveto 
1 -1 scale
(10) t 
GR
GR
GS
[0.75 0 0 0.75 74.25 16.5] CT
0.149 GC
/Helvetica 10.667 F
GS
[1 0 0 1 0 0] CT
0 0 moveto 
1 -1 scale
(7) t 
GR
GR
GS
[0.75 0 0 0.75 0 0] CT
0 0.447 0.741 RC
[8 8] 0 setdash
2 LJ
2 LW
N
73 231.273 M
87.966 163.613 L
102.931 235.683 L
117.897 169.939 L
132.862 253.029 L
147.828 129.574 L
162.793 269.555 L
177.759 185.485 L
192.724 150.221 L
207.69 300.813 L
222.655 94.619 L
237.621 306.532 L
252.586 97.616 L
267.552 300.708 L
282.517 134.621 L
297.483 228.892 L
312.448 202.229 L
327.414 194.169 L
342.379 224.022 L
357.345 153.128 L
372.31 281.491 L
387.276 102.901 L
402.241 316.598 L
417.207 76.614 L
432.172 336.047 L
447.138 64.995 L
462.103 341.579 L
477.069 68.971 L
492.034 313.172 L
507 138.376 L
S
GR
GS
[0.75 0 0 0.75 0 0] CT
0.851 0.325 0.098 RC
1 LJ
2 LW
N
73 218.115 M
87.966 182.526 L
102.931 220.61 L
117.897 174.346 L
132.862 260.82 L
147.828 113.932 L
162.793 285.62 L
177.759 174.374 L
192.724 155.287 L
207.69 300.337 L
222.655 93.398 L
237.621 304.939 L
252.586 105.903 L
267.552 285.648 L
282.517 153.096 L
297.483 211.579 L
312.448 213.286 L
327.414 193.582 L
342.379 213.894 L
357.345 170.229 L
372.31 260.79 L
387.276 126.972 L
402.241 288.119 L
417.207 109.129 L
432.172 302.21 L
447.138 94.963 L
462.103 321.428 L
477.069 76.866 L
492.034 313.995 L
507 135.543 L
S
GR
GS
[0.75 0 0 0.75 0 0] CT
1 GC
N
192 77 M
192 42 L
84 42 L
84 77 L
cp
f
GR
GS
[0.75 0 0 0.75 98.30295 38.70947] CT
N
2.234 -6.799 M
2.578 -7.221 L
3.047 -7.752 3.516 -7.752 QT
3.75 -7.752 4.016 -7.619 QT
4.281 -7.486 4.555 -7.353 QT
4.828 -7.221 5.063 -7.221 QT
5.547 -7.221 5.984 -7.752 QT
6.234 -7.549 L
5.875 -7.142 L
5.406 -6.596 4.938 -6.596 QT
4.719 -6.596 4.445 -6.736 QT
4.172 -6.877 3.898 -7.01 QT
3.625 -7.142 3.391 -7.142 QT
2.922 -7.142 2.469 -6.596 QT
2.234 -6.799 L
cp
f
GR
GS
[0.75 0 0 0.75 98.30295 38.70947] CT
N
1.953 5.305 M
1.969 5.165 2.125 5.165 QT
2.141 5.165 2.352 5.282 QT
2.563 5.399 2.82 5.493 QT
3.078 5.587 3.328 5.587 QT
3.563 5.587 3.711 5.391 QT
3.859 5.196 3.859 4.977 QT
3.859 4.665 3.531 4.54 QT
1.484 3.743 L
0.969 3.54 0.625 3.134 QT
0.281 2.727 0.281 2.212 QT
0.281 1.743 0.523 1.243 QT
0.766 0.743 1.156 0.337 QT
1.547 -0.07 1.984 -0.32 QT
1.625 -0.538 1.43 -0.866 QT
1.234 -1.195 1.234 -1.601 QT
1.234 -2.023 1.406 -2.382 QT
1.578 -2.741 1.883 -3.046 QT
2.188 -3.351 2.555 -3.554 QT
2.922 -3.757 3.297 -3.866 QT
3.234 -4.116 3.234 -4.304 QT
3.234 -4.96 3.5 -4.96 QT
3.563 -4.96 3.609 -4.913 QT
3.656 -4.866 3.656 -4.804 QT
3.656 -4.741 3.625 -4.546 QT
3.594 -4.351 3.594 -4.304 QT
3.594 -4.101 3.641 -3.929 QT
3.953 -4.007 4.234 -4.007 QT
5.344 -4.007 5.344 -3.663 QT
5.344 -3.257 4.109 -3.257 QT
3.734 -3.257 3.5 -3.507 QT
3.156 -3.335 2.867 -3.015 QT
2.578 -2.695 2.414 -2.296 QT
2.25 -1.898 2.25 -1.491 QT
2.25 -0.929 2.563 -0.585 QT
3 -0.741 3.422 -0.741 QT
4.531 -0.741 4.531 -0.398 QT
4.531 0.009 3.297 0.009 QT
2.797 0.009 2.359 -0.148 QT
1.828 0.149 1.383 0.735 QT
0.938 1.321 0.938 1.852 QT
0.938 2.212 1.195 2.477 QT
1.453 2.743 1.828 2.899 QT
3.953 3.727 L
4.219 3.837 4.398 4.071 QT
4.578 4.305 4.578 4.602 QT
4.578 5.087 4.195 5.493 QT
3.813 5.899 3.328 5.899 QT
3.172 5.899 2.828 5.813 QT
2.484 5.727 2.219 5.595 QT
1.953 5.462 1.953 5.305 QT
cp
2.938 -0.366 M
3.094 -0.304 3.328 -0.304 QT
3.906 -0.304 4.156 -0.366 QT
3.922 -0.413 3.406 -0.413 QT
3.203 -0.413 2.938 -0.366 QT
cp
3.844 -3.632 M
3.953 -3.57 4.141 -3.57 QT
4.719 -3.57 4.969 -3.632 QT
3.844 -3.632 L
cp
f
GR
GS
[0.75 0 0 0.75 98.30295 38.70947] CT
N
13.521 6.415 M
12.849 5.884 12.372 5.196 QT
11.896 4.509 11.583 3.735 QT
11.271 2.962 11.122 2.118 QT
10.974 1.274 10.974 0.43 QT
10.974 -0.429 11.122 -1.273 QT
11.271 -2.116 11.583 -2.898 QT
11.896 -3.679 12.388 -4.359 QT
12.88 -5.038 13.521 -5.554 QT
13.521 -5.57 13.583 -5.57 QT
13.693 -5.57 L
13.724 -5.57 13.755 -5.538 QT
13.786 -5.507 13.786 -5.46 QT
13.786 -5.413 13.771 -5.382 QT
13.177 -4.82 12.786 -4.163 QT
12.396 -3.507 12.161 -2.765 QT
11.927 -2.023 11.818 -1.226 QT
11.708 -0.429 11.708 0.43 QT
11.708 4.243 13.755 6.227 QT
13.786 6.259 13.786 6.321 QT
13.786 6.352 13.755 6.391 QT
13.724 6.43 13.693 6.43 QT
13.583 6.43 L
13.521 6.43 13.521 6.415 QT
cp
f
GR
GS
[0.75 0 0 0.75 98.30295 38.70947] CT
N
17.453 3.571 M
16.719 3.571 16.109 3.18 QT
15.5 2.79 15.148 2.149 QT
14.797 1.509 14.797 0.805 QT
14.797 0.102 15.117 -0.53 QT
15.438 -1.163 16.008 -1.554 QT
16.578 -1.945 17.281 -1.945 QT
17.844 -1.945 18.25 -1.765 QT
18.656 -1.585 18.922 -1.257 QT
19.188 -0.929 19.32 -0.484 QT
19.453 -0.038 19.453 0.493 QT
19.453 0.665 19.328 0.665 QT
15.859 0.665 L
15.859 0.79 L
15.859 1.79 16.258 2.501 QT
16.656 3.212 17.563 3.212 QT
17.938 3.212 18.25 3.048 QT
18.563 2.884 18.789 2.595 QT
19.016 2.305 19.109 1.962 QT
19.109 1.93 19.148 1.891 QT
19.188 1.852 19.219 1.852 QT
19.328 1.852 L
19.453 1.852 19.453 2.009 QT
19.281 2.696 18.719 3.134 QT
18.156 3.571 17.453 3.571 QT
cp
15.859 0.352 M
18.594 0.352 L
18.594 -0.085 18.469 -0.554 QT
18.344 -1.023 18.055 -1.327 QT
17.766 -1.632 17.281 -1.632 QT
16.609 -1.632 16.234 -0.999 QT
15.859 -0.366 15.859 0.352 QT
cp
f
GR
GS
[0.75 0 0 0.75 98.30295 38.70947] CT
N
19.943 3.43 M
19.943 3.009 L
20.411 3.009 20.81 2.829 QT
21.208 2.649 21.49 2.305 QT
22.583 0.915 L
21.161 -0.929 L
20.958 -1.195 20.708 -1.257 QT
20.458 -1.32 20.005 -1.32 QT
20.005 -1.741 L
22.505 -1.741 L
22.505 -1.32 L
22.349 -1.32 22.208 -1.249 QT
22.068 -1.179 22.068 -1.054 QT
22.068 -1.007 22.099 -0.929 QT
23.068 0.305 L
23.786 -0.616 L
23.927 -0.788 23.927 -0.96 QT
23.927 -1.116 23.833 -1.218 QT
23.74 -1.32 23.583 -1.32 QT
23.583 -1.741 L
25.786 -1.741 L
25.786 -1.32 L
25.333 -1.32 24.927 -1.14 QT
24.521 -0.96 24.24 -0.616 QT
23.286 0.602 L
24.818 2.634 L
25.052 2.884 25.294 2.946 QT
25.536 3.009 25.99 3.009 QT
25.99 3.43 L
23.505 3.43 L
23.505 3.009 L
23.646 3.009 23.779 2.938 QT
23.911 2.868 23.911 2.727 QT
23.911 2.68 23.88 2.634 QT
22.802 1.196 L
21.943 2.305 L
21.802 2.446 21.802 2.649 QT
21.802 2.79 21.904 2.899 QT
22.005 3.009 22.146 3.009 QT
22.146 3.43 L
19.943 3.43 L
cp
f
GR
GS
[0.75 0 0 0.75 98.30295 38.70947] CT
N
26.62 2.259 M
26.62 1.54 27.182 1.087 QT
27.745 0.634 28.534 0.454 QT
29.323 0.274 30.026 0.274 QT
30.026 -0.226 L
30.026 -0.57 29.878 -0.89 QT
29.729 -1.21 29.44 -1.421 QT
29.151 -1.632 28.807 -1.632 QT
28.01 -1.632 27.589 -1.273 QT
27.823 -1.273 27.971 -1.101 QT
28.12 -0.929 28.12 -0.695 QT
28.12 -0.46 27.948 -0.288 QT
27.776 -0.116 27.542 -0.116 QT
27.307 -0.116 27.135 -0.288 QT
26.964 -0.46 26.964 -0.695 QT
26.964 -1.335 27.534 -1.64 QT
28.104 -1.945 28.807 -1.945 QT
29.292 -1.945 29.784 -1.741 QT
30.276 -1.538 30.589 -1.148 QT
30.901 -0.757 30.901 -0.241 QT
30.901 2.462 L
30.901 2.696 31.003 2.891 QT
31.104 3.087 31.307 3.087 QT
31.51 3.087 31.604 2.884 QT
31.698 2.68 31.698 2.462 QT
31.698 1.696 L
32.057 1.696 L
32.057 2.462 L
32.057 2.727 31.917 2.97 QT
31.776 3.212 31.534 3.36 QT
31.292 3.509 31.026 3.509 QT
30.667 3.509 30.417 3.235 QT
30.167 2.962 30.135 2.587 QT
29.917 3.024 29.479 3.298 QT
29.042 3.571 28.557 3.571 QT
28.089 3.571 27.651 3.43 QT
27.214 3.29 26.917 3.001 QT
26.62 2.712 26.62 2.259 QT
cp
27.589 2.259 M
27.589 2.68 27.901 2.962 QT
28.214 3.243 28.635 3.243 QT
29.026 3.243 29.339 3.055 QT
29.651 2.868 29.839 2.532 QT
30.026 2.196 30.026 1.821 QT
30.026 0.571 L
29.479 0.571 28.909 0.751 QT
28.339 0.93 27.964 1.313 QT
27.589 1.696 27.589 2.259 QT
cp
f
GR
GS
[0.75 0 0 0.75 98.30295 38.70947] CT
N
32.448 3.43 M
32.448 3.009 L
32.854 3.009 33.12 2.946 QT
33.385 2.884 33.385 2.634 QT
33.385 -3.679 L
33.385 -3.991 33.292 -4.14 QT
33.198 -4.288 33.01 -4.32 QT
32.823 -4.351 32.448 -4.351 QT
32.448 -4.773 L
34.229 -4.898 L
34.229 0.805 L
35.839 -0.616 L
36.073 -0.835 36.073 -1.038 QT
36.073 -1.179 35.971 -1.249 QT
35.87 -1.32 35.729 -1.32 QT
35.729 -1.741 L
37.995 -1.741 L
37.995 -1.32 L
37.182 -1.32 36.354 -0.616 QT
35.51 0.134 L
37.042 2.305 L
37.354 2.743 37.565 2.876 QT
37.776 3.009 38.276 3.009 QT
38.276 3.43 L
35.885 3.43 L
35.885 3.009 L
36.292 3.009 36.292 2.759 QT
36.292 2.571 36.073 2.305 QT
34.917 0.665 L
34.182 1.29 L
34.182 2.634 L
34.182 2.884 34.448 2.946 QT
34.714 3.009 35.12 3.009 QT
35.12 3.43 L
32.448 3.43 L
cp
f
GR
GS
[0.75 0 0 0.75 98.30295 38.70947] CT
N
39.688 1.993 M
39.688 -1.32 L
38.703 -1.32 L
38.703 -1.632 L
39.484 -1.632 39.852 -2.366 QT
40.219 -3.101 40.219 -3.96 QT
40.563 -3.96 L
40.563 -1.741 L
42.266 -1.741 L
42.266 -1.32 L
40.563 -1.32 L
40.563 1.962 L
40.563 2.462 40.734 2.837 QT
40.906 3.212 41.328 3.212 QT
41.75 3.212 41.93 2.813 QT
42.109 2.415 42.109 1.962 QT
42.109 1.259 L
42.453 1.259 L
42.453 1.993 L
42.453 2.368 42.313 2.735 QT
42.172 3.102 41.906 3.337 QT
41.641 3.571 41.25 3.571 QT
40.531 3.571 40.109 3.134 QT
39.688 2.696 39.688 1.993 QT
cp
f
GR
GS
[0.75 0 0 0.75 98.30295 38.70947] CT
N
43.917 6.43 M
43.807 6.43 43.807 6.321 QT
43.807 6.274 43.839 6.243 QT
45.886 4.243 45.886 0.43 QT
45.886 -3.382 43.854 -5.366 QT
43.807 -5.398 43.807 -5.46 QT
43.807 -5.507 43.839 -5.538 QT
43.87 -5.57 43.917 -5.57 QT
44.026 -5.57 L
44.057 -5.57 44.089 -5.554 QT
44.948 -4.866 45.518 -3.898 QT
46.089 -2.929 46.362 -1.827 QT
46.636 -0.726 46.636 0.43 QT
46.636 1.274 46.487 2.102 QT
46.339 2.93 46.026 3.727 QT
45.714 4.524 45.237 5.204 QT
44.761 5.884 44.089 6.415 QT
44.057 6.43 44.026 6.43 QT
43.917 6.43 L
cp
f
GR
GS
[0.75 0 0 0.75 0 0] CT
0 0.447 0.741 RC
[8 8] 0 setdash
2 LJ
2 LW
N
88.006 51.613 M
128.066 51.613 L
S
GR
GS
[0.75 0 0 0.75 98.30295 50.54053] CT
N
/f1423757283{2.234 -6.799 M
2.578 -7.221 L
3.047 -7.752 3.516 -7.752 QT
3.75 -7.752 4.016 -7.619 QT
4.281 -7.486 4.555 -7.353 QT
4.828 -7.221 5.063 -7.221 QT
5.547 -7.221 5.984 -7.752 QT
6.234 -7.549 L
5.875 -7.142 L
5.406 -6.596 4.938 -6.596 QT
4.719 -6.596 4.445 -6.736 QT
4.172 -6.877 3.898 -7.01 QT
3.625 -7.142 3.391 -7.142 QT
2.922 -7.142 2.469 -6.596 QT
2.234 -6.799 L
cp}def
f1423757283
f
GR
GS
[0.75 0 0 0.75 98.30295 50.54053] CT
N
/f-1792348792{1.953 5.305 M
1.969 5.165 2.125 5.165 QT
2.141 5.165 2.352 5.282 QT
2.563 5.399 2.82 5.493 QT
3.078 5.587 3.328 5.587 QT
3.563 5.587 3.711 5.391 QT
3.859 5.196 3.859 4.977 QT
3.859 4.665 3.531 4.54 QT
1.484 3.743 L
0.969 3.54 0.625 3.134 QT
0.281 2.727 0.281 2.212 QT
0.281 1.743 0.523 1.243 QT
0.766 0.743 1.156 0.337 QT
1.547 -0.07 1.984 -0.32 QT
1.625 -0.538 1.43 -0.866 QT
1.234 -1.195 1.234 -1.601 QT
1.234 -2.023 1.406 -2.382 QT
1.578 -2.741 1.883 -3.046 QT
2.188 -3.351 2.555 -3.554 QT
2.922 -3.757 3.297 -3.866 QT
3.234 -4.116 3.234 -4.304 QT
3.234 -4.96 3.5 -4.96 QT
3.563 -4.96 3.609 -4.913 QT
3.656 -4.866 3.656 -4.804 QT
3.656 -4.741 3.625 -4.546 QT
3.594 -4.351 3.594 -4.304 QT
3.594 -4.101 3.641 -3.929 QT
3.953 -4.007 4.234 -4.007 QT
5.344 -4.007 5.344 -3.663 QT
5.344 -3.257 4.109 -3.257 QT
3.734 -3.257 3.5 -3.507 QT
3.156 -3.335 2.867 -3.015 QT
2.578 -2.695 2.414 -2.296 QT
2.25 -1.898 2.25 -1.491 QT
2.25 -0.929 2.563 -0.585 QT
3 -0.741 3.422 -0.741 QT
4.531 -0.741 4.531 -0.398 QT
4.531 0.009 3.297 0.009 QT
2.797 0.009 2.359 -0.148 QT
1.828 0.149 1.383 0.735 QT
0.938 1.321 0.938 1.852 QT
0.938 2.212 1.195 2.477 QT
1.453 2.743 1.828 2.899 QT
3.953 3.727 L
4.219 3.837 4.398 4.071 QT
4.578 4.305 4.578 4.602 QT
4.578 5.087 4.195 5.493 QT
3.813 5.899 3.328 5.899 QT
3.172 5.899 2.828 5.813 QT
2.484 5.727 2.219 5.595 QT
1.953 5.462 1.953 5.305 QT
cp
2.938 -0.366 M
3.094 -0.304 3.328 -0.304 QT
3.906 -0.304 4.156 -0.366 QT
3.922 -0.413 3.406 -0.413 QT
3.203 -0.413 2.938 -0.366 QT
cp
3.844 -3.632 M
3.953 -3.57 4.141 -3.57 QT
4.719 -3.57 4.969 -3.632 QT
3.844 -3.632 L
cp}def
f-1792348792
f
GR
GS
[0.75 0 0 0.75 98.30295 50.54053] CT
N
/f892559566{6.859 5.324 M
6.484 5.324 6.188 5.145 QT
5.891 4.965 5.734 4.66 QT
5.578 4.355 5.578 3.965 QT
5.578 3.418 5.875 2.887 QT
6.172 2.355 6.68 2.027 QT
7.188 1.699 7.734 1.699 QT
8.141 1.699 8.445 1.91 QT
8.75 2.121 8.914 2.473 QT
9.078 2.824 9.078 3.23 QT
9.078 3.762 L
9.359 3.387 9.547 2.98 QT
9.734 2.574 9.844 2.137 QT
9.859 2.09 9.906 2.09 QT
10 2.09 L
10.063 2.09 10.063 2.152 QT
10.063 2.168 10.063 2.184 QT
9.969 2.543 9.828 2.887 QT
9.688 3.23 9.5 3.543 QT
9.313 3.855 9.078 4.121 QT
9.078 5.105 9.313 5.105 QT
9.469 5.105 9.563 5.02 QT
9.656 4.934 9.727 4.801 QT
9.797 4.668 9.813 4.668 QT
9.922 4.668 L
9.984 4.668 9.984 4.746 QT
9.984 4.949 9.75 5.137 QT
9.516 5.324 9.297 5.324 QT
9.016 5.324 8.82 5.137 QT
8.625 4.949 8.563 4.637 QT
8.188 4.965 7.75 5.145 QT
7.313 5.324 6.859 5.324 QT
cp
6.875 5.105 M
7.734 5.105 8.516 4.402 QT
8.516 4.355 8.508 4.285 QT
8.5 4.215 8.5 4.215 QT
8.5 3.355 L
8.5 1.902 7.719 1.902 QT
7.25 1.902 6.898 2.301 QT
6.547 2.699 6.367 3.254 QT
6.188 3.809 6.188 4.277 QT
6.188 4.621 6.367 4.863 QT
6.547 5.105 6.875 5.105 QT
cp}def
f892559566
f
GR
GS
[0.75 0 0 0.75 98.30295 50.54053] CT
N
/f1238836984{18.973 6.415 M
18.301 5.884 17.825 5.196 QT
17.348 4.509 17.036 3.735 QT
16.723 2.962 16.575 2.118 QT
16.426 1.274 16.426 0.43 QT
16.426 -0.429 16.575 -1.273 QT
16.723 -2.116 17.036 -2.898 QT
17.348 -3.679 17.841 -4.359 QT
18.333 -5.038 18.973 -5.554 QT
18.973 -5.57 19.036 -5.57 QT
19.145 -5.57 L
19.176 -5.57 19.208 -5.538 QT
19.239 -5.507 19.239 -5.46 QT
19.239 -5.413 19.223 -5.382 QT
18.63 -4.82 18.239 -4.163 QT
17.848 -3.507 17.614 -2.765 QT
17.38 -2.023 17.27 -1.226 QT
17.161 -0.429 17.161 0.43 QT
17.161 4.243 19.208 6.227 QT
19.239 6.259 19.239 6.321 QT
19.239 6.352 19.208 6.391 QT
19.176 6.43 19.145 6.43 QT
19.036 6.43 L
18.973 6.43 18.973 6.415 QT
cp}def
f1238836984
f
GR
GS
[0.75 0 0 0.75 98.30295 50.54053] CT
N
/f1349701590{22.656 2.149 M
23.062 2.665 23.679 2.97 QT
24.296 3.274 24.968 3.274 QT
25.515 3.274 25.992 3.055 QT
26.468 2.837 26.82 2.438 QT
27.171 2.04 27.367 1.548 QT
27.562 1.055 27.562 0.493 QT
27.562 0.399 27.656 0.399 QT
27.812 0.399 L
27.906 0.399 27.906 0.524 QT
27.906 1.149 27.663 1.735 QT
27.421 2.321 26.984 2.759 QT
26.546 3.196 25.976 3.446 QT
25.406 3.696 24.781 3.696 QT
23.921 3.696 23.148 3.345 QT
22.374 2.993 21.804 2.391 QT
21.234 1.79 20.913 0.993 QT
20.593 0.196 20.593 -0.679 QT
20.593 -1.538 20.913 -2.335 QT
21.234 -3.132 21.804 -3.741 QT
22.374 -4.351 23.148 -4.695 QT
23.921 -5.038 24.781 -5.038 QT
25.39 -5.038 25.953 -4.765 QT
26.515 -4.491 26.937 -4.007 QT
27.64 -4.991 L
27.703 -5.038 27.718 -5.038 QT
27.812 -5.038 L
27.843 -5.038 27.874 -5.007 QT
27.906 -4.976 27.906 -4.929 QT
27.906 -1.695 L
27.906 -1.585 27.812 -1.585 QT
27.593 -1.585 L
27.484 -1.585 27.484 -1.695 QT
27.484 -2.038 27.343 -2.468 QT
27.203 -2.898 26.992 -3.28 QT
26.781 -3.663 26.499 -3.96 QT
25.828 -4.616 24.953 -4.616 QT
24.281 -4.616 23.679 -4.312 QT
23.078 -4.007 22.656 -3.491 QT
22.218 -2.929 22.046 -2.21 QT
21.874 -1.491 21.874 -0.679 QT
21.874 0.149 22.046 0.868 QT
22.218 1.587 22.656 2.149 QT
cp}def
f1349701590
f
GR
GS
[0.75 0 0 0.75 98.30295 50.54053] CT
N
/f-192474931{31.354 2.149 M
31.775 2.68 32.4 2.977 QT
33.025 3.274 33.713 3.274 QT
34.385 3.274 34.924 2.93 QT
35.463 2.587 35.463 1.962 QT
35.463 0.962 L
35.463 0.571 33.963 0.571 QT
33.963 0.149 L
37.4 0.149 L
37.4 0.571 L
37.025 0.571 36.807 0.641 QT
36.588 0.712 36.588 0.962 QT
36.588 3.321 L
36.588 3.368 36.549 3.399 QT
36.51 3.43 36.479 3.43 QT
36.369 3.43 36.104 3.165 QT
35.838 2.899 35.697 2.696 QT
35.4 3.196 34.775 3.446 QT
34.15 3.696 33.463 3.696 QT
32.291 3.696 31.33 3.095 QT
30.369 2.493 29.815 1.485 QT
29.26 0.477 29.26 -0.679 QT
29.26 -1.523 29.58 -2.327 QT
29.9 -3.132 30.479 -3.741 QT
31.057 -4.351 31.83 -4.695 QT
32.604 -5.038 33.463 -5.038 QT
34.072 -5.038 34.627 -4.765 QT
35.182 -4.491 35.619 -4.007 QT
36.322 -4.991 L
36.385 -5.038 36.4 -5.038 QT
36.494 -5.038 L
36.525 -5.038 36.557 -5.007 QT
36.588 -4.976 36.588 -4.929 QT
36.588 -1.695 L
36.588 -1.585 36.494 -1.585 QT
36.275 -1.585 L
36.166 -1.585 36.166 -1.695 QT
36.166 -2.038 36.025 -2.468 QT
35.885 -2.898 35.674 -3.28 QT
35.463 -3.663 35.182 -3.96 QT
34.494 -4.616 33.635 -4.616 QT
32.963 -4.616 32.354 -4.312 QT
31.744 -4.007 31.322 -3.491 QT
30.885 -2.929 30.713 -2.21 QT
30.541 -1.491 30.541 -0.679 QT
30.541 1.165 31.354 2.149 QT
cp}def
f-192474931
f
GR
GS
[0.75 0 0 0.75 98.30295 50.54053] CT
N
/f-761854097{38.38 3.43 M
38.38 3.009 L
39.614 3.009 39.614 2.634 QT
39.614 -3.96 L
39.614 -4.351 38.38 -4.351 QT
38.38 -4.773 L
42.27 -4.773 L
42.27 -4.351 L
40.723 -4.351 40.723 -3.96 QT
40.723 2.634 L
40.723 2.884 40.872 2.946 QT
41.02 3.009 41.333 3.009 QT
42.27 3.009 L
43.161 3.009 43.645 2.68 QT
44.13 2.352 44.333 1.79 QT
44.536 1.227 44.645 0.29 QT
44.989 0.29 L
44.661 3.43 L
38.38 3.43 L
cp}def
f-761854097
f
GR
GS
[0.75 0 0 0.75 98.30295 50.54053] CT
N
/f1899257868{46.177 3.602 M
46.177 0.805 L
46.177 0.712 46.286 0.712 QT
46.427 0.712 L
46.473 0.712 46.497 0.735 QT
46.52 0.759 46.52 0.805 QT
46.52 1.977 47.255 2.626 QT
47.989 3.274 49.161 3.274 QT
49.583 3.274 49.934 3.032 QT
50.286 2.79 50.481 2.399 QT
50.677 2.009 50.677 1.602 QT
50.677 1.227 50.528 0.884 QT
50.38 0.54 50.106 0.29 QT
49.833 0.04 49.489 -0.038 QT
47.927 -0.413 L
47.161 -0.632 46.669 -1.265 QT
46.177 -1.898 46.177 -2.695 QT
46.177 -3.304 46.497 -3.851 QT
46.817 -4.398 47.348 -4.718 QT
47.88 -5.038 48.505 -5.038 QT
49.708 -5.038 50.411 -4.21 QT
50.911 -4.991 L
50.942 -5.038 50.989 -5.038 QT
51.067 -5.038 L
51.114 -5.038 51.145 -5.007 QT
51.177 -4.976 51.177 -4.929 QT
51.177 -2.148 L
51.177 -2.038 51.067 -2.038 QT
50.927 -2.038 L
50.817 -2.038 50.817 -2.148 QT
50.817 -2.46 50.716 -2.82 QT
50.614 -3.179 50.434 -3.515 QT
50.255 -3.851 50.036 -4.054 QT
49.458 -4.648 48.505 -4.648 QT
48.098 -4.648 47.755 -4.437 QT
47.411 -4.226 47.2 -3.866 QT
46.989 -3.507 46.989 -3.116 QT
46.989 -2.601 47.309 -2.187 QT
47.63 -1.773 48.145 -1.632 QT
49.708 -1.257 L
50.098 -1.163 50.442 -0.921 QT
50.786 -0.679 51.012 -0.351 QT
51.239 -0.023 51.364 0.368 QT
51.489 0.759 51.489 1.18 QT
51.489 1.837 51.192 2.415 QT
50.895 2.993 50.356 3.345 QT
49.817 3.696 49.161 3.696 QT
48.77 3.696 48.356 3.61 QT
47.942 3.524 47.591 3.337 QT
47.239 3.149 46.942 2.868 QT
46.442 3.665 L
46.411 3.696 46.348 3.696 QT
46.286 3.696 L
46.177 3.696 46.177 3.602 QT
cp}def
f1899257868
f
GR
GS
[0.75 0 0 0.75 98.30295 50.54053] CT
N
/f1878424231{52.953 6.43 M
52.843 6.43 52.843 6.321 QT
52.843 6.274 52.874 6.243 QT
54.921 4.243 54.921 0.43 QT
54.921 -3.382 52.89 -5.366 QT
52.843 -5.398 52.843 -5.46 QT
52.843 -5.507 52.874 -5.538 QT
52.906 -5.57 52.953 -5.57 QT
53.062 -5.57 L
53.093 -5.57 53.124 -5.554 QT
53.984 -4.866 54.554 -3.898 QT
55.124 -2.929 55.398 -1.827 QT
55.671 -0.726 55.671 0.43 QT
55.671 1.274 55.523 2.102 QT
55.374 2.93 55.062 3.727 QT
54.749 4.524 54.273 5.204 QT
53.796 5.884 53.124 6.415 QT
53.093 6.43 53.062 6.43 QT
52.953 6.43 L
cp}def
f1878424231
f
GR
GS
[0.75 0 0 0.75 0 0] CT
0.851 0.325 0.098 RC
1 LJ
2 LW
N
88.006 67.387 M
128.066 67.387 L
S
GR
GS
[0.75 0 0 0.75 0 0] CT
0.149 GC
10.0 ML
0.667 LW
N
84 77 M
84 42 L
192 42 L
192 77 L
cp
S
GR
%%Trailer
%%Pages: 1
%%EOF
