%!PS-Adobe-3.0 EPSF-3.0
%%Creator: (MATLAB, The Mathworks, Inc. Version 9.5.0.944444 \(R2018b\). Operating System: Windows 10)
%%Title: F:/Studium/__Bachelorarbeit/tex/images/landweber-oversmoothed-100.eps
%%CreationDate: 2020-06-30T17:30:22
%%Pages: (atend)
%%BoundingBox: 0 0 420 315
%%LanguageLevel: 3
%%EndComments
%%BeginProlog
%%BeginResource: procset (Apache XML Graphics Std ProcSet) 1.2 0
%%Version: 1.2 0
%%Copyright: (Copyright 2001-2003,2010 The Apache Software Foundation. License terms: http://www.apache.org/licenses/LICENSE-2.0)
/bd{bind def}bind def
/ld{load def}bd
/GR/grestore ld
/GS/gsave ld
/RM/rmoveto ld
/C/curveto ld
/t/show ld
/L/lineto ld
/ML/setmiterlimit ld
/CT/concat ld
/f/fill ld
/N/newpath ld
/S/stroke ld
/CC/setcmykcolor ld
/A/ashow ld
/cp/closepath ld
/RC/setrgbcolor ld
/LJ/setlinejoin ld
/GC/setgray ld
/LW/setlinewidth ld
/M/moveto ld
/re {4 2 roll M
1 index 0 rlineto
0 exch rlineto
neg 0 rlineto
cp } bd
/_ctm matrix def
/_tm matrix def
/BT { _ctm currentmatrix pop matrix _tm copy pop 0 0 moveto } bd
/ET { _ctm setmatrix } bd
/iTm { _ctm setmatrix _tm concat } bd
/Tm { _tm astore pop iTm 0 0 moveto } bd
/ux 0.0 def
/uy 0.0 def
/F {
  /Tp exch def
  /Tf exch def
  Tf findfont Tp scalefont setfont
  /cf Tf def  /cs Tp def
} bd
/ULS {currentpoint /uy exch def /ux exch def} bd
/ULE {
  /Tcx currentpoint pop def
  gsave
  newpath
  cf findfont cs scalefont dup
  /FontMatrix get 0 get /Ts exch def /FontInfo get dup
  /UnderlinePosition get Ts mul /To exch def
  /UnderlineThickness get Ts mul /Tt exch def
  ux uy To add moveto  Tcx uy To add lineto
  Tt setlinewidth stroke
  grestore
} bd
/OLE {
  /Tcx currentpoint pop def
  gsave
  newpath
  cf findfont cs scalefont dup
  /FontMatrix get 0 get /Ts exch def /FontInfo get dup
  /UnderlinePosition get Ts mul /To exch def
  /UnderlineThickness get Ts mul /Tt exch def
  ux uy To add cs add moveto Tcx uy To add cs add lineto
  Tt setlinewidth stroke
  grestore
} bd
/SOE {
  /Tcx currentpoint pop def
  gsave
  newpath
  cf findfont cs scalefont dup
  /FontMatrix get 0 get /Ts exch def /FontInfo get dup
  /UnderlinePosition get Ts mul /To exch def
  /UnderlineThickness get Ts mul /Tt exch def
  ux uy To add cs 10 mul 26 idiv add moveto Tcx uy To add cs 10 mul 26 idiv add lineto
  Tt setlinewidth stroke
  grestore
} bd
/QT {
/Y22 exch store
/X22 exch store
/Y21 exch store
/X21 exch store
currentpoint
/Y21 load 2 mul add 3 div exch
/X21 load 2 mul add 3 div exch
/X21 load 2 mul /X22 load add 3 div
/Y21 load 2 mul /Y22 load add 3 div
/X22 load /Y22 load curveto
} bd
/SSPD {
dup length /d exch dict def
{
/v exch def
/k exch def
currentpagedevice k known {
/cpdv currentpagedevice k get def
v cpdv ne {
/upd false def
/nullv v type /nulltype eq def
/nullcpdv cpdv type /nulltype eq def
nullv nullcpdv or
{
/upd true def
} {
/sametype v type cpdv type eq def
sametype {
v type /arraytype eq {
/vlen v length def
/cpdvlen cpdv length def
vlen cpdvlen eq {
0 1 vlen 1 sub {
/i exch def
/obj v i get def
/cpdobj cpdv i get def
obj cpdobj ne {
/upd true def
exit
} if
} for
} {
/upd true def
} ifelse
} {
v type /dicttype eq {
v {
/dv exch def
/dk exch def
/cpddv cpdv dk get def
dv cpddv ne {
/upd true def
exit
} if
} forall
} {
/upd true def
} ifelse
} ifelse
} if
} ifelse
upd true eq {
d k v put
} if
} if
} if
} forall
d length 0 gt {
d setpagedevice
} if
} bd
/RE { % /NewFontName [NewEncodingArray] /FontName RE -
  findfont dup length dict begin
  {
    1 index /FID ne
    {def} {pop pop} ifelse
  } forall
  /Encoding exch def
  /FontName 1 index def
  currentdict definefont pop
  end
} bind def
%%EndResource
%%BeginResource: procset (Apache XML Graphics EPS ProcSet) 1.0 0
%%Version: 1.0 0
%%Copyright: (Copyright 2002-2003 The Apache Software Foundation. License terms: http://www.apache.org/licenses/LICENSE-2.0)
/BeginEPSF { %def
/b4_Inc_state save def         % Save state for cleanup
/dict_count countdictstack def % Count objects on dict stack
/op_count count 1 sub def      % Count objects on operand stack
userdict begin                 % Push userdict on dict stack
/showpage { } def              % Redefine showpage, { } = null proc
0 setgray 0 setlinecap         % Prepare graphics state
1 setlinewidth 0 setlinejoin
10 setmiterlimit [ ] 0 setdash newpath
/languagelevel where           % If level not equal to 1 then
{pop languagelevel             % set strokeadjust and
1 ne                           % overprint to their defaults.
{false setstrokeadjust false setoverprint
} if
} if
} bd
/EndEPSF { %def
count op_count sub {pop} repeat            % Clean up stacks
countdictstack dict_count sub {end} repeat
b4_Inc_state restore
} bd
%%EndResource
%FOPBeginFontDict
%%IncludeResource: font Courier-Oblique
%%IncludeResource: font Courier-BoldOblique
%%IncludeResource: font Courier-Bold
%%IncludeResource: font ZapfDingbats
%%IncludeResource: font Symbol
%%IncludeResource: font Helvetica
%%IncludeResource: font Helvetica-Oblique
%%IncludeResource: font Helvetica-Bold
%%IncludeResource: font Helvetica-BoldOblique
%%IncludeResource: font Times-Roman
%%IncludeResource: font Times-Italic
%%IncludeResource: font Times-Bold
%%IncludeResource: font Times-BoldItalic
%%IncludeResource: font Courier
%FOPEndFontDict
%%BeginResource: encoding WinAnsiEncoding
/WinAnsiEncoding [
/.notdef /.notdef /.notdef /.notdef /.notdef
/.notdef /.notdef /.notdef /.notdef /.notdef
/.notdef /.notdef /.notdef /.notdef /.notdef
/.notdef /.notdef /.notdef /.notdef /.notdef
/.notdef /.notdef /.notdef /.notdef /.notdef
/.notdef /.notdef /.notdef /.notdef /.notdef
/.notdef /.notdef /space /exclam /quotedbl
/numbersign /dollar /percent /ampersand /quotesingle
/parenleft /parenright /asterisk /plus /comma
/hyphen /period /slash /zero /one
/two /three /four /five /six
/seven /eight /nine /colon /semicolon
/less /equal /greater /question /at
/A /B /C /D /E
/F /G /H /I /J
/K /L /M /N /O
/P /Q /R /S /T
/U /V /W /X /Y
/Z /bracketleft /backslash /bracketright /asciicircum
/underscore /quoteleft /a /b /c
/d /e /f /g /h
/i /j /k /l /m
/n /o /p /q /r
/s /t /u /v /w
/x /y /z /braceleft /bar
/braceright /asciitilde /bullet /Euro /bullet
/quotesinglbase /florin /quotedblbase /ellipsis /dagger
/daggerdbl /circumflex /perthousand /Scaron /guilsinglleft
/OE /bullet /Zcaron /bullet /bullet
/quoteleft /quoteright /quotedblleft /quotedblright /bullet
/endash /emdash /asciitilde /trademark /scaron
/guilsinglright /oe /bullet /zcaron /Ydieresis
/space /exclamdown /cent /sterling /currency
/yen /brokenbar /section /dieresis /copyright
/ordfeminine /guillemotleft /logicalnot /sfthyphen /registered
/macron /degree /plusminus /twosuperior /threesuperior
/acute /mu /paragraph /middot /cedilla
/onesuperior /ordmasculine /guillemotright /onequarter /onehalf
/threequarters /questiondown /Agrave /Aacute /Acircumflex
/Atilde /Adieresis /Aring /AE /Ccedilla
/Egrave /Eacute /Ecircumflex /Edieresis /Igrave
/Iacute /Icircumflex /Idieresis /Eth /Ntilde
/Ograve /Oacute /Ocircumflex /Otilde /Odieresis
/multiply /Oslash /Ugrave /Uacute /Ucircumflex
/Udieresis /Yacute /Thorn /germandbls /agrave
/aacute /acircumflex /atilde /adieresis /aring
/ae /ccedilla /egrave /eacute /ecircumflex
/edieresis /igrave /iacute /icircumflex /idieresis
/eth /ntilde /ograve /oacute /ocircumflex
/otilde /odieresis /divide /oslash /ugrave
/uacute /ucircumflex /udieresis /yacute /thorn
/ydieresis
] def
%%EndResource
%FOPBeginFontReencode
/Courier-Oblique findfont
dup length dict begin
  {1 index /FID ne {def} {pop pop} ifelse} forall
  /Encoding WinAnsiEncoding def
  currentdict
end
/Courier-Oblique exch definefont pop
/Courier-BoldOblique findfont
dup length dict begin
  {1 index /FID ne {def} {pop pop} ifelse} forall
  /Encoding WinAnsiEncoding def
  currentdict
end
/Courier-BoldOblique exch definefont pop
/Courier-Bold findfont
dup length dict begin
  {1 index /FID ne {def} {pop pop} ifelse} forall
  /Encoding WinAnsiEncoding def
  currentdict
end
/Courier-Bold exch definefont pop
/Helvetica findfont
dup length dict begin
  {1 index /FID ne {def} {pop pop} ifelse} forall
  /Encoding WinAnsiEncoding def
  currentdict
end
/Helvetica exch definefont pop
/Helvetica-Oblique findfont
dup length dict begin
  {1 index /FID ne {def} {pop pop} ifelse} forall
  /Encoding WinAnsiEncoding def
  currentdict
end
/Helvetica-Oblique exch definefont pop
/Helvetica-Bold findfont
dup length dict begin
  {1 index /FID ne {def} {pop pop} ifelse} forall
  /Encoding WinAnsiEncoding def
  currentdict
end
/Helvetica-Bold exch definefont pop
/Helvetica-BoldOblique findfont
dup length dict begin
  {1 index /FID ne {def} {pop pop} ifelse} forall
  /Encoding WinAnsiEncoding def
  currentdict
end
/Helvetica-BoldOblique exch definefont pop
/Times-Roman findfont
dup length dict begin
  {1 index /FID ne {def} {pop pop} ifelse} forall
  /Encoding WinAnsiEncoding def
  currentdict
end
/Times-Roman exch definefont pop
/Times-Italic findfont
dup length dict begin
  {1 index /FID ne {def} {pop pop} ifelse} forall
  /Encoding WinAnsiEncoding def
  currentdict
end
/Times-Italic exch definefont pop
/Times-Bold findfont
dup length dict begin
  {1 index /FID ne {def} {pop pop} ifelse} forall
  /Encoding WinAnsiEncoding def
  currentdict
end
/Times-Bold exch definefont pop
/Times-BoldItalic findfont
dup length dict begin
  {1 index /FID ne {def} {pop pop} ifelse} forall
  /Encoding WinAnsiEncoding def
  currentdict
end
/Times-BoldItalic exch definefont pop
/Courier findfont
dup length dict begin
  {1 index /FID ne {def} {pop pop} ifelse} forall
  /Encoding WinAnsiEncoding def
  currentdict
end
/Courier exch definefont pop
%FOPEndFontReencode
%%EndProlog
%%Page: 1 1
%%PageBoundingBox: 0 0 420 315
%%BeginPageSetup
[1 0 0 -1 0 315] CT
%%EndPageSetup
GS
[0.75 0 0 0.75 0 0] CT
1 GC
N
0 0 560 420 re
f
GR
GS
[0.75 0 0 0.75 0 0] CT
1 GC
N
0 0 560 420 re
f
GR
GS
[0.75 0 0 0.75 0 0] CT
1 GC
N
73 374 M
507 374 L
507 31 L
73 31 L
cp
f
GR
GS
[0.75 0 0 0.75 0 0] CT
0.149 GC
2 setlinecap
1 LJ
0.667 LW
N
73 374 M
507 374 L
S
GR
GS
[0.75 0 0 0.75 0 0] CT
0.149 GC
2 setlinecap
1 LJ
0.667 LW
N
73 31 M
507 31 L
S
GR
GS
[0.75 0 0 0.75 0 0] CT
0.149 GC
2 setlinecap
1 LJ
0.667 LW
N
73 374 M
73 369.66 L
S
GR
GS
[0.75 0 0 0.75 0 0] CT
0.149 GC
2 setlinecap
1 LJ
0.667 LW
N
116.4 374 M
116.4 369.66 L
S
GR
GS
[0.75 0 0 0.75 0 0] CT
0.149 GC
2 setlinecap
1 LJ
0.667 LW
N
159.8 374 M
159.8 369.66 L
S
GR
GS
[0.75 0 0 0.75 0 0] CT
0.149 GC
2 setlinecap
1 LJ
0.667 LW
N
203.2 374 M
203.2 369.66 L
S
GR
GS
[0.75 0 0 0.75 0 0] CT
0.149 GC
2 setlinecap
1 LJ
0.667 LW
N
246.6 374 M
246.6 369.66 L
S
GR
GS
[0.75 0 0 0.75 0 0] CT
0.149 GC
2 setlinecap
1 LJ
0.667 LW
N
290 374 M
290 369.66 L
S
GR
GS
[0.75 0 0 0.75 0 0] CT
0.149 GC
2 setlinecap
1 LJ
0.667 LW
N
333.4 374 M
333.4 369.66 L
S
GR
GS
[0.75 0 0 0.75 0 0] CT
0.149 GC
2 setlinecap
1 LJ
0.667 LW
N
376.8 374 M
376.8 369.66 L
S
GR
GS
[0.75 0 0 0.75 0 0] CT
0.149 GC
2 setlinecap
1 LJ
0.667 LW
N
420.2 374 M
420.2 369.66 L
S
GR
GS
[0.75 0 0 0.75 0 0] CT
0.149 GC
2 setlinecap
1 LJ
0.667 LW
N
463.6 374 M
463.6 369.66 L
S
GR
GS
[0.75 0 0 0.75 0 0] CT
0.149 GC
2 setlinecap
1 LJ
0.667 LW
N
507 374 M
507 369.66 L
S
GR
GS
[0.75 0 0 0.75 0 0] CT
0.149 GC
2 setlinecap
1 LJ
0.667 LW
N
73 31 M
73 35.34 L
S
GR
GS
[0.75 0 0 0.75 0 0] CT
0.149 GC
2 setlinecap
1 LJ
0.667 LW
N
116.4 31 M
116.4 35.34 L
S
GR
GS
[0.75 0 0 0.75 0 0] CT
0.149 GC
2 setlinecap
1 LJ
0.667 LW
N
159.8 31 M
159.8 35.34 L
S
GR
GS
[0.75 0 0 0.75 0 0] CT
0.149 GC
2 setlinecap
1 LJ
0.667 LW
N
203.2 31 M
203.2 35.34 L
S
GR
GS
[0.75 0 0 0.75 0 0] CT
0.149 GC
2 setlinecap
1 LJ
0.667 LW
N
246.6 31 M
246.6 35.34 L
S
GR
GS
[0.75 0 0 0.75 0 0] CT
0.149 GC
2 setlinecap
1 LJ
0.667 LW
N
290 31 M
290 35.34 L
S
GR
GS
[0.75 0 0 0.75 0 0] CT
0.149 GC
2 setlinecap
1 LJ
0.667 LW
N
333.4 31 M
333.4 35.34 L
S
GR
GS
[0.75 0 0 0.75 0 0] CT
0.149 GC
2 setlinecap
1 LJ
0.667 LW
N
376.8 31 M
376.8 35.34 L
S
GR
GS
[0.75 0 0 0.75 0 0] CT
0.149 GC
2 setlinecap
1 LJ
0.667 LW
N
420.2 31 M
420.2 35.34 L
S
GR
GS
[0.75 0 0 0.75 0 0] CT
0.149 GC
2 setlinecap
1 LJ
0.667 LW
N
463.6 31 M
463.6 35.34 L
S
GR
GS
[0.75 0 0 0.75 0 0] CT
0.149 GC
2 setlinecap
1 LJ
0.667 LW
N
507 31 M
507 35.34 L
S
GR
GS
[0.75 0 0 0.75 54.75 284.50001] CT
0.149 GC
/Helvetica 13.333 F
GS
[1 0 0 1 0 0] CT
-4 14 moveto 
1 -1 scale
(0) t 
GR
GR
GS
[0.75 0 0 0.75 87.3 284.50001] CT
0.149 GC
/Helvetica 13.333 F
GS
[1 0 0 1 0 0] CT
-9.5 14 moveto 
1 -1 scale
(0.1) t 
GR
GR
GS
[0.75 0 0 0.75 119.85 284.50001] CT
0.149 GC
/Helvetica 13.333 F
GS
[1 0 0 1 0 0] CT
-9.5 14 moveto 
1 -1 scale
(0.2) t 
GR
GR
GS
[0.75 0 0 0.75 152.40001 284.50001] CT
0.149 GC
/Helvetica 13.333 F
GS
[1 0 0 1 0 0] CT
-9.5 14 moveto 
1 -1 scale
(0.3) t 
GR
GR
GS
[0.75 0 0 0.75 184.95 284.50001] CT
0.149 GC
/Helvetica 13.333 F
GS
[1 0 0 1 0 0] CT
-9.5 14 moveto 
1 -1 scale
(0.4) t 
GR
GR
GS
[0.75 0 0 0.75 217.5 284.50001] CT
0.149 GC
/Helvetica 13.333 F
GS
[1 0 0 1 0 0] CT
-9.5 14 moveto 
1 -1 scale
(0.5) t 
GR
GR
GS
[0.75 0 0 0.75 250.05002 284.50001] CT
0.149 GC
/Helvetica 13.333 F
GS
[1 0 0 1 0 0] CT
-9.5 14 moveto 
1 -1 scale
(0.6) t 
GR
GR
GS
[0.75 0 0 0.75 282.59999 284.50001] CT
0.149 GC
/Helvetica 13.333 F
GS
[1 0 0 1 0 0] CT
-9.5 14 moveto 
1 -1 scale
(0.7) t 
GR
GR
GS
[0.75 0 0 0.75 315.15001 284.50001] CT
0.149 GC
/Helvetica 13.333 F
GS
[1 0 0 1 0 0] CT
-9.5 14 moveto 
1 -1 scale
(0.8) t 
GR
GR
GS
[0.75 0 0 0.75 347.69998 284.50001] CT
0.149 GC
/Helvetica 13.333 F
GS
[1 0 0 1 0 0] CT
-9.5 14 moveto 
1 -1 scale
(0.9) t 
GR
GR
GS
[0.75 0 0 0.75 380.25 284.50001] CT
0.149 GC
/Helvetica 13.333 F
GS
[1 0 0 1 0 0] CT
-4 14 moveto 
1 -1 scale
(1) t 
GR
GR
GS
[0.75 0 0 0.75 0 0] CT
0.149 GC
2 setlinecap
1 LJ
0.667 LW
N
73 374 M
73 31 L
S
GR
GS
[0.75 0 0 0.75 0 0] CT
0.149 GC
2 setlinecap
1 LJ
0.667 LW
N
507 374 M
507 31 L
S
GR
GS
[0.75 0 0 0.75 0 0] CT
0.149 GC
2 setlinecap
1 LJ
0.667 LW
N
73 374 M
77.34 374 L
S
GR
GS
[0.75 0 0 0.75 0 0] CT
0.149 GC
2 setlinecap
1 LJ
0.667 LW
N
73 335.889 M
77.34 335.889 L
S
GR
GS
[0.75 0 0 0.75 0 0] CT
0.149 GC
2 setlinecap
1 LJ
0.667 LW
N
73 297.778 M
77.34 297.778 L
S
GR
GS
[0.75 0 0 0.75 0 0] CT
0.149 GC
2 setlinecap
1 LJ
0.667 LW
N
73 259.667 M
77.34 259.667 L
S
GR
GS
[0.75 0 0 0.75 0 0] CT
0.149 GC
2 setlinecap
1 LJ
0.667 LW
N
73 221.556 M
77.34 221.556 L
S
GR
GS
[0.75 0 0 0.75 0 0] CT
0.149 GC
2 setlinecap
1 LJ
0.667 LW
N
73 183.444 M
77.34 183.444 L
S
GR
GS
[0.75 0 0 0.75 0 0] CT
0.149 GC
2 setlinecap
1 LJ
0.667 LW
N
73 145.333 M
77.34 145.333 L
S
GR
GS
[0.75 0 0 0.75 0 0] CT
0.149 GC
2 setlinecap
1 LJ
0.667 LW
N
73 107.222 M
77.34 107.222 L
S
GR
GS
[0.75 0 0 0.75 0 0] CT
0.149 GC
2 setlinecap
1 LJ
0.667 LW
N
73 69.111 M
77.34 69.111 L
S
GR
GS
[0.75 0 0 0.75 0 0] CT
0.149 GC
2 setlinecap
1 LJ
0.667 LW
N
73 31 M
77.34 31 L
S
GR
GS
[0.75 0 0 0.75 0 0] CT
0.149 GC
2 setlinecap
1 LJ
0.667 LW
N
507 374 M
502.66 374 L
S
GR
GS
[0.75 0 0 0.75 0 0] CT
0.149 GC
2 setlinecap
1 LJ
0.667 LW
N
507 335.889 M
502.66 335.889 L
S
GR
GS
[0.75 0 0 0.75 0 0] CT
0.149 GC
2 setlinecap
1 LJ
0.667 LW
N
507 297.778 M
502.66 297.778 L
S
GR
GS
[0.75 0 0 0.75 0 0] CT
0.149 GC
2 setlinecap
1 LJ
0.667 LW
N
507 259.667 M
502.66 259.667 L
S
GR
GS
[0.75 0 0 0.75 0 0] CT
0.149 GC
2 setlinecap
1 LJ
0.667 LW
N
507 221.556 M
502.66 221.556 L
S
GR
GS
[0.75 0 0 0.75 0 0] CT
0.149 GC
2 setlinecap
1 LJ
0.667 LW
N
507 183.444 M
502.66 183.444 L
S
GR
GS
[0.75 0 0 0.75 0 0] CT
0.149 GC
2 setlinecap
1 LJ
0.667 LW
N
507 145.333 M
502.66 145.333 L
S
GR
GS
[0.75 0 0 0.75 0 0] CT
0.149 GC
2 setlinecap
1 LJ
0.667 LW
N
507 107.222 M
502.66 107.222 L
S
GR
GS
[0.75 0 0 0.75 0 0] CT
0.149 GC
2 setlinecap
1 LJ
0.667 LW
N
507 69.111 M
502.66 69.111 L
S
GR
GS
[0.75 0 0 0.75 0 0] CT
0.149 GC
2 setlinecap
1 LJ
0.667 LW
N
507 31 M
502.66 31 L
S
GR
GS
[0.75 0 0 0.75 50.75 280.5] CT
0.149 GC
/Helvetica 13.333 F
GS
[1 0 0 1 0 0] CT
-8 5.5 moveto 
1 -1 scale
(0) t 
GR
GR
GS
[0.75 0 0 0.75 50.75 251.91666] CT
0.149 GC
/Helvetica 13.333 F
GS
[1 0 0 1 0 0] CT
-26 5.5 moveto 
1 -1 scale
(0.05) t 
GR
GR
GS
[0.75 0 0 0.75 50.75 223.33333] CT
0.149 GC
/Helvetica 13.333 F
GS
[1 0 0 1 0 0] CT
-19 5.5 moveto 
1 -1 scale
(0.1) t 
GR
GR
GS
[0.75 0 0 0.75 50.75 194.74999] CT
0.149 GC
/Helvetica 13.333 F
GS
[1 0 0 1 0 0] CT
-26 5.5 moveto 
1 -1 scale
(0.15) t 
GR
GR
GS
[0.75 0 0 0.75 50.75 166.16667] CT
0.149 GC
/Helvetica 13.333 F
GS
[1 0 0 1 0 0] CT
-19 5.5 moveto 
1 -1 scale
(0.2) t 
GR
GR
GS
[0.75 0 0 0.75 50.75 137.58333] CT
0.149 GC
/Helvetica 13.333 F
GS
[1 0 0 1 0 0] CT
-26 5.5 moveto 
1 -1 scale
(0.25) t 
GR
GR
GS
[0.75 0 0 0.75 50.75 109] CT
0.149 GC
/Helvetica 13.333 F
GS
[1 0 0 1 0 0] CT
-19 5.5 moveto 
1 -1 scale
(0.3) t 
GR
GR
GS
[0.75 0 0 0.75 50.75 80.41667] CT
0.149 GC
/Helvetica 13.333 F
GS
[1 0 0 1 0 0] CT
-26 5.5 moveto 
1 -1 scale
(0.35) t 
GR
GR
GS
[0.75 0 0 0.75 50.75 51.83333] CT
0.149 GC
/Helvetica 13.333 F
GS
[1 0 0 1 0 0] CT
-19 5.5 moveto 
1 -1 scale
(0.4) t 
GR
GR
GS
[0.75 0 0 0.75 50.75 23.25001] CT
0.149 GC
/Helvetica 13.333 F
GS
[1 0 0 1 0 0] CT
-26 5.5 moveto 
1 -1 scale
(0.45) t 
GR
GR
GS
[0.75 0 0 0.75 0 0] CT
0 0.447 0.741 RC
1 LJ
0.667 LW
N
73 374 M
87.966 347.732 L
102.931 321.564 L
117.897 295.602 L
132.862 269.963 L
147.828 244.775 L
162.793 220.178 L
177.759 196.321 L
192.724 173.368 L
207.69 151.495 L
222.655 130.894 L
237.621 111.77 L
252.586 94.344 L
267.552 78.857 L
282.517 65.565 L
297.483 54.743 L
312.448 46.69 L
327.414 41.722 L
342.379 40.18 L
357.345 42.429 L
372.31 48.859 L
387.276 59.888 L
402.241 75.962 L
417.207 97.557 L
432.172 125.181 L
447.138 159.376 L
462.103 200.72 L
477.069 249.828 L
492.034 307.356 L
507 374 L
S
GR
GS
[0.75 0 0 0.75 0 0] CT
0.851 0.325 0.098 RC
1 LJ
0.667 LW
N
73 341.715 M
87.966 309.76 L
102.931 278.464 L
117.897 248.148 L
132.862 219.121 L
147.828 191.683 L
162.793 166.114 L
177.759 142.676 L
192.724 121.611 L
207.69 103.133 L
222.655 87.434 L
237.621 74.674 L
252.586 64.984 L
267.552 58.465 L
282.517 55.183 L
297.483 55.172 L
312.448 58.433 L
327.414 64.933 L
342.379 74.604 L
357.345 87.349 L
372.31 103.037 L
387.276 121.507 L
402.241 142.569 L
417.207 166.008 L
432.172 191.582 L
447.138 219.03 L
462.103 248.07 L
477.069 278.403 L
492.034 309.718 L
507 341.693 L
S
GR
GS
[0.75 0 0 0.75 0 0] CT
1 GC
N
496 76 M
496 42 L
364 42 L
364 76 L
cp
f
GR
GS
[0.75 0 0 0.75 308.15563 38.31956] CT
N
1.953 4.755 M
1.969 4.614 2.125 4.614 QT
2.141 4.614 2.352 4.732 QT
2.563 4.849 2.82 4.942 QT
3.078 5.036 3.328 5.036 QT
3.563 5.036 3.711 4.841 QT
3.859 4.646 3.859 4.427 QT
3.859 4.114 3.531 3.989 QT
1.484 3.192 L
0.969 2.989 0.625 2.583 QT
0.281 2.177 0.281 1.661 QT
0.281 1.192 0.523 0.692 QT
0.766 0.192 1.156 -0.214 QT
1.547 -0.62 1.984 -0.87 QT
1.625 -1.089 1.43 -1.417 QT
1.234 -1.745 1.234 -2.151 QT
1.234 -2.573 1.406 -2.933 QT
1.578 -3.292 1.883 -3.597 QT
2.188 -3.901 2.555 -4.104 QT
2.922 -4.308 3.297 -4.417 QT
3.234 -4.667 3.234 -4.854 QT
3.234 -5.511 3.5 -5.511 QT
3.563 -5.511 3.609 -5.464 QT
3.656 -5.417 3.656 -5.354 QT
3.656 -5.292 3.625 -5.097 QT
3.594 -4.901 3.594 -4.854 QT
3.594 -4.651 3.641 -4.479 QT
3.953 -4.558 4.234 -4.558 QT
5.344 -4.558 5.344 -4.214 QT
5.344 -3.808 4.109 -3.808 QT
3.734 -3.808 3.5 -4.058 QT
3.156 -3.886 2.867 -3.565 QT
2.578 -3.245 2.414 -2.847 QT
2.25 -2.448 2.25 -2.042 QT
2.25 -1.479 2.563 -1.136 QT
3 -1.292 3.422 -1.292 QT
4.531 -1.292 4.531 -0.948 QT
4.531 -0.542 3.297 -0.542 QT
2.797 -0.542 2.359 -0.698 QT
1.828 -0.401 1.383 0.185 QT
0.938 0.771 0.938 1.302 QT
0.938 1.661 1.195 1.927 QT
1.453 2.192 1.828 2.349 QT
3.953 3.177 L
4.219 3.286 4.398 3.521 QT
4.578 3.755 4.578 4.052 QT
4.578 4.536 4.195 4.942 QT
3.813 5.349 3.328 5.349 QT
3.172 5.349 2.828 5.263 QT
2.484 5.177 2.219 5.044 QT
1.953 4.911 1.953 4.755 QT
cp
2.938 -0.917 M
3.094 -0.854 3.328 -0.854 QT
3.906 -0.854 4.156 -0.917 QT
3.922 -0.964 3.406 -0.964 QT
3.203 -0.964 2.938 -0.917 QT
cp
3.844 -4.183 M
3.953 -4.12 4.141 -4.12 QT
4.719 -4.12 4.969 -4.183 QT
3.844 -4.183 L
cp
f
GR
GS
[0.75 0 0 0.75 308.15563 38.31956] CT
N
13.521 5.864 M
12.849 5.333 12.372 4.646 QT
11.896 3.958 11.583 3.185 QT
11.271 2.411 11.122 1.567 QT
10.974 0.724 10.974 -0.12 QT
10.974 -0.979 11.122 -1.823 QT
11.271 -2.667 11.583 -3.448 QT
11.896 -4.229 12.388 -4.909 QT
12.88 -5.589 13.521 -6.104 QT
13.521 -6.12 13.583 -6.12 QT
13.693 -6.12 L
13.724 -6.12 13.755 -6.089 QT
13.786 -6.058 13.786 -6.011 QT
13.786 -5.964 13.771 -5.933 QT
13.177 -5.37 12.786 -4.714 QT
12.396 -4.058 12.161 -3.315 QT
11.927 -2.573 11.818 -1.776 QT
11.708 -0.979 11.708 -0.12 QT
11.708 3.692 13.755 5.677 QT
13.786 5.708 13.786 5.771 QT
13.786 5.802 13.755 5.841 QT
13.724 5.88 13.693 5.88 QT
13.583 5.88 L
13.521 5.88 13.521 5.864 QT
cp
f
GR
GS
[0.75 0 0 0.75 308.15563 38.31956] CT
N
17.453 3.021 M
16.719 3.021 16.109 2.63 QT
15.5 2.239 15.148 1.599 QT
14.797 0.958 14.797 0.255 QT
14.797 -0.448 15.117 -1.081 QT
15.438 -1.714 16.008 -2.104 QT
16.578 -2.495 17.281 -2.495 QT
17.844 -2.495 18.25 -2.315 QT
18.656 -2.136 18.922 -1.808 QT
19.188 -1.479 19.32 -1.034 QT
19.453 -0.589 19.453 -0.058 QT
19.453 0.114 19.328 0.114 QT
15.859 0.114 L
15.859 0.239 L
15.859 1.239 16.258 1.95 QT
16.656 2.661 17.563 2.661 QT
17.938 2.661 18.25 2.497 QT
18.563 2.333 18.789 2.044 QT
19.016 1.755 19.109 1.411 QT
19.109 1.38 19.148 1.341 QT
19.188 1.302 19.219 1.302 QT
19.328 1.302 L
19.453 1.302 19.453 1.458 QT
19.281 2.146 18.719 2.583 QT
18.156 3.021 17.453 3.021 QT
cp
15.859 -0.198 M
18.594 -0.198 L
18.594 -0.636 18.469 -1.104 QT
18.344 -1.573 18.055 -1.878 QT
17.766 -2.183 17.281 -2.183 QT
16.609 -2.183 16.234 -1.55 QT
15.859 -0.917 15.859 -0.198 QT
cp
f
GR
GS
[0.75 0 0 0.75 308.15563 38.31956] CT
N
19.943 2.88 M
19.943 2.458 L
20.411 2.458 20.81 2.278 QT
21.208 2.099 21.49 1.755 QT
22.583 0.364 L
21.161 -1.479 L
20.958 -1.745 20.708 -1.808 QT
20.458 -1.87 20.005 -1.87 QT
20.005 -2.292 L
22.505 -2.292 L
22.505 -1.87 L
22.349 -1.87 22.208 -1.8 QT
22.068 -1.729 22.068 -1.604 QT
22.068 -1.558 22.099 -1.479 QT
23.068 -0.245 L
23.786 -1.167 L
23.927 -1.339 23.927 -1.511 QT
23.927 -1.667 23.833 -1.768 QT
23.74 -1.87 23.583 -1.87 QT
23.583 -2.292 L
25.786 -2.292 L
25.786 -1.87 L
25.333 -1.87 24.927 -1.69 QT
24.521 -1.511 24.24 -1.167 QT
23.286 0.052 L
24.818 2.083 L
25.052 2.333 25.294 2.396 QT
25.536 2.458 25.99 2.458 QT
25.99 2.88 L
23.505 2.88 L
23.505 2.458 L
23.646 2.458 23.779 2.388 QT
23.911 2.317 23.911 2.177 QT
23.911 2.13 23.88 2.083 QT
22.802 0.646 L
21.943 1.755 L
21.802 1.896 21.802 2.099 QT
21.802 2.239 21.904 2.349 QT
22.005 2.458 22.146 2.458 QT
22.146 2.88 L
19.943 2.88 L
cp
f
GR
GS
[0.75 0 0 0.75 308.15563 38.31956] CT
N
26.62 1.708 M
26.62 0.989 27.182 0.536 QT
27.745 0.083 28.534 -0.097 QT
29.323 -0.276 30.026 -0.276 QT
30.026 -0.776 L
30.026 -1.12 29.878 -1.44 QT
29.729 -1.761 29.44 -1.972 QT
29.151 -2.183 28.807 -2.183 QT
28.01 -2.183 27.589 -1.823 QT
27.823 -1.823 27.971 -1.651 QT
28.12 -1.479 28.12 -1.245 QT
28.12 -1.011 27.948 -0.839 QT
27.776 -0.667 27.542 -0.667 QT
27.307 -0.667 27.135 -0.839 QT
26.964 -1.011 26.964 -1.245 QT
26.964 -1.886 27.534 -2.19 QT
28.104 -2.495 28.807 -2.495 QT
29.292 -2.495 29.784 -2.292 QT
30.276 -2.089 30.589 -1.698 QT
30.901 -1.308 30.901 -0.792 QT
30.901 1.911 L
30.901 2.146 31.003 2.341 QT
31.104 2.536 31.307 2.536 QT
31.51 2.536 31.604 2.333 QT
31.698 2.13 31.698 1.911 QT
31.698 1.146 L
32.057 1.146 L
32.057 1.911 L
32.057 2.177 31.917 2.419 QT
31.776 2.661 31.534 2.81 QT
31.292 2.958 31.026 2.958 QT
30.667 2.958 30.417 2.685 QT
30.167 2.411 30.135 2.036 QT
29.917 2.474 29.479 2.747 QT
29.042 3.021 28.557 3.021 QT
28.089 3.021 27.651 2.88 QT
27.214 2.739 26.917 2.45 QT
26.62 2.161 26.62 1.708 QT
cp
27.589 1.708 M
27.589 2.13 27.901 2.411 QT
28.214 2.692 28.635 2.692 QT
29.026 2.692 29.339 2.505 QT
29.651 2.317 29.839 1.982 QT
30.026 1.646 30.026 1.271 QT
30.026 0.021 L
29.479 0.021 28.909 0.2 QT
28.339 0.38 27.964 0.763 QT
27.589 1.146 27.589 1.708 QT
cp
f
GR
GS
[0.75 0 0 0.75 308.15563 38.31956] CT
N
32.448 2.88 M
32.448 2.458 L
32.854 2.458 33.12 2.396 QT
33.385 2.333 33.385 2.083 QT
33.385 -4.229 L
33.385 -4.542 33.292 -4.69 QT
33.198 -4.839 33.01 -4.87 QT
32.823 -4.901 32.448 -4.901 QT
32.448 -5.323 L
34.229 -5.448 L
34.229 0.255 L
35.839 -1.167 L
36.073 -1.386 36.073 -1.589 QT
36.073 -1.729 35.971 -1.8 QT
35.87 -1.87 35.729 -1.87 QT
35.729 -2.292 L
37.995 -2.292 L
37.995 -1.87 L
37.182 -1.87 36.354 -1.167 QT
35.51 -0.417 L
37.042 1.755 L
37.354 2.192 37.565 2.325 QT
37.776 2.458 38.276 2.458 QT
38.276 2.88 L
35.885 2.88 L
35.885 2.458 L
36.292 2.458 36.292 2.208 QT
36.292 2.021 36.073 1.755 QT
34.917 0.114 L
34.182 0.739 L
34.182 2.083 L
34.182 2.333 34.448 2.396 QT
34.714 2.458 35.12 2.458 QT
35.12 2.88 L
32.448 2.88 L
cp
f
GR
GS
[0.75 0 0 0.75 308.15563 38.31956] CT
N
39.688 1.442 M
39.688 -1.87 L
38.703 -1.87 L
38.703 -2.183 L
39.484 -2.183 39.852 -2.917 QT
40.219 -3.651 40.219 -4.511 QT
40.563 -4.511 L
40.563 -2.292 L
42.266 -2.292 L
42.266 -1.87 L
40.563 -1.87 L
40.563 1.411 L
40.563 1.911 40.734 2.286 QT
40.906 2.661 41.328 2.661 QT
41.75 2.661 41.93 2.263 QT
42.109 1.864 42.109 1.411 QT
42.109 0.708 L
42.453 0.708 L
42.453 1.442 L
42.453 1.817 42.313 2.185 QT
42.172 2.552 41.906 2.786 QT
41.641 3.021 41.25 3.021 QT
40.531 3.021 40.109 2.583 QT
39.688 2.146 39.688 1.442 QT
cp
f
GR
GS
[0.75 0 0 0.75 308.15563 38.31956] CT
N
43.917 5.88 M
43.807 5.88 43.807 5.771 QT
43.807 5.724 43.839 5.692 QT
45.886 3.692 45.886 -0.12 QT
45.886 -3.933 43.854 -5.917 QT
43.807 -5.948 43.807 -6.011 QT
43.807 -6.058 43.839 -6.089 QT
43.87 -6.12 43.917 -6.12 QT
44.026 -6.12 L
44.057 -6.12 44.089 -6.104 QT
44.948 -5.417 45.518 -4.448 QT
46.089 -3.479 46.362 -2.378 QT
46.636 -1.276 46.636 -0.12 QT
46.636 0.724 46.487 1.552 QT
46.339 2.38 46.026 3.177 QT
45.714 3.974 45.237 4.653 QT
44.761 5.333 44.089 5.864 QT
44.057 5.88 44.026 5.88 QT
43.917 5.88 L
cp
f
GR
GS
[0.75 0 0 0.75 0 0] CT
0 0.447 0.741 RC
1 LJ
0.667 LW
N
367.989 51.093 M
407.882 51.093 L
S
GR
GS
[0.75 0 0 0.75 308.15563 49.77236] CT
N
2.234 -6.799 M
2.578 -7.221 L
3.047 -7.752 3.516 -7.752 QT
3.75 -7.752 4.016 -7.619 QT
4.281 -7.486 4.555 -7.353 QT
4.828 -7.221 5.063 -7.221 QT
5.547 -7.221 5.984 -7.752 QT
6.234 -7.549 L
5.875 -7.142 L
5.406 -6.596 4.938 -6.596 QT
4.719 -6.596 4.445 -6.736 QT
4.172 -6.877 3.898 -7.01 QT
3.625 -7.142 3.391 -7.142 QT
2.922 -7.142 2.469 -6.596 QT
2.234 -6.799 L
cp
f
GR
GS
[0.75 0 0 0.75 308.15563 49.77236] CT
N
1.953 5.305 M
1.969 5.165 2.125 5.165 QT
2.141 5.165 2.352 5.282 QT
2.563 5.399 2.82 5.493 QT
3.078 5.587 3.328 5.587 QT
3.563 5.587 3.711 5.391 QT
3.859 5.196 3.859 4.977 QT
3.859 4.665 3.531 4.54 QT
1.484 3.743 L
0.969 3.54 0.625 3.134 QT
0.281 2.727 0.281 2.212 QT
0.281 1.743 0.523 1.243 QT
0.766 0.743 1.156 0.337 QT
1.547 -0.07 1.984 -0.32 QT
1.625 -0.538 1.43 -0.866 QT
1.234 -1.195 1.234 -1.601 QT
1.234 -2.023 1.406 -2.382 QT
1.578 -2.741 1.883 -3.046 QT
2.188 -3.351 2.555 -3.554 QT
2.922 -3.757 3.297 -3.866 QT
3.234 -4.116 3.234 -4.304 QT
3.234 -4.96 3.5 -4.96 QT
3.563 -4.96 3.609 -4.913 QT
3.656 -4.866 3.656 -4.804 QT
3.656 -4.741 3.625 -4.546 QT
3.594 -4.351 3.594 -4.304 QT
3.594 -4.101 3.641 -3.929 QT
3.953 -4.007 4.234 -4.007 QT
5.344 -4.007 5.344 -3.663 QT
5.344 -3.257 4.109 -3.257 QT
3.734 -3.257 3.5 -3.507 QT
3.156 -3.335 2.867 -3.015 QT
2.578 -2.695 2.414 -2.296 QT
2.25 -1.898 2.25 -1.491 QT
2.25 -0.929 2.563 -0.585 QT
3 -0.741 3.422 -0.741 QT
4.531 -0.741 4.531 -0.398 QT
4.531 0.009 3.297 0.009 QT
2.797 0.009 2.359 -0.148 QT
1.828 0.149 1.383 0.735 QT
0.938 1.321 0.938 1.852 QT
0.938 2.212 1.195 2.477 QT
1.453 2.743 1.828 2.899 QT
3.953 3.727 L
4.219 3.837 4.398 4.071 QT
4.578 4.305 4.578 4.602 QT
4.578 5.087 4.195 5.493 QT
3.813 5.899 3.328 5.899 QT
3.172 5.899 2.828 5.813 QT
2.484 5.727 2.219 5.595 QT
1.953 5.462 1.953 5.305 QT
cp
2.938 -0.366 M
3.094 -0.304 3.328 -0.304 QT
3.906 -0.304 4.156 -0.366 QT
3.922 -0.413 3.406 -0.413 QT
3.203 -0.413 2.938 -0.366 QT
cp
3.844 -3.632 M
3.953 -3.57 4.141 -3.57 QT
4.719 -3.57 4.969 -3.632 QT
3.844 -3.632 L
cp
f
GR
GS
[0.75 0 0 0.75 308.15563 49.77236] CT
N
5.672 5.09 M
5.672 5.043 5.688 5.012 QT
6.844 0.387 L
6.875 0.246 6.891 0.168 QT
6.891 0.043 6.359 0.043 QT
6.281 0.043 6.281 -0.066 QT
6.281 -0.082 6.297 -0.129 QT
6.313 -0.176 6.336 -0.207 QT
6.359 -0.238 6.391 -0.238 QT
7.469 -0.316 L
7.5 -0.316 L
7.5 -0.316 7.523 -0.301 QT
7.547 -0.285 7.563 -0.285 QT
7.578 -0.238 7.578 -0.223 QT
6.734 3.121 L
7.016 2.996 7.461 2.543 QT
7.906 2.09 8.148 1.895 QT
8.391 1.699 8.766 1.699 QT
9 1.699 9.156 1.848 QT
9.313 1.996 9.313 2.215 QT
9.313 2.355 9.25 2.48 QT
9.188 2.605 9.086 2.676 QT
8.984 2.746 8.844 2.746 QT
8.703 2.746 8.617 2.668 QT
8.531 2.59 8.531 2.465 QT
8.531 2.262 8.664 2.137 QT
8.797 2.012 9 2.012 QT
8.922 1.902 8.75 1.902 QT
8.516 1.902 8.297 2.035 QT
8.078 2.168 7.82 2.426 QT
7.563 2.684 7.352 2.895 QT
7.141 3.105 6.969 3.215 QT
7.438 3.277 7.781 3.473 QT
8.125 3.668 8.125 4.059 QT
8.125 4.137 8.094 4.262 QT
8.031 4.574 8.031 4.746 QT
8.031 5.105 8.281 5.105 QT
8.563 5.105 8.711 4.793 QT
8.859 4.48 8.969 4.059 QT
8.984 4.012 9.031 4.012 QT
9.125 4.012 L
9.156 4.012 9.18 4.027 QT
9.203 4.043 9.203 4.074 QT
9.203 4.09 9.188 4.105 QT
8.891 5.324 8.266 5.324 QT
8.031 5.324 7.859 5.215 QT
7.688 5.105 7.594 4.926 QT
7.5 4.746 7.5 4.512 QT
7.5 4.387 7.531 4.246 QT
7.563 4.152 7.563 4.074 QT
7.563 3.762 7.289 3.605 QT
7.016 3.449 6.656 3.418 QT
6.25 5.043 L
6.219 5.168 6.133 5.246 QT
6.047 5.324 5.922 5.324 QT
5.828 5.324 5.75 5.254 QT
5.672 5.184 5.672 5.09 QT
cp
f
GR
GS
[0.75 0 0 0.75 308.15563 49.77236] CT
N
18.206 6.415 M
17.534 5.884 17.058 5.196 QT
16.581 4.509 16.269 3.735 QT
15.956 2.962 15.808 2.118 QT
15.659 1.274 15.659 0.43 QT
15.659 -0.429 15.808 -1.273 QT
15.956 -2.116 16.269 -2.898 QT
16.581 -3.679 17.073 -4.359 QT
17.566 -5.038 18.206 -5.554 QT
18.206 -5.57 18.269 -5.57 QT
18.378 -5.57 L
18.409 -5.57 18.441 -5.538 QT
18.472 -5.507 18.472 -5.46 QT
18.472 -5.413 18.456 -5.382 QT
17.863 -4.82 17.472 -4.163 QT
17.081 -3.507 16.847 -2.765 QT
16.613 -2.023 16.503 -1.226 QT
16.394 -0.429 16.394 0.43 QT
16.394 4.243 18.441 6.227 QT
18.472 6.259 18.472 6.321 QT
18.472 6.352 18.441 6.391 QT
18.409 6.43 18.378 6.43 QT
18.269 6.43 L
18.206 6.43 18.206 6.415 QT
cp
f
GR
GS
[0.75 0 0 0.75 308.15563 49.77236] CT
N
19.529 3.43 M
19.529 3.009 L
20.764 3.009 20.764 2.634 QT
20.764 -3.96 L
20.764 -4.351 19.529 -4.351 QT
19.529 -4.773 L
23.42 -4.773 L
23.42 -4.351 L
21.873 -4.351 21.873 -3.96 QT
21.873 2.634 L
21.873 2.884 22.021 2.946 QT
22.17 3.009 22.482 3.009 QT
23.42 3.009 L
24.31 3.009 24.795 2.68 QT
25.279 2.352 25.482 1.79 QT
25.685 1.227 25.795 0.29 QT
26.139 0.29 L
25.81 3.43 L
19.529 3.43 L
cp
f
GR
GS
[0.75 0 0 0.75 308.15563 49.77236] CT
N
27.139 2.259 M
27.139 1.54 27.701 1.087 QT
28.264 0.634 29.053 0.454 QT
29.842 0.274 30.545 0.274 QT
30.545 -0.226 L
30.545 -0.57 30.396 -0.89 QT
30.248 -1.21 29.959 -1.421 QT
29.67 -1.632 29.326 -1.632 QT
28.529 -1.632 28.107 -1.273 QT
28.342 -1.273 28.49 -1.101 QT
28.639 -0.929 28.639 -0.695 QT
28.639 -0.46 28.467 -0.288 QT
28.295 -0.116 28.06 -0.116 QT
27.826 -0.116 27.654 -0.288 QT
27.482 -0.46 27.482 -0.695 QT
27.482 -1.335 28.053 -1.64 QT
28.623 -1.945 29.326 -1.945 QT
29.81 -1.945 30.303 -1.741 QT
30.795 -1.538 31.107 -1.148 QT
31.42 -0.757 31.42 -0.241 QT
31.42 2.462 L
31.42 2.696 31.521 2.891 QT
31.623 3.087 31.826 3.087 QT
32.029 3.087 32.123 2.884 QT
32.217 2.68 32.217 2.462 QT
32.217 1.696 L
32.576 1.696 L
32.576 2.462 L
32.576 2.727 32.435 2.97 QT
32.295 3.212 32.053 3.36 QT
31.81 3.509 31.545 3.509 QT
31.185 3.509 30.935 3.235 QT
30.685 2.962 30.654 2.587 QT
30.435 3.024 29.998 3.298 QT
29.56 3.571 29.076 3.571 QT
28.607 3.571 28.17 3.43 QT
27.732 3.29 27.435 3.001 QT
27.139 2.712 27.139 2.259 QT
cp
28.107 2.259 M
28.107 2.68 28.42 2.962 QT
28.732 3.243 29.154 3.243 QT
29.545 3.243 29.857 3.055 QT
30.17 2.868 30.357 2.532 QT
30.545 2.196 30.545 1.821 QT
30.545 0.571 L
29.998 0.571 29.428 0.751 QT
28.857 0.93 28.482 1.313 QT
28.107 1.696 28.107 2.259 QT
cp
f
GR
GS
[0.75 0 0 0.75 308.15563 49.77236] CT
N
33.014 3.43 M
33.014 3.009 L
33.42 3.009 33.685 2.946 QT
33.951 2.884 33.951 2.634 QT
33.951 -0.648 L
33.951 -0.976 33.857 -1.116 QT
33.764 -1.257 33.576 -1.288 QT
33.389 -1.32 33.014 -1.32 QT
33.014 -1.741 L
34.748 -1.866 L
34.748 -0.695 L
34.998 -1.21 35.467 -1.538 QT
35.935 -1.866 36.498 -1.866 QT
37.326 -1.866 37.748 -1.468 QT
38.17 -1.07 38.17 -0.257 QT
38.17 2.634 L
38.17 2.884 38.428 2.946 QT
38.685 3.009 39.107 3.009 QT
39.107 3.43 L
36.357 3.43 L
36.357 3.009 L
36.764 3.009 37.029 2.946 QT
37.295 2.884 37.295 2.634 QT
37.295 -0.226 L
37.295 -0.804 37.123 -1.187 QT
36.951 -1.57 36.42 -1.57 QT
35.732 -1.57 35.279 -1.007 QT
34.826 -0.445 34.826 0.259 QT
34.826 2.634 L
34.826 2.884 35.092 2.946 QT
35.357 3.009 35.764 3.009 QT
35.764 3.43 L
33.014 3.43 L
cp
f
GR
GS
[0.75 0 0 0.75 308.15563 49.77236] CT
N
42.258 3.571 M
41.54 3.571 40.954 3.18 QT
40.368 2.79 40.047 2.165 QT
39.727 1.54 39.727 0.837 QT
39.727 0.118 40.079 -0.507 QT
40.43 -1.132 41.04 -1.499 QT
41.649 -1.866 42.383 -1.866 QT
42.821 -1.866 43.212 -1.687 QT
43.602 -1.507 43.899 -1.179 QT
43.899 -3.679 L
43.899 -3.991 43.797 -4.14 QT
43.696 -4.288 43.516 -4.32 QT
43.337 -4.351 42.962 -4.351 QT
42.962 -4.773 L
44.743 -4.898 L
44.743 2.337 L
44.743 2.649 44.837 2.798 QT
44.93 2.946 45.11 2.977 QT
45.29 3.009 45.665 3.009 QT
45.665 3.43 L
43.852 3.571 L
43.852 2.805 L
43.54 3.165 43.118 3.368 QT
42.696 3.571 42.258 3.571 QT
cp
41.024 2.384 M
41.227 2.774 41.571 3.009 QT
41.915 3.243 42.321 3.243 QT
42.821 3.243 43.235 2.962 QT
43.649 2.68 43.852 2.212 QT
43.852 -0.663 L
43.712 -0.929 43.501 -1.132 QT
43.29 -1.335 43.024 -1.452 QT
42.758 -1.57 42.462 -1.57 QT
41.837 -1.57 41.454 -1.21 QT
41.071 -0.851 40.915 -0.304 QT
40.758 0.243 40.758 0.852 QT
40.758 1.337 40.813 1.688 QT
40.868 2.04 41.024 2.384 QT
cp
f
GR
GS
[0.75 0 0 0.75 308.15563 49.77236] CT
N
48.644 3.43 M
47.097 -0.929 L
46.988 -1.195 46.784 -1.257 QT
46.581 -1.32 46.206 -1.32 QT
46.206 -1.741 L
48.675 -1.741 L
48.675 -1.32 L
47.972 -1.32 47.972 -1.023 QT
47.972 -1.007 47.98 -0.991 QT
47.988 -0.976 47.988 -0.929 QT
49.128 2.305 L
50.128 -0.523 L
49.972 -0.929 L
49.878 -1.195 49.675 -1.257 QT
49.472 -1.32 49.097 -1.32 QT
49.097 -1.741 L
51.456 -1.741 L
51.456 -1.32 L
50.753 -1.32 50.753 -1.023 QT
50.753 -0.976 50.769 -0.929 QT
51.972 2.446 L
53.05 -0.616 L
53.081 -0.71 53.081 -0.788 QT
53.081 -1.038 52.863 -1.179 QT
52.644 -1.32 52.394 -1.32 QT
52.394 -1.741 L
54.425 -1.741 L
54.425 -1.32 L
54.066 -1.32 53.8 -1.132 QT
53.534 -0.945 53.425 -0.616 QT
51.988 3.43 L
51.941 3.571 51.8 3.571 QT
51.706 3.571 L
51.566 3.571 51.534 3.43 QT
50.316 0.009 L
49.113 3.43 L
49.05 3.571 48.925 3.571 QT
48.831 3.571 L
48.691 3.571 48.644 3.43 QT
cp
f
GR
GS
[0.75 0 0 0.75 308.15563 49.77236] CT
N
57.305 3.571 M
56.571 3.571 55.962 3.18 QT
55.352 2.79 55.001 2.149 QT
54.649 1.509 54.649 0.805 QT
54.649 0.102 54.969 -0.53 QT
55.29 -1.163 55.86 -1.554 QT
56.43 -1.945 57.133 -1.945 QT
57.696 -1.945 58.102 -1.765 QT
58.508 -1.585 58.774 -1.257 QT
59.04 -0.929 59.172 -0.484 QT
59.305 -0.038 59.305 0.493 QT
59.305 0.665 59.18 0.665 QT
55.712 0.665 L
55.712 0.79 L
55.712 1.79 56.11 2.501 QT
56.508 3.212 57.415 3.212 QT
57.79 3.212 58.102 3.048 QT
58.415 2.884 58.641 2.595 QT
58.868 2.305 58.962 1.962 QT
58.962 1.93 59.001 1.891 QT
59.04 1.852 59.071 1.852 QT
59.18 1.852 L
59.305 1.852 59.305 2.009 QT
59.133 2.696 58.571 3.134 QT
58.008 3.571 57.305 3.571 QT
cp
55.712 0.352 M
58.446 0.352 L
58.446 -0.085 58.321 -0.554 QT
58.196 -1.023 57.907 -1.327 QT
57.618 -1.632 57.133 -1.632 QT
56.462 -1.632 56.087 -0.999 QT
55.712 -0.366 55.712 0.352 QT
cp
f
GR
GS
[0.75 0 0 0.75 308.15563 49.77236] CT
N
60.904 3.43 M
60.904 -3.679 L
60.904 -3.991 60.811 -4.14 QT
60.717 -4.288 60.529 -4.32 QT
60.342 -4.351 59.967 -4.351 QT
59.967 -4.773 L
61.748 -4.898 L
61.748 -1.148 L
61.936 -1.366 62.201 -1.53 QT
62.467 -1.695 62.771 -1.78 QT
63.076 -1.866 63.404 -1.866 QT
63.936 -1.866 64.396 -1.655 QT
64.857 -1.445 65.201 -1.062 QT
65.545 -0.679 65.732 -0.187 QT
65.92 0.305 65.92 0.837 QT
65.92 1.571 65.568 2.196 QT
65.217 2.821 64.6 3.196 QT
63.982 3.571 63.248 3.571 QT
62.795 3.571 62.365 3.337 QT
61.936 3.102 61.654 2.712 QT
61.248 3.43 L
60.904 3.43 L
cp
61.779 2.259 M
61.982 2.696 62.357 2.97 QT
62.732 3.243 63.186 3.243 QT
63.811 3.243 64.193 2.891 QT
64.576 2.54 64.725 1.993 QT
64.873 1.446 64.873 0.837 QT
64.873 -0.179 64.607 -0.695 QT
64.498 -0.929 64.295 -1.132 QT
64.092 -1.335 63.842 -1.452 QT
63.592 -1.57 63.311 -1.57 QT
62.842 -1.57 62.428 -1.312 QT
62.014 -1.054 61.779 -0.632 QT
61.779 2.259 L
cp
f
GR
GS
[0.75 0 0 0.75 308.15563 49.77236] CT
N
69.639 3.571 M
68.904 3.571 68.295 3.18 QT
67.686 2.79 67.334 2.149 QT
66.982 1.509 66.982 0.805 QT
66.982 0.102 67.303 -0.53 QT
67.623 -1.163 68.193 -1.554 QT
68.764 -1.945 69.467 -1.945 QT
70.029 -1.945 70.436 -1.765 QT
70.842 -1.585 71.107 -1.257 QT
71.373 -0.929 71.506 -0.484 QT
71.639 -0.038 71.639 0.493 QT
71.639 0.665 71.514 0.665 QT
68.045 0.665 L
68.045 0.79 L
68.045 1.79 68.443 2.501 QT
68.842 3.212 69.748 3.212 QT
70.123 3.212 70.436 3.048 QT
70.748 2.884 70.975 2.595 QT
71.201 2.305 71.295 1.962 QT
71.295 1.93 71.334 1.891 QT
71.373 1.852 71.404 1.852 QT
71.514 1.852 L
71.639 1.852 71.639 2.009 QT
71.467 2.696 70.904 3.134 QT
70.342 3.571 69.639 3.571 QT
cp
68.045 0.352 M
70.779 0.352 L
70.779 -0.085 70.654 -0.554 QT
70.529 -1.023 70.24 -1.327 QT
69.951 -1.632 69.467 -1.632 QT
68.795 -1.632 68.42 -0.999 QT
68.045 -0.366 68.045 0.352 QT
cp
f
GR
GS
[0.75 0 0 0.75 308.15563 49.77236] CT
N
72.3 3.43 M
72.3 3.009 L
72.706 3.009 72.972 2.946 QT
73.238 2.884 73.238 2.634 QT
73.238 -0.648 L
73.238 -0.976 73.144 -1.116 QT
73.05 -1.257 72.863 -1.288 QT
72.675 -1.32 72.3 -1.32 QT
72.3 -1.741 L
74.019 -1.866 L
74.019 -0.695 L
74.206 -1.226 74.566 -1.546 QT
74.925 -1.866 75.441 -1.866 QT
75.785 -1.866 76.066 -1.655 QT
76.347 -1.445 76.347 -1.101 QT
76.347 -0.882 76.199 -0.726 QT
76.05 -0.57 75.816 -0.57 QT
75.597 -0.57 75.433 -0.726 QT
75.269 -0.882 75.269 -1.101 QT
75.269 -1.429 75.503 -1.57 QT
75.441 -1.57 L
74.941 -1.57 74.636 -1.218 QT
74.331 -0.866 74.206 -0.343 QT
74.081 0.18 74.081 0.665 QT
74.081 2.634 L
74.081 3.009 75.238 3.009 QT
75.238 3.43 L
72.3 3.43 L
cp
f
GR
GS
[0.75 0 0 0.75 308.15563 49.77236] CT
N
77.469 6.43 M
77.36 6.43 77.36 6.321 QT
77.36 6.274 77.391 6.243 QT
79.438 4.243 79.438 0.43 QT
79.438 -3.382 77.406 -5.366 QT
77.36 -5.398 77.36 -5.46 QT
77.36 -5.507 77.391 -5.538 QT
77.422 -5.57 77.469 -5.57 QT
77.578 -5.57 L
77.61 -5.57 77.641 -5.554 QT
78.5 -4.866 79.07 -3.898 QT
79.641 -2.929 79.914 -1.827 QT
80.188 -0.726 80.188 0.43 QT
80.188 1.274 80.039 2.102 QT
79.891 2.93 79.578 3.727 QT
79.266 4.524 78.789 5.204 QT
78.313 5.884 77.641 6.415 QT
77.61 6.43 77.578 6.43 QT
77.469 6.43 L
cp
f
GR
GS
[0.75 0 0 0.75 0 0] CT
0.851 0.325 0.098 RC
1 LJ
0.667 LW
N
367.989 66.363 M
407.882 66.363 L
S
GR
GS
[0.75 0 0 0.75 0 0] CT
0.149 GC
10.0 ML
0.667 LW
N
364 76 M
364 42 L
496 42 L
496 76 L
cp
S
GR
%%Trailer
%%Pages: 1
%%EOF
