%!PS-Adobe-3.0 EPSF-3.0
%%Creator: (MATLAB, The Mathworks, Inc. Version 9.5.0.944444 \(R2018b\). Operating System: Windows 10)
%%Title: F:/Studium/__Bachelorarbeit/tex/images/landweber-latterfew.eps
%%CreationDate: 2020-07-26T18:07:07
%%Pages: (atend)
%%BoundingBox: 0 0 420 315
%%LanguageLevel: 3
%%EndComments
%%BeginProlog
%%BeginResource: procset (Apache XML Graphics Std ProcSet) 1.2 0
%%Version: 1.2 0
%%Copyright: (Copyright 2001-2003,2010 The Apache Software Foundation. License terms: http://www.apache.org/licenses/LICENSE-2.0)
/bd{bind def}bind def
/ld{load def}bd
/GR/grestore ld
/GS/gsave ld
/RM/rmoveto ld
/C/curveto ld
/t/show ld
/L/lineto ld
/ML/setmiterlimit ld
/CT/concat ld
/f/fill ld
/N/newpath ld
/S/stroke ld
/CC/setcmykcolor ld
/A/ashow ld
/cp/closepath ld
/RC/setrgbcolor ld
/LJ/setlinejoin ld
/GC/setgray ld
/LW/setlinewidth ld
/M/moveto ld
/re {4 2 roll M
1 index 0 rlineto
0 exch rlineto
neg 0 rlineto
cp } bd
/_ctm matrix def
/_tm matrix def
/BT { _ctm currentmatrix pop matrix _tm copy pop 0 0 moveto } bd
/ET { _ctm setmatrix } bd
/iTm { _ctm setmatrix _tm concat } bd
/Tm { _tm astore pop iTm 0 0 moveto } bd
/ux 0.0 def
/uy 0.0 def
/F {
  /Tp exch def
  /Tf exch def
  Tf findfont Tp scalefont setfont
  /cf Tf def  /cs Tp def
} bd
/ULS {currentpoint /uy exch def /ux exch def} bd
/ULE {
  /Tcx currentpoint pop def
  gsave
  newpath
  cf findfont cs scalefont dup
  /FontMatrix get 0 get /Ts exch def /FontInfo get dup
  /UnderlinePosition get Ts mul /To exch def
  /UnderlineThickness get Ts mul /Tt exch def
  ux uy To add moveto  Tcx uy To add lineto
  Tt setlinewidth stroke
  grestore
} bd
/OLE {
  /Tcx currentpoint pop def
  gsave
  newpath
  cf findfont cs scalefont dup
  /FontMatrix get 0 get /Ts exch def /FontInfo get dup
  /UnderlinePosition get Ts mul /To exch def
  /UnderlineThickness get Ts mul /Tt exch def
  ux uy To add cs add moveto Tcx uy To add cs add lineto
  Tt setlinewidth stroke
  grestore
} bd
/SOE {
  /Tcx currentpoint pop def
  gsave
  newpath
  cf findfont cs scalefont dup
  /FontMatrix get 0 get /Ts exch def /FontInfo get dup
  /UnderlinePosition get Ts mul /To exch def
  /UnderlineThickness get Ts mul /Tt exch def
  ux uy To add cs 10 mul 26 idiv add moveto Tcx uy To add cs 10 mul 26 idiv add lineto
  Tt setlinewidth stroke
  grestore
} bd
/QT {
/Y22 exch store
/X22 exch store
/Y21 exch store
/X21 exch store
currentpoint
/Y21 load 2 mul add 3 div exch
/X21 load 2 mul add 3 div exch
/X21 load 2 mul /X22 load add 3 div
/Y21 load 2 mul /Y22 load add 3 div
/X22 load /Y22 load curveto
} bd
/SSPD {
dup length /d exch dict def
{
/v exch def
/k exch def
currentpagedevice k known {
/cpdv currentpagedevice k get def
v cpdv ne {
/upd false def
/nullv v type /nulltype eq def
/nullcpdv cpdv type /nulltype eq def
nullv nullcpdv or
{
/upd true def
} {
/sametype v type cpdv type eq def
sametype {
v type /arraytype eq {
/vlen v length def
/cpdvlen cpdv length def
vlen cpdvlen eq {
0 1 vlen 1 sub {
/i exch def
/obj v i get def
/cpdobj cpdv i get def
obj cpdobj ne {
/upd true def
exit
} if
} for
} {
/upd true def
} ifelse
} {
v type /dicttype eq {
v {
/dv exch def
/dk exch def
/cpddv cpdv dk get def
dv cpddv ne {
/upd true def
exit
} if
} forall
} {
/upd true def
} ifelse
} ifelse
} if
} ifelse
upd true eq {
d k v put
} if
} if
} if
} forall
d length 0 gt {
d setpagedevice
} if
} bd
/RE { % /NewFontName [NewEncodingArray] /FontName RE -
  findfont dup length dict begin
  {
    1 index /FID ne
    {def} {pop pop} ifelse
  } forall
  /Encoding exch def
  /FontName 1 index def
  currentdict definefont pop
  end
} bind def
%%EndResource
%%BeginResource: procset (Apache XML Graphics EPS ProcSet) 1.0 0
%%Version: 1.0 0
%%Copyright: (Copyright 2002-2003 The Apache Software Foundation. License terms: http://www.apache.org/licenses/LICENSE-2.0)
/BeginEPSF { %def
/b4_Inc_state save def         % Save state for cleanup
/dict_count countdictstack def % Count objects on dict stack
/op_count count 1 sub def      % Count objects on operand stack
userdict begin                 % Push userdict on dict stack
/showpage { } def              % Redefine showpage, { } = null proc
0 setgray 0 setlinecap         % Prepare graphics state
1 setlinewidth 0 setlinejoin
10 setmiterlimit [ ] 0 setdash newpath
/languagelevel where           % If level not equal to 1 then
{pop languagelevel             % set strokeadjust and
1 ne                           % overprint to their defaults.
{false setstrokeadjust false setoverprint
} if
} if
} bd
/EndEPSF { %def
count op_count sub {pop} repeat            % Clean up stacks
countdictstack dict_count sub {end} repeat
b4_Inc_state restore
} bd
%%EndResource
%FOPBeginFontDict
%%IncludeResource: font Courier-Oblique
%%IncludeResource: font Courier-BoldOblique
%%IncludeResource: font Courier-Bold
%%IncludeResource: font ZapfDingbats
%%IncludeResource: font Symbol
%%IncludeResource: font Helvetica
%%IncludeResource: font Helvetica-Oblique
%%IncludeResource: font Helvetica-Bold
%%IncludeResource: font Helvetica-BoldOblique
%%IncludeResource: font Times-Roman
%%IncludeResource: font Times-Italic
%%IncludeResource: font Times-Bold
%%IncludeResource: font Times-BoldItalic
%%IncludeResource: font Courier
%FOPEndFontDict
%%BeginResource: encoding WinAnsiEncoding
/WinAnsiEncoding [
/.notdef /.notdef /.notdef /.notdef /.notdef
/.notdef /.notdef /.notdef /.notdef /.notdef
/.notdef /.notdef /.notdef /.notdef /.notdef
/.notdef /.notdef /.notdef /.notdef /.notdef
/.notdef /.notdef /.notdef /.notdef /.notdef
/.notdef /.notdef /.notdef /.notdef /.notdef
/.notdef /.notdef /space /exclam /quotedbl
/numbersign /dollar /percent /ampersand /quotesingle
/parenleft /parenright /asterisk /plus /comma
/hyphen /period /slash /zero /one
/two /three /four /five /six
/seven /eight /nine /colon /semicolon
/less /equal /greater /question /at
/A /B /C /D /E
/F /G /H /I /J
/K /L /M /N /O
/P /Q /R /S /T
/U /V /W /X /Y
/Z /bracketleft /backslash /bracketright /asciicircum
/underscore /quoteleft /a /b /c
/d /e /f /g /h
/i /j /k /l /m
/n /o /p /q /r
/s /t /u /v /w
/x /y /z /braceleft /bar
/braceright /asciitilde /bullet /Euro /bullet
/quotesinglbase /florin /quotedblbase /ellipsis /dagger
/daggerdbl /circumflex /perthousand /Scaron /guilsinglleft
/OE /bullet /Zcaron /bullet /bullet
/quoteleft /quoteright /quotedblleft /quotedblright /bullet
/endash /emdash /asciitilde /trademark /scaron
/guilsinglright /oe /bullet /zcaron /Ydieresis
/space /exclamdown /cent /sterling /currency
/yen /brokenbar /section /dieresis /copyright
/ordfeminine /guillemotleft /logicalnot /sfthyphen /registered
/macron /degree /plusminus /twosuperior /threesuperior
/acute /mu /paragraph /middot /cedilla
/onesuperior /ordmasculine /guillemotright /onequarter /onehalf
/threequarters /questiondown /Agrave /Aacute /Acircumflex
/Atilde /Adieresis /Aring /AE /Ccedilla
/Egrave /Eacute /Ecircumflex /Edieresis /Igrave
/Iacute /Icircumflex /Idieresis /Eth /Ntilde
/Ograve /Oacute /Ocircumflex /Otilde /Odieresis
/multiply /Oslash /Ugrave /Uacute /Ucircumflex
/Udieresis /Yacute /Thorn /germandbls /agrave
/aacute /acircumflex /atilde /adieresis /aring
/ae /ccedilla /egrave /eacute /ecircumflex
/edieresis /igrave /iacute /icircumflex /idieresis
/eth /ntilde /ograve /oacute /ocircumflex
/otilde /odieresis /divide /oslash /ugrave
/uacute /ucircumflex /udieresis /yacute /thorn
/ydieresis
] def
%%EndResource
%FOPBeginFontReencode
/Courier-Oblique findfont
dup length dict begin
  {1 index /FID ne {def} {pop pop} ifelse} forall
  /Encoding WinAnsiEncoding def
  currentdict
end
/Courier-Oblique exch definefont pop
/Courier-BoldOblique findfont
dup length dict begin
  {1 index /FID ne {def} {pop pop} ifelse} forall
  /Encoding WinAnsiEncoding def
  currentdict
end
/Courier-BoldOblique exch definefont pop
/Courier-Bold findfont
dup length dict begin
  {1 index /FID ne {def} {pop pop} ifelse} forall
  /Encoding WinAnsiEncoding def
  currentdict
end
/Courier-Bold exch definefont pop
/Helvetica findfont
dup length dict begin
  {1 index /FID ne {def} {pop pop} ifelse} forall
  /Encoding WinAnsiEncoding def
  currentdict
end
/Helvetica exch definefont pop
/Helvetica-Oblique findfont
dup length dict begin
  {1 index /FID ne {def} {pop pop} ifelse} forall
  /Encoding WinAnsiEncoding def
  currentdict
end
/Helvetica-Oblique exch definefont pop
/Helvetica-Bold findfont
dup length dict begin
  {1 index /FID ne {def} {pop pop} ifelse} forall
  /Encoding WinAnsiEncoding def
  currentdict
end
/Helvetica-Bold exch definefont pop
/Helvetica-BoldOblique findfont
dup length dict begin
  {1 index /FID ne {def} {pop pop} ifelse} forall
  /Encoding WinAnsiEncoding def
  currentdict
end
/Helvetica-BoldOblique exch definefont pop
/Times-Roman findfont
dup length dict begin
  {1 index /FID ne {def} {pop pop} ifelse} forall
  /Encoding WinAnsiEncoding def
  currentdict
end
/Times-Roman exch definefont pop
/Times-Italic findfont
dup length dict begin
  {1 index /FID ne {def} {pop pop} ifelse} forall
  /Encoding WinAnsiEncoding def
  currentdict
end
/Times-Italic exch definefont pop
/Times-Bold findfont
dup length dict begin
  {1 index /FID ne {def} {pop pop} ifelse} forall
  /Encoding WinAnsiEncoding def
  currentdict
end
/Times-Bold exch definefont pop
/Times-BoldItalic findfont
dup length dict begin
  {1 index /FID ne {def} {pop pop} ifelse} forall
  /Encoding WinAnsiEncoding def
  currentdict
end
/Times-BoldItalic exch definefont pop
/Courier findfont
dup length dict begin
  {1 index /FID ne {def} {pop pop} ifelse} forall
  /Encoding WinAnsiEncoding def
  currentdict
end
/Courier exch definefont pop
%FOPEndFontReencode
%%EndProlog
%%Page: 1 1
%%PageBoundingBox: 0 0 420 315
%%BeginPageSetup
[1 0 0 -1 0 315] CT
%%EndPageSetup
GS
[0.75 0 0 0.75 0 0] CT
1 GC
N
0 0 560 420 re
f
GR
GS
[0.75 0 0 0.75 0 0] CT
1 GC
N
0 0 560 420 re
f
GR
GS
[0.75 0 0 0.75 0 0] CT
1 GC
N
73 374 M
507 374 L
507 31 L
73 31 L
cp
f
GR
GS
[0.75 0 0 0.75 0 0] CT
0.149 GC
2 setlinecap
1 LJ
0.667 LW
N
73 374 M
507 374 L
S
GR
GS
[0.75 0 0 0.75 0 0] CT
0.149 GC
2 setlinecap
1 LJ
0.667 LW
N
73 374 M
73 382.68 L
S
GR
GS
[0.75 0 0 0.75 0 0] CT
0.149 GC
2 setlinecap
1 LJ
0.667 LW
N
116.4 374 M
116.4 382.68 L
S
GR
GS
[0.75 0 0 0.75 0 0] CT
0.149 GC
2 setlinecap
1 LJ
0.667 LW
N
159.8 374 M
159.8 382.68 L
S
GR
GS
[0.75 0 0 0.75 0 0] CT
0.149 GC
2 setlinecap
1 LJ
0.667 LW
N
203.2 374 M
203.2 382.68 L
S
GR
GS
[0.75 0 0 0.75 0 0] CT
0.149 GC
2 setlinecap
1 LJ
0.667 LW
N
246.6 374 M
246.6 382.68 L
S
GR
GS
[0.75 0 0 0.75 0 0] CT
0.149 GC
2 setlinecap
1 LJ
0.667 LW
N
290 374 M
290 382.68 L
S
GR
GS
[0.75 0 0 0.75 0 0] CT
0.149 GC
2 setlinecap
1 LJ
0.667 LW
N
333.4 374 M
333.4 382.68 L
S
GR
GS
[0.75 0 0 0.75 0 0] CT
0.149 GC
2 setlinecap
1 LJ
0.667 LW
N
376.8 374 M
376.8 382.68 L
S
GR
GS
[0.75 0 0 0.75 0 0] CT
0.149 GC
2 setlinecap
1 LJ
0.667 LW
N
420.2 374 M
420.2 382.68 L
S
GR
GS
[0.75 0 0 0.75 0 0] CT
0.149 GC
2 setlinecap
1 LJ
0.667 LW
N
463.6 374 M
463.6 382.68 L
S
GR
GS
[0.75 0 0 0.75 0 0] CT
0.149 GC
2 setlinecap
1 LJ
0.667 LW
N
507 374 M
507 382.68 L
S
GR
GS
[0.75 0 0 0.75 0 0] CT
0.149 GC
2 setlinecap
1 LJ
0.667 LW
N
81.68 374 M
81.68 378.34 L
S
GR
GS
[0.75 0 0 0.75 0 0] CT
0.149 GC
2 setlinecap
1 LJ
0.667 LW
N
90.36 374 M
90.36 378.34 L
S
GR
GS
[0.75 0 0 0.75 0 0] CT
0.149 GC
2 setlinecap
1 LJ
0.667 LW
N
99.04 374 M
99.04 378.34 L
S
GR
GS
[0.75 0 0 0.75 0 0] CT
0.149 GC
2 setlinecap
1 LJ
0.667 LW
N
107.72 374 M
107.72 378.34 L
S
GR
GS
[0.75 0 0 0.75 0 0] CT
0.149 GC
2 setlinecap
1 LJ
0.667 LW
N
125.08 374 M
125.08 378.34 L
S
GR
GS
[0.75 0 0 0.75 0 0] CT
0.149 GC
2 setlinecap
1 LJ
0.667 LW
N
133.76 374 M
133.76 378.34 L
S
GR
GS
[0.75 0 0 0.75 0 0] CT
0.149 GC
2 setlinecap
1 LJ
0.667 LW
N
142.44 374 M
142.44 378.34 L
S
GR
GS
[0.75 0 0 0.75 0 0] CT
0.149 GC
2 setlinecap
1 LJ
0.667 LW
N
151.12 374 M
151.12 378.34 L
S
GR
GS
[0.75 0 0 0.75 0 0] CT
0.149 GC
2 setlinecap
1 LJ
0.667 LW
N
168.48 374 M
168.48 378.34 L
S
GR
GS
[0.75 0 0 0.75 0 0] CT
0.149 GC
2 setlinecap
1 LJ
0.667 LW
N
177.16 374 M
177.16 378.34 L
S
GR
GS
[0.75 0 0 0.75 0 0] CT
0.149 GC
2 setlinecap
1 LJ
0.667 LW
N
185.84 374 M
185.84 378.34 L
S
GR
GS
[0.75 0 0 0.75 0 0] CT
0.149 GC
2 setlinecap
1 LJ
0.667 LW
N
194.52 374 M
194.52 378.34 L
S
GR
GS
[0.75 0 0 0.75 0 0] CT
0.149 GC
2 setlinecap
1 LJ
0.667 LW
N
211.88 374 M
211.88 378.34 L
S
GR
GS
[0.75 0 0 0.75 0 0] CT
0.149 GC
2 setlinecap
1 LJ
0.667 LW
N
220.56 374 M
220.56 378.34 L
S
GR
GS
[0.75 0 0 0.75 0 0] CT
0.149 GC
2 setlinecap
1 LJ
0.667 LW
N
229.24 374 M
229.24 378.34 L
S
GR
GS
[0.75 0 0 0.75 0 0] CT
0.149 GC
2 setlinecap
1 LJ
0.667 LW
N
237.92 374 M
237.92 378.34 L
S
GR
GS
[0.75 0 0 0.75 0 0] CT
0.149 GC
2 setlinecap
1 LJ
0.667 LW
N
255.28 374 M
255.28 378.34 L
S
GR
GS
[0.75 0 0 0.75 0 0] CT
0.149 GC
2 setlinecap
1 LJ
0.667 LW
N
263.96 374 M
263.96 378.34 L
S
GR
GS
[0.75 0 0 0.75 0 0] CT
0.149 GC
2 setlinecap
1 LJ
0.667 LW
N
272.64 374 M
272.64 378.34 L
S
GR
GS
[0.75 0 0 0.75 0 0] CT
0.149 GC
2 setlinecap
1 LJ
0.667 LW
N
281.32 374 M
281.32 378.34 L
S
GR
GS
[0.75 0 0 0.75 0 0] CT
0.149 GC
2 setlinecap
1 LJ
0.667 LW
N
298.68 374 M
298.68 378.34 L
S
GR
GS
[0.75 0 0 0.75 0 0] CT
0.149 GC
2 setlinecap
1 LJ
0.667 LW
N
307.36 374 M
307.36 378.34 L
S
GR
GS
[0.75 0 0 0.75 0 0] CT
0.149 GC
2 setlinecap
1 LJ
0.667 LW
N
316.04 374 M
316.04 378.34 L
S
GR
GS
[0.75 0 0 0.75 0 0] CT
0.149 GC
2 setlinecap
1 LJ
0.667 LW
N
324.72 374 M
324.72 378.34 L
S
GR
GS
[0.75 0 0 0.75 0 0] CT
0.149 GC
2 setlinecap
1 LJ
0.667 LW
N
342.08 374 M
342.08 378.34 L
S
GR
GS
[0.75 0 0 0.75 0 0] CT
0.149 GC
2 setlinecap
1 LJ
0.667 LW
N
350.76 374 M
350.76 378.34 L
S
GR
GS
[0.75 0 0 0.75 0 0] CT
0.149 GC
2 setlinecap
1 LJ
0.667 LW
N
359.44 374 M
359.44 378.34 L
S
GR
GS
[0.75 0 0 0.75 0 0] CT
0.149 GC
2 setlinecap
1 LJ
0.667 LW
N
368.12 374 M
368.12 378.34 L
S
GR
GS
[0.75 0 0 0.75 0 0] CT
0.149 GC
2 setlinecap
1 LJ
0.667 LW
N
385.48 374 M
385.48 378.34 L
S
GR
GS
[0.75 0 0 0.75 0 0] CT
0.149 GC
2 setlinecap
1 LJ
0.667 LW
N
394.16 374 M
394.16 378.34 L
S
GR
GS
[0.75 0 0 0.75 0 0] CT
0.149 GC
2 setlinecap
1 LJ
0.667 LW
N
402.84 374 M
402.84 378.34 L
S
GR
GS
[0.75 0 0 0.75 0 0] CT
0.149 GC
2 setlinecap
1 LJ
0.667 LW
N
411.52 374 M
411.52 378.34 L
S
GR
GS
[0.75 0 0 0.75 0 0] CT
0.149 GC
2 setlinecap
1 LJ
0.667 LW
N
428.88 374 M
428.88 378.34 L
S
GR
GS
[0.75 0 0 0.75 0 0] CT
0.149 GC
2 setlinecap
1 LJ
0.667 LW
N
437.56 374 M
437.56 378.34 L
S
GR
GS
[0.75 0 0 0.75 0 0] CT
0.149 GC
2 setlinecap
1 LJ
0.667 LW
N
446.24 374 M
446.24 378.34 L
S
GR
GS
[0.75 0 0 0.75 0 0] CT
0.149 GC
2 setlinecap
1 LJ
0.667 LW
N
454.92 374 M
454.92 378.34 L
S
GR
GS
[0.75 0 0 0.75 0 0] CT
0.149 GC
2 setlinecap
1 LJ
0.667 LW
N
472.28 374 M
472.28 378.34 L
S
GR
GS
[0.75 0 0 0.75 0 0] CT
0.149 GC
2 setlinecap
1 LJ
0.667 LW
N
480.96 374 M
480.96 378.34 L
S
GR
GS
[0.75 0 0 0.75 0 0] CT
0.149 GC
2 setlinecap
1 LJ
0.667 LW
N
489.64 374 M
489.64 378.34 L
S
GR
GS
[0.75 0 0 0.75 0 0] CT
0.149 GC
2 setlinecap
1 LJ
0.667 LW
N
498.32 374 M
498.32 378.34 L
S
GR
GS
[0.75 0 0 0.75 54.75 291.01] CT
0.149 GC
/Helvetica 13.333 F
GS
[1 0 0 1 0 0] CT
-4 14 moveto 
1 -1 scale
(0) t 
GR
GR
GS
[0.75 0 0 0.75 87.3 291.01] CT
0.149 GC
/Helvetica 13.333 F
GS
[1 0 0 1 0 0] CT
-9.5 14 moveto 
1 -1 scale
(0.1) t 
GR
GR
GS
[0.75 0 0 0.75 119.85 291.01] CT
0.149 GC
/Helvetica 13.333 F
GS
[1 0 0 1 0 0] CT
-9.5 14 moveto 
1 -1 scale
(0.2) t 
GR
GR
GS
[0.75 0 0 0.75 152.40001 291.01] CT
0.149 GC
/Helvetica 13.333 F
GS
[1 0 0 1 0 0] CT
-9.5 14 moveto 
1 -1 scale
(0.3) t 
GR
GR
GS
[0.75 0 0 0.75 184.95 291.01] CT
0.149 GC
/Helvetica 13.333 F
GS
[1 0 0 1 0 0] CT
-9.5 14 moveto 
1 -1 scale
(0.4) t 
GR
GR
GS
[0.75 0 0 0.75 217.5 291.01] CT
0.149 GC
/Helvetica 13.333 F
GS
[1 0 0 1 0 0] CT
-9.5 14 moveto 
1 -1 scale
(0.5) t 
GR
GR
GS
[0.75 0 0 0.75 250.05002 291.01] CT
0.149 GC
/Helvetica 13.333 F
GS
[1 0 0 1 0 0] CT
-9.5 14 moveto 
1 -1 scale
(0.6) t 
GR
GR
GS
[0.75 0 0 0.75 282.59999 291.01] CT
0.149 GC
/Helvetica 13.333 F
GS
[1 0 0 1 0 0] CT
-9.5 14 moveto 
1 -1 scale
(0.7) t 
GR
GR
GS
[0.75 0 0 0.75 315.15001 291.01] CT
0.149 GC
/Helvetica 13.333 F
GS
[1 0 0 1 0 0] CT
-9.5 14 moveto 
1 -1 scale
(0.8) t 
GR
GR
GS
[0.75 0 0 0.75 347.69998 291.01] CT
0.149 GC
/Helvetica 13.333 F
GS
[1 0 0 1 0 0] CT
-9.5 14 moveto 
1 -1 scale
(0.9) t 
GR
GR
GS
[0.75 0 0 0.75 380.25 291.01] CT
0.149 GC
/Helvetica 13.333 F
GS
[1 0 0 1 0 0] CT
-4 14 moveto 
1 -1 scale
(1) t 
GR
GR
GS
[0.75 0 0 0.75 0 0] CT
0.149 GC
2 setlinecap
1 LJ
0.667 LW
N
73 374 M
73 31 L
S
GR
GS
[0.75 0 0 0.75 0 0] CT
0.149 GC
2 setlinecap
1 LJ
0.667 LW
N
73 374 M
64.32 374 L
S
GR
GS
[0.75 0 0 0.75 0 0] CT
0.149 GC
2 setlinecap
1 LJ
0.667 LW
N
73 335.889 M
64.32 335.889 L
S
GR
GS
[0.75 0 0 0.75 0 0] CT
0.149 GC
2 setlinecap
1 LJ
0.667 LW
N
73 297.778 M
64.32 297.778 L
S
GR
GS
[0.75 0 0 0.75 0 0] CT
0.149 GC
2 setlinecap
1 LJ
0.667 LW
N
73 259.667 M
64.32 259.667 L
S
GR
GS
[0.75 0 0 0.75 0 0] CT
0.149 GC
2 setlinecap
1 LJ
0.667 LW
N
73 221.556 M
64.32 221.556 L
S
GR
GS
[0.75 0 0 0.75 0 0] CT
0.149 GC
2 setlinecap
1 LJ
0.667 LW
N
73 183.444 M
64.32 183.444 L
S
GR
GS
[0.75 0 0 0.75 0 0] CT
0.149 GC
2 setlinecap
1 LJ
0.667 LW
N
73 145.333 M
64.32 145.333 L
S
GR
GS
[0.75 0 0 0.75 0 0] CT
0.149 GC
2 setlinecap
1 LJ
0.667 LW
N
73 107.222 M
64.32 107.222 L
S
GR
GS
[0.75 0 0 0.75 0 0] CT
0.149 GC
2 setlinecap
1 LJ
0.667 LW
N
73 69.111 M
64.32 69.111 L
S
GR
GS
[0.75 0 0 0.75 0 0] CT
0.149 GC
2 setlinecap
1 LJ
0.667 LW
N
73 31 M
64.32 31 L
S
GR
GS
[0.75 0 0 0.75 0 0] CT
0.149 GC
2 setlinecap
1 LJ
0.667 LW
N
73 366.378 M
68.66 366.378 L
S
GR
GS
[0.75 0 0 0.75 0 0] CT
0.149 GC
2 setlinecap
1 LJ
0.667 LW
N
73 358.756 M
68.66 358.756 L
S
GR
GS
[0.75 0 0 0.75 0 0] CT
0.149 GC
2 setlinecap
1 LJ
0.667 LW
N
73 351.133 M
68.66 351.133 L
S
GR
GS
[0.75 0 0 0.75 0 0] CT
0.149 GC
2 setlinecap
1 LJ
0.667 LW
N
73 343.511 M
68.66 343.511 L
S
GR
GS
[0.75 0 0 0.75 0 0] CT
0.149 GC
2 setlinecap
1 LJ
0.667 LW
N
73 328.267 M
68.66 328.267 L
S
GR
GS
[0.75 0 0 0.75 0 0] CT
0.149 GC
2 setlinecap
1 LJ
0.667 LW
N
73 320.644 M
68.66 320.644 L
S
GR
GS
[0.75 0 0 0.75 0 0] CT
0.149 GC
2 setlinecap
1 LJ
0.667 LW
N
73 313.022 M
68.66 313.022 L
S
GR
GS
[0.75 0 0 0.75 0 0] CT
0.149 GC
2 setlinecap
1 LJ
0.667 LW
N
73 305.4 M
68.66 305.4 L
S
GR
GS
[0.75 0 0 0.75 0 0] CT
0.149 GC
2 setlinecap
1 LJ
0.667 LW
N
73 290.156 M
68.66 290.156 L
S
GR
GS
[0.75 0 0 0.75 0 0] CT
0.149 GC
2 setlinecap
1 LJ
0.667 LW
N
73 282.533 M
68.66 282.533 L
S
GR
GS
[0.75 0 0 0.75 0 0] CT
0.149 GC
2 setlinecap
1 LJ
0.667 LW
N
73 274.911 M
68.66 274.911 L
S
GR
GS
[0.75 0 0 0.75 0 0] CT
0.149 GC
2 setlinecap
1 LJ
0.667 LW
N
73 267.289 M
68.66 267.289 L
S
GR
GS
[0.75 0 0 0.75 0 0] CT
0.149 GC
2 setlinecap
1 LJ
0.667 LW
N
73 252.044 M
68.66 252.044 L
S
GR
GS
[0.75 0 0 0.75 0 0] CT
0.149 GC
2 setlinecap
1 LJ
0.667 LW
N
73 244.422 M
68.66 244.422 L
S
GR
GS
[0.75 0 0 0.75 0 0] CT
0.149 GC
2 setlinecap
1 LJ
0.667 LW
N
73 236.8 M
68.66 236.8 L
S
GR
GS
[0.75 0 0 0.75 0 0] CT
0.149 GC
2 setlinecap
1 LJ
0.667 LW
N
73 229.178 M
68.66 229.178 L
S
GR
GS
[0.75 0 0 0.75 0 0] CT
0.149 GC
2 setlinecap
1 LJ
0.667 LW
N
73 213.933 M
68.66 213.933 L
S
GR
GS
[0.75 0 0 0.75 0 0] CT
0.149 GC
2 setlinecap
1 LJ
0.667 LW
N
73 206.311 M
68.66 206.311 L
S
GR
GS
[0.75 0 0 0.75 0 0] CT
0.149 GC
2 setlinecap
1 LJ
0.667 LW
N
73 198.689 M
68.66 198.689 L
S
GR
GS
[0.75 0 0 0.75 0 0] CT
0.149 GC
2 setlinecap
1 LJ
0.667 LW
N
73 191.067 M
68.66 191.067 L
S
GR
GS
[0.75 0 0 0.75 0 0] CT
0.149 GC
2 setlinecap
1 LJ
0.667 LW
N
73 175.822 M
68.66 175.822 L
S
GR
GS
[0.75 0 0 0.75 0 0] CT
0.149 GC
2 setlinecap
1 LJ
0.667 LW
N
73 168.2 M
68.66 168.2 L
S
GR
GS
[0.75 0 0 0.75 0 0] CT
0.149 GC
2 setlinecap
1 LJ
0.667 LW
N
73 160.578 M
68.66 160.578 L
S
GR
GS
[0.75 0 0 0.75 0 0] CT
0.149 GC
2 setlinecap
1 LJ
0.667 LW
N
73 152.956 M
68.66 152.956 L
S
GR
GS
[0.75 0 0 0.75 0 0] CT
0.149 GC
2 setlinecap
1 LJ
0.667 LW
N
73 137.711 M
68.66 137.711 L
S
GR
GS
[0.75 0 0 0.75 0 0] CT
0.149 GC
2 setlinecap
1 LJ
0.667 LW
N
73 130.089 M
68.66 130.089 L
S
GR
GS
[0.75 0 0 0.75 0 0] CT
0.149 GC
2 setlinecap
1 LJ
0.667 LW
N
73 122.467 M
68.66 122.467 L
S
GR
GS
[0.75 0 0 0.75 0 0] CT
0.149 GC
2 setlinecap
1 LJ
0.667 LW
N
73 114.844 M
68.66 114.844 L
S
GR
GS
[0.75 0 0 0.75 0 0] CT
0.149 GC
2 setlinecap
1 LJ
0.667 LW
N
73 99.6 M
68.66 99.6 L
S
GR
GS
[0.75 0 0 0.75 0 0] CT
0.149 GC
2 setlinecap
1 LJ
0.667 LW
N
73 91.978 M
68.66 91.978 L
S
GR
GS
[0.75 0 0 0.75 0 0] CT
0.149 GC
2 setlinecap
1 LJ
0.667 LW
N
73 84.356 M
68.66 84.356 L
S
GR
GS
[0.75 0 0 0.75 0 0] CT
0.149 GC
2 setlinecap
1 LJ
0.667 LW
N
73 76.733 M
68.66 76.733 L
S
GR
GS
[0.75 0 0 0.75 0 0] CT
0.149 GC
2 setlinecap
1 LJ
0.667 LW
N
73 61.489 M
68.66 61.489 L
S
GR
GS
[0.75 0 0 0.75 0 0] CT
0.149 GC
2 setlinecap
1 LJ
0.667 LW
N
73 53.867 M
68.66 53.867 L
S
GR
GS
[0.75 0 0 0.75 0 0] CT
0.149 GC
2 setlinecap
1 LJ
0.667 LW
N
73 46.244 M
68.66 46.244 L
S
GR
GS
[0.75 0 0 0.75 0 0] CT
0.149 GC
2 setlinecap
1 LJ
0.667 LW
N
73 38.622 M
68.66 38.622 L
S
GR
GS
[0.75 0 0 0.75 44.24 280.5] CT
0.149 GC
/Helvetica 13.333 F
GS
[1 0 0 1 0 0] CT
-8 5.5 moveto 
1 -1 scale
(0) t 
GR
GR
GS
[0.75 0 0 0.75 44.24 251.91666] CT
0.149 GC
/Helvetica 13.333 F
GS
[1 0 0 1 0 0] CT
-26 5.5 moveto 
1 -1 scale
(0.05) t 
GR
GR
GS
[0.75 0 0 0.75 44.24 223.33333] CT
0.149 GC
/Helvetica 13.333 F
GS
[1 0 0 1 0 0] CT
-19 5.5 moveto 
1 -1 scale
(0.1) t 
GR
GR
GS
[0.75 0 0 0.75 44.24 194.74999] CT
0.149 GC
/Helvetica 13.333 F
GS
[1 0 0 1 0 0] CT
-26 5.5 moveto 
1 -1 scale
(0.15) t 
GR
GR
GS
[0.75 0 0 0.75 44.24 166.16667] CT
0.149 GC
/Helvetica 13.333 F
GS
[1 0 0 1 0 0] CT
-19 5.5 moveto 
1 -1 scale
(0.2) t 
GR
GR
GS
[0.75 0 0 0.75 44.24 137.58333] CT
0.149 GC
/Helvetica 13.333 F
GS
[1 0 0 1 0 0] CT
-26 5.5 moveto 
1 -1 scale
(0.25) t 
GR
GR
GS
[0.75 0 0 0.75 44.24 109] CT
0.149 GC
/Helvetica 13.333 F
GS
[1 0 0 1 0 0] CT
-19 5.5 moveto 
1 -1 scale
(0.3) t 
GR
GR
GS
[0.75 0 0 0.75 44.24 80.41667] CT
0.149 GC
/Helvetica 13.333 F
GS
[1 0 0 1 0 0] CT
-26 5.5 moveto 
1 -1 scale
(0.35) t 
GR
GR
GS
[0.75 0 0 0.75 44.24 51.83333] CT
0.149 GC
/Helvetica 13.333 F
GS
[1 0 0 1 0 0] CT
-19 5.5 moveto 
1 -1 scale
(0.4) t 
GR
GR
GS
[0.75 0 0 0.75 44.24 23.25001] CT
0.149 GC
/Helvetica 13.333 F
GS
[1 0 0 1 0 0] CT
-26 5.5 moveto 
1 -1 scale
(0.45) t 
GR
GR
GS
[0.75 0 0 0.75 0 0] CT
0 0.447 0.741 RC
[10 6] 0 setdash
2 LJ
0.667 LW
N
73 374 M
87.966 347.732 L
102.931 321.564 L
117.897 295.602 L
132.862 269.963 L
147.828 244.775 L
162.793 220.178 L
177.759 196.321 L
192.724 173.368 L
207.69 151.495 L
222.655 130.894 L
237.621 111.77 L
252.586 94.344 L
267.552 78.857 L
282.517 65.565 L
297.483 54.743 L
312.448 46.69 L
327.414 41.722 L
342.379 40.18 L
357.345 42.429 L
372.31 48.859 L
387.276 59.888 L
402.241 75.962 L
417.207 97.557 L
432.172 125.181 L
447.138 159.376 L
462.103 200.72 L
477.069 249.828 L
492.034 307.356 L
507 374 L
S
GR
GS
[0.75 0 0 0.75 0 0] CT
0.851 0.325 0.098 RC
1 LJ
2 LW
N
73 352.97 M
87.966 332.156 L
102.931 311.771 L
117.897 292.024 L
132.862 273.118 L
147.828 255.247 L
162.793 238.593 L
177.759 223.329 L
192.724 209.609 L
207.69 197.577 L
222.655 187.353 L
237.621 179.045 L
252.586 172.737 L
267.552 168.494 L
282.517 166.359 L
297.483 166.355 L
312.448 168.482 L
327.414 172.717 L
342.379 179.019 L
357.345 187.322 L
372.31 197.54 L
387.276 209.57 L
402.241 223.288 L
417.207 238.553 L
432.172 255.209 L
447.138 273.084 L
462.103 291.995 L
477.069 311.748 L
492.034 332.14 L
507 352.962 L
S
GR
GS
[0.75 0 0 0.75 0 0] CT
0.929 0.694 0.125 RC
1 LJ
2 LW
N
73 341.747 M
87.966 309.824 L
102.931 278.557 L
117.897 248.266 L
132.862 219.26 L
147.828 191.838 L
162.793 166.278 L
177.759 142.844 L
192.724 121.776 L
207.69 103.29 L
222.655 87.576 L
237.621 74.797 L
252.586 65.084 L
267.552 58.537 L
282.517 55.226 L
297.483 55.185 L
312.448 58.417 L
327.414 64.888 L
342.379 74.535 L
357.345 87.258 L
372.31 102.929 L
387.276 121.386 L
402.241 142.442 L
417.207 165.88 L
432.172 191.46 L
447.138 218.919 L
462.103 247.974 L
477.069 278.327 L
492.034 309.665 L
507 341.666 L
S
GR
GS
[0.75 0 0 0.75 0 0] CT
0.494 0.184 0.557 RC
1 LJ
2 LW
N
73 342.105 M
87.966 310.525 L
102.931 279.572 L
117.897 249.553 L
132.862 220.768 L
147.828 193.503 L
162.793 168.033 L
177.759 144.617 L
192.724 123.494 L
207.69 104.882 L
222.655 88.977 L
237.621 75.949 L
252.586 65.94 L
267.552 59.062 L
282.517 55.398 L
297.483 54.997 L
312.448 57.875 L
327.414 64.016 L
342.379 73.367 L
357.345 85.842 L
372.31 101.322 L
387.276 119.655 L
402.241 140.657 L
417.207 164.114 L
432.172 189.785 L
447.138 217.403 L
462.103 246.68 L
477.069 277.307 L
492.034 308.961 L
507 341.307 L
S
GR
GS
[0.75 0 0 0.75 0 0] CT
0.467 0.675 0.188 RC
1 LJ
2 LW
N
73 345.147 M
87.966 316.484 L
102.931 288.204 L
117.897 260.506 L
132.862 233.592 L
147.828 207.674 L
162.793 182.971 L
177.759 159.71 L
192.724 138.124 L
207.69 118.451 L
222.655 100.929 L
237.621 85.794 L
252.586 73.276 L
267.552 63.588 L
282.517 56.929 L
297.483 53.47 L
312.448 53.353 L
327.414 56.683 L
342.379 63.523 L
357.345 73.891 L
372.31 87.754 L
387.276 105.024 L
402.241 125.562 L
417.207 149.174 L
432.172 175.611 L
447.138 204.575 L
462.103 235.724 L
477.069 268.672 L
492.034 303 L
507 338.264 L
S
GR
GS
[0.75 0 0 0.75 0 0] CT
0.302 0.745 0.933 RC
1 LJ
2 LW
N
73 353.252 M
87.966 332.362 L
102.931 311.206 L
117.897 289.69 L
132.862 267.765 L
147.828 245.437 L
162.793 222.778 L
177.759 199.933 L
192.724 177.116 L
207.69 154.616 L
222.655 132.787 L
237.621 112.041 L
252.586 92.836 L
267.552 75.662 L
282.517 61.02 L
297.483 49.411 L
312.448 41.308 L
327.414 37.146 L
342.379 37.292 L
357.345 42.04 L
372.31 51.585 L
387.276 66.019 L
402.241 85.318 L
417.207 109.338 L
432.172 137.815 L
447.138 170.369 L
462.103 206.508 L
477.069 245.643 L
492.034 287.102 L
507 330.149 L
S
GR
GS
[0.75 0 0 0.75 0 0] CT
1 GC
N
350 326 M
350 233 L
241 233 L
241 326 L
cp
f
GR
GS
[0.75 0 0 0.75 215.79904 181.65742] CT
N
1.953 4.755 M
1.969 4.614 2.125 4.614 QT
2.141 4.614 2.352 4.732 QT
2.563 4.849 2.82 4.942 QT
3.078 5.036 3.328 5.036 QT
3.563 5.036 3.711 4.841 QT
3.859 4.646 3.859 4.427 QT
3.859 4.114 3.531 3.989 QT
1.484 3.192 L
0.969 2.989 0.625 2.583 QT
0.281 2.177 0.281 1.661 QT
0.281 1.192 0.523 0.692 QT
0.766 0.192 1.156 -0.214 QT
1.547 -0.62 1.984 -0.87 QT
1.625 -1.089 1.43 -1.417 QT
1.234 -1.745 1.234 -2.151 QT
1.234 -2.573 1.406 -2.933 QT
1.578 -3.292 1.883 -3.597 QT
2.188 -3.901 2.555 -4.104 QT
2.922 -4.308 3.297 -4.417 QT
3.234 -4.667 3.234 -4.854 QT
3.234 -5.511 3.5 -5.511 QT
3.563 -5.511 3.609 -5.464 QT
3.656 -5.417 3.656 -5.354 QT
3.656 -5.292 3.625 -5.097 QT
3.594 -4.901 3.594 -4.854 QT
3.594 -4.651 3.641 -4.479 QT
3.953 -4.558 4.234 -4.558 QT
5.344 -4.558 5.344 -4.214 QT
5.344 -3.808 4.109 -3.808 QT
3.734 -3.808 3.5 -4.058 QT
3.156 -3.886 2.867 -3.565 QT
2.578 -3.245 2.414 -2.847 QT
2.25 -2.448 2.25 -2.042 QT
2.25 -1.479 2.563 -1.136 QT
3 -1.292 3.422 -1.292 QT
4.531 -1.292 4.531 -0.948 QT
4.531 -0.542 3.297 -0.542 QT
2.797 -0.542 2.359 -0.698 QT
1.828 -0.401 1.383 0.185 QT
0.938 0.771 0.938 1.302 QT
0.938 1.661 1.195 1.927 QT
1.453 2.192 1.828 2.349 QT
3.953 3.177 L
4.219 3.286 4.398 3.521 QT
4.578 3.755 4.578 4.052 QT
4.578 4.536 4.195 4.942 QT
3.813 5.349 3.328 5.349 QT
3.172 5.349 2.828 5.263 QT
2.484 5.177 2.219 5.044 QT
1.953 4.911 1.953 4.755 QT
cp
2.938 -0.917 M
3.094 -0.854 3.328 -0.854 QT
3.906 -0.854 4.156 -0.917 QT
3.922 -0.964 3.406 -0.964 QT
3.203 -0.964 2.938 -0.917 QT
cp
3.844 -4.183 M
3.953 -4.12 4.141 -4.12 QT
4.719 -4.12 4.969 -4.183 QT
3.844 -4.183 L
cp
f
GR
GS
[0.75 0 0 0.75 215.79904 181.65742] CT
N
13.521 5.864 M
12.849 5.333 12.372 4.646 QT
11.896 3.958 11.583 3.185 QT
11.271 2.411 11.122 1.567 QT
10.974 0.724 10.974 -0.12 QT
10.974 -0.979 11.122 -1.823 QT
11.271 -2.667 11.583 -3.448 QT
11.896 -4.229 12.388 -4.909 QT
12.88 -5.589 13.521 -6.104 QT
13.521 -6.12 13.583 -6.12 QT
13.693 -6.12 L
13.724 -6.12 13.755 -6.089 QT
13.786 -6.058 13.786 -6.011 QT
13.786 -5.964 13.771 -5.933 QT
13.177 -5.37 12.786 -4.714 QT
12.396 -4.058 12.161 -3.315 QT
11.927 -2.573 11.818 -1.776 QT
11.708 -0.979 11.708 -0.12 QT
11.708 3.692 13.755 5.677 QT
13.786 5.708 13.786 5.771 QT
13.786 5.802 13.755 5.841 QT
13.724 5.88 13.693 5.88 QT
13.583 5.88 L
13.521 5.88 13.521 5.864 QT
cp
f
GR
GS
[0.75 0 0 0.75 215.79904 181.65742] CT
N
17.453 3.021 M
16.719 3.021 16.109 2.63 QT
15.5 2.239 15.148 1.599 QT
14.797 0.958 14.797 0.255 QT
14.797 -0.448 15.117 -1.081 QT
15.438 -1.714 16.008 -2.104 QT
16.578 -2.495 17.281 -2.495 QT
17.844 -2.495 18.25 -2.315 QT
18.656 -2.136 18.922 -1.808 QT
19.188 -1.479 19.32 -1.034 QT
19.453 -0.589 19.453 -0.058 QT
19.453 0.114 19.328 0.114 QT
15.859 0.114 L
15.859 0.239 L
15.859 1.239 16.258 1.95 QT
16.656 2.661 17.563 2.661 QT
17.938 2.661 18.25 2.497 QT
18.563 2.333 18.789 2.044 QT
19.016 1.755 19.109 1.411 QT
19.109 1.38 19.148 1.341 QT
19.188 1.302 19.219 1.302 QT
19.328 1.302 L
19.453 1.302 19.453 1.458 QT
19.281 2.146 18.719 2.583 QT
18.156 3.021 17.453 3.021 QT
cp
15.859 -0.198 M
18.594 -0.198 L
18.594 -0.636 18.469 -1.104 QT
18.344 -1.573 18.055 -1.878 QT
17.766 -2.183 17.281 -2.183 QT
16.609 -2.183 16.234 -1.55 QT
15.859 -0.917 15.859 -0.198 QT
cp
f
GR
GS
[0.75 0 0 0.75 215.79904 181.65742] CT
N
19.943 2.88 M
19.943 2.458 L
20.411 2.458 20.81 2.278 QT
21.208 2.099 21.49 1.755 QT
22.583 0.364 L
21.161 -1.479 L
20.958 -1.745 20.708 -1.808 QT
20.458 -1.87 20.005 -1.87 QT
20.005 -2.292 L
22.505 -2.292 L
22.505 -1.87 L
22.349 -1.87 22.208 -1.8 QT
22.068 -1.729 22.068 -1.604 QT
22.068 -1.558 22.099 -1.479 QT
23.068 -0.245 L
23.786 -1.167 L
23.927 -1.339 23.927 -1.511 QT
23.927 -1.667 23.833 -1.768 QT
23.74 -1.87 23.583 -1.87 QT
23.583 -2.292 L
25.786 -2.292 L
25.786 -1.87 L
25.333 -1.87 24.927 -1.69 QT
24.521 -1.511 24.24 -1.167 QT
23.286 0.052 L
24.818 2.083 L
25.052 2.333 25.294 2.396 QT
25.536 2.458 25.99 2.458 QT
25.99 2.88 L
23.505 2.88 L
23.505 2.458 L
23.646 2.458 23.779 2.388 QT
23.911 2.317 23.911 2.177 QT
23.911 2.13 23.88 2.083 QT
22.802 0.646 L
21.943 1.755 L
21.802 1.896 21.802 2.099 QT
21.802 2.239 21.904 2.349 QT
22.005 2.458 22.146 2.458 QT
22.146 2.88 L
19.943 2.88 L
cp
f
GR
GS
[0.75 0 0 0.75 215.79904 181.65742] CT
N
26.62 1.708 M
26.62 0.989 27.182 0.536 QT
27.745 0.083 28.534 -0.097 QT
29.323 -0.276 30.026 -0.276 QT
30.026 -0.776 L
30.026 -1.12 29.878 -1.44 QT
29.729 -1.761 29.44 -1.972 QT
29.151 -2.183 28.807 -2.183 QT
28.01 -2.183 27.589 -1.823 QT
27.823 -1.823 27.971 -1.651 QT
28.12 -1.479 28.12 -1.245 QT
28.12 -1.011 27.948 -0.839 QT
27.776 -0.667 27.542 -0.667 QT
27.307 -0.667 27.135 -0.839 QT
26.964 -1.011 26.964 -1.245 QT
26.964 -1.886 27.534 -2.19 QT
28.104 -2.495 28.807 -2.495 QT
29.292 -2.495 29.784 -2.292 QT
30.276 -2.089 30.589 -1.698 QT
30.901 -1.308 30.901 -0.792 QT
30.901 1.911 L
30.901 2.146 31.003 2.341 QT
31.104 2.536 31.307 2.536 QT
31.51 2.536 31.604 2.333 QT
31.698 2.13 31.698 1.911 QT
31.698 1.146 L
32.057 1.146 L
32.057 1.911 L
32.057 2.177 31.917 2.419 QT
31.776 2.661 31.534 2.81 QT
31.292 2.958 31.026 2.958 QT
30.667 2.958 30.417 2.685 QT
30.167 2.411 30.135 2.036 QT
29.917 2.474 29.479 2.747 QT
29.042 3.021 28.557 3.021 QT
28.089 3.021 27.651 2.88 QT
27.214 2.739 26.917 2.45 QT
26.62 2.161 26.62 1.708 QT
cp
27.589 1.708 M
27.589 2.13 27.901 2.411 QT
28.214 2.692 28.635 2.692 QT
29.026 2.692 29.339 2.505 QT
29.651 2.317 29.839 1.982 QT
30.026 1.646 30.026 1.271 QT
30.026 0.021 L
29.479 0.021 28.909 0.2 QT
28.339 0.38 27.964 0.763 QT
27.589 1.146 27.589 1.708 QT
cp
f
GR
GS
[0.75 0 0 0.75 215.79904 181.65742] CT
N
32.448 2.88 M
32.448 2.458 L
32.854 2.458 33.12 2.396 QT
33.385 2.333 33.385 2.083 QT
33.385 -4.229 L
33.385 -4.542 33.292 -4.69 QT
33.198 -4.839 33.01 -4.87 QT
32.823 -4.901 32.448 -4.901 QT
32.448 -5.323 L
34.229 -5.448 L
34.229 0.255 L
35.839 -1.167 L
36.073 -1.386 36.073 -1.589 QT
36.073 -1.729 35.971 -1.8 QT
35.87 -1.87 35.729 -1.87 QT
35.729 -2.292 L
37.995 -2.292 L
37.995 -1.87 L
37.182 -1.87 36.354 -1.167 QT
35.51 -0.417 L
37.042 1.755 L
37.354 2.192 37.565 2.325 QT
37.776 2.458 38.276 2.458 QT
38.276 2.88 L
35.885 2.88 L
35.885 2.458 L
36.292 2.458 36.292 2.208 QT
36.292 2.021 36.073 1.755 QT
34.917 0.114 L
34.182 0.739 L
34.182 2.083 L
34.182 2.333 34.448 2.396 QT
34.714 2.458 35.12 2.458 QT
35.12 2.88 L
32.448 2.88 L
cp
f
GR
GS
[0.75 0 0 0.75 215.79904 181.65742] CT
N
39.688 1.442 M
39.688 -1.87 L
38.703 -1.87 L
38.703 -2.183 L
39.484 -2.183 39.852 -2.917 QT
40.219 -3.651 40.219 -4.511 QT
40.563 -4.511 L
40.563 -2.292 L
42.266 -2.292 L
42.266 -1.87 L
40.563 -1.87 L
40.563 1.411 L
40.563 1.911 40.734 2.286 QT
40.906 2.661 41.328 2.661 QT
41.75 2.661 41.93 2.263 QT
42.109 1.864 42.109 1.411 QT
42.109 0.708 L
42.453 0.708 L
42.453 1.442 L
42.453 1.817 42.313 2.185 QT
42.172 2.552 41.906 2.786 QT
41.641 3.021 41.25 3.021 QT
40.531 3.021 40.109 2.583 QT
39.688 2.146 39.688 1.442 QT
cp
f
GR
GS
[0.75 0 0 0.75 215.79904 181.65742] CT
N
43.917 5.88 M
43.807 5.88 43.807 5.771 QT
43.807 5.724 43.839 5.692 QT
45.886 3.692 45.886 -0.12 QT
45.886 -3.933 43.854 -5.917 QT
43.807 -5.948 43.807 -6.011 QT
43.807 -6.058 43.839 -6.089 QT
43.87 -6.12 43.917 -6.12 QT
44.026 -6.12 L
44.057 -6.12 44.089 -6.104 QT
44.948 -5.417 45.518 -4.448 QT
46.089 -3.479 46.362 -2.378 QT
46.636 -1.276 46.636 -0.12 QT
46.636 0.724 46.487 1.552 QT
46.339 2.38 46.026 3.177 QT
45.714 3.974 45.237 4.653 QT
44.761 5.333 44.089 5.864 QT
44.057 5.88 44.026 5.88 QT
43.917 5.88 L
cp
f
GR
GS
[0.75 0 0 0.75 0 0] CT
0 0.447 0.741 RC
[10 6] 0 setdash
2 LJ
0.667 LW
N
244.977 242.21 M
284.749 242.21 L
S
GR
GS
[0.75 0 0 0.75 215.79904 192.84446] CT
N
0.641 2.661 M
0.641 2.599 0.656 2.552 QT
2.391 -4.386 L
2.438 -4.589 2.453 -4.698 QT
2.453 -4.901 1.672 -4.901 QT
1.547 -4.901 1.547 -5.058 QT
1.547 -5.089 1.57 -5.159 QT
1.594 -5.229 1.625 -5.276 QT
1.656 -5.323 1.719 -5.323 QT
3.328 -5.448 L
3.375 -5.448 L
3.375 -5.433 3.414 -5.417 QT
3.453 -5.401 3.453 -5.386 QT
3.484 -5.323 3.484 -5.292 QT
2.219 -0.276 L
2.656 -0.464 3.313 -1.143 QT
3.969 -1.823 4.344 -2.12 QT
4.719 -2.417 5.281 -2.417 QT
5.609 -2.417 5.844 -2.19 QT
6.078 -1.964 6.078 -1.636 QT
6.078 -1.417 5.992 -1.237 QT
5.906 -1.058 5.75 -0.948 QT
5.594 -0.839 5.375 -0.839 QT
5.188 -0.839 5.055 -0.964 QT
4.922 -1.089 4.922 -1.276 QT
4.922 -1.558 5.125 -1.753 QT
5.328 -1.948 5.609 -1.948 QT
5.5 -2.12 5.25 -2.12 QT
4.906 -2.12 4.57 -1.909 QT
4.234 -1.698 3.852 -1.315 QT
3.469 -0.933 3.156 -0.612 QT
2.844 -0.292 2.563 -0.136 QT
3.281 -0.058 3.797 0.239 QT
4.313 0.536 4.313 1.13 QT
4.313 1.255 4.266 1.442 QT
4.172 1.896 4.172 2.161 QT
4.172 2.692 4.531 2.692 QT
4.969 2.692 5.195 2.224 QT
5.422 1.755 5.563 1.114 QT
5.594 1.052 5.672 1.052 QT
5.813 1.052 L
5.859 1.052 5.891 1.075 QT
5.922 1.099 5.922 1.146 QT
5.922 1.161 5.906 1.192 QT
5.453 3.021 4.516 3.021 QT
4.172 3.021 3.914 2.857 QT
3.656 2.692 3.516 2.419 QT
3.375 2.146 3.375 1.817 QT
3.375 1.614 3.422 1.411 QT
3.453 1.271 3.453 1.146 QT
3.453 0.692 3.047 0.45 QT
2.641 0.208 2.109 0.161 QT
1.5 2.599 L
1.453 2.786 1.32 2.903 QT
1.188 3.021 1.016 3.021 QT
0.859 3.021 0.75 2.911 QT
0.641 2.802 0.641 2.661 QT
cp
f
GR
GS
[0.75 0 0 0.75 215.79904 192.84446] CT
N
10.865 1.286 M
10.755 1.286 10.693 1.208 QT
10.63 1.13 10.63 1.052 QT
10.63 0.942 10.693 0.872 QT
10.755 0.802 10.865 0.802 QT
18.396 0.802 L
18.49 0.802 18.552 0.872 QT
18.615 0.942 18.615 1.052 QT
18.615 1.13 18.552 1.208 QT
18.49 1.286 18.396 1.286 QT
10.865 1.286 L
cp
10.865 -1.042 M
10.755 -1.042 10.693 -1.112 QT
10.63 -1.183 10.63 -1.292 QT
10.63 -1.37 10.693 -1.448 QT
10.755 -1.526 10.865 -1.526 QT
18.396 -1.526 L
18.49 -1.526 18.552 -1.448 QT
18.615 -1.37 18.615 -1.292 QT
18.615 -1.183 18.552 -1.112 QT
18.49 -1.042 18.396 -1.042 QT
10.865 -1.042 L
cp
f
GR
GS
[0.75 0 0 0.75 215.79904 192.84446] CT
N
23.734 2.88 M
23.734 2.458 L
25.234 2.458 25.234 2.083 QT
25.234 -4.229 L
24.625 -3.917 23.672 -3.917 QT
23.672 -4.339 L
25.141 -4.339 25.891 -5.12 QT
26.062 -5.12 L
26.094 -5.12 26.133 -5.081 QT
26.172 -5.042 26.172 -5.011 QT
26.172 2.083 L
26.172 2.458 27.672 2.458 QT
27.672 2.88 L
23.734 2.88 L
cp
f
GR
GS
[0.75 0 0 0.75 215.79904 192.84446] CT
N
31.625 3.146 M
30.156 3.146 29.625 1.935 QT
29.094 0.724 29.094 -0.948 QT
29.094 -1.995 29.281 -2.909 QT
29.469 -3.823 30.039 -4.472 QT
30.609 -5.12 31.625 -5.12 QT
32.422 -5.12 32.922 -4.729 QT
33.422 -4.339 33.687 -3.729 QT
33.953 -3.12 34.047 -2.417 QT
34.141 -1.714 34.141 -0.948 QT
34.141 0.083 33.953 0.982 QT
33.766 1.88 33.211 2.513 QT
32.656 3.146 31.625 3.146 QT
cp
31.625 2.833 M
32.297 2.833 32.625 2.146 QT
32.953 1.458 33.031 0.63 QT
33.109 -0.198 33.109 -1.136 QT
33.109 -2.042 33.031 -2.808 QT
32.953 -3.573 32.625 -4.19 QT
32.297 -4.808 31.625 -4.808 QT
30.953 -4.808 30.625 -4.183 QT
30.297 -3.558 30.219 -2.8 QT
30.141 -2.042 30.141 -1.136 QT
30.141 -0.479 30.172 0.114 QT
30.203 0.708 30.344 1.341 QT
30.484 1.974 30.797 2.403 QT
31.109 2.833 31.625 2.833 QT
cp
f
GR
GS
[0.75 0 0 0.75 0 0] CT
0.851 0.325 0.098 RC
1 LJ
2 LW
N
244.977 257.126 M
284.749 257.126 L
S
GR
GS
[0.75 0 0 0.75 215.79904 204.03149] CT
N
/f490262150{0.641 2.661 M
0.641 2.599 0.656 2.552 QT
2.391 -4.386 L
2.438 -4.589 2.453 -4.698 QT
2.453 -4.901 1.672 -4.901 QT
1.547 -4.901 1.547 -5.058 QT
1.547 -5.089 1.57 -5.159 QT
1.594 -5.229 1.625 -5.276 QT
1.656 -5.323 1.719 -5.323 QT
3.328 -5.448 L
3.375 -5.448 L
3.375 -5.433 3.414 -5.417 QT
3.453 -5.401 3.453 -5.386 QT
3.484 -5.323 3.484 -5.292 QT
2.219 -0.276 L
2.656 -0.464 3.313 -1.143 QT
3.969 -1.823 4.344 -2.12 QT
4.719 -2.417 5.281 -2.417 QT
5.609 -2.417 5.844 -2.19 QT
6.078 -1.964 6.078 -1.636 QT
6.078 -1.417 5.992 -1.237 QT
5.906 -1.058 5.75 -0.948 QT
5.594 -0.839 5.375 -0.839 QT
5.188 -0.839 5.055 -0.964 QT
4.922 -1.089 4.922 -1.276 QT
4.922 -1.558 5.125 -1.753 QT
5.328 -1.948 5.609 -1.948 QT
5.5 -2.12 5.25 -2.12 QT
4.906 -2.12 4.57 -1.909 QT
4.234 -1.698 3.852 -1.315 QT
3.469 -0.933 3.156 -0.612 QT
2.844 -0.292 2.563 -0.136 QT
3.281 -0.058 3.797 0.239 QT
4.313 0.536 4.313 1.13 QT
4.313 1.255 4.266 1.442 QT
4.172 1.896 4.172 2.161 QT
4.172 2.692 4.531 2.692 QT
4.969 2.692 5.195 2.224 QT
5.422 1.755 5.563 1.114 QT
5.594 1.052 5.672 1.052 QT
5.813 1.052 L
5.859 1.052 5.891 1.075 QT
5.922 1.099 5.922 1.146 QT
5.922 1.161 5.906 1.192 QT
5.453 3.021 4.516 3.021 QT
4.172 3.021 3.914 2.857 QT
3.656 2.692 3.516 2.419 QT
3.375 2.146 3.375 1.817 QT
3.375 1.614 3.422 1.411 QT
3.453 1.271 3.453 1.146 QT
3.453 0.692 3.047 0.45 QT
2.641 0.208 2.109 0.161 QT
1.5 2.599 L
1.453 2.786 1.32 2.903 QT
1.188 3.021 1.016 3.021 QT
0.859 3.021 0.75 2.911 QT
0.641 2.802 0.641 2.661 QT
cp}def
f490262150
f
GR
GS
[0.75 0 0 0.75 215.79904 204.03149] CT
N
/f-1139849563{10.865 1.286 M
10.755 1.286 10.693 1.208 QT
10.63 1.13 10.63 1.052 QT
10.63 0.942 10.693 0.872 QT
10.755 0.802 10.865 0.802 QT
18.396 0.802 L
18.49 0.802 18.552 0.872 QT
18.615 0.942 18.615 1.052 QT
18.615 1.13 18.552 1.208 QT
18.49 1.286 18.396 1.286 QT
10.865 1.286 L
cp
10.865 -1.042 M
10.755 -1.042 10.693 -1.112 QT
10.63 -1.183 10.63 -1.292 QT
10.63 -1.37 10.693 -1.448 QT
10.755 -1.526 10.865 -1.526 QT
18.396 -1.526 L
18.49 -1.526 18.552 -1.448 QT
18.615 -1.37 18.615 -1.292 QT
18.615 -1.183 18.552 -1.112 QT
18.49 -1.042 18.396 -1.042 QT
10.865 -1.042 L
cp}def
f-1139849563
f
GR
GS
[0.75 0 0 0.75 215.79904 204.03149] CT
N
/f-353381202{23.734 2.88 M
23.734 2.458 L
25.234 2.458 25.234 2.083 QT
25.234 -4.229 L
24.625 -3.917 23.672 -3.917 QT
23.672 -4.339 L
25.141 -4.339 25.891 -5.12 QT
26.062 -5.12 L
26.094 -5.12 26.133 -5.081 QT
26.172 -5.042 26.172 -5.011 QT
26.172 2.083 L
26.172 2.458 27.672 2.458 QT
27.672 2.88 L
23.734 2.88 L
cp}def
f-353381202
f
GR
GS
[0.75 0 0 0.75 215.79904 204.03149] CT
N
/f-1204500604{31.625 3.146 M
30.156 3.146 29.625 1.935 QT
29.094 0.724 29.094 -0.948 QT
29.094 -1.995 29.281 -2.909 QT
29.469 -3.823 30.039 -4.472 QT
30.609 -5.12 31.625 -5.12 QT
32.422 -5.12 32.922 -4.729 QT
33.422 -4.339 33.687 -3.729 QT
33.953 -3.12 34.047 -2.417 QT
34.141 -1.714 34.141 -0.948 QT
34.141 0.083 33.953 0.982 QT
33.766 1.88 33.211 2.513 QT
32.656 3.146 31.625 3.146 QT
cp
31.625 2.833 M
32.297 2.833 32.625 2.146 QT
32.953 1.458 33.031 0.63 QT
33.109 -0.198 33.109 -1.136 QT
33.109 -2.042 33.031 -2.808 QT
32.953 -3.573 32.625 -4.19 QT
32.297 -4.808 31.625 -4.808 QT
30.953 -4.808 30.625 -4.183 QT
30.297 -3.558 30.219 -2.8 QT
30.141 -2.042 30.141 -1.136 QT
30.141 -0.479 30.172 0.114 QT
30.203 0.708 30.344 1.341 QT
30.484 1.974 30.797 2.403 QT
31.109 2.833 31.625 2.833 QT
cp}def
f-1204500604
f
GR
GS
[0.75 0 0 0.75 215.79904 204.03149] CT
N
/f911760618{37.625 3.146 M
36.156 3.146 35.625 1.935 QT
35.094 0.724 35.094 -0.948 QT
35.094 -1.995 35.281 -2.909 QT
35.469 -3.823 36.039 -4.472 QT
36.609 -5.12 37.625 -5.12 QT
38.422 -5.12 38.922 -4.729 QT
39.422 -4.339 39.687 -3.729 QT
39.953 -3.12 40.047 -2.417 QT
40.141 -1.714 40.141 -0.948 QT
40.141 0.083 39.953 0.982 QT
39.766 1.88 39.211 2.513 QT
38.656 3.146 37.625 3.146 QT
cp
37.625 2.833 M
38.297 2.833 38.625 2.146 QT
38.953 1.458 39.031 0.63 QT
39.109 -0.198 39.109 -1.136 QT
39.109 -2.042 39.031 -2.808 QT
38.953 -3.573 38.625 -4.19 QT
38.297 -4.808 37.625 -4.808 QT
36.953 -4.808 36.625 -4.183 QT
36.297 -3.558 36.219 -2.8 QT
36.141 -2.042 36.141 -1.136 QT
36.141 -0.479 36.172 0.114 QT
36.203 0.708 36.344 1.341 QT
36.484 1.974 36.797 2.403 QT
37.109 2.833 37.625 2.833 QT
cp}def
f911760618
f
GR
GS
[0.75 0 0 0.75 0 0] CT
0.929 0.694 0.125 RC
1 LJ
2 LW
N
244.977 272.042 M
284.749 272.042 L
S
GR
GS
[0.75 0 0 0.75 215.79904 215.21851] CT
N
f490262150
f
GR
GS
[0.75 0 0 0.75 215.79904 215.21851] CT
N
f-1139849563
f
GR
GS
[0.75 0 0 0.75 215.79904 215.21851] CT
N
f-353381202
f
GR
GS
[0.75 0 0 0.75 215.79904 215.21851] CT
N
f-1204500604
f
GR
GS
[0.75 0 0 0.75 215.79904 215.21851] CT
N
f911760618
f
GR
GS
[0.75 0 0 0.75 215.79904 215.21851] CT
N
/f-1441728366{43.625 3.146 M
42.156 3.146 41.625 1.935 QT
41.094 0.724 41.094 -0.948 QT
41.094 -1.995 41.281 -2.909 QT
41.469 -3.823 42.039 -4.472 QT
42.609 -5.12 43.625 -5.12 QT
44.422 -5.12 44.922 -4.729 QT
45.422 -4.339 45.687 -3.729 QT
45.953 -3.12 46.047 -2.417 QT
46.141 -1.714 46.141 -0.948 QT
46.141 0.083 45.953 0.982 QT
45.766 1.88 45.211 2.513 QT
44.656 3.146 43.625 3.146 QT
cp
43.625 2.833 M
44.297 2.833 44.625 2.146 QT
44.953 1.458 45.031 0.63 QT
45.109 -0.198 45.109 -1.136 QT
45.109 -2.042 45.031 -2.808 QT
44.953 -3.573 44.625 -4.19 QT
44.297 -4.808 43.625 -4.808 QT
42.953 -4.808 42.625 -4.183 QT
42.297 -3.558 42.219 -2.8 QT
42.141 -2.042 42.141 -1.136 QT
42.141 -0.479 42.172 0.114 QT
42.203 0.708 42.344 1.341 QT
42.484 1.974 42.797 2.403 QT
43.109 2.833 43.625 2.833 QT
cp}def
f-1441728366
f
GR
GS
[0.75 0 0 0.75 0 0] CT
0.494 0.184 0.557 RC
1 LJ
2 LW
N
244.977 286.958 M
284.749 286.958 L
S
GR
GS
[0.75 0 0 0.75 215.79904 226.40554] CT
N
f490262150
f
GR
GS
[0.75 0 0 0.75 215.79904 226.40554] CT
N
f-1139849563
f
GR
GS
[0.75 0 0 0.75 215.79904 226.40554] CT
N
f-353381202
f
GR
GS
[0.75 0 0 0.75 215.79904 226.40554] CT
N
f-1204500604
f
GR
GS
[0.75 0 0 0.75 215.79904 226.40554] CT
N
f911760618
f
GR
GS
[0.75 0 0 0.75 215.79904 226.40554] CT
N
f-1441728366
f
GR
GS
[0.75 0 0 0.75 215.79904 226.40554] CT
N
/f-1844205244{49.625 3.146 M
48.156 3.146 47.625 1.935 QT
47.094 0.724 47.094 -0.948 QT
47.094 -1.995 47.281 -2.909 QT
47.469 -3.823 48.039 -4.472 QT
48.609 -5.12 49.625 -5.12 QT
50.422 -5.12 50.922 -4.729 QT
51.422 -4.339 51.687 -3.729 QT
51.953 -3.12 52.047 -2.417 QT
52.141 -1.714 52.141 -0.948 QT
52.141 0.083 51.953 0.982 QT
51.766 1.88 51.211 2.513 QT
50.656 3.146 49.625 3.146 QT
cp
49.625 2.833 M
50.297 2.833 50.625 2.146 QT
50.953 1.458 51.031 0.63 QT
51.109 -0.198 51.109 -1.136 QT
51.109 -2.042 51.031 -2.808 QT
50.953 -3.573 50.625 -4.19 QT
50.297 -4.808 49.625 -4.808 QT
48.953 -4.808 48.625 -4.183 QT
48.297 -3.558 48.219 -2.8 QT
48.141 -2.042 48.141 -1.136 QT
48.141 -0.479 48.172 0.114 QT
48.203 0.708 48.344 1.341 QT
48.484 1.974 48.797 2.403 QT
49.109 2.833 49.625 2.833 QT
cp}def
f-1844205244
f
GR
GS
[0.75 0 0 0.75 0 0] CT
0.467 0.675 0.188 RC
1 LJ
2 LW
N
244.977 301.874 M
284.749 301.874 L
S
GR
GS
[0.75 0 0 0.75 215.79904 237.59258] CT
N
f490262150
f
GR
GS
[0.75 0 0 0.75 215.79904 237.59258] CT
N
f-1139849563
f
GR
GS
[0.75 0 0 0.75 215.79904 237.59258] CT
N
f-353381202
f
GR
GS
[0.75 0 0 0.75 215.79904 237.59258] CT
N
f-1204500604
f
GR
GS
[0.75 0 0 0.75 215.79904 237.59258] CT
N
f911760618
f
GR
GS
[0.75 0 0 0.75 215.79904 237.59258] CT
N
f-1441728366
f
GR
GS
[0.75 0 0 0.75 215.79904 237.59258] CT
N
f-1844205244
f
GR
GS
[0.75 0 0 0.75 215.79904 237.59258] CT
N
/f592038154{55.625 3.146 M
54.156 3.146 53.625 1.935 QT
53.094 0.724 53.094 -0.948 QT
53.094 -1.995 53.281 -2.909 QT
53.469 -3.823 54.039 -4.472 QT
54.609 -5.12 55.625 -5.12 QT
56.422 -5.12 56.922 -4.729 QT
57.422 -4.339 57.687 -3.729 QT
57.953 -3.12 58.047 -2.417 QT
58.141 -1.714 58.141 -0.948 QT
58.141 0.083 57.953 0.982 QT
57.766 1.88 57.211 2.513 QT
56.656 3.146 55.625 3.146 QT
cp
55.625 2.833 M
56.297 2.833 56.625 2.146 QT
56.953 1.458 57.031 0.63 QT
57.109 -0.198 57.109 -1.136 QT
57.109 -2.042 57.031 -2.808 QT
56.953 -3.573 56.625 -4.19 QT
56.297 -4.808 55.625 -4.808 QT
54.953 -4.808 54.625 -4.183 QT
54.297 -3.558 54.219 -2.8 QT
54.141 -2.042 54.141 -1.136 QT
54.141 -0.479 54.172 0.114 QT
54.203 0.708 54.344 1.341 QT
54.484 1.974 54.797 2.403 QT
55.109 2.833 55.625 2.833 QT
cp}def
f592038154
f
GR
GS
[0.75 0 0 0.75 0 0] CT
0.302 0.745 0.933 RC
1 LJ
2 LW
N
244.977 316.79 M
284.749 316.79 L
S
GR
GS
[0.75 0 0 0.75 0 0] CT
0.149 GC
10.0 ML
0.667 LW
N
241 326 M
241 233 L
350 233 L
350 326 L
cp
S
GR
%%Trailer
%%Pages: 1
%%EOF
