%!PS-Adobe-3.0 EPSF-3.0
%%Creator: (MATLAB, The Mathworks, Inc. Version 9.5.0.944444 \(R2018b\). Operating System: Windows 10)
%%Title: F:/Studium/__Bachelorarbeit/tex/images/landweber-bad.eps
%%CreationDate: 2020-07-26T20:05:48
%%Pages: (atend)
%%BoundingBox: 0 0 420 315
%%LanguageLevel: 3
%%EndComments
%%BeginProlog
%%BeginResource: procset (Apache XML Graphics Std ProcSet) 1.2 0
%%Version: 1.2 0
%%Copyright: (Copyright 2001-2003,2010 The Apache Software Foundation. License terms: http://www.apache.org/licenses/LICENSE-2.0)
/bd{bind def}bind def
/ld{load def}bd
/GR/grestore ld
/GS/gsave ld
/RM/rmoveto ld
/C/curveto ld
/t/show ld
/L/lineto ld
/ML/setmiterlimit ld
/CT/concat ld
/f/fill ld
/N/newpath ld
/S/stroke ld
/CC/setcmykcolor ld
/A/ashow ld
/cp/closepath ld
/RC/setrgbcolor ld
/LJ/setlinejoin ld
/GC/setgray ld
/LW/setlinewidth ld
/M/moveto ld
/re {4 2 roll M
1 index 0 rlineto
0 exch rlineto
neg 0 rlineto
cp } bd
/_ctm matrix def
/_tm matrix def
/BT { _ctm currentmatrix pop matrix _tm copy pop 0 0 moveto } bd
/ET { _ctm setmatrix } bd
/iTm { _ctm setmatrix _tm concat } bd
/Tm { _tm astore pop iTm 0 0 moveto } bd
/ux 0.0 def
/uy 0.0 def
/F {
  /Tp exch def
  /Tf exch def
  Tf findfont Tp scalefont setfont
  /cf Tf def  /cs Tp def
} bd
/ULS {currentpoint /uy exch def /ux exch def} bd
/ULE {
  /Tcx currentpoint pop def
  gsave
  newpath
  cf findfont cs scalefont dup
  /FontMatrix get 0 get /Ts exch def /FontInfo get dup
  /UnderlinePosition get Ts mul /To exch def
  /UnderlineThickness get Ts mul /Tt exch def
  ux uy To add moveto  Tcx uy To add lineto
  Tt setlinewidth stroke
  grestore
} bd
/OLE {
  /Tcx currentpoint pop def
  gsave
  newpath
  cf findfont cs scalefont dup
  /FontMatrix get 0 get /Ts exch def /FontInfo get dup
  /UnderlinePosition get Ts mul /To exch def
  /UnderlineThickness get Ts mul /Tt exch def
  ux uy To add cs add moveto Tcx uy To add cs add lineto
  Tt setlinewidth stroke
  grestore
} bd
/SOE {
  /Tcx currentpoint pop def
  gsave
  newpath
  cf findfont cs scalefont dup
  /FontMatrix get 0 get /Ts exch def /FontInfo get dup
  /UnderlinePosition get Ts mul /To exch def
  /UnderlineThickness get Ts mul /Tt exch def
  ux uy To add cs 10 mul 26 idiv add moveto Tcx uy To add cs 10 mul 26 idiv add lineto
  Tt setlinewidth stroke
  grestore
} bd
/QT {
/Y22 exch store
/X22 exch store
/Y21 exch store
/X21 exch store
currentpoint
/Y21 load 2 mul add 3 div exch
/X21 load 2 mul add 3 div exch
/X21 load 2 mul /X22 load add 3 div
/Y21 load 2 mul /Y22 load add 3 div
/X22 load /Y22 load curveto
} bd
/SSPD {
dup length /d exch dict def
{
/v exch def
/k exch def
currentpagedevice k known {
/cpdv currentpagedevice k get def
v cpdv ne {
/upd false def
/nullv v type /nulltype eq def
/nullcpdv cpdv type /nulltype eq def
nullv nullcpdv or
{
/upd true def
} {
/sametype v type cpdv type eq def
sametype {
v type /arraytype eq {
/vlen v length def
/cpdvlen cpdv length def
vlen cpdvlen eq {
0 1 vlen 1 sub {
/i exch def
/obj v i get def
/cpdobj cpdv i get def
obj cpdobj ne {
/upd true def
exit
} if
} for
} {
/upd true def
} ifelse
} {
v type /dicttype eq {
v {
/dv exch def
/dk exch def
/cpddv cpdv dk get def
dv cpddv ne {
/upd true def
exit
} if
} forall
} {
/upd true def
} ifelse
} ifelse
} if
} ifelse
upd true eq {
d k v put
} if
} if
} if
} forall
d length 0 gt {
d setpagedevice
} if
} bd
/RE { % /NewFontName [NewEncodingArray] /FontName RE -
  findfont dup length dict begin
  {
    1 index /FID ne
    {def} {pop pop} ifelse
  } forall
  /Encoding exch def
  /FontName 1 index def
  currentdict definefont pop
  end
} bind def
%%EndResource
%%BeginResource: procset (Apache XML Graphics EPS ProcSet) 1.0 0
%%Version: 1.0 0
%%Copyright: (Copyright 2002-2003 The Apache Software Foundation. License terms: http://www.apache.org/licenses/LICENSE-2.0)
/BeginEPSF { %def
/b4_Inc_state save def         % Save state for cleanup
/dict_count countdictstack def % Count objects on dict stack
/op_count count 1 sub def      % Count objects on operand stack
userdict begin                 % Push userdict on dict stack
/showpage { } def              % Redefine showpage, { } = null proc
0 setgray 0 setlinecap         % Prepare graphics state
1 setlinewidth 0 setlinejoin
10 setmiterlimit [ ] 0 setdash newpath
/languagelevel where           % If level not equal to 1 then
{pop languagelevel             % set strokeadjust and
1 ne                           % overprint to their defaults.
{false setstrokeadjust false setoverprint
} if
} if
} bd
/EndEPSF { %def
count op_count sub {pop} repeat            % Clean up stacks
countdictstack dict_count sub {end} repeat
b4_Inc_state restore
} bd
%%EndResource
%FOPBeginFontDict
%%IncludeResource: font Courier-Oblique
%%IncludeResource: font Courier-BoldOblique
%%IncludeResource: font Courier-Bold
%%IncludeResource: font ZapfDingbats
%%IncludeResource: font Symbol
%%IncludeResource: font Helvetica
%%IncludeResource: font Helvetica-Oblique
%%IncludeResource: font Helvetica-Bold
%%IncludeResource: font Helvetica-BoldOblique
%%IncludeResource: font Times-Roman
%%IncludeResource: font Times-Italic
%%IncludeResource: font Times-Bold
%%IncludeResource: font Times-BoldItalic
%%IncludeResource: font Courier
%FOPEndFontDict
%%BeginResource: encoding WinAnsiEncoding
/WinAnsiEncoding [
/.notdef /.notdef /.notdef /.notdef /.notdef
/.notdef /.notdef /.notdef /.notdef /.notdef
/.notdef /.notdef /.notdef /.notdef /.notdef
/.notdef /.notdef /.notdef /.notdef /.notdef
/.notdef /.notdef /.notdef /.notdef /.notdef
/.notdef /.notdef /.notdef /.notdef /.notdef
/.notdef /.notdef /space /exclam /quotedbl
/numbersign /dollar /percent /ampersand /quotesingle
/parenleft /parenright /asterisk /plus /comma
/hyphen /period /slash /zero /one
/two /three /four /five /six
/seven /eight /nine /colon /semicolon
/less /equal /greater /question /at
/A /B /C /D /E
/F /G /H /I /J
/K /L /M /N /O
/P /Q /R /S /T
/U /V /W /X /Y
/Z /bracketleft /backslash /bracketright /asciicircum
/underscore /quoteleft /a /b /c
/d /e /f /g /h
/i /j /k /l /m
/n /o /p /q /r
/s /t /u /v /w
/x /y /z /braceleft /bar
/braceright /asciitilde /bullet /Euro /bullet
/quotesinglbase /florin /quotedblbase /ellipsis /dagger
/daggerdbl /circumflex /perthousand /Scaron /guilsinglleft
/OE /bullet /Zcaron /bullet /bullet
/quoteleft /quoteright /quotedblleft /quotedblright /bullet
/endash /emdash /asciitilde /trademark /scaron
/guilsinglright /oe /bullet /zcaron /Ydieresis
/space /exclamdown /cent /sterling /currency
/yen /brokenbar /section /dieresis /copyright
/ordfeminine /guillemotleft /logicalnot /sfthyphen /registered
/macron /degree /plusminus /twosuperior /threesuperior
/acute /mu /paragraph /middot /cedilla
/onesuperior /ordmasculine /guillemotright /onequarter /onehalf
/threequarters /questiondown /Agrave /Aacute /Acircumflex
/Atilde /Adieresis /Aring /AE /Ccedilla
/Egrave /Eacute /Ecircumflex /Edieresis /Igrave
/Iacute /Icircumflex /Idieresis /Eth /Ntilde
/Ograve /Oacute /Ocircumflex /Otilde /Odieresis
/multiply /Oslash /Ugrave /Uacute /Ucircumflex
/Udieresis /Yacute /Thorn /germandbls /agrave
/aacute /acircumflex /atilde /adieresis /aring
/ae /ccedilla /egrave /eacute /ecircumflex
/edieresis /igrave /iacute /icircumflex /idieresis
/eth /ntilde /ograve /oacute /ocircumflex
/otilde /odieresis /divide /oslash /ugrave
/uacute /ucircumflex /udieresis /yacute /thorn
/ydieresis
] def
%%EndResource
%FOPBeginFontReencode
/Courier-Oblique findfont
dup length dict begin
  {1 index /FID ne {def} {pop pop} ifelse} forall
  /Encoding WinAnsiEncoding def
  currentdict
end
/Courier-Oblique exch definefont pop
/Courier-BoldOblique findfont
dup length dict begin
  {1 index /FID ne {def} {pop pop} ifelse} forall
  /Encoding WinAnsiEncoding def
  currentdict
end
/Courier-BoldOblique exch definefont pop
/Courier-Bold findfont
dup length dict begin
  {1 index /FID ne {def} {pop pop} ifelse} forall
  /Encoding WinAnsiEncoding def
  currentdict
end
/Courier-Bold exch definefont pop
/Helvetica findfont
dup length dict begin
  {1 index /FID ne {def} {pop pop} ifelse} forall
  /Encoding WinAnsiEncoding def
  currentdict
end
/Helvetica exch definefont pop
/Helvetica-Oblique findfont
dup length dict begin
  {1 index /FID ne {def} {pop pop} ifelse} forall
  /Encoding WinAnsiEncoding def
  currentdict
end
/Helvetica-Oblique exch definefont pop
/Helvetica-Bold findfont
dup length dict begin
  {1 index /FID ne {def} {pop pop} ifelse} forall
  /Encoding WinAnsiEncoding def
  currentdict
end
/Helvetica-Bold exch definefont pop
/Helvetica-BoldOblique findfont
dup length dict begin
  {1 index /FID ne {def} {pop pop} ifelse} forall
  /Encoding WinAnsiEncoding def
  currentdict
end
/Helvetica-BoldOblique exch definefont pop
/Times-Roman findfont
dup length dict begin
  {1 index /FID ne {def} {pop pop} ifelse} forall
  /Encoding WinAnsiEncoding def
  currentdict
end
/Times-Roman exch definefont pop
/Times-Italic findfont
dup length dict begin
  {1 index /FID ne {def} {pop pop} ifelse} forall
  /Encoding WinAnsiEncoding def
  currentdict
end
/Times-Italic exch definefont pop
/Times-Bold findfont
dup length dict begin
  {1 index /FID ne {def} {pop pop} ifelse} forall
  /Encoding WinAnsiEncoding def
  currentdict
end
/Times-Bold exch definefont pop
/Times-BoldItalic findfont
dup length dict begin
  {1 index /FID ne {def} {pop pop} ifelse} forall
  /Encoding WinAnsiEncoding def
  currentdict
end
/Times-BoldItalic exch definefont pop
/Courier findfont
dup length dict begin
  {1 index /FID ne {def} {pop pop} ifelse} forall
  /Encoding WinAnsiEncoding def
  currentdict
end
/Courier exch definefont pop
%FOPEndFontReencode
%%EndProlog
%%Page: 1 1
%%PageBoundingBox: 0 0 420 315
%%BeginPageSetup
[1 0 0 -1 0 315] CT
%%EndPageSetup
GS
[0.75 0 0 0.75 0 0] CT
1 GC
N
0 0 560 420 re
f
GR
GS
[0.75 0 0 0.75 0 0] CT
1 GC
N
0 0 560 420 re
f
GR
GS
[0.75 0 0 0.75 0 0] CT
1 GC
N
73 374 M
507 374 L
507 31 L
73 31 L
cp
f
GR
GS
[0.75 0 0 0.75 0 0] CT
0.149 GC
2 setlinecap
1 LJ
0.667 LW
N
73 374 M
507 374 L
S
GR
GS
[0.75 0 0 0.75 0 0] CT
0.149 GC
2 setlinecap
1 LJ
0.667 LW
N
73 374 M
73 382.68 L
S
GR
GS
[0.75 0 0 0.75 0 0] CT
0.149 GC
2 setlinecap
1 LJ
0.667 LW
N
116.4 374 M
116.4 382.68 L
S
GR
GS
[0.75 0 0 0.75 0 0] CT
0.149 GC
2 setlinecap
1 LJ
0.667 LW
N
159.8 374 M
159.8 382.68 L
S
GR
GS
[0.75 0 0 0.75 0 0] CT
0.149 GC
2 setlinecap
1 LJ
0.667 LW
N
203.2 374 M
203.2 382.68 L
S
GR
GS
[0.75 0 0 0.75 0 0] CT
0.149 GC
2 setlinecap
1 LJ
0.667 LW
N
246.6 374 M
246.6 382.68 L
S
GR
GS
[0.75 0 0 0.75 0 0] CT
0.149 GC
2 setlinecap
1 LJ
0.667 LW
N
290 374 M
290 382.68 L
S
GR
GS
[0.75 0 0 0.75 0 0] CT
0.149 GC
2 setlinecap
1 LJ
0.667 LW
N
333.4 374 M
333.4 382.68 L
S
GR
GS
[0.75 0 0 0.75 0 0] CT
0.149 GC
2 setlinecap
1 LJ
0.667 LW
N
376.8 374 M
376.8 382.68 L
S
GR
GS
[0.75 0 0 0.75 0 0] CT
0.149 GC
2 setlinecap
1 LJ
0.667 LW
N
420.2 374 M
420.2 382.68 L
S
GR
GS
[0.75 0 0 0.75 0 0] CT
0.149 GC
2 setlinecap
1 LJ
0.667 LW
N
463.6 374 M
463.6 382.68 L
S
GR
GS
[0.75 0 0 0.75 0 0] CT
0.149 GC
2 setlinecap
1 LJ
0.667 LW
N
507 374 M
507 382.68 L
S
GR
GS
[0.75 0 0 0.75 0 0] CT
0.149 GC
2 setlinecap
1 LJ
0.667 LW
N
81.68 374 M
81.68 378.34 L
S
GR
GS
[0.75 0 0 0.75 0 0] CT
0.149 GC
2 setlinecap
1 LJ
0.667 LW
N
90.36 374 M
90.36 378.34 L
S
GR
GS
[0.75 0 0 0.75 0 0] CT
0.149 GC
2 setlinecap
1 LJ
0.667 LW
N
99.04 374 M
99.04 378.34 L
S
GR
GS
[0.75 0 0 0.75 0 0] CT
0.149 GC
2 setlinecap
1 LJ
0.667 LW
N
107.72 374 M
107.72 378.34 L
S
GR
GS
[0.75 0 0 0.75 0 0] CT
0.149 GC
2 setlinecap
1 LJ
0.667 LW
N
125.08 374 M
125.08 378.34 L
S
GR
GS
[0.75 0 0 0.75 0 0] CT
0.149 GC
2 setlinecap
1 LJ
0.667 LW
N
133.76 374 M
133.76 378.34 L
S
GR
GS
[0.75 0 0 0.75 0 0] CT
0.149 GC
2 setlinecap
1 LJ
0.667 LW
N
142.44 374 M
142.44 378.34 L
S
GR
GS
[0.75 0 0 0.75 0 0] CT
0.149 GC
2 setlinecap
1 LJ
0.667 LW
N
151.12 374 M
151.12 378.34 L
S
GR
GS
[0.75 0 0 0.75 0 0] CT
0.149 GC
2 setlinecap
1 LJ
0.667 LW
N
168.48 374 M
168.48 378.34 L
S
GR
GS
[0.75 0 0 0.75 0 0] CT
0.149 GC
2 setlinecap
1 LJ
0.667 LW
N
177.16 374 M
177.16 378.34 L
S
GR
GS
[0.75 0 0 0.75 0 0] CT
0.149 GC
2 setlinecap
1 LJ
0.667 LW
N
185.84 374 M
185.84 378.34 L
S
GR
GS
[0.75 0 0 0.75 0 0] CT
0.149 GC
2 setlinecap
1 LJ
0.667 LW
N
194.52 374 M
194.52 378.34 L
S
GR
GS
[0.75 0 0 0.75 0 0] CT
0.149 GC
2 setlinecap
1 LJ
0.667 LW
N
211.88 374 M
211.88 378.34 L
S
GR
GS
[0.75 0 0 0.75 0 0] CT
0.149 GC
2 setlinecap
1 LJ
0.667 LW
N
220.56 374 M
220.56 378.34 L
S
GR
GS
[0.75 0 0 0.75 0 0] CT
0.149 GC
2 setlinecap
1 LJ
0.667 LW
N
229.24 374 M
229.24 378.34 L
S
GR
GS
[0.75 0 0 0.75 0 0] CT
0.149 GC
2 setlinecap
1 LJ
0.667 LW
N
237.92 374 M
237.92 378.34 L
S
GR
GS
[0.75 0 0 0.75 0 0] CT
0.149 GC
2 setlinecap
1 LJ
0.667 LW
N
255.28 374 M
255.28 378.34 L
S
GR
GS
[0.75 0 0 0.75 0 0] CT
0.149 GC
2 setlinecap
1 LJ
0.667 LW
N
263.96 374 M
263.96 378.34 L
S
GR
GS
[0.75 0 0 0.75 0 0] CT
0.149 GC
2 setlinecap
1 LJ
0.667 LW
N
272.64 374 M
272.64 378.34 L
S
GR
GS
[0.75 0 0 0.75 0 0] CT
0.149 GC
2 setlinecap
1 LJ
0.667 LW
N
281.32 374 M
281.32 378.34 L
S
GR
GS
[0.75 0 0 0.75 0 0] CT
0.149 GC
2 setlinecap
1 LJ
0.667 LW
N
298.68 374 M
298.68 378.34 L
S
GR
GS
[0.75 0 0 0.75 0 0] CT
0.149 GC
2 setlinecap
1 LJ
0.667 LW
N
307.36 374 M
307.36 378.34 L
S
GR
GS
[0.75 0 0 0.75 0 0] CT
0.149 GC
2 setlinecap
1 LJ
0.667 LW
N
316.04 374 M
316.04 378.34 L
S
GR
GS
[0.75 0 0 0.75 0 0] CT
0.149 GC
2 setlinecap
1 LJ
0.667 LW
N
324.72 374 M
324.72 378.34 L
S
GR
GS
[0.75 0 0 0.75 0 0] CT
0.149 GC
2 setlinecap
1 LJ
0.667 LW
N
342.08 374 M
342.08 378.34 L
S
GR
GS
[0.75 0 0 0.75 0 0] CT
0.149 GC
2 setlinecap
1 LJ
0.667 LW
N
350.76 374 M
350.76 378.34 L
S
GR
GS
[0.75 0 0 0.75 0 0] CT
0.149 GC
2 setlinecap
1 LJ
0.667 LW
N
359.44 374 M
359.44 378.34 L
S
GR
GS
[0.75 0 0 0.75 0 0] CT
0.149 GC
2 setlinecap
1 LJ
0.667 LW
N
368.12 374 M
368.12 378.34 L
S
GR
GS
[0.75 0 0 0.75 0 0] CT
0.149 GC
2 setlinecap
1 LJ
0.667 LW
N
385.48 374 M
385.48 378.34 L
S
GR
GS
[0.75 0 0 0.75 0 0] CT
0.149 GC
2 setlinecap
1 LJ
0.667 LW
N
394.16 374 M
394.16 378.34 L
S
GR
GS
[0.75 0 0 0.75 0 0] CT
0.149 GC
2 setlinecap
1 LJ
0.667 LW
N
402.84 374 M
402.84 378.34 L
S
GR
GS
[0.75 0 0 0.75 0 0] CT
0.149 GC
2 setlinecap
1 LJ
0.667 LW
N
411.52 374 M
411.52 378.34 L
S
GR
GS
[0.75 0 0 0.75 0 0] CT
0.149 GC
2 setlinecap
1 LJ
0.667 LW
N
428.88 374 M
428.88 378.34 L
S
GR
GS
[0.75 0 0 0.75 0 0] CT
0.149 GC
2 setlinecap
1 LJ
0.667 LW
N
437.56 374 M
437.56 378.34 L
S
GR
GS
[0.75 0 0 0.75 0 0] CT
0.149 GC
2 setlinecap
1 LJ
0.667 LW
N
446.24 374 M
446.24 378.34 L
S
GR
GS
[0.75 0 0 0.75 0 0] CT
0.149 GC
2 setlinecap
1 LJ
0.667 LW
N
454.92 374 M
454.92 378.34 L
S
GR
GS
[0.75 0 0 0.75 0 0] CT
0.149 GC
2 setlinecap
1 LJ
0.667 LW
N
472.28 374 M
472.28 378.34 L
S
GR
GS
[0.75 0 0 0.75 0 0] CT
0.149 GC
2 setlinecap
1 LJ
0.667 LW
N
480.96 374 M
480.96 378.34 L
S
GR
GS
[0.75 0 0 0.75 0 0] CT
0.149 GC
2 setlinecap
1 LJ
0.667 LW
N
489.64 374 M
489.64 378.34 L
S
GR
GS
[0.75 0 0 0.75 0 0] CT
0.149 GC
2 setlinecap
1 LJ
0.667 LW
N
498.32 374 M
498.32 378.34 L
S
GR
GS
[0.75 0 0 0.75 54.75 291.01] CT
0.149 GC
/Helvetica 13.333 F
GS
[1 0 0 1 0 0] CT
-4 14 moveto 
1 -1 scale
(0) t 
GR
GR
GS
[0.75 0 0 0.75 87.3 291.01] CT
0.149 GC
/Helvetica 13.333 F
GS
[1 0 0 1 0 0] CT
-9.5 14 moveto 
1 -1 scale
(0.1) t 
GR
GR
GS
[0.75 0 0 0.75 119.85 291.01] CT
0.149 GC
/Helvetica 13.333 F
GS
[1 0 0 1 0 0] CT
-9.5 14 moveto 
1 -1 scale
(0.2) t 
GR
GR
GS
[0.75 0 0 0.75 152.40001 291.01] CT
0.149 GC
/Helvetica 13.333 F
GS
[1 0 0 1 0 0] CT
-9.5 14 moveto 
1 -1 scale
(0.3) t 
GR
GR
GS
[0.75 0 0 0.75 184.95 291.01] CT
0.149 GC
/Helvetica 13.333 F
GS
[1 0 0 1 0 0] CT
-9.5 14 moveto 
1 -1 scale
(0.4) t 
GR
GR
GS
[0.75 0 0 0.75 217.5 291.01] CT
0.149 GC
/Helvetica 13.333 F
GS
[1 0 0 1 0 0] CT
-9.5 14 moveto 
1 -1 scale
(0.5) t 
GR
GR
GS
[0.75 0 0 0.75 250.05002 291.01] CT
0.149 GC
/Helvetica 13.333 F
GS
[1 0 0 1 0 0] CT
-9.5 14 moveto 
1 -1 scale
(0.6) t 
GR
GR
GS
[0.75 0 0 0.75 282.59999 291.01] CT
0.149 GC
/Helvetica 13.333 F
GS
[1 0 0 1 0 0] CT
-9.5 14 moveto 
1 -1 scale
(0.7) t 
GR
GR
GS
[0.75 0 0 0.75 315.15001 291.01] CT
0.149 GC
/Helvetica 13.333 F
GS
[1 0 0 1 0 0] CT
-9.5 14 moveto 
1 -1 scale
(0.8) t 
GR
GR
GS
[0.75 0 0 0.75 347.69998 291.01] CT
0.149 GC
/Helvetica 13.333 F
GS
[1 0 0 1 0 0] CT
-9.5 14 moveto 
1 -1 scale
(0.9) t 
GR
GR
GS
[0.75 0 0 0.75 380.25 291.01] CT
0.149 GC
/Helvetica 13.333 F
GS
[1 0 0 1 0 0] CT
-4 14 moveto 
1 -1 scale
(1) t 
GR
GR
GS
[0.75 0 0 0.75 0 0] CT
0.149 GC
2 setlinecap
1 LJ
0.667 LW
N
73 374 M
73 31 L
S
GR
GS
[0.75 0 0 0.75 0 0] CT
0.149 GC
2 setlinecap
1 LJ
0.667 LW
N
73 374 M
64.32 374 L
S
GR
GS
[0.75 0 0 0.75 0 0] CT
0.149 GC
2 setlinecap
1 LJ
0.667 LW
N
73 335.889 M
64.32 335.889 L
S
GR
GS
[0.75 0 0 0.75 0 0] CT
0.149 GC
2 setlinecap
1 LJ
0.667 LW
N
73 297.778 M
64.32 297.778 L
S
GR
GS
[0.75 0 0 0.75 0 0] CT
0.149 GC
2 setlinecap
1 LJ
0.667 LW
N
73 259.667 M
64.32 259.667 L
S
GR
GS
[0.75 0 0 0.75 0 0] CT
0.149 GC
2 setlinecap
1 LJ
0.667 LW
N
73 221.556 M
64.32 221.556 L
S
GR
GS
[0.75 0 0 0.75 0 0] CT
0.149 GC
2 setlinecap
1 LJ
0.667 LW
N
73 183.444 M
64.32 183.444 L
S
GR
GS
[0.75 0 0 0.75 0 0] CT
0.149 GC
2 setlinecap
1 LJ
0.667 LW
N
73 145.333 M
64.32 145.333 L
S
GR
GS
[0.75 0 0 0.75 0 0] CT
0.149 GC
2 setlinecap
1 LJ
0.667 LW
N
73 107.222 M
64.32 107.222 L
S
GR
GS
[0.75 0 0 0.75 0 0] CT
0.149 GC
2 setlinecap
1 LJ
0.667 LW
N
73 69.111 M
64.32 69.111 L
S
GR
GS
[0.75 0 0 0.75 0 0] CT
0.149 GC
2 setlinecap
1 LJ
0.667 LW
N
73 31 M
64.32 31 L
S
GR
GS
[0.75 0 0 0.75 0 0] CT
0.149 GC
2 setlinecap
1 LJ
0.667 LW
N
73 366.378 M
68.66 366.378 L
S
GR
GS
[0.75 0 0 0.75 0 0] CT
0.149 GC
2 setlinecap
1 LJ
0.667 LW
N
73 358.756 M
68.66 358.756 L
S
GR
GS
[0.75 0 0 0.75 0 0] CT
0.149 GC
2 setlinecap
1 LJ
0.667 LW
N
73 351.133 M
68.66 351.133 L
S
GR
GS
[0.75 0 0 0.75 0 0] CT
0.149 GC
2 setlinecap
1 LJ
0.667 LW
N
73 343.511 M
68.66 343.511 L
S
GR
GS
[0.75 0 0 0.75 0 0] CT
0.149 GC
2 setlinecap
1 LJ
0.667 LW
N
73 328.267 M
68.66 328.267 L
S
GR
GS
[0.75 0 0 0.75 0 0] CT
0.149 GC
2 setlinecap
1 LJ
0.667 LW
N
73 320.644 M
68.66 320.644 L
S
GR
GS
[0.75 0 0 0.75 0 0] CT
0.149 GC
2 setlinecap
1 LJ
0.667 LW
N
73 313.022 M
68.66 313.022 L
S
GR
GS
[0.75 0 0 0.75 0 0] CT
0.149 GC
2 setlinecap
1 LJ
0.667 LW
N
73 305.4 M
68.66 305.4 L
S
GR
GS
[0.75 0 0 0.75 0 0] CT
0.149 GC
2 setlinecap
1 LJ
0.667 LW
N
73 290.156 M
68.66 290.156 L
S
GR
GS
[0.75 0 0 0.75 0 0] CT
0.149 GC
2 setlinecap
1 LJ
0.667 LW
N
73 282.533 M
68.66 282.533 L
S
GR
GS
[0.75 0 0 0.75 0 0] CT
0.149 GC
2 setlinecap
1 LJ
0.667 LW
N
73 274.911 M
68.66 274.911 L
S
GR
GS
[0.75 0 0 0.75 0 0] CT
0.149 GC
2 setlinecap
1 LJ
0.667 LW
N
73 267.289 M
68.66 267.289 L
S
GR
GS
[0.75 0 0 0.75 0 0] CT
0.149 GC
2 setlinecap
1 LJ
0.667 LW
N
73 252.044 M
68.66 252.044 L
S
GR
GS
[0.75 0 0 0.75 0 0] CT
0.149 GC
2 setlinecap
1 LJ
0.667 LW
N
73 244.422 M
68.66 244.422 L
S
GR
GS
[0.75 0 0 0.75 0 0] CT
0.149 GC
2 setlinecap
1 LJ
0.667 LW
N
73 236.8 M
68.66 236.8 L
S
GR
GS
[0.75 0 0 0.75 0 0] CT
0.149 GC
2 setlinecap
1 LJ
0.667 LW
N
73 229.178 M
68.66 229.178 L
S
GR
GS
[0.75 0 0 0.75 0 0] CT
0.149 GC
2 setlinecap
1 LJ
0.667 LW
N
73 213.933 M
68.66 213.933 L
S
GR
GS
[0.75 0 0 0.75 0 0] CT
0.149 GC
2 setlinecap
1 LJ
0.667 LW
N
73 206.311 M
68.66 206.311 L
S
GR
GS
[0.75 0 0 0.75 0 0] CT
0.149 GC
2 setlinecap
1 LJ
0.667 LW
N
73 198.689 M
68.66 198.689 L
S
GR
GS
[0.75 0 0 0.75 0 0] CT
0.149 GC
2 setlinecap
1 LJ
0.667 LW
N
73 191.067 M
68.66 191.067 L
S
GR
GS
[0.75 0 0 0.75 0 0] CT
0.149 GC
2 setlinecap
1 LJ
0.667 LW
N
73 175.822 M
68.66 175.822 L
S
GR
GS
[0.75 0 0 0.75 0 0] CT
0.149 GC
2 setlinecap
1 LJ
0.667 LW
N
73 168.2 M
68.66 168.2 L
S
GR
GS
[0.75 0 0 0.75 0 0] CT
0.149 GC
2 setlinecap
1 LJ
0.667 LW
N
73 160.578 M
68.66 160.578 L
S
GR
GS
[0.75 0 0 0.75 0 0] CT
0.149 GC
2 setlinecap
1 LJ
0.667 LW
N
73 152.956 M
68.66 152.956 L
S
GR
GS
[0.75 0 0 0.75 0 0] CT
0.149 GC
2 setlinecap
1 LJ
0.667 LW
N
73 137.711 M
68.66 137.711 L
S
GR
GS
[0.75 0 0 0.75 0 0] CT
0.149 GC
2 setlinecap
1 LJ
0.667 LW
N
73 130.089 M
68.66 130.089 L
S
GR
GS
[0.75 0 0 0.75 0 0] CT
0.149 GC
2 setlinecap
1 LJ
0.667 LW
N
73 122.467 M
68.66 122.467 L
S
GR
GS
[0.75 0 0 0.75 0 0] CT
0.149 GC
2 setlinecap
1 LJ
0.667 LW
N
73 114.844 M
68.66 114.844 L
S
GR
GS
[0.75 0 0 0.75 0 0] CT
0.149 GC
2 setlinecap
1 LJ
0.667 LW
N
73 99.6 M
68.66 99.6 L
S
GR
GS
[0.75 0 0 0.75 0 0] CT
0.149 GC
2 setlinecap
1 LJ
0.667 LW
N
73 91.978 M
68.66 91.978 L
S
GR
GS
[0.75 0 0 0.75 0 0] CT
0.149 GC
2 setlinecap
1 LJ
0.667 LW
N
73 84.356 M
68.66 84.356 L
S
GR
GS
[0.75 0 0 0.75 0 0] CT
0.149 GC
2 setlinecap
1 LJ
0.667 LW
N
73 76.733 M
68.66 76.733 L
S
GR
GS
[0.75 0 0 0.75 0 0] CT
0.149 GC
2 setlinecap
1 LJ
0.667 LW
N
73 61.489 M
68.66 61.489 L
S
GR
GS
[0.75 0 0 0.75 0 0] CT
0.149 GC
2 setlinecap
1 LJ
0.667 LW
N
73 53.867 M
68.66 53.867 L
S
GR
GS
[0.75 0 0 0.75 0 0] CT
0.149 GC
2 setlinecap
1 LJ
0.667 LW
N
73 46.244 M
68.66 46.244 L
S
GR
GS
[0.75 0 0 0.75 0 0] CT
0.149 GC
2 setlinecap
1 LJ
0.667 LW
N
73 38.622 M
68.66 38.622 L
S
GR
GS
[0.75 0 0 0.75 44.24 280.5] CT
0.149 GC
/Helvetica 13.333 F
GS
[1 0 0 1 0 0] CT
-12 5.5 moveto 
1 -1 scale
(-2) t 
GR
GR
GS
[0.75 0 0 0.75 44.24 251.91666] CT
0.149 GC
/Helvetica 13.333 F
GS
[1 0 0 1 0 0] CT
-23 5.5 moveto 
1 -1 scale
(-1.5) t 
GR
GR
GS
[0.75 0 0 0.75 44.24 223.33333] CT
0.149 GC
/Helvetica 13.333 F
GS
[1 0 0 1 0 0] CT
-12 5.5 moveto 
1 -1 scale
(-1) t 
GR
GR
GS
[0.75 0 0 0.75 44.24 194.74999] CT
0.149 GC
/Helvetica 13.333 F
GS
[1 0 0 1 0 0] CT
-23 5.5 moveto 
1 -1 scale
(-0.5) t 
GR
GR
GS
[0.75 0 0 0.75 44.24 166.16667] CT
0.149 GC
/Helvetica 13.333 F
GS
[1 0 0 1 0 0] CT
-8 5.5 moveto 
1 -1 scale
(0) t 
GR
GR
GS
[0.75 0 0 0.75 44.24 137.58333] CT
0.149 GC
/Helvetica 13.333 F
GS
[1 0 0 1 0 0] CT
-19 5.5 moveto 
1 -1 scale
(0.5) t 
GR
GR
GS
[0.75 0 0 0.75 44.24 109] CT
0.149 GC
/Helvetica 13.333 F
GS
[1 0 0 1 0 0] CT
-8 5.5 moveto 
1 -1 scale
(1) t 
GR
GR
GS
[0.75 0 0 0.75 44.24 80.41667] CT
0.149 GC
/Helvetica 13.333 F
GS
[1 0 0 1 0 0] CT
-19 5.5 moveto 
1 -1 scale
(1.5) t 
GR
GR
GS
[0.75 0 0 0.75 44.24 51.83334] CT
0.149 GC
/Helvetica 13.333 F
GS
[1 0 0 1 0 0] CT
-8 5.5 moveto 
1 -1 scale
(2) t 
GR
GR
GS
[0.75 0 0 0.75 44.24 23.25] CT
0.149 GC
/Helvetica 13.333 F
GS
[1 0 0 1 0 0] CT
-19 5.5 moveto 
1 -1 scale
(2.5) t 
GR
GR
GS
[0.75 0 0 0.75 0 0] CT
0 0.447 0.741 RC
[10 6] 0 setdash
2 LJ
0.667 LW
N
73 187.753 M
121.222 344.5 L
169.444 60.521 L
217.667 246.398 L
265.889 140.156 L
314.111 338.027 L
362.333 78.366 L
410.556 146.856 L
458.778 279.907 L
507 225.273 L
S
GR
GS
[0.75 0 0 0.75 0 0] CT
0.851 0.325 0.098 RC
1 LJ
2 LW
N
73 251.954 M
121.222 240.515 L
169.444 159.048 L
217.667 171.283 L
265.889 222.851 L
314.111 236.115 L
362.333 148.796 L
410.556 149.309 L
458.778 234.331 L
507 259.842 L
S
GR
GS
[0.75 0 0 0.75 0 0] CT
0.929 0.694 0.125 RC
1 LJ
2 LW
N
73 211.468 M
121.222 303.199 L
169.444 110.958 L
217.667 193.993 L
265.889 188.882 L
314.111 298.826 L
362.333 102.36 L
410.556 139.938 L
458.778 274.909 L
507 231.939 L
S
GR
GS
[0.75 0 0 0.75 0 0] CT
0.494 0.184 0.557 RC
1 LJ
2 LW
N
73 192.296 M
121.222 336.155 L
169.444 71.339 L
217.667 234.754 L
265.889 151.01 L
314.111 329.207 L
362.333 84.539 L
410.556 143.238 L
458.778 281.603 L
507 224.698 L
S
GR
GS
[0.75 0 0 0.75 0 0] CT
1 GC
N
496 105 M
496 42 L
391 42 L
391 105 L
cp
f
GR
GS
[0.75 0 0 0.75 328.46931 38.38906] CT
N
0.547 2.88 M
0.422 2.88 0.422 2.724 QT
0.469 2.458 0.578 2.458 QT
1.063 2.458 1.414 2.263 QT
1.766 2.067 2.031 1.661 QT
2.047 1.646 2.047 1.646 QT
6.328 -5.589 L
6.422 -5.714 6.563 -5.714 QT
6.719 -5.714 L
6.75 -5.714 6.789 -5.698 QT
6.828 -5.683 6.852 -5.651 QT
6.875 -5.62 6.875 -5.589 QT
7.609 2.177 L
7.609 2.224 7.656 2.333 QT
7.781 2.458 8.563 2.458 QT
8.672 2.458 8.672 2.614 QT
8.641 2.771 8.609 2.825 QT
8.578 2.88 8.469 2.88 QT
5.469 2.88 L
5.359 2.88 5.359 2.724 QT
5.422 2.458 5.516 2.458 QT
6.469 2.458 6.531 2.13 QT
6.344 0.161 L
3.391 0.161 L
2.422 1.771 L
2.344 1.896 2.344 2.067 QT
2.344 2.271 2.547 2.364 QT
2.75 2.458 2.984 2.458 QT
3.109 2.458 3.109 2.614 QT
3.063 2.786 3.039 2.833 QT
3.016 2.88 2.906 2.88 QT
0.547 2.88 L
cp
3.625 -0.261 M
6.297 -0.261 L
5.938 -4.151 L
3.625 -0.261 L
cp
f
GR
GS
[0.75 0 0 0.75 328.46931 38.38906] CT
N
13.859 5.739 M
9.703 -5.792 L
9.672 -5.839 9.672 -5.886 QT
9.672 -5.979 9.734 -6.05 QT
9.797 -6.12 9.922 -6.12 QT
10.078 -6.12 10.141 -5.979 QT
14.297 5.552 L
14.313 5.583 14.313 5.591 QT
14.313 5.599 14.313 5.646 QT
14.313 5.739 14.242 5.81 QT
14.172 5.88 14.078 5.88 QT
13.906 5.88 13.859 5.739 QT
cp
f
GR
GS
[0.75 0 0 0.75 328.46931 38.38906] CT
N
16.824 -4.183 M
17.167 -4.604 L
17.636 -5.136 18.105 -5.136 QT
18.339 -5.136 18.605 -5.003 QT
18.871 -4.87 19.144 -4.737 QT
19.417 -4.604 19.652 -4.604 QT
20.136 -4.604 20.574 -5.136 QT
20.824 -4.933 L
20.464 -4.526 L
19.996 -3.979 19.527 -3.979 QT
19.308 -3.979 19.035 -4.12 QT
18.761 -4.261 18.488 -4.393 QT
18.214 -4.526 17.98 -4.526 QT
17.511 -4.526 17.058 -3.979 QT
16.824 -4.183 L
cp
f
GR
GS
[0.75 0 0 0.75 328.46931 38.38906] CT
N
16.016 4.599 M
16.266 5.036 16.891 5.036 QT
17.453 5.036 17.867 4.638 QT
18.281 4.239 18.539 3.669 QT
18.797 3.099 18.938 2.505 QT
18.406 3.021 17.781 3.021 QT
17.313 3.021 16.977 2.857 QT
16.641 2.692 16.453 2.364 QT
16.266 2.036 16.266 1.567 QT
16.266 1.177 16.375 0.763 QT
16.484 0.349 16.672 -0.159 QT
16.859 -0.667 17 -1.042 QT
17.156 -1.479 17.156 -1.761 QT
17.156 -2.12 16.906 -2.12 QT
16.422 -2.12 16.117 -1.628 QT
15.813 -1.136 15.656 -0.526 QT
15.641 -0.448 15.563 -0.448 QT
15.422 -0.448 L
15.328 -0.448 15.328 -0.573 QT
15.328 -0.604 L
15.516 -1.323 15.914 -1.87 QT
16.313 -2.417 16.922 -2.417 QT
17.344 -2.417 17.641 -2.136 QT
17.938 -1.854 17.938 -1.433 QT
17.938 -1.198 17.844 -0.964 QT
17.797 -0.808 17.609 -0.315 QT
17.422 0.177 17.32 0.497 QT
17.219 0.817 17.156 1.13 QT
17.094 1.442 17.094 1.755 QT
17.094 2.146 17.258 2.419 QT
17.422 2.692 17.797 2.692 QT
18.547 2.692 19.125 1.786 QT
20.047 -1.901 L
20.078 -2.073 20.227 -2.183 QT
20.375 -2.292 20.547 -2.292 QT
20.688 -2.292 20.797 -2.198 QT
20.906 -2.104 20.906 -1.948 QT
20.906 -1.886 20.891 -1.854 QT
19.703 2.911 L
19.547 3.536 19.125 4.099 QT
18.703 4.661 18.109 5.005 QT
17.516 5.349 16.875 5.349 QT
16.563 5.349 16.258 5.224 QT
15.953 5.099 15.766 4.857 QT
15.578 4.614 15.578 4.302 QT
15.578 3.974 15.773 3.732 QT
15.969 3.489 16.281 3.489 QT
16.484 3.489 16.609 3.607 QT
16.734 3.724 16.734 3.927 QT
16.734 4.192 16.531 4.403 QT
16.328 4.614 16.063 4.614 QT
16.047 4.599 16.031 4.599 QT
16.016 4.599 16.016 4.599 QT
cp
f
GR
GS
[0.75 0 0 0.75 0 0] CT
0 0.447 0.741 RC
[10 6] 0 setdash
2 LJ
0.667 LW
N
394.997 51.185 M
434.962 51.185 L
S
GR
GS
[0.75 0 0 0.75 328.46931 49.54635] CT
N
0.641 2.661 M
0.641 2.599 0.656 2.552 QT
2.391 -4.386 L
2.438 -4.589 2.453 -4.698 QT
2.453 -4.901 1.672 -4.901 QT
1.547 -4.901 1.547 -5.058 QT
1.547 -5.089 1.57 -5.159 QT
1.594 -5.229 1.625 -5.276 QT
1.656 -5.323 1.719 -5.323 QT
3.328 -5.448 L
3.375 -5.448 L
3.375 -5.433 3.414 -5.417 QT
3.453 -5.401 3.453 -5.386 QT
3.484 -5.323 3.484 -5.292 QT
2.219 -0.276 L
2.656 -0.464 3.313 -1.143 QT
3.969 -1.823 4.344 -2.12 QT
4.719 -2.417 5.281 -2.417 QT
5.609 -2.417 5.844 -2.19 QT
6.078 -1.964 6.078 -1.636 QT
6.078 -1.417 5.992 -1.237 QT
5.906 -1.058 5.75 -0.948 QT
5.594 -0.839 5.375 -0.839 QT
5.188 -0.839 5.055 -0.964 QT
4.922 -1.089 4.922 -1.276 QT
4.922 -1.558 5.125 -1.753 QT
5.328 -1.948 5.609 -1.948 QT
5.5 -2.12 5.25 -2.12 QT
4.906 -2.12 4.57 -1.909 QT
4.234 -1.698 3.852 -1.315 QT
3.469 -0.933 3.156 -0.612 QT
2.844 -0.292 2.563 -0.136 QT
3.281 -0.058 3.797 0.239 QT
4.313 0.536 4.313 1.13 QT
4.313 1.255 4.266 1.442 QT
4.172 1.896 4.172 2.161 QT
4.172 2.692 4.531 2.692 QT
4.969 2.692 5.195 2.224 QT
5.422 1.755 5.563 1.114 QT
5.594 1.052 5.672 1.052 QT
5.813 1.052 L
5.859 1.052 5.891 1.075 QT
5.922 1.099 5.922 1.146 QT
5.922 1.161 5.906 1.192 QT
5.453 3.021 4.516 3.021 QT
4.172 3.021 3.914 2.857 QT
3.656 2.692 3.516 2.419 QT
3.375 2.146 3.375 1.817 QT
3.375 1.614 3.422 1.411 QT
3.453 1.271 3.453 1.146 QT
3.453 0.692 3.047 0.45 QT
2.641 0.208 2.109 0.161 QT
1.5 2.599 L
1.453 2.786 1.32 2.903 QT
1.188 3.021 1.016 3.021 QT
0.859 3.021 0.75 2.911 QT
0.641 2.802 0.641 2.661 QT
cp
f
GR
GS
[0.75 0 0 0.75 328.46931 49.54635] CT
N
10.865 1.286 M
10.755 1.286 10.693 1.208 QT
10.63 1.13 10.63 1.052 QT
10.63 0.942 10.693 0.872 QT
10.755 0.802 10.865 0.802 QT
18.396 0.802 L
18.49 0.802 18.552 0.872 QT
18.615 0.942 18.615 1.052 QT
18.615 1.13 18.552 1.208 QT
18.49 1.286 18.396 1.286 QT
10.865 1.286 L
cp
10.865 -1.042 M
10.755 -1.042 10.693 -1.112 QT
10.63 -1.183 10.63 -1.292 QT
10.63 -1.37 10.693 -1.448 QT
10.755 -1.526 10.865 -1.526 QT
18.396 -1.526 L
18.49 -1.526 18.552 -1.448 QT
18.615 -1.37 18.615 -1.292 QT
18.615 -1.183 18.552 -1.112 QT
18.49 -1.042 18.396 -1.042 QT
10.865 -1.042 L
cp
f
GR
GS
[0.75 0 0 0.75 328.46931 49.54635] CT
N
23.734 2.88 M
23.734 2.458 L
25.234 2.458 25.234 2.083 QT
25.234 -4.229 L
24.625 -3.917 23.672 -3.917 QT
23.672 -4.339 L
25.141 -4.339 25.891 -5.12 QT
26.062 -5.12 L
26.094 -5.12 26.133 -5.081 QT
26.172 -5.042 26.172 -5.011 QT
26.172 2.083 L
26.172 2.458 27.672 2.458 QT
27.672 2.88 L
23.734 2.88 L
cp
f
GR
GS
[0.75 0 0 0.75 328.46931 49.54635] CT
N
31.625 3.146 M
30.156 3.146 29.625 1.935 QT
29.094 0.724 29.094 -0.948 QT
29.094 -1.995 29.281 -2.909 QT
29.469 -3.823 30.039 -4.472 QT
30.609 -5.12 31.625 -5.12 QT
32.422 -5.12 32.922 -4.729 QT
33.422 -4.339 33.687 -3.729 QT
33.953 -3.12 34.047 -2.417 QT
34.141 -1.714 34.141 -0.948 QT
34.141 0.083 33.953 0.982 QT
33.766 1.88 33.211 2.513 QT
32.656 3.146 31.625 3.146 QT
cp
31.625 2.833 M
32.297 2.833 32.625 2.146 QT
32.953 1.458 33.031 0.63 QT
33.109 -0.198 33.109 -1.136 QT
33.109 -2.042 33.031 -2.808 QT
32.953 -3.573 32.625 -4.19 QT
32.297 -4.808 31.625 -4.808 QT
30.953 -4.808 30.625 -4.183 QT
30.297 -3.558 30.219 -2.8 QT
30.141 -2.042 30.141 -1.136 QT
30.141 -0.479 30.172 0.114 QT
30.203 0.708 30.344 1.341 QT
30.484 1.974 30.797 2.403 QT
31.109 2.833 31.625 2.833 QT
cp
f
GR
GS
[0.75 0 0 0.75 328.46931 49.54635] CT
N
35.328 -2.381 M
35.406 -2.147 35.578 -1.959 QT
35.75 -1.772 35.976 -1.662 QT
36.203 -1.553 36.453 -1.553 QT
37.031 -1.553 37.25 -2.006 QT
37.469 -2.459 37.469 -3.1 QT
37.469 -3.365 37.461 -3.561 QT
37.453 -3.756 37.406 -3.928 QT
37.344 -4.209 37.156 -4.42 QT
36.969 -4.631 36.703 -4.631 QT
36.422 -4.631 36.234 -4.545 QT
36.047 -4.459 35.922 -4.35 QT
35.797 -4.24 35.703 -4.123 QT
35.609 -4.006 35.594 -3.99 QT
35.5 -3.99 L
35.484 -3.99 35.453 -4.022 QT
35.422 -4.053 35.422 -4.068 QT
35.422 -6.74 L
35.422 -6.756 35.445 -6.779 QT
35.469 -6.803 35.5 -6.803 QT
35.516 -6.803 L
36.062 -6.553 36.672 -6.553 QT
37.266 -6.553 37.812 -6.803 QT
37.828 -6.803 L
37.859 -6.803 37.883 -6.787 QT
37.906 -6.772 37.906 -6.74 QT
37.906 -6.662 L
37.906 -6.631 37.891 -6.631 QT
37.625 -6.272 37.211 -6.068 QT
36.797 -5.865 36.359 -5.865 QT
36.031 -5.865 35.703 -5.943 QT
35.703 -4.443 L
35.969 -4.647 36.172 -4.74 QT
36.375 -4.834 36.703 -4.834 QT
37.141 -4.834 37.492 -4.584 QT
37.844 -4.334 38.031 -3.92 QT
38.219 -3.506 38.219 -3.084 QT
38.219 -2.6 37.984 -2.193 QT
37.75 -1.787 37.344 -1.545 QT
36.937 -1.303 36.453 -1.303 QT
36.062 -1.303 35.734 -1.506 QT
35.406 -1.709 35.219 -2.053 QT
35.031 -2.397 35.031 -2.787 QT
35.031 -2.959 35.148 -3.076 QT
35.266 -3.193 35.437 -3.193 QT
35.609 -3.193 35.726 -3.076 QT
35.844 -2.959 35.844 -2.787 QT
35.844 -2.615 35.726 -2.49 QT
35.609 -2.365 35.437 -2.365 QT
35.406 -2.365 35.375 -2.373 QT
35.344 -2.381 35.328 -2.381 QT
cp
f
GR
GS
[0.75 0 0 0.75 0 0] CT
0.851 0.325 0.098 RC
1 LJ
2 LW
N
394.997 66.062 M
434.962 66.062 L
S
GR
GS
[0.75 0 0 0.75 328.46931 60.70365] CT
N
/f490262150{0.641 2.661 M
0.641 2.599 0.656 2.552 QT
2.391 -4.386 L
2.438 -4.589 2.453 -4.698 QT
2.453 -4.901 1.672 -4.901 QT
1.547 -4.901 1.547 -5.058 QT
1.547 -5.089 1.57 -5.159 QT
1.594 -5.229 1.625 -5.276 QT
1.656 -5.323 1.719 -5.323 QT
3.328 -5.448 L
3.375 -5.448 L
3.375 -5.433 3.414 -5.417 QT
3.453 -5.401 3.453 -5.386 QT
3.484 -5.323 3.484 -5.292 QT
2.219 -0.276 L
2.656 -0.464 3.313 -1.143 QT
3.969 -1.823 4.344 -2.12 QT
4.719 -2.417 5.281 -2.417 QT
5.609 -2.417 5.844 -2.19 QT
6.078 -1.964 6.078 -1.636 QT
6.078 -1.417 5.992 -1.237 QT
5.906 -1.058 5.75 -0.948 QT
5.594 -0.839 5.375 -0.839 QT
5.188 -0.839 5.055 -0.964 QT
4.922 -1.089 4.922 -1.276 QT
4.922 -1.558 5.125 -1.753 QT
5.328 -1.948 5.609 -1.948 QT
5.5 -2.12 5.25 -2.12 QT
4.906 -2.12 4.57 -1.909 QT
4.234 -1.698 3.852 -1.315 QT
3.469 -0.933 3.156 -0.612 QT
2.844 -0.292 2.563 -0.136 QT
3.281 -0.058 3.797 0.239 QT
4.313 0.536 4.313 1.13 QT
4.313 1.255 4.266 1.442 QT
4.172 1.896 4.172 2.161 QT
4.172 2.692 4.531 2.692 QT
4.969 2.692 5.195 2.224 QT
5.422 1.755 5.563 1.114 QT
5.594 1.052 5.672 1.052 QT
5.813 1.052 L
5.859 1.052 5.891 1.075 QT
5.922 1.099 5.922 1.146 QT
5.922 1.161 5.906 1.192 QT
5.453 3.021 4.516 3.021 QT
4.172 3.021 3.914 2.857 QT
3.656 2.692 3.516 2.419 QT
3.375 2.146 3.375 1.817 QT
3.375 1.614 3.422 1.411 QT
3.453 1.271 3.453 1.146 QT
3.453 0.692 3.047 0.45 QT
2.641 0.208 2.109 0.161 QT
1.5 2.599 L
1.453 2.786 1.32 2.903 QT
1.188 3.021 1.016 3.021 QT
0.859 3.021 0.75 2.911 QT
0.641 2.802 0.641 2.661 QT
cp}def
f490262150
f
GR
GS
[0.75 0 0 0.75 328.46931 60.70365] CT
N
/f-1139849563{10.865 1.286 M
10.755 1.286 10.693 1.208 QT
10.63 1.13 10.63 1.052 QT
10.63 0.942 10.693 0.872 QT
10.755 0.802 10.865 0.802 QT
18.396 0.802 L
18.49 0.802 18.552 0.872 QT
18.615 0.942 18.615 1.052 QT
18.615 1.13 18.552 1.208 QT
18.49 1.286 18.396 1.286 QT
10.865 1.286 L
cp
10.865 -1.042 M
10.755 -1.042 10.693 -1.112 QT
10.63 -1.183 10.63 -1.292 QT
10.63 -1.37 10.693 -1.448 QT
10.755 -1.526 10.865 -1.526 QT
18.396 -1.526 L
18.49 -1.526 18.552 -1.448 QT
18.615 -1.37 18.615 -1.292 QT
18.615 -1.183 18.552 -1.112 QT
18.49 -1.042 18.396 -1.042 QT
10.865 -1.042 L
cp}def
f-1139849563
f
GR
GS
[0.75 0 0 0.75 328.46931 60.70365] CT
N
/f-353381202{23.734 2.88 M
23.734 2.458 L
25.234 2.458 25.234 2.083 QT
25.234 -4.229 L
24.625 -3.917 23.672 -3.917 QT
23.672 -4.339 L
25.141 -4.339 25.891 -5.12 QT
26.062 -5.12 L
26.094 -5.12 26.133 -5.081 QT
26.172 -5.042 26.172 -5.011 QT
26.172 2.083 L
26.172 2.458 27.672 2.458 QT
27.672 2.88 L
23.734 2.88 L
cp}def
f-353381202
f
GR
GS
[0.75 0 0 0.75 328.46931 60.70365] CT
N
/f-1204500604{31.625 3.146 M
30.156 3.146 29.625 1.935 QT
29.094 0.724 29.094 -0.948 QT
29.094 -1.995 29.281 -2.909 QT
29.469 -3.823 30.039 -4.472 QT
30.609 -5.12 31.625 -5.12 QT
32.422 -5.12 32.922 -4.729 QT
33.422 -4.339 33.687 -3.729 QT
33.953 -3.12 34.047 -2.417 QT
34.141 -1.714 34.141 -0.948 QT
34.141 0.083 33.953 0.982 QT
33.766 1.88 33.211 2.513 QT
32.656 3.146 31.625 3.146 QT
cp
31.625 2.833 M
32.297 2.833 32.625 2.146 QT
32.953 1.458 33.031 0.63 QT
33.109 -0.198 33.109 -1.136 QT
33.109 -2.042 33.031 -2.808 QT
32.953 -3.573 32.625 -4.19 QT
32.297 -4.808 31.625 -4.808 QT
30.953 -4.808 30.625 -4.183 QT
30.297 -3.558 30.219 -2.8 QT
30.141 -2.042 30.141 -1.136 QT
30.141 -0.479 30.172 0.114 QT
30.203 0.708 30.344 1.341 QT
30.484 1.974 30.797 2.403 QT
31.109 2.833 31.625 2.833 QT
cp}def
f-1204500604
f
GR
GS
[0.75 0 0 0.75 328.46931 60.70365] CT
N
/f722253026{36.625 -1.303 M
36.125 -1.303 35.797 -1.568 QT
35.469 -1.834 35.289 -2.248 QT
35.109 -2.662 35.039 -3.123 QT
34.969 -3.584 34.969 -4.068 QT
34.969 -4.693 35.211 -5.334 QT
35.453 -5.975 35.93 -6.389 QT
36.406 -6.803 37.062 -6.803 QT
37.344 -6.803 37.578 -6.701 QT
37.812 -6.6 37.945 -6.397 QT
38.078 -6.193 38.078 -5.912 QT
38.078 -5.74 37.969 -5.631 QT
37.859 -5.522 37.703 -5.522 QT
37.547 -5.522 37.43 -5.639 QT
37.312 -5.756 37.312 -5.912 QT
37.312 -6.068 37.43 -6.178 QT
37.547 -6.287 37.703 -6.287 QT
37.734 -6.287 L
37.641 -6.443 37.453 -6.506 QT
37.266 -6.568 37.062 -6.568 QT
36.828 -6.568 36.625 -6.467 QT
36.422 -6.365 36.258 -6.186 QT
36.094 -6.006 35.984 -5.787 QT
35.875 -5.568 35.812 -5.295 QT
35.75 -5.022 35.734 -4.779 QT
35.719 -4.537 35.719 -4.162 QT
35.859 -4.49 36.117 -4.701 QT
36.375 -4.912 36.703 -4.912 QT
37.047 -4.912 37.344 -4.764 QT
37.641 -4.615 37.851 -4.365 QT
38.062 -4.115 38.172 -3.787 QT
38.281 -3.459 38.281 -3.115 QT
38.281 -2.647 38.07 -2.225 QT
37.859 -1.803 37.484 -1.553 QT
37.109 -1.303 36.625 -1.303 QT
cp
36.625 -1.553 M
36.937 -1.553 37.125 -1.693 QT
37.312 -1.834 37.398 -2.068 QT
37.484 -2.303 37.508 -2.537 QT
37.531 -2.772 37.531 -3.115 QT
37.531 -3.568 37.484 -3.889 QT
37.437 -4.209 37.25 -4.451 QT
37.062 -4.693 36.672 -4.693 QT
36.344 -4.693 36.133 -4.475 QT
35.922 -4.256 35.828 -3.928 QT
35.734 -3.6 35.734 -3.287 QT
35.734 -3.178 35.734 -3.131 QT
35.734 -3.115 35.734 -3.108 QT
35.734 -3.1 35.734 -3.084 QT
35.734 -2.74 35.805 -2.389 QT
35.875 -2.037 36.07 -1.795 QT
36.266 -1.553 36.625 -1.553 QT
cp}def
f722253026
f
GR
GS
[0.75 0 0 0.75 0 0] CT
0.929 0.694 0.125 RC
1 LJ
2 LW
N
394.997 80.938 M
434.962 80.938 L
S
GR
GS
[0.75 0 0 0.75 328.46931 71.86094] CT
N
f490262150
f
GR
GS
[0.75 0 0 0.75 328.46931 71.86094] CT
N
f-1139849563
f
GR
GS
[0.75 0 0 0.75 328.46931 71.86094] CT
N
/f-698868594{23.766 1.958 M
24.047 2.364 24.523 2.56 QT
25 2.755 25.547 2.755 QT
26.234 2.755 26.531 2.161 QT
26.828 1.567 26.828 0.817 QT
26.828 0.474 26.766 0.138 QT
26.703 -0.198 26.555 -0.495 QT
26.406 -0.792 26.156 -0.964 QT
25.906 -1.136 25.531 -1.136 QT
24.734 -1.136 L
24.625 -1.136 24.625 -1.245 QT
24.625 -1.354 L
24.625 -1.448 24.734 -1.448 QT
25.391 -1.511 L
25.812 -1.511 26.094 -1.823 QT
26.375 -2.136 26.508 -2.589 QT
26.641 -3.042 26.641 -3.448 QT
26.641 -4.026 26.367 -4.393 QT
26.094 -4.761 25.547 -4.761 QT
25.094 -4.761 24.672 -4.589 QT
24.25 -4.417 24.016 -4.073 QT
24.031 -4.073 24.047 -4.081 QT
24.062 -4.089 24.094 -4.089 QT
24.359 -4.089 24.539 -3.901 QT
24.719 -3.714 24.719 -3.448 QT
24.719 -3.183 24.539 -2.995 QT
24.359 -2.808 24.094 -2.808 QT
23.828 -2.808 23.641 -2.995 QT
23.453 -3.183 23.453 -3.448 QT
23.453 -3.964 23.766 -4.339 QT
24.078 -4.714 24.562 -4.917 QT
25.047 -5.12 25.547 -5.12 QT
25.906 -5.12 26.312 -5.011 QT
26.719 -4.901 27.047 -4.698 QT
27.375 -4.495 27.578 -4.175 QT
27.781 -3.854 27.781 -3.448 QT
27.781 -2.948 27.562 -2.518 QT
27.344 -2.089 26.945 -1.784 QT
26.547 -1.479 26.078 -1.323 QT
26.609 -1.229 27.078 -0.933 QT
27.547 -0.636 27.828 -0.183 QT
28.109 0.271 28.109 0.802 QT
28.109 1.474 27.75 2.005 QT
27.391 2.536 26.797 2.841 QT
26.203 3.146 25.547 3.146 QT
24.984 3.146 24.414 2.927 QT
23.844 2.708 23.484 2.286 QT
23.125 1.864 23.125 1.255 QT
23.125 0.958 23.328 0.763 QT
23.531 0.567 23.828 0.567 QT
24.016 0.567 24.18 0.653 QT
24.344 0.739 24.437 0.903 QT
24.531 1.067 24.531 1.255 QT
24.531 1.552 24.32 1.755 QT
24.109 1.958 23.828 1.958 QT
23.766 1.958 L
cp}def
f-698868594
f
GR
GS
[0.75 0 0 0.75 328.46931 71.86094] CT
N
/f218942496{32.307 -0.12 M
32.307 -0.292 32.393 -0.44 QT
32.479 -0.589 32.635 -0.683 QT
32.791 -0.776 32.963 -0.776 QT
33.135 -0.776 33.291 -0.683 QT
33.448 -0.589 33.534 -0.44 QT
33.62 -0.292 33.62 -0.12 QT
33.62 0.146 33.432 0.341 QT
33.245 0.536 32.963 0.536 QT
32.698 0.536 32.502 0.341 QT
32.307 0.146 32.307 -0.12 QT
cp}def
f218942496
f
GR
GS
[0.75 0 0 0.75 328.46931 71.86094] CT
N
/f281512686{38.401 2.88 M
38.401 2.458 L
39.901 2.458 39.901 2.083 QT
39.901 -4.229 L
39.291 -3.917 38.338 -3.917 QT
38.338 -4.339 L
39.807 -4.339 40.557 -5.12 QT
40.729 -5.12 L
40.76 -5.12 40.799 -5.081 QT
40.838 -5.042 40.838 -5.011 QT
40.838 2.083 L
40.838 2.458 42.338 2.458 QT
42.338 2.88 L
38.401 2.88 L
cp}def
f281512686
f
GR
GS
[0.75 0 0 0.75 328.46931 71.86094] CT
N
/f1661394654{46.291 3.146 M
44.823 3.146 44.291 1.935 QT
43.76 0.724 43.76 -0.948 QT
43.76 -1.995 43.948 -2.909 QT
44.135 -3.823 44.706 -4.472 QT
45.276 -5.12 46.291 -5.12 QT
47.088 -5.12 47.588 -4.729 QT
48.088 -4.339 48.354 -3.729 QT
48.62 -3.12 48.713 -2.417 QT
48.807 -1.714 48.807 -0.948 QT
48.807 0.083 48.62 0.982 QT
48.432 1.88 47.877 2.513 QT
47.323 3.146 46.291 3.146 QT
cp
46.291 2.833 M
46.963 2.833 47.291 2.146 QT
47.62 1.458 47.698 0.63 QT
47.776 -0.198 47.776 -1.136 QT
47.776 -2.042 47.698 -2.808 QT
47.62 -3.573 47.291 -4.19 QT
46.963 -4.808 46.291 -4.808 QT
45.62 -4.808 45.291 -4.183 QT
44.963 -3.558 44.885 -2.8 QT
44.807 -2.042 44.807 -1.136 QT
44.807 -0.479 44.838 0.114 QT
44.87 0.708 45.01 1.341 QT
45.151 1.974 45.463 2.403 QT
45.776 2.833 46.291 2.833 QT
cp}def
f1661394654
f
GR
GS
[0.75 0 0 0.75 328.46931 71.86094] CT
N
/f-1696588828{51.291 -1.303 M
50.791 -1.303 50.463 -1.568 QT
50.135 -1.834 49.956 -2.248 QT
49.776 -2.662 49.706 -3.123 QT
49.635 -3.584 49.635 -4.068 QT
49.635 -4.693 49.877 -5.334 QT
50.12 -5.975 50.596 -6.389 QT
51.073 -6.803 51.729 -6.803 QT
52.01 -6.803 52.245 -6.701 QT
52.479 -6.6 52.612 -6.397 QT
52.745 -6.193 52.745 -5.912 QT
52.745 -5.74 52.635 -5.631 QT
52.526 -5.522 52.37 -5.522 QT
52.213 -5.522 52.096 -5.639 QT
51.979 -5.756 51.979 -5.912 QT
51.979 -6.068 52.096 -6.178 QT
52.213 -6.287 52.37 -6.287 QT
52.401 -6.287 L
52.307 -6.443 52.12 -6.506 QT
51.932 -6.568 51.729 -6.568 QT
51.495 -6.568 51.291 -6.467 QT
51.088 -6.365 50.924 -6.186 QT
50.76 -6.006 50.651 -5.787 QT
50.541 -5.568 50.479 -5.295 QT
50.416 -5.022 50.401 -4.779 QT
50.385 -4.537 50.385 -4.162 QT
50.526 -4.49 50.784 -4.701 QT
51.041 -4.912 51.37 -4.912 QT
51.713 -4.912 52.01 -4.764 QT
52.307 -4.615 52.518 -4.365 QT
52.729 -4.115 52.838 -3.787 QT
52.948 -3.459 52.948 -3.115 QT
52.948 -2.647 52.737 -2.225 QT
52.526 -1.803 52.151 -1.553 QT
51.776 -1.303 51.291 -1.303 QT
cp
51.291 -1.553 M
51.604 -1.553 51.791 -1.693 QT
51.979 -1.834 52.065 -2.068 QT
52.151 -2.303 52.174 -2.537 QT
52.198 -2.772 52.198 -3.115 QT
52.198 -3.568 52.151 -3.889 QT
52.104 -4.209 51.916 -4.451 QT
51.729 -4.693 51.338 -4.693 QT
51.01 -4.693 50.799 -4.475 QT
50.588 -4.256 50.495 -3.928 QT
50.401 -3.6 50.401 -3.287 QT
50.401 -3.178 50.401 -3.131 QT
50.401 -3.115 50.401 -3.108 QT
50.401 -3.1 50.401 -3.084 QT
50.401 -2.74 50.471 -2.389 QT
50.541 -2.037 50.737 -1.795 QT
50.932 -1.553 51.291 -1.553 QT
cp}def
f-1696588828
f
GR
GS
[0.75 0 0 0.75 0 0] CT
0.494 0.184 0.557 RC
1 LJ
2 LW
N
394.997 95.815 M
434.962 95.815 L
S
GR
GS
[0.75 0 0 0.75 0 0] CT
0.149 GC
10.0 ML
0.667 LW
N
391 105 M
391 42 L
496 42 L
496 105 L
cp
S
GR
%%Trailer
%%Pages: 1
%%EOF
