%!PS-Adobe-3.0 EPSF-3.0
%%Creator: (MATLAB, The Mathworks, Inc. Version 9.5.0.944444 \(R2018b\). Operating System: Windows 10)
%%Title: F:/Studium/__Bachelorarbeit/tex/images/landweber-firstfew.eps
%%CreationDate: 2020-07-26T18:03:32
%%Pages: (atend)
%%BoundingBox: 0 0 420 315
%%LanguageLevel: 3
%%EndComments
%%BeginProlog
%%BeginResource: procset (Apache XML Graphics Std ProcSet) 1.2 0
%%Version: 1.2 0
%%Copyright: (Copyright 2001-2003,2010 The Apache Software Foundation. License terms: http://www.apache.org/licenses/LICENSE-2.0)
/bd{bind def}bind def
/ld{load def}bd
/GR/grestore ld
/GS/gsave ld
/RM/rmoveto ld
/C/curveto ld
/t/show ld
/L/lineto ld
/ML/setmiterlimit ld
/CT/concat ld
/f/fill ld
/N/newpath ld
/S/stroke ld
/CC/setcmykcolor ld
/A/ashow ld
/cp/closepath ld
/RC/setrgbcolor ld
/LJ/setlinejoin ld
/GC/setgray ld
/LW/setlinewidth ld
/M/moveto ld
/re {4 2 roll M
1 index 0 rlineto
0 exch rlineto
neg 0 rlineto
cp } bd
/_ctm matrix def
/_tm matrix def
/BT { _ctm currentmatrix pop matrix _tm copy pop 0 0 moveto } bd
/ET { _ctm setmatrix } bd
/iTm { _ctm setmatrix _tm concat } bd
/Tm { _tm astore pop iTm 0 0 moveto } bd
/ux 0.0 def
/uy 0.0 def
/F {
  /Tp exch def
  /Tf exch def
  Tf findfont Tp scalefont setfont
  /cf Tf def  /cs Tp def
} bd
/ULS {currentpoint /uy exch def /ux exch def} bd
/ULE {
  /Tcx currentpoint pop def
  gsave
  newpath
  cf findfont cs scalefont dup
  /FontMatrix get 0 get /Ts exch def /FontInfo get dup
  /UnderlinePosition get Ts mul /To exch def
  /UnderlineThickness get Ts mul /Tt exch def
  ux uy To add moveto  Tcx uy To add lineto
  Tt setlinewidth stroke
  grestore
} bd
/OLE {
  /Tcx currentpoint pop def
  gsave
  newpath
  cf findfont cs scalefont dup
  /FontMatrix get 0 get /Ts exch def /FontInfo get dup
  /UnderlinePosition get Ts mul /To exch def
  /UnderlineThickness get Ts mul /Tt exch def
  ux uy To add cs add moveto Tcx uy To add cs add lineto
  Tt setlinewidth stroke
  grestore
} bd
/SOE {
  /Tcx currentpoint pop def
  gsave
  newpath
  cf findfont cs scalefont dup
  /FontMatrix get 0 get /Ts exch def /FontInfo get dup
  /UnderlinePosition get Ts mul /To exch def
  /UnderlineThickness get Ts mul /Tt exch def
  ux uy To add cs 10 mul 26 idiv add moveto Tcx uy To add cs 10 mul 26 idiv add lineto
  Tt setlinewidth stroke
  grestore
} bd
/QT {
/Y22 exch store
/X22 exch store
/Y21 exch store
/X21 exch store
currentpoint
/Y21 load 2 mul add 3 div exch
/X21 load 2 mul add 3 div exch
/X21 load 2 mul /X22 load add 3 div
/Y21 load 2 mul /Y22 load add 3 div
/X22 load /Y22 load curveto
} bd
/SSPD {
dup length /d exch dict def
{
/v exch def
/k exch def
currentpagedevice k known {
/cpdv currentpagedevice k get def
v cpdv ne {
/upd false def
/nullv v type /nulltype eq def
/nullcpdv cpdv type /nulltype eq def
nullv nullcpdv or
{
/upd true def
} {
/sametype v type cpdv type eq def
sametype {
v type /arraytype eq {
/vlen v length def
/cpdvlen cpdv length def
vlen cpdvlen eq {
0 1 vlen 1 sub {
/i exch def
/obj v i get def
/cpdobj cpdv i get def
obj cpdobj ne {
/upd true def
exit
} if
} for
} {
/upd true def
} ifelse
} {
v type /dicttype eq {
v {
/dv exch def
/dk exch def
/cpddv cpdv dk get def
dv cpddv ne {
/upd true def
exit
} if
} forall
} {
/upd true def
} ifelse
} ifelse
} if
} ifelse
upd true eq {
d k v put
} if
} if
} if
} forall
d length 0 gt {
d setpagedevice
} if
} bd
/RE { % /NewFontName [NewEncodingArray] /FontName RE -
  findfont dup length dict begin
  {
    1 index /FID ne
    {def} {pop pop} ifelse
  } forall
  /Encoding exch def
  /FontName 1 index def
  currentdict definefont pop
  end
} bind def
%%EndResource
%%BeginResource: procset (Apache XML Graphics EPS ProcSet) 1.0 0
%%Version: 1.0 0
%%Copyright: (Copyright 2002-2003 The Apache Software Foundation. License terms: http://www.apache.org/licenses/LICENSE-2.0)
/BeginEPSF { %def
/b4_Inc_state save def         % Save state for cleanup
/dict_count countdictstack def % Count objects on dict stack
/op_count count 1 sub def      % Count objects on operand stack
userdict begin                 % Push userdict on dict stack
/showpage { } def              % Redefine showpage, { } = null proc
0 setgray 0 setlinecap         % Prepare graphics state
1 setlinewidth 0 setlinejoin
10 setmiterlimit [ ] 0 setdash newpath
/languagelevel where           % If level not equal to 1 then
{pop languagelevel             % set strokeadjust and
1 ne                           % overprint to their defaults.
{false setstrokeadjust false setoverprint
} if
} if
} bd
/EndEPSF { %def
count op_count sub {pop} repeat            % Clean up stacks
countdictstack dict_count sub {end} repeat
b4_Inc_state restore
} bd
%%EndResource
%FOPBeginFontDict
%%IncludeResource: font Courier-Oblique
%%IncludeResource: font Courier-BoldOblique
%%IncludeResource: font Courier-Bold
%%IncludeResource: font ZapfDingbats
%%IncludeResource: font Symbol
%%IncludeResource: font Helvetica
%%IncludeResource: font Helvetica-Oblique
%%IncludeResource: font Helvetica-Bold
%%IncludeResource: font Helvetica-BoldOblique
%%IncludeResource: font Times-Roman
%%IncludeResource: font Times-Italic
%%IncludeResource: font Times-Bold
%%IncludeResource: font Times-BoldItalic
%%IncludeResource: font Courier
%FOPEndFontDict
%%BeginResource: encoding WinAnsiEncoding
/WinAnsiEncoding [
/.notdef /.notdef /.notdef /.notdef /.notdef
/.notdef /.notdef /.notdef /.notdef /.notdef
/.notdef /.notdef /.notdef /.notdef /.notdef
/.notdef /.notdef /.notdef /.notdef /.notdef
/.notdef /.notdef /.notdef /.notdef /.notdef
/.notdef /.notdef /.notdef /.notdef /.notdef
/.notdef /.notdef /space /exclam /quotedbl
/numbersign /dollar /percent /ampersand /quotesingle
/parenleft /parenright /asterisk /plus /comma
/hyphen /period /slash /zero /one
/two /three /four /five /six
/seven /eight /nine /colon /semicolon
/less /equal /greater /question /at
/A /B /C /D /E
/F /G /H /I /J
/K /L /M /N /O
/P /Q /R /S /T
/U /V /W /X /Y
/Z /bracketleft /backslash /bracketright /asciicircum
/underscore /quoteleft /a /b /c
/d /e /f /g /h
/i /j /k /l /m
/n /o /p /q /r
/s /t /u /v /w
/x /y /z /braceleft /bar
/braceright /asciitilde /bullet /Euro /bullet
/quotesinglbase /florin /quotedblbase /ellipsis /dagger
/daggerdbl /circumflex /perthousand /Scaron /guilsinglleft
/OE /bullet /Zcaron /bullet /bullet
/quoteleft /quoteright /quotedblleft /quotedblright /bullet
/endash /emdash /asciitilde /trademark /scaron
/guilsinglright /oe /bullet /zcaron /Ydieresis
/space /exclamdown /cent /sterling /currency
/yen /brokenbar /section /dieresis /copyright
/ordfeminine /guillemotleft /logicalnot /sfthyphen /registered
/macron /degree /plusminus /twosuperior /threesuperior
/acute /mu /paragraph /middot /cedilla
/onesuperior /ordmasculine /guillemotright /onequarter /onehalf
/threequarters /questiondown /Agrave /Aacute /Acircumflex
/Atilde /Adieresis /Aring /AE /Ccedilla
/Egrave /Eacute /Ecircumflex /Edieresis /Igrave
/Iacute /Icircumflex /Idieresis /Eth /Ntilde
/Ograve /Oacute /Ocircumflex /Otilde /Odieresis
/multiply /Oslash /Ugrave /Uacute /Ucircumflex
/Udieresis /Yacute /Thorn /germandbls /agrave
/aacute /acircumflex /atilde /adieresis /aring
/ae /ccedilla /egrave /eacute /ecircumflex
/edieresis /igrave /iacute /icircumflex /idieresis
/eth /ntilde /ograve /oacute /ocircumflex
/otilde /odieresis /divide /oslash /ugrave
/uacute /ucircumflex /udieresis /yacute /thorn
/ydieresis
] def
%%EndResource
%FOPBeginFontReencode
/Courier-Oblique findfont
dup length dict begin
  {1 index /FID ne {def} {pop pop} ifelse} forall
  /Encoding WinAnsiEncoding def
  currentdict
end
/Courier-Oblique exch definefont pop
/Courier-BoldOblique findfont
dup length dict begin
  {1 index /FID ne {def} {pop pop} ifelse} forall
  /Encoding WinAnsiEncoding def
  currentdict
end
/Courier-BoldOblique exch definefont pop
/Courier-Bold findfont
dup length dict begin
  {1 index /FID ne {def} {pop pop} ifelse} forall
  /Encoding WinAnsiEncoding def
  currentdict
end
/Courier-Bold exch definefont pop
/Helvetica findfont
dup length dict begin
  {1 index /FID ne {def} {pop pop} ifelse} forall
  /Encoding WinAnsiEncoding def
  currentdict
end
/Helvetica exch definefont pop
/Helvetica-Oblique findfont
dup length dict begin
  {1 index /FID ne {def} {pop pop} ifelse} forall
  /Encoding WinAnsiEncoding def
  currentdict
end
/Helvetica-Oblique exch definefont pop
/Helvetica-Bold findfont
dup length dict begin
  {1 index /FID ne {def} {pop pop} ifelse} forall
  /Encoding WinAnsiEncoding def
  currentdict
end
/Helvetica-Bold exch definefont pop
/Helvetica-BoldOblique findfont
dup length dict begin
  {1 index /FID ne {def} {pop pop} ifelse} forall
  /Encoding WinAnsiEncoding def
  currentdict
end
/Helvetica-BoldOblique exch definefont pop
/Times-Roman findfont
dup length dict begin
  {1 index /FID ne {def} {pop pop} ifelse} forall
  /Encoding WinAnsiEncoding def
  currentdict
end
/Times-Roman exch definefont pop
/Times-Italic findfont
dup length dict begin
  {1 index /FID ne {def} {pop pop} ifelse} forall
  /Encoding WinAnsiEncoding def
  currentdict
end
/Times-Italic exch definefont pop
/Times-Bold findfont
dup length dict begin
  {1 index /FID ne {def} {pop pop} ifelse} forall
  /Encoding WinAnsiEncoding def
  currentdict
end
/Times-Bold exch definefont pop
/Times-BoldItalic findfont
dup length dict begin
  {1 index /FID ne {def} {pop pop} ifelse} forall
  /Encoding WinAnsiEncoding def
  currentdict
end
/Times-BoldItalic exch definefont pop
/Courier findfont
dup length dict begin
  {1 index /FID ne {def} {pop pop} ifelse} forall
  /Encoding WinAnsiEncoding def
  currentdict
end
/Courier exch definefont pop
%FOPEndFontReencode
%%EndProlog
%%Page: 1 1
%%PageBoundingBox: 0 0 420 315
%%BeginPageSetup
[1 0 0 -1 0 315] CT
%%EndPageSetup
GS
[0.75 0 0 0.75 0 0] CT
1 GC
N
0 0 560 420 re
f
GR
GS
[0.75 0 0 0.75 0 0] CT
1 GC
N
0 0 560 420 re
f
GR
GS
[0.75 0 0 0.75 0 0] CT
1 GC
N
73 374 M
507 374 L
507 31 L
73 31 L
cp
f
GR
GS
[0.75 0 0 0.75 0 0] CT
0.149 GC
2 setlinecap
1 LJ
0.667 LW
N
73 374 M
507 374 L
S
GR
GS
[0.75 0 0 0.75 0 0] CT
0.149 GC
2 setlinecap
1 LJ
0.667 LW
N
73 374 M
73 382.68 L
S
GR
GS
[0.75 0 0 0.75 0 0] CT
0.149 GC
2 setlinecap
1 LJ
0.667 LW
N
116.4 374 M
116.4 382.68 L
S
GR
GS
[0.75 0 0 0.75 0 0] CT
0.149 GC
2 setlinecap
1 LJ
0.667 LW
N
159.8 374 M
159.8 382.68 L
S
GR
GS
[0.75 0 0 0.75 0 0] CT
0.149 GC
2 setlinecap
1 LJ
0.667 LW
N
203.2 374 M
203.2 382.68 L
S
GR
GS
[0.75 0 0 0.75 0 0] CT
0.149 GC
2 setlinecap
1 LJ
0.667 LW
N
246.6 374 M
246.6 382.68 L
S
GR
GS
[0.75 0 0 0.75 0 0] CT
0.149 GC
2 setlinecap
1 LJ
0.667 LW
N
290 374 M
290 382.68 L
S
GR
GS
[0.75 0 0 0.75 0 0] CT
0.149 GC
2 setlinecap
1 LJ
0.667 LW
N
333.4 374 M
333.4 382.68 L
S
GR
GS
[0.75 0 0 0.75 0 0] CT
0.149 GC
2 setlinecap
1 LJ
0.667 LW
N
376.8 374 M
376.8 382.68 L
S
GR
GS
[0.75 0 0 0.75 0 0] CT
0.149 GC
2 setlinecap
1 LJ
0.667 LW
N
420.2 374 M
420.2 382.68 L
S
GR
GS
[0.75 0 0 0.75 0 0] CT
0.149 GC
2 setlinecap
1 LJ
0.667 LW
N
463.6 374 M
463.6 382.68 L
S
GR
GS
[0.75 0 0 0.75 0 0] CT
0.149 GC
2 setlinecap
1 LJ
0.667 LW
N
507 374 M
507 382.68 L
S
GR
GS
[0.75 0 0 0.75 0 0] CT
0.149 GC
2 setlinecap
1 LJ
0.667 LW
N
81.68 374 M
81.68 378.34 L
S
GR
GS
[0.75 0 0 0.75 0 0] CT
0.149 GC
2 setlinecap
1 LJ
0.667 LW
N
90.36 374 M
90.36 378.34 L
S
GR
GS
[0.75 0 0 0.75 0 0] CT
0.149 GC
2 setlinecap
1 LJ
0.667 LW
N
99.04 374 M
99.04 378.34 L
S
GR
GS
[0.75 0 0 0.75 0 0] CT
0.149 GC
2 setlinecap
1 LJ
0.667 LW
N
107.72 374 M
107.72 378.34 L
S
GR
GS
[0.75 0 0 0.75 0 0] CT
0.149 GC
2 setlinecap
1 LJ
0.667 LW
N
125.08 374 M
125.08 378.34 L
S
GR
GS
[0.75 0 0 0.75 0 0] CT
0.149 GC
2 setlinecap
1 LJ
0.667 LW
N
133.76 374 M
133.76 378.34 L
S
GR
GS
[0.75 0 0 0.75 0 0] CT
0.149 GC
2 setlinecap
1 LJ
0.667 LW
N
142.44 374 M
142.44 378.34 L
S
GR
GS
[0.75 0 0 0.75 0 0] CT
0.149 GC
2 setlinecap
1 LJ
0.667 LW
N
151.12 374 M
151.12 378.34 L
S
GR
GS
[0.75 0 0 0.75 0 0] CT
0.149 GC
2 setlinecap
1 LJ
0.667 LW
N
168.48 374 M
168.48 378.34 L
S
GR
GS
[0.75 0 0 0.75 0 0] CT
0.149 GC
2 setlinecap
1 LJ
0.667 LW
N
177.16 374 M
177.16 378.34 L
S
GR
GS
[0.75 0 0 0.75 0 0] CT
0.149 GC
2 setlinecap
1 LJ
0.667 LW
N
185.84 374 M
185.84 378.34 L
S
GR
GS
[0.75 0 0 0.75 0 0] CT
0.149 GC
2 setlinecap
1 LJ
0.667 LW
N
194.52 374 M
194.52 378.34 L
S
GR
GS
[0.75 0 0 0.75 0 0] CT
0.149 GC
2 setlinecap
1 LJ
0.667 LW
N
211.88 374 M
211.88 378.34 L
S
GR
GS
[0.75 0 0 0.75 0 0] CT
0.149 GC
2 setlinecap
1 LJ
0.667 LW
N
220.56 374 M
220.56 378.34 L
S
GR
GS
[0.75 0 0 0.75 0 0] CT
0.149 GC
2 setlinecap
1 LJ
0.667 LW
N
229.24 374 M
229.24 378.34 L
S
GR
GS
[0.75 0 0 0.75 0 0] CT
0.149 GC
2 setlinecap
1 LJ
0.667 LW
N
237.92 374 M
237.92 378.34 L
S
GR
GS
[0.75 0 0 0.75 0 0] CT
0.149 GC
2 setlinecap
1 LJ
0.667 LW
N
255.28 374 M
255.28 378.34 L
S
GR
GS
[0.75 0 0 0.75 0 0] CT
0.149 GC
2 setlinecap
1 LJ
0.667 LW
N
263.96 374 M
263.96 378.34 L
S
GR
GS
[0.75 0 0 0.75 0 0] CT
0.149 GC
2 setlinecap
1 LJ
0.667 LW
N
272.64 374 M
272.64 378.34 L
S
GR
GS
[0.75 0 0 0.75 0 0] CT
0.149 GC
2 setlinecap
1 LJ
0.667 LW
N
281.32 374 M
281.32 378.34 L
S
GR
GS
[0.75 0 0 0.75 0 0] CT
0.149 GC
2 setlinecap
1 LJ
0.667 LW
N
298.68 374 M
298.68 378.34 L
S
GR
GS
[0.75 0 0 0.75 0 0] CT
0.149 GC
2 setlinecap
1 LJ
0.667 LW
N
307.36 374 M
307.36 378.34 L
S
GR
GS
[0.75 0 0 0.75 0 0] CT
0.149 GC
2 setlinecap
1 LJ
0.667 LW
N
316.04 374 M
316.04 378.34 L
S
GR
GS
[0.75 0 0 0.75 0 0] CT
0.149 GC
2 setlinecap
1 LJ
0.667 LW
N
324.72 374 M
324.72 378.34 L
S
GR
GS
[0.75 0 0 0.75 0 0] CT
0.149 GC
2 setlinecap
1 LJ
0.667 LW
N
342.08 374 M
342.08 378.34 L
S
GR
GS
[0.75 0 0 0.75 0 0] CT
0.149 GC
2 setlinecap
1 LJ
0.667 LW
N
350.76 374 M
350.76 378.34 L
S
GR
GS
[0.75 0 0 0.75 0 0] CT
0.149 GC
2 setlinecap
1 LJ
0.667 LW
N
359.44 374 M
359.44 378.34 L
S
GR
GS
[0.75 0 0 0.75 0 0] CT
0.149 GC
2 setlinecap
1 LJ
0.667 LW
N
368.12 374 M
368.12 378.34 L
S
GR
GS
[0.75 0 0 0.75 0 0] CT
0.149 GC
2 setlinecap
1 LJ
0.667 LW
N
385.48 374 M
385.48 378.34 L
S
GR
GS
[0.75 0 0 0.75 0 0] CT
0.149 GC
2 setlinecap
1 LJ
0.667 LW
N
394.16 374 M
394.16 378.34 L
S
GR
GS
[0.75 0 0 0.75 0 0] CT
0.149 GC
2 setlinecap
1 LJ
0.667 LW
N
402.84 374 M
402.84 378.34 L
S
GR
GS
[0.75 0 0 0.75 0 0] CT
0.149 GC
2 setlinecap
1 LJ
0.667 LW
N
411.52 374 M
411.52 378.34 L
S
GR
GS
[0.75 0 0 0.75 0 0] CT
0.149 GC
2 setlinecap
1 LJ
0.667 LW
N
428.88 374 M
428.88 378.34 L
S
GR
GS
[0.75 0 0 0.75 0 0] CT
0.149 GC
2 setlinecap
1 LJ
0.667 LW
N
437.56 374 M
437.56 378.34 L
S
GR
GS
[0.75 0 0 0.75 0 0] CT
0.149 GC
2 setlinecap
1 LJ
0.667 LW
N
446.24 374 M
446.24 378.34 L
S
GR
GS
[0.75 0 0 0.75 0 0] CT
0.149 GC
2 setlinecap
1 LJ
0.667 LW
N
454.92 374 M
454.92 378.34 L
S
GR
GS
[0.75 0 0 0.75 0 0] CT
0.149 GC
2 setlinecap
1 LJ
0.667 LW
N
472.28 374 M
472.28 378.34 L
S
GR
GS
[0.75 0 0 0.75 0 0] CT
0.149 GC
2 setlinecap
1 LJ
0.667 LW
N
480.96 374 M
480.96 378.34 L
S
GR
GS
[0.75 0 0 0.75 0 0] CT
0.149 GC
2 setlinecap
1 LJ
0.667 LW
N
489.64 374 M
489.64 378.34 L
S
GR
GS
[0.75 0 0 0.75 0 0] CT
0.149 GC
2 setlinecap
1 LJ
0.667 LW
N
498.32 374 M
498.32 378.34 L
S
GR
GS
[0.75 0 0 0.75 54.75 291.01] CT
0.149 GC
/Helvetica 13.333 F
GS
[1 0 0 1 0 0] CT
-4 14 moveto 
1 -1 scale
(0) t 
GR
GR
GS
[0.75 0 0 0.75 87.3 291.01] CT
0.149 GC
/Helvetica 13.333 F
GS
[1 0 0 1 0 0] CT
-9.5 14 moveto 
1 -1 scale
(0.1) t 
GR
GR
GS
[0.75 0 0 0.75 119.85 291.01] CT
0.149 GC
/Helvetica 13.333 F
GS
[1 0 0 1 0 0] CT
-9.5 14 moveto 
1 -1 scale
(0.2) t 
GR
GR
GS
[0.75 0 0 0.75 152.40001 291.01] CT
0.149 GC
/Helvetica 13.333 F
GS
[1 0 0 1 0 0] CT
-9.5 14 moveto 
1 -1 scale
(0.3) t 
GR
GR
GS
[0.75 0 0 0.75 184.95 291.01] CT
0.149 GC
/Helvetica 13.333 F
GS
[1 0 0 1 0 0] CT
-9.5 14 moveto 
1 -1 scale
(0.4) t 
GR
GR
GS
[0.75 0 0 0.75 217.5 291.01] CT
0.149 GC
/Helvetica 13.333 F
GS
[1 0 0 1 0 0] CT
-9.5 14 moveto 
1 -1 scale
(0.5) t 
GR
GR
GS
[0.75 0 0 0.75 250.05002 291.01] CT
0.149 GC
/Helvetica 13.333 F
GS
[1 0 0 1 0 0] CT
-9.5 14 moveto 
1 -1 scale
(0.6) t 
GR
GR
GS
[0.75 0 0 0.75 282.59999 291.01] CT
0.149 GC
/Helvetica 13.333 F
GS
[1 0 0 1 0 0] CT
-9.5 14 moveto 
1 -1 scale
(0.7) t 
GR
GR
GS
[0.75 0 0 0.75 315.15001 291.01] CT
0.149 GC
/Helvetica 13.333 F
GS
[1 0 0 1 0 0] CT
-9.5 14 moveto 
1 -1 scale
(0.8) t 
GR
GR
GS
[0.75 0 0 0.75 347.69998 291.01] CT
0.149 GC
/Helvetica 13.333 F
GS
[1 0 0 1 0 0] CT
-9.5 14 moveto 
1 -1 scale
(0.9) t 
GR
GR
GS
[0.75 0 0 0.75 380.25 291.01] CT
0.149 GC
/Helvetica 13.333 F
GS
[1 0 0 1 0 0] CT
-4 14 moveto 
1 -1 scale
(1) t 
GR
GR
GS
[0.75 0 0 0.75 0 0] CT
0.149 GC
2 setlinecap
1 LJ
0.667 LW
N
73 374 M
73 31 L
S
GR
GS
[0.75 0 0 0.75 0 0] CT
0.149 GC
2 setlinecap
1 LJ
0.667 LW
N
73 374 M
64.32 374 L
S
GR
GS
[0.75 0 0 0.75 0 0] CT
0.149 GC
2 setlinecap
1 LJ
0.667 LW
N
73 331.125 M
64.32 331.125 L
S
GR
GS
[0.75 0 0 0.75 0 0] CT
0.149 GC
2 setlinecap
1 LJ
0.667 LW
N
73 288.25 M
64.32 288.25 L
S
GR
GS
[0.75 0 0 0.75 0 0] CT
0.149 GC
2 setlinecap
1 LJ
0.667 LW
N
73 245.375 M
64.32 245.375 L
S
GR
GS
[0.75 0 0 0.75 0 0] CT
0.149 GC
2 setlinecap
1 LJ
0.667 LW
N
73 202.5 M
64.32 202.5 L
S
GR
GS
[0.75 0 0 0.75 0 0] CT
0.149 GC
2 setlinecap
1 LJ
0.667 LW
N
73 159.625 M
64.32 159.625 L
S
GR
GS
[0.75 0 0 0.75 0 0] CT
0.149 GC
2 setlinecap
1 LJ
0.667 LW
N
73 116.75 M
64.32 116.75 L
S
GR
GS
[0.75 0 0 0.75 0 0] CT
0.149 GC
2 setlinecap
1 LJ
0.667 LW
N
73 73.875 M
64.32 73.875 L
S
GR
GS
[0.75 0 0 0.75 0 0] CT
0.149 GC
2 setlinecap
1 LJ
0.667 LW
N
73 31 M
64.32 31 L
S
GR
GS
[0.75 0 0 0.75 0 0] CT
0.149 GC
2 setlinecap
1 LJ
0.667 LW
N
73 365.425 M
68.66 365.425 L
S
GR
GS
[0.75 0 0 0.75 0 0] CT
0.149 GC
2 setlinecap
1 LJ
0.667 LW
N
73 356.85 M
68.66 356.85 L
S
GR
GS
[0.75 0 0 0.75 0 0] CT
0.149 GC
2 setlinecap
1 LJ
0.667 LW
N
73 348.275 M
68.66 348.275 L
S
GR
GS
[0.75 0 0 0.75 0 0] CT
0.149 GC
2 setlinecap
1 LJ
0.667 LW
N
73 339.7 M
68.66 339.7 L
S
GR
GS
[0.75 0 0 0.75 0 0] CT
0.149 GC
2 setlinecap
1 LJ
0.667 LW
N
73 322.55 M
68.66 322.55 L
S
GR
GS
[0.75 0 0 0.75 0 0] CT
0.149 GC
2 setlinecap
1 LJ
0.667 LW
N
73 313.975 M
68.66 313.975 L
S
GR
GS
[0.75 0 0 0.75 0 0] CT
0.149 GC
2 setlinecap
1 LJ
0.667 LW
N
73 305.4 M
68.66 305.4 L
S
GR
GS
[0.75 0 0 0.75 0 0] CT
0.149 GC
2 setlinecap
1 LJ
0.667 LW
N
73 296.825 M
68.66 296.825 L
S
GR
GS
[0.75 0 0 0.75 0 0] CT
0.149 GC
2 setlinecap
1 LJ
0.667 LW
N
73 279.675 M
68.66 279.675 L
S
GR
GS
[0.75 0 0 0.75 0 0] CT
0.149 GC
2 setlinecap
1 LJ
0.667 LW
N
73 271.1 M
68.66 271.1 L
S
GR
GS
[0.75 0 0 0.75 0 0] CT
0.149 GC
2 setlinecap
1 LJ
0.667 LW
N
73 262.525 M
68.66 262.525 L
S
GR
GS
[0.75 0 0 0.75 0 0] CT
0.149 GC
2 setlinecap
1 LJ
0.667 LW
N
73 253.95 M
68.66 253.95 L
S
GR
GS
[0.75 0 0 0.75 0 0] CT
0.149 GC
2 setlinecap
1 LJ
0.667 LW
N
73 236.8 M
68.66 236.8 L
S
GR
GS
[0.75 0 0 0.75 0 0] CT
0.149 GC
2 setlinecap
1 LJ
0.667 LW
N
73 228.225 M
68.66 228.225 L
S
GR
GS
[0.75 0 0 0.75 0 0] CT
0.149 GC
2 setlinecap
1 LJ
0.667 LW
N
73 219.65 M
68.66 219.65 L
S
GR
GS
[0.75 0 0 0.75 0 0] CT
0.149 GC
2 setlinecap
1 LJ
0.667 LW
N
73 211.075 M
68.66 211.075 L
S
GR
GS
[0.75 0 0 0.75 0 0] CT
0.149 GC
2 setlinecap
1 LJ
0.667 LW
N
73 193.925 M
68.66 193.925 L
S
GR
GS
[0.75 0 0 0.75 0 0] CT
0.149 GC
2 setlinecap
1 LJ
0.667 LW
N
73 185.35 M
68.66 185.35 L
S
GR
GS
[0.75 0 0 0.75 0 0] CT
0.149 GC
2 setlinecap
1 LJ
0.667 LW
N
73 176.775 M
68.66 176.775 L
S
GR
GS
[0.75 0 0 0.75 0 0] CT
0.149 GC
2 setlinecap
1 LJ
0.667 LW
N
73 168.2 M
68.66 168.2 L
S
GR
GS
[0.75 0 0 0.75 0 0] CT
0.149 GC
2 setlinecap
1 LJ
0.667 LW
N
73 151.05 M
68.66 151.05 L
S
GR
GS
[0.75 0 0 0.75 0 0] CT
0.149 GC
2 setlinecap
1 LJ
0.667 LW
N
73 142.475 M
68.66 142.475 L
S
GR
GS
[0.75 0 0 0.75 0 0] CT
0.149 GC
2 setlinecap
1 LJ
0.667 LW
N
73 133.9 M
68.66 133.9 L
S
GR
GS
[0.75 0 0 0.75 0 0] CT
0.149 GC
2 setlinecap
1 LJ
0.667 LW
N
73 125.325 M
68.66 125.325 L
S
GR
GS
[0.75 0 0 0.75 0 0] CT
0.149 GC
2 setlinecap
1 LJ
0.667 LW
N
73 108.175 M
68.66 108.175 L
S
GR
GS
[0.75 0 0 0.75 0 0] CT
0.149 GC
2 setlinecap
1 LJ
0.667 LW
N
73 99.6 M
68.66 99.6 L
S
GR
GS
[0.75 0 0 0.75 0 0] CT
0.149 GC
2 setlinecap
1 LJ
0.667 LW
N
73 91.025 M
68.66 91.025 L
S
GR
GS
[0.75 0 0 0.75 0 0] CT
0.149 GC
2 setlinecap
1 LJ
0.667 LW
N
73 82.45 M
68.66 82.45 L
S
GR
GS
[0.75 0 0 0.75 0 0] CT
0.149 GC
2 setlinecap
1 LJ
0.667 LW
N
73 65.3 M
68.66 65.3 L
S
GR
GS
[0.75 0 0 0.75 0 0] CT
0.149 GC
2 setlinecap
1 LJ
0.667 LW
N
73 56.725 M
68.66 56.725 L
S
GR
GS
[0.75 0 0 0.75 0 0] CT
0.149 GC
2 setlinecap
1 LJ
0.667 LW
N
73 48.15 M
68.66 48.15 L
S
GR
GS
[0.75 0 0 0.75 0 0] CT
0.149 GC
2 setlinecap
1 LJ
0.667 LW
N
73 39.575 M
68.66 39.575 L
S
GR
GS
[0.75 0 0 0.75 44.24 280.5] CT
0.149 GC
/Helvetica 13.333 F
GS
[1 0 0 1 0 0] CT
-8 5.5 moveto 
1 -1 scale
(0) t 
GR
GR
GS
[0.75 0 0 0.75 44.24 248.34375] CT
0.149 GC
/Helvetica 13.333 F
GS
[1 0 0 1 0 0] CT
-19 5.5 moveto 
1 -1 scale
(0.1) t 
GR
GR
GS
[0.75 0 0 0.75 44.24 216.1875] CT
0.149 GC
/Helvetica 13.333 F
GS
[1 0 0 1 0 0] CT
-19 5.5 moveto 
1 -1 scale
(0.2) t 
GR
GR
GS
[0.75 0 0 0.75 44.24 184.03125] CT
0.149 GC
/Helvetica 13.333 F
GS
[1 0 0 1 0 0] CT
-19 5.5 moveto 
1 -1 scale
(0.3) t 
GR
GR
GS
[0.75 0 0 0.75 44.24 151.875] CT
0.149 GC
/Helvetica 13.333 F
GS
[1 0 0 1 0 0] CT
-19 5.5 moveto 
1 -1 scale
(0.4) t 
GR
GR
GS
[0.75 0 0 0.75 44.24 119.71875] CT
0.149 GC
/Helvetica 13.333 F
GS
[1 0 0 1 0 0] CT
-19 5.5 moveto 
1 -1 scale
(0.5) t 
GR
GR
GS
[0.75 0 0 0.75 44.24 87.56249] CT
0.149 GC
/Helvetica 13.333 F
GS
[1 0 0 1 0 0] CT
-19 5.5 moveto 
1 -1 scale
(0.6) t 
GR
GR
GS
[0.75 0 0 0.75 44.24 55.40626] CT
0.149 GC
/Helvetica 13.333 F
GS
[1 0 0 1 0 0] CT
-19 5.5 moveto 
1 -1 scale
(0.7) t 
GR
GR
GS
[0.75 0 0 0.75 44.24 23.25] CT
0.149 GC
/Helvetica 13.333 F
GS
[1 0 0 1 0 0] CT
-19 5.5 moveto 
1 -1 scale
(0.8) t 
GR
GR
GS
[0.75 0 0 0.75 0 0] CT
0 0.447 0.741 RC
[10 6] 0 setdash
2 LJ
0.667 LW
N
73 374 M
87.966 359.225 L
102.931 344.505 L
117.897 329.901 L
132.862 315.479 L
147.828 301.311 L
162.793 287.475 L
177.759 274.056 L
192.724 261.144 L
207.69 248.841 L
222.655 237.253 L
237.621 226.495 L
252.586 216.694 L
267.552 207.982 L
282.517 200.505 L
297.483 194.418 L
312.448 189.888 L
327.414 187.093 L
342.379 186.226 L
357.345 187.491 L
372.31 191.108 L
387.276 197.312 L
402.241 206.354 L
417.207 218.501 L
432.172 234.04 L
447.138 253.274 L
462.103 276.53 L
477.069 304.153 L
492.034 336.513 L
507 374 L
S
GR
GS
[0.75 0 0 0.75 0 0] CT
0.851 0.325 0.098 RC
1 LJ
2 LW
N
73 339.486 M
87.966 305.326 L
102.931 271.87 L
117.897 239.463 L
132.862 208.436 L
147.828 179.108 L
162.793 151.78 L
177.759 126.732 L
192.724 104.221 L
207.69 84.479 L
222.655 67.707 L
237.621 54.079 L
252.586 43.733 L
267.552 36.776 L
282.517 33.28 L
297.483 33.279 L
312.448 36.775 L
327.414 43.732 L
342.379 54.077 L
357.345 67.706 L
372.31 84.477 L
387.276 104.219 L
402.241 126.73 L
417.207 151.778 L
432.172 179.106 L
447.138 208.434 L
462.103 239.461 L
477.069 271.869 L
492.034 305.325 L
507 339.485 L
S
GR
GS
[0.75 0 0 0.75 0 0] CT
0.929 0.694 0.125 RC
1 LJ
2 LW
N
73 370.549 M
87.966 367.133 L
102.931 363.788 L
117.897 360.548 L
132.862 357.445 L
147.828 354.513 L
162.793 351.78 L
177.759 349.275 L
192.724 347.024 L
207.69 345.05 L
222.655 343.372 L
237.621 342.009 L
252.586 340.974 L
267.552 340.278 L
282.517 339.928 L
297.483 339.928 L
312.448 340.277 L
327.414 340.972 L
342.379 342.006 L
357.345 343.369 L
372.31 345.046 L
387.276 347.02 L
402.241 349.271 L
417.207 351.776 L
432.172 354.509 L
447.138 357.442 L
462.103 360.545 L
477.069 363.786 L
492.034 367.132 L
507 370.548 L
S
GR
GS
[0.75 0 0 0.75 0 0] CT
0.494 0.184 0.557 RC
1 LJ
2 LW
N
73 342.593 M
87.966 311.507 L
102.931 281.063 L
117.897 251.573 L
132.862 223.339 L
147.828 196.651 L
162.793 171.782 L
177.759 148.989 L
192.724 128.504 L
207.69 110.538 L
222.655 95.276 L
237.621 82.873 L
252.586 73.458 L
267.552 67.127 L
282.517 63.945 L
297.483 63.944 L
312.448 67.125 L
327.414 73.455 L
342.379 82.869 L
357.345 95.27 L
372.31 110.532 L
387.276 128.497 L
402.241 148.982 L
417.207 171.775 L
432.172 196.644 L
447.138 223.333 L
462.103 251.568 L
477.069 281.06 L
492.034 311.505 L
507 342.591 L
S
GR
GS
[0.75 0 0 0.75 0 0] CT
0.467 0.675 0.188 RC
1 LJ
2 LW
N
73 367.754 M
87.966 361.572 L
102.931 355.517 L
117.897 349.652 L
132.862 344.037 L
147.828 338.729 L
162.793 333.782 L
177.759 329.249 L
192.724 325.174 L
207.69 321.601 L
222.655 318.564 L
237.621 316.097 L
252.586 314.224 L
267.552 312.964 L
282.517 312.33 L
297.483 312.329 L
312.448 312.961 L
327.414 314.219 L
342.379 316.091 L
357.345 318.557 L
372.31 321.592 L
387.276 325.165 L
402.241 329.24 L
417.207 333.773 L
432.172 338.72 L
447.138 344.029 L
462.103 349.645 L
477.069 355.512 L
492.034 361.568 L
507 367.752 L
S
GR
GS
[0.75 0 0 0.75 0 0] CT
0.302 0.745 0.933 RC
1 LJ
2 LW
N
73 345.109 M
87.966 316.515 L
102.931 288.51 L
117.897 261.383 L
132.862 235.411 L
147.828 210.86 L
162.793 187.984 L
177.759 167.017 L
192.724 148.173 L
207.69 131.646 L
222.655 117.606 L
237.621 106.197 L
252.586 97.536 L
267.552 91.711 L
282.517 88.784 L
297.483 88.782 L
312.448 91.708 L
327.414 97.53 L
342.379 106.19 L
357.345 117.597 L
372.31 131.636 L
387.276 148.162 L
402.241 167.005 L
417.207 187.973 L
432.172 210.85 L
447.138 235.401 L
462.103 261.374 L
477.069 288.504 L
492.034 316.51 L
507 345.107 L
S
GR
GS
[0.75 0 0 0.75 0 0] CT
1 GC
N
509 124 M
509 31 L
411 31 L
411 124 L
cp
f
GR
GS
[0.75 0 0 0.75 343.21378 30.15743] CT
N
1.953 4.755 M
1.969 4.614 2.125 4.614 QT
2.141 4.614 2.352 4.732 QT
2.563 4.849 2.82 4.942 QT
3.078 5.036 3.328 5.036 QT
3.563 5.036 3.711 4.841 QT
3.859 4.646 3.859 4.427 QT
3.859 4.114 3.531 3.989 QT
1.484 3.192 L
0.969 2.989 0.625 2.583 QT
0.281 2.177 0.281 1.661 QT
0.281 1.192 0.523 0.692 QT
0.766 0.192 1.156 -0.214 QT
1.547 -0.62 1.984 -0.87 QT
1.625 -1.089 1.43 -1.417 QT
1.234 -1.745 1.234 -2.151 QT
1.234 -2.573 1.406 -2.933 QT
1.578 -3.292 1.883 -3.597 QT
2.188 -3.901 2.555 -4.104 QT
2.922 -4.308 3.297 -4.417 QT
3.234 -4.667 3.234 -4.854 QT
3.234 -5.511 3.5 -5.511 QT
3.563 -5.511 3.609 -5.464 QT
3.656 -5.417 3.656 -5.354 QT
3.656 -5.292 3.625 -5.097 QT
3.594 -4.901 3.594 -4.854 QT
3.594 -4.651 3.641 -4.479 QT
3.953 -4.558 4.234 -4.558 QT
5.344 -4.558 5.344 -4.214 QT
5.344 -3.808 4.109 -3.808 QT
3.734 -3.808 3.5 -4.058 QT
3.156 -3.886 2.867 -3.565 QT
2.578 -3.245 2.414 -2.847 QT
2.25 -2.448 2.25 -2.042 QT
2.25 -1.479 2.563 -1.136 QT
3 -1.292 3.422 -1.292 QT
4.531 -1.292 4.531 -0.948 QT
4.531 -0.542 3.297 -0.542 QT
2.797 -0.542 2.359 -0.698 QT
1.828 -0.401 1.383 0.185 QT
0.938 0.771 0.938 1.302 QT
0.938 1.661 1.195 1.927 QT
1.453 2.192 1.828 2.349 QT
3.953 3.177 L
4.219 3.286 4.398 3.521 QT
4.578 3.755 4.578 4.052 QT
4.578 4.536 4.195 4.942 QT
3.813 5.349 3.328 5.349 QT
3.172 5.349 2.828 5.263 QT
2.484 5.177 2.219 5.044 QT
1.953 4.911 1.953 4.755 QT
cp
2.938 -0.917 M
3.094 -0.854 3.328 -0.854 QT
3.906 -0.854 4.156 -0.917 QT
3.922 -0.964 3.406 -0.964 QT
3.203 -0.964 2.938 -0.917 QT
cp
3.844 -4.183 M
3.953 -4.12 4.141 -4.12 QT
4.719 -4.12 4.969 -4.183 QT
3.844 -4.183 L
cp
f
GR
GS
[0.75 0 0 0.75 343.21378 30.15743] CT
N
13.521 5.864 M
12.849 5.333 12.372 4.646 QT
11.896 3.958 11.583 3.185 QT
11.271 2.411 11.122 1.567 QT
10.974 0.724 10.974 -0.12 QT
10.974 -0.979 11.122 -1.823 QT
11.271 -2.667 11.583 -3.448 QT
11.896 -4.229 12.388 -4.909 QT
12.88 -5.589 13.521 -6.104 QT
13.521 -6.12 13.583 -6.12 QT
13.693 -6.12 L
13.724 -6.12 13.755 -6.089 QT
13.786 -6.058 13.786 -6.011 QT
13.786 -5.964 13.771 -5.933 QT
13.177 -5.37 12.786 -4.714 QT
12.396 -4.058 12.161 -3.315 QT
11.927 -2.573 11.818 -1.776 QT
11.708 -0.979 11.708 -0.12 QT
11.708 3.692 13.755 5.677 QT
13.786 5.708 13.786 5.771 QT
13.786 5.802 13.755 5.841 QT
13.724 5.88 13.693 5.88 QT
13.583 5.88 L
13.521 5.88 13.521 5.864 QT
cp
f
GR
GS
[0.75 0 0 0.75 343.21378 30.15743] CT
N
17.453 3.021 M
16.719 3.021 16.109 2.63 QT
15.5 2.239 15.148 1.599 QT
14.797 0.958 14.797 0.255 QT
14.797 -0.448 15.117 -1.081 QT
15.438 -1.714 16.008 -2.104 QT
16.578 -2.495 17.281 -2.495 QT
17.844 -2.495 18.25 -2.315 QT
18.656 -2.136 18.922 -1.808 QT
19.188 -1.479 19.32 -1.034 QT
19.453 -0.589 19.453 -0.058 QT
19.453 0.114 19.328 0.114 QT
15.859 0.114 L
15.859 0.239 L
15.859 1.239 16.258 1.95 QT
16.656 2.661 17.563 2.661 QT
17.938 2.661 18.25 2.497 QT
18.563 2.333 18.789 2.044 QT
19.016 1.755 19.109 1.411 QT
19.109 1.38 19.148 1.341 QT
19.188 1.302 19.219 1.302 QT
19.328 1.302 L
19.453 1.302 19.453 1.458 QT
19.281 2.146 18.719 2.583 QT
18.156 3.021 17.453 3.021 QT
cp
15.859 -0.198 M
18.594 -0.198 L
18.594 -0.636 18.469 -1.104 QT
18.344 -1.573 18.055 -1.878 QT
17.766 -2.183 17.281 -2.183 QT
16.609 -2.183 16.234 -1.55 QT
15.859 -0.917 15.859 -0.198 QT
cp
f
GR
GS
[0.75 0 0 0.75 343.21378 30.15743] CT
N
19.943 2.88 M
19.943 2.458 L
20.411 2.458 20.81 2.278 QT
21.208 2.099 21.49 1.755 QT
22.583 0.364 L
21.161 -1.479 L
20.958 -1.745 20.708 -1.808 QT
20.458 -1.87 20.005 -1.87 QT
20.005 -2.292 L
22.505 -2.292 L
22.505 -1.87 L
22.349 -1.87 22.208 -1.8 QT
22.068 -1.729 22.068 -1.604 QT
22.068 -1.558 22.099 -1.479 QT
23.068 -0.245 L
23.786 -1.167 L
23.927 -1.339 23.927 -1.511 QT
23.927 -1.667 23.833 -1.768 QT
23.74 -1.87 23.583 -1.87 QT
23.583 -2.292 L
25.786 -2.292 L
25.786 -1.87 L
25.333 -1.87 24.927 -1.69 QT
24.521 -1.511 24.24 -1.167 QT
23.286 0.052 L
24.818 2.083 L
25.052 2.333 25.294 2.396 QT
25.536 2.458 25.99 2.458 QT
25.99 2.88 L
23.505 2.88 L
23.505 2.458 L
23.646 2.458 23.779 2.388 QT
23.911 2.317 23.911 2.177 QT
23.911 2.13 23.88 2.083 QT
22.802 0.646 L
21.943 1.755 L
21.802 1.896 21.802 2.099 QT
21.802 2.239 21.904 2.349 QT
22.005 2.458 22.146 2.458 QT
22.146 2.88 L
19.943 2.88 L
cp
f
GR
GS
[0.75 0 0 0.75 343.21378 30.15743] CT
N
26.62 1.708 M
26.62 0.989 27.182 0.536 QT
27.745 0.083 28.534 -0.097 QT
29.323 -0.276 30.026 -0.276 QT
30.026 -0.776 L
30.026 -1.12 29.878 -1.44 QT
29.729 -1.761 29.44 -1.972 QT
29.151 -2.183 28.807 -2.183 QT
28.01 -2.183 27.589 -1.823 QT
27.823 -1.823 27.971 -1.651 QT
28.12 -1.479 28.12 -1.245 QT
28.12 -1.011 27.948 -0.839 QT
27.776 -0.667 27.542 -0.667 QT
27.307 -0.667 27.135 -0.839 QT
26.964 -1.011 26.964 -1.245 QT
26.964 -1.886 27.534 -2.19 QT
28.104 -2.495 28.807 -2.495 QT
29.292 -2.495 29.784 -2.292 QT
30.276 -2.089 30.589 -1.698 QT
30.901 -1.308 30.901 -0.792 QT
30.901 1.911 L
30.901 2.146 31.003 2.341 QT
31.104 2.536 31.307 2.536 QT
31.51 2.536 31.604 2.333 QT
31.698 2.13 31.698 1.911 QT
31.698 1.146 L
32.057 1.146 L
32.057 1.911 L
32.057 2.177 31.917 2.419 QT
31.776 2.661 31.534 2.81 QT
31.292 2.958 31.026 2.958 QT
30.667 2.958 30.417 2.685 QT
30.167 2.411 30.135 2.036 QT
29.917 2.474 29.479 2.747 QT
29.042 3.021 28.557 3.021 QT
28.089 3.021 27.651 2.88 QT
27.214 2.739 26.917 2.45 QT
26.62 2.161 26.62 1.708 QT
cp
27.589 1.708 M
27.589 2.13 27.901 2.411 QT
28.214 2.692 28.635 2.692 QT
29.026 2.692 29.339 2.505 QT
29.651 2.317 29.839 1.982 QT
30.026 1.646 30.026 1.271 QT
30.026 0.021 L
29.479 0.021 28.909 0.2 QT
28.339 0.38 27.964 0.763 QT
27.589 1.146 27.589 1.708 QT
cp
f
GR
GS
[0.75 0 0 0.75 343.21378 30.15743] CT
N
32.448 2.88 M
32.448 2.458 L
32.854 2.458 33.12 2.396 QT
33.385 2.333 33.385 2.083 QT
33.385 -4.229 L
33.385 -4.542 33.292 -4.69 QT
33.198 -4.839 33.01 -4.87 QT
32.823 -4.901 32.448 -4.901 QT
32.448 -5.323 L
34.229 -5.448 L
34.229 0.255 L
35.839 -1.167 L
36.073 -1.386 36.073 -1.589 QT
36.073 -1.729 35.971 -1.8 QT
35.87 -1.87 35.729 -1.87 QT
35.729 -2.292 L
37.995 -2.292 L
37.995 -1.87 L
37.182 -1.87 36.354 -1.167 QT
35.51 -0.417 L
37.042 1.755 L
37.354 2.192 37.565 2.325 QT
37.776 2.458 38.276 2.458 QT
38.276 2.88 L
35.885 2.88 L
35.885 2.458 L
36.292 2.458 36.292 2.208 QT
36.292 2.021 36.073 1.755 QT
34.917 0.114 L
34.182 0.739 L
34.182 2.083 L
34.182 2.333 34.448 2.396 QT
34.714 2.458 35.12 2.458 QT
35.12 2.88 L
32.448 2.88 L
cp
f
GR
GS
[0.75 0 0 0.75 343.21378 30.15743] CT
N
39.688 1.442 M
39.688 -1.87 L
38.703 -1.87 L
38.703 -2.183 L
39.484 -2.183 39.852 -2.917 QT
40.219 -3.651 40.219 -4.511 QT
40.563 -4.511 L
40.563 -2.292 L
42.266 -2.292 L
42.266 -1.87 L
40.563 -1.87 L
40.563 1.411 L
40.563 1.911 40.734 2.286 QT
40.906 2.661 41.328 2.661 QT
41.75 2.661 41.93 2.263 QT
42.109 1.864 42.109 1.411 QT
42.109 0.708 L
42.453 0.708 L
42.453 1.442 L
42.453 1.817 42.313 2.185 QT
42.172 2.552 41.906 2.786 QT
41.641 3.021 41.25 3.021 QT
40.531 3.021 40.109 2.583 QT
39.688 2.146 39.688 1.442 QT
cp
f
GR
GS
[0.75 0 0 0.75 343.21378 30.15743] CT
N
43.917 5.88 M
43.807 5.88 43.807 5.771 QT
43.807 5.724 43.839 5.692 QT
45.886 3.692 45.886 -0.12 QT
45.886 -3.933 43.854 -5.917 QT
43.807 -5.948 43.807 -6.011 QT
43.807 -6.058 43.839 -6.089 QT
43.87 -6.12 43.917 -6.12 QT
44.026 -6.12 L
44.057 -6.12 44.089 -6.104 QT
44.948 -5.417 45.518 -4.448 QT
46.089 -3.479 46.362 -2.378 QT
46.636 -1.276 46.636 -0.12 QT
46.636 0.724 46.487 1.552 QT
46.339 2.38 46.026 3.177 QT
45.714 3.974 45.237 4.653 QT
44.761 5.333 44.089 5.864 QT
44.057 5.88 44.026 5.88 QT
43.917 5.88 L
cp
f
GR
GS
[0.75 0 0 0.75 0 0] CT
0 0.447 0.741 RC
[10 6] 0 setdash
2 LJ
0.667 LW
N
414.968 40.21 M
454.643 40.21 L
S
GR
GS
[0.75 0 0 0.75 343.21378 41.34446] CT
N
0.641 2.661 M
0.641 2.599 0.656 2.552 QT
2.391 -4.386 L
2.438 -4.589 2.453 -4.698 QT
2.453 -4.901 1.672 -4.901 QT
1.547 -4.901 1.547 -5.058 QT
1.547 -5.089 1.57 -5.159 QT
1.594 -5.229 1.625 -5.276 QT
1.656 -5.323 1.719 -5.323 QT
3.328 -5.448 L
3.375 -5.448 L
3.375 -5.433 3.414 -5.417 QT
3.453 -5.401 3.453 -5.386 QT
3.484 -5.323 3.484 -5.292 QT
2.219 -0.276 L
2.656 -0.464 3.313 -1.143 QT
3.969 -1.823 4.344 -2.12 QT
4.719 -2.417 5.281 -2.417 QT
5.609 -2.417 5.844 -2.19 QT
6.078 -1.964 6.078 -1.636 QT
6.078 -1.417 5.992 -1.237 QT
5.906 -1.058 5.75 -0.948 QT
5.594 -0.839 5.375 -0.839 QT
5.188 -0.839 5.055 -0.964 QT
4.922 -1.089 4.922 -1.276 QT
4.922 -1.558 5.125 -1.753 QT
5.328 -1.948 5.609 -1.948 QT
5.5 -2.12 5.25 -2.12 QT
4.906 -2.12 4.57 -1.909 QT
4.234 -1.698 3.852 -1.315 QT
3.469 -0.933 3.156 -0.612 QT
2.844 -0.292 2.563 -0.136 QT
3.281 -0.058 3.797 0.239 QT
4.313 0.536 4.313 1.13 QT
4.313 1.255 4.266 1.442 QT
4.172 1.896 4.172 2.161 QT
4.172 2.692 4.531 2.692 QT
4.969 2.692 5.195 2.224 QT
5.422 1.755 5.563 1.114 QT
5.594 1.052 5.672 1.052 QT
5.813 1.052 L
5.859 1.052 5.891 1.075 QT
5.922 1.099 5.922 1.146 QT
5.922 1.161 5.906 1.192 QT
5.453 3.021 4.516 3.021 QT
4.172 3.021 3.914 2.857 QT
3.656 2.692 3.516 2.419 QT
3.375 2.146 3.375 1.817 QT
3.375 1.614 3.422 1.411 QT
3.453 1.271 3.453 1.146 QT
3.453 0.692 3.047 0.45 QT
2.641 0.208 2.109 0.161 QT
1.5 2.599 L
1.453 2.786 1.32 2.903 QT
1.188 3.021 1.016 3.021 QT
0.859 3.021 0.75 2.911 QT
0.641 2.802 0.641 2.661 QT
cp
f
GR
GS
[0.75 0 0 0.75 343.21378 41.34446] CT
N
10.865 1.286 M
10.755 1.286 10.693 1.208 QT
10.63 1.13 10.63 1.052 QT
10.63 0.942 10.693 0.872 QT
10.755 0.802 10.865 0.802 QT
18.396 0.802 L
18.49 0.802 18.552 0.872 QT
18.615 0.942 18.615 1.052 QT
18.615 1.13 18.552 1.208 QT
18.49 1.286 18.396 1.286 QT
10.865 1.286 L
cp
10.865 -1.042 M
10.755 -1.042 10.693 -1.112 QT
10.63 -1.183 10.63 -1.292 QT
10.63 -1.37 10.693 -1.448 QT
10.755 -1.526 10.865 -1.526 QT
18.396 -1.526 L
18.49 -1.526 18.552 -1.448 QT
18.615 -1.37 18.615 -1.292 QT
18.615 -1.183 18.552 -1.112 QT
18.49 -1.042 18.396 -1.042 QT
10.865 -1.042 L
cp
f
GR
GS
[0.75 0 0 0.75 343.21378 41.34446] CT
N
23.734 2.88 M
23.734 2.458 L
25.234 2.458 25.234 2.083 QT
25.234 -4.229 L
24.625 -3.917 23.672 -3.917 QT
23.672 -4.339 L
25.141 -4.339 25.891 -5.12 QT
26.062 -5.12 L
26.094 -5.12 26.133 -5.081 QT
26.172 -5.042 26.172 -5.011 QT
26.172 2.083 L
26.172 2.458 27.672 2.458 QT
27.672 2.88 L
23.734 2.88 L
cp
f
GR
GS
[0.75 0 0 0.75 0 0] CT
0.851 0.325 0.098 RC
1 LJ
2 LW
N
414.968 55.126 M
454.643 55.126 L
S
GR
GS
[0.75 0 0 0.75 343.21378 52.53148] CT
N
/f490262150{0.641 2.661 M
0.641 2.599 0.656 2.552 QT
2.391 -4.386 L
2.438 -4.589 2.453 -4.698 QT
2.453 -4.901 1.672 -4.901 QT
1.547 -4.901 1.547 -5.058 QT
1.547 -5.089 1.57 -5.159 QT
1.594 -5.229 1.625 -5.276 QT
1.656 -5.323 1.719 -5.323 QT
3.328 -5.448 L
3.375 -5.448 L
3.375 -5.433 3.414 -5.417 QT
3.453 -5.401 3.453 -5.386 QT
3.484 -5.323 3.484 -5.292 QT
2.219 -0.276 L
2.656 -0.464 3.313 -1.143 QT
3.969 -1.823 4.344 -2.12 QT
4.719 -2.417 5.281 -2.417 QT
5.609 -2.417 5.844 -2.19 QT
6.078 -1.964 6.078 -1.636 QT
6.078 -1.417 5.992 -1.237 QT
5.906 -1.058 5.75 -0.948 QT
5.594 -0.839 5.375 -0.839 QT
5.188 -0.839 5.055 -0.964 QT
4.922 -1.089 4.922 -1.276 QT
4.922 -1.558 5.125 -1.753 QT
5.328 -1.948 5.609 -1.948 QT
5.5 -2.12 5.25 -2.12 QT
4.906 -2.12 4.57 -1.909 QT
4.234 -1.698 3.852 -1.315 QT
3.469 -0.933 3.156 -0.612 QT
2.844 -0.292 2.563 -0.136 QT
3.281 -0.058 3.797 0.239 QT
4.313 0.536 4.313 1.13 QT
4.313 1.255 4.266 1.442 QT
4.172 1.896 4.172 2.161 QT
4.172 2.692 4.531 2.692 QT
4.969 2.692 5.195 2.224 QT
5.422 1.755 5.563 1.114 QT
5.594 1.052 5.672 1.052 QT
5.813 1.052 L
5.859 1.052 5.891 1.075 QT
5.922 1.099 5.922 1.146 QT
5.922 1.161 5.906 1.192 QT
5.453 3.021 4.516 3.021 QT
4.172 3.021 3.914 2.857 QT
3.656 2.692 3.516 2.419 QT
3.375 2.146 3.375 1.817 QT
3.375 1.614 3.422 1.411 QT
3.453 1.271 3.453 1.146 QT
3.453 0.692 3.047 0.45 QT
2.641 0.208 2.109 0.161 QT
1.5 2.599 L
1.453 2.786 1.32 2.903 QT
1.188 3.021 1.016 3.021 QT
0.859 3.021 0.75 2.911 QT
0.641 2.802 0.641 2.661 QT
cp}def
f490262150
f
GR
GS
[0.75 0 0 0.75 343.21378 52.53148] CT
N
/f-1139849563{10.865 1.286 M
10.755 1.286 10.693 1.208 QT
10.63 1.13 10.63 1.052 QT
10.63 0.942 10.693 0.872 QT
10.755 0.802 10.865 0.802 QT
18.396 0.802 L
18.49 0.802 18.552 0.872 QT
18.615 0.942 18.615 1.052 QT
18.615 1.13 18.552 1.208 QT
18.49 1.286 18.396 1.286 QT
10.865 1.286 L
cp
10.865 -1.042 M
10.755 -1.042 10.693 -1.112 QT
10.63 -1.183 10.63 -1.292 QT
10.63 -1.37 10.693 -1.448 QT
10.755 -1.526 10.865 -1.526 QT
18.396 -1.526 L
18.49 -1.526 18.552 -1.448 QT
18.615 -1.37 18.615 -1.292 QT
18.615 -1.183 18.552 -1.112 QT
18.49 -1.042 18.396 -1.042 QT
10.865 -1.042 L
cp}def
f-1139849563
f
GR
GS
[0.75 0 0 0.75 343.21378 52.53148] CT
N
/f-1117441035{23.219 2.88 M
23.219 2.552 L
23.219 2.521 23.25 2.489 QT
25.109 0.427 L
25.531 -0.026 25.797 -0.339 QT
26.062 -0.651 26.32 -1.058 QT
26.578 -1.464 26.726 -1.878 QT
26.875 -2.292 26.875 -2.761 QT
26.875 -3.261 26.695 -3.706 QT
26.516 -4.151 26.156 -4.425 QT
25.797 -4.698 25.281 -4.698 QT
24.766 -4.698 24.344 -4.378 QT
23.922 -4.058 23.75 -3.573 QT
23.797 -3.573 23.891 -3.573 QT
24.156 -3.573 24.344 -3.393 QT
24.531 -3.214 24.531 -2.933 QT
24.531 -2.651 24.344 -2.464 QT
24.156 -2.276 23.891 -2.276 QT
23.609 -2.276 23.414 -2.472 QT
23.219 -2.667 23.219 -2.933 QT
23.219 -3.386 23.391 -3.776 QT
23.562 -4.167 23.883 -4.479 QT
24.203 -4.792 24.601 -4.956 QT
25 -5.12 25.453 -5.12 QT
26.141 -5.12 26.734 -4.823 QT
27.328 -4.526 27.672 -4.003 QT
28.016 -3.479 28.016 -2.761 QT
28.016 -2.245 27.789 -1.776 QT
27.562 -1.308 27.203 -0.925 QT
26.844 -0.542 26.289 -0.05 QT
25.734 0.442 25.562 0.599 QT
24.203 1.911 L
25.344 1.911 L
26.203 1.911 26.773 1.896 QT
27.344 1.88 27.375 1.849 QT
27.516 1.692 27.672 0.739 QT
28.016 0.739 L
27.672 2.88 L
23.219 2.88 L
cp}def
f-1117441035
f
GR
GS
[0.75 0 0 0.75 0 0] CT
0.929 0.694 0.125 RC
1 LJ
2 LW
N
414.968 70.042 M
454.643 70.042 L
S
GR
GS
[0.75 0 0 0.75 343.21378 63.71852] CT
N
f490262150
f
GR
GS
[0.75 0 0 0.75 343.21378 63.71852] CT
N
f-1139849563
f
GR
GS
[0.75 0 0 0.75 343.21378 63.71852] CT
N
/f-698868594{23.766 1.958 M
24.047 2.364 24.523 2.56 QT
25 2.755 25.547 2.755 QT
26.234 2.755 26.531 2.161 QT
26.828 1.567 26.828 0.817 QT
26.828 0.474 26.766 0.138 QT
26.703 -0.198 26.555 -0.495 QT
26.406 -0.792 26.156 -0.964 QT
25.906 -1.136 25.531 -1.136 QT
24.734 -1.136 L
24.625 -1.136 24.625 -1.245 QT
24.625 -1.354 L
24.625 -1.448 24.734 -1.448 QT
25.391 -1.511 L
25.812 -1.511 26.094 -1.823 QT
26.375 -2.136 26.508 -2.589 QT
26.641 -3.042 26.641 -3.448 QT
26.641 -4.026 26.367 -4.393 QT
26.094 -4.761 25.547 -4.761 QT
25.094 -4.761 24.672 -4.589 QT
24.25 -4.417 24.016 -4.073 QT
24.031 -4.073 24.047 -4.081 QT
24.062 -4.089 24.094 -4.089 QT
24.359 -4.089 24.539 -3.901 QT
24.719 -3.714 24.719 -3.448 QT
24.719 -3.183 24.539 -2.995 QT
24.359 -2.808 24.094 -2.808 QT
23.828 -2.808 23.641 -2.995 QT
23.453 -3.183 23.453 -3.448 QT
23.453 -3.964 23.766 -4.339 QT
24.078 -4.714 24.562 -4.917 QT
25.047 -5.12 25.547 -5.12 QT
25.906 -5.12 26.312 -5.011 QT
26.719 -4.901 27.047 -4.698 QT
27.375 -4.495 27.578 -4.175 QT
27.781 -3.854 27.781 -3.448 QT
27.781 -2.948 27.562 -2.518 QT
27.344 -2.089 26.945 -1.784 QT
26.547 -1.479 26.078 -1.323 QT
26.609 -1.229 27.078 -0.933 QT
27.547 -0.636 27.828 -0.183 QT
28.109 0.271 28.109 0.802 QT
28.109 1.474 27.75 2.005 QT
27.391 2.536 26.797 2.841 QT
26.203 3.146 25.547 3.146 QT
24.984 3.146 24.414 2.927 QT
23.844 2.708 23.484 2.286 QT
23.125 1.864 23.125 1.255 QT
23.125 0.958 23.328 0.763 QT
23.531 0.567 23.828 0.567 QT
24.016 0.567 24.18 0.653 QT
24.344 0.739 24.437 0.903 QT
24.531 1.067 24.531 1.255 QT
24.531 1.552 24.32 1.755 QT
24.109 1.958 23.828 1.958 QT
23.766 1.958 L
cp}def
f-698868594
f
GR
GS
[0.75 0 0 0.75 0 0] CT
0.494 0.184 0.557 RC
1 LJ
2 LW
N
414.968 84.958 M
454.643 84.958 L
S
GR
GS
[0.75 0 0 0.75 343.21378 74.90555] CT
N
f490262150
f
GR
GS
[0.75 0 0 0.75 343.21378 74.90555] CT
N
f-1139849563
f
GR
GS
[0.75 0 0 0.75 343.21378 74.90555] CT
N
/f-1983766052{22.953 0.896 M
22.953 0.474 L
26.672 -5.058 L
26.703 -5.12 26.797 -5.12 QT
26.969 -5.12 L
27.109 -5.12 27.109 -4.979 QT
27.109 0.474 L
28.281 0.474 L
28.281 0.896 L
27.109 0.896 L
27.109 2.083 L
27.109 2.317 27.461 2.388 QT
27.812 2.458 28.266 2.458 QT
28.266 2.88 L
24.969 2.88 L
24.969 2.458 L
25.422 2.458 25.773 2.388 QT
26.125 2.317 26.125 2.083 QT
26.125 0.896 L
22.953 0.896 L
cp
23.359 0.474 M
26.203 0.474 L
26.203 -3.776 L
23.359 0.474 L
cp}def
f-1983766052
f
GR
GS
[0.75 0 0 0.75 0 0] CT
0.467 0.675 0.188 RC
1 LJ
2 LW
N
414.968 99.874 M
454.643 99.874 L
S
GR
GS
[0.75 0 0 0.75 343.21378 86.09258] CT
N
f490262150
f
GR
GS
[0.75 0 0 0.75 343.21378 86.09258] CT
N
f-1139849563
f
GR
GS
[0.75 0 0 0.75 343.21378 86.09258] CT
N
/f-1835762031{23.672 1.521 M
23.797 1.864 24.047 2.153 QT
24.297 2.442 24.648 2.599 QT
25 2.755 25.375 2.755 QT
26.234 2.755 26.562 2.083 QT
26.891 1.411 26.891 0.458 QT
26.891 0.036 26.883 -0.245 QT
26.875 -0.526 26.797 -0.792 QT
26.687 -1.214 26.414 -1.534 QT
26.141 -1.854 25.734 -1.854 QT
25.328 -1.854 25.039 -1.729 QT
24.75 -1.604 24.57 -1.44 QT
24.391 -1.276 24.25 -1.097 QT
24.109 -0.917 24.062 -0.901 QT
23.937 -0.901 L
23.906 -0.901 23.859 -0.94 QT
23.812 -0.979 23.812 -1.011 QT
23.812 -5.026 L
23.812 -5.042 23.851 -5.081 QT
23.891 -5.12 23.937 -5.12 QT
23.969 -5.12 L
24.781 -4.729 25.687 -4.729 QT
26.578 -4.729 27.406 -5.12 QT
27.437 -5.12 L
27.484 -5.12 27.516 -5.089 QT
27.547 -5.058 27.547 -5.026 QT
27.547 -4.901 L
27.547 -4.854 27.531 -4.854 QT
27.109 -4.308 26.492 -4.003 QT
25.875 -3.698 25.219 -3.698 QT
24.734 -3.698 24.234 -3.823 QT
24.234 -1.558 L
24.625 -1.886 24.937 -2.026 QT
25.25 -2.167 25.75 -2.167 QT
26.406 -2.167 26.93 -1.784 QT
27.453 -1.401 27.734 -0.784 QT
28.016 -0.167 28.016 0.458 QT
28.016 1.192 27.664 1.802 QT
27.312 2.411 26.703 2.778 QT
26.094 3.146 25.375 3.146 QT
24.781 3.146 24.289 2.841 QT
23.797 2.536 23.508 2.021 QT
23.219 1.505 23.219 0.927 QT
23.219 0.646 23.398 0.482 QT
23.578 0.317 23.844 0.317 QT
24.109 0.317 24.281 0.489 QT
24.453 0.661 24.453 0.927 QT
24.453 1.177 24.281 1.357 QT
24.109 1.536 23.844 1.536 QT
23.797 1.536 23.742 1.528 QT
23.687 1.521 23.672 1.521 QT
cp}def
f-1835762031
f
GR
GS
[0.75 0 0 0.75 0 0] CT
0.302 0.745 0.933 RC
1 LJ
2 LW
N
414.968 114.79 M
454.643 114.79 L
S
GR
GS
[0.75 0 0 0.75 0 0] CT
0.149 GC
10.0 ML
0.667 LW
N
411 124 M
411 31 L
509 31 L
509 124 L
cp
S
GR
%%Trailer
%%Pages: 1
%%EOF
