%!PS-Adobe-3.0 EPSF-3.0
%%Creator: (MATLAB, The Mathworks, Inc. Version 9.5.0.944444 \(R2018b\). Operating System: Windows 10)
%%Title: F:/Studium/__Bachelorarbeit/tex/images/tikhonov1-errorplot.eps
%%CreationDate: 2020-07-26T14:46:36
%%Pages: (atend)
%%BoundingBox: 0 0 420 315
%%LanguageLevel: 3
%%EndComments
%%BeginProlog
%%BeginResource: procset (Apache XML Graphics Std ProcSet) 1.2 0
%%Version: 1.2 0
%%Copyright: (Copyright 2001-2003,2010 The Apache Software Foundation. License terms: http://www.apache.org/licenses/LICENSE-2.0)
/bd{bind def}bind def
/ld{load def}bd
/GR/grestore ld
/GS/gsave ld
/RM/rmoveto ld
/C/curveto ld
/t/show ld
/L/lineto ld
/ML/setmiterlimit ld
/CT/concat ld
/f/fill ld
/N/newpath ld
/S/stroke ld
/CC/setcmykcolor ld
/A/ashow ld
/cp/closepath ld
/RC/setrgbcolor ld
/LJ/setlinejoin ld
/GC/setgray ld
/LW/setlinewidth ld
/M/moveto ld
/re {4 2 roll M
1 index 0 rlineto
0 exch rlineto
neg 0 rlineto
cp } bd
/_ctm matrix def
/_tm matrix def
/BT { _ctm currentmatrix pop matrix _tm copy pop 0 0 moveto } bd
/ET { _ctm setmatrix } bd
/iTm { _ctm setmatrix _tm concat } bd
/Tm { _tm astore pop iTm 0 0 moveto } bd
/ux 0.0 def
/uy 0.0 def
/F {
  /Tp exch def
  /Tf exch def
  Tf findfont Tp scalefont setfont
  /cf Tf def  /cs Tp def
} bd
/ULS {currentpoint /uy exch def /ux exch def} bd
/ULE {
  /Tcx currentpoint pop def
  gsave
  newpath
  cf findfont cs scalefont dup
  /FontMatrix get 0 get /Ts exch def /FontInfo get dup
  /UnderlinePosition get Ts mul /To exch def
  /UnderlineThickness get Ts mul /Tt exch def
  ux uy To add moveto  Tcx uy To add lineto
  Tt setlinewidth stroke
  grestore
} bd
/OLE {
  /Tcx currentpoint pop def
  gsave
  newpath
  cf findfont cs scalefont dup
  /FontMatrix get 0 get /Ts exch def /FontInfo get dup
  /UnderlinePosition get Ts mul /To exch def
  /UnderlineThickness get Ts mul /Tt exch def
  ux uy To add cs add moveto Tcx uy To add cs add lineto
  Tt setlinewidth stroke
  grestore
} bd
/SOE {
  /Tcx currentpoint pop def
  gsave
  newpath
  cf findfont cs scalefont dup
  /FontMatrix get 0 get /Ts exch def /FontInfo get dup
  /UnderlinePosition get Ts mul /To exch def
  /UnderlineThickness get Ts mul /Tt exch def
  ux uy To add cs 10 mul 26 idiv add moveto Tcx uy To add cs 10 mul 26 idiv add lineto
  Tt setlinewidth stroke
  grestore
} bd
/QT {
/Y22 exch store
/X22 exch store
/Y21 exch store
/X21 exch store
currentpoint
/Y21 load 2 mul add 3 div exch
/X21 load 2 mul add 3 div exch
/X21 load 2 mul /X22 load add 3 div
/Y21 load 2 mul /Y22 load add 3 div
/X22 load /Y22 load curveto
} bd
/SSPD {
dup length /d exch dict def
{
/v exch def
/k exch def
currentpagedevice k known {
/cpdv currentpagedevice k get def
v cpdv ne {
/upd false def
/nullv v type /nulltype eq def
/nullcpdv cpdv type /nulltype eq def
nullv nullcpdv or
{
/upd true def
} {
/sametype v type cpdv type eq def
sametype {
v type /arraytype eq {
/vlen v length def
/cpdvlen cpdv length def
vlen cpdvlen eq {
0 1 vlen 1 sub {
/i exch def
/obj v i get def
/cpdobj cpdv i get def
obj cpdobj ne {
/upd true def
exit
} if
} for
} {
/upd true def
} ifelse
} {
v type /dicttype eq {
v {
/dv exch def
/dk exch def
/cpddv cpdv dk get def
dv cpddv ne {
/upd true def
exit
} if
} forall
} {
/upd true def
} ifelse
} ifelse
} if
} ifelse
upd true eq {
d k v put
} if
} if
} if
} forall
d length 0 gt {
d setpagedevice
} if
} bd
/RE { % /NewFontName [NewEncodingArray] /FontName RE -
  findfont dup length dict begin
  {
    1 index /FID ne
    {def} {pop pop} ifelse
  } forall
  /Encoding exch def
  /FontName 1 index def
  currentdict definefont pop
  end
} bind def
%%EndResource
%%BeginResource: procset (Apache XML Graphics EPS ProcSet) 1.0 0
%%Version: 1.0 0
%%Copyright: (Copyright 2002-2003 The Apache Software Foundation. License terms: http://www.apache.org/licenses/LICENSE-2.0)
/BeginEPSF { %def
/b4_Inc_state save def         % Save state for cleanup
/dict_count countdictstack def % Count objects on dict stack
/op_count count 1 sub def      % Count objects on operand stack
userdict begin                 % Push userdict on dict stack
/showpage { } def              % Redefine showpage, { } = null proc
0 setgray 0 setlinecap         % Prepare graphics state
1 setlinewidth 0 setlinejoin
10 setmiterlimit [ ] 0 setdash newpath
/languagelevel where           % If level not equal to 1 then
{pop languagelevel             % set strokeadjust and
1 ne                           % overprint to their defaults.
{false setstrokeadjust false setoverprint
} if
} if
} bd
/EndEPSF { %def
count op_count sub {pop} repeat            % Clean up stacks
countdictstack dict_count sub {end} repeat
b4_Inc_state restore
} bd
%%EndResource
%FOPBeginFontDict
%%IncludeResource: font Courier-Oblique
%%IncludeResource: font Courier-BoldOblique
%%IncludeResource: font Courier-Bold
%%IncludeResource: font ZapfDingbats
%%IncludeResource: font Symbol
%%IncludeResource: font Helvetica
%%IncludeResource: font Helvetica-Oblique
%%IncludeResource: font Helvetica-Bold
%%IncludeResource: font Helvetica-BoldOblique
%%IncludeResource: font Times-Roman
%%IncludeResource: font Times-Italic
%%IncludeResource: font Times-Bold
%%IncludeResource: font Times-BoldItalic
%%IncludeResource: font Courier
%FOPEndFontDict
%%BeginResource: encoding WinAnsiEncoding
/WinAnsiEncoding [
/.notdef /.notdef /.notdef /.notdef /.notdef
/.notdef /.notdef /.notdef /.notdef /.notdef
/.notdef /.notdef /.notdef /.notdef /.notdef
/.notdef /.notdef /.notdef /.notdef /.notdef
/.notdef /.notdef /.notdef /.notdef /.notdef
/.notdef /.notdef /.notdef /.notdef /.notdef
/.notdef /.notdef /space /exclam /quotedbl
/numbersign /dollar /percent /ampersand /quotesingle
/parenleft /parenright /asterisk /plus /comma
/hyphen /period /slash /zero /one
/two /three /four /five /six
/seven /eight /nine /colon /semicolon
/less /equal /greater /question /at
/A /B /C /D /E
/F /G /H /I /J
/K /L /M /N /O
/P /Q /R /S /T
/U /V /W /X /Y
/Z /bracketleft /backslash /bracketright /asciicircum
/underscore /quoteleft /a /b /c
/d /e /f /g /h
/i /j /k /l /m
/n /o /p /q /r
/s /t /u /v /w
/x /y /z /braceleft /bar
/braceright /asciitilde /bullet /Euro /bullet
/quotesinglbase /florin /quotedblbase /ellipsis /dagger
/daggerdbl /circumflex /perthousand /Scaron /guilsinglleft
/OE /bullet /Zcaron /bullet /bullet
/quoteleft /quoteright /quotedblleft /quotedblright /bullet
/endash /emdash /asciitilde /trademark /scaron
/guilsinglright /oe /bullet /zcaron /Ydieresis
/space /exclamdown /cent /sterling /currency
/yen /brokenbar /section /dieresis /copyright
/ordfeminine /guillemotleft /logicalnot /sfthyphen /registered
/macron /degree /plusminus /twosuperior /threesuperior
/acute /mu /paragraph /middot /cedilla
/onesuperior /ordmasculine /guillemotright /onequarter /onehalf
/threequarters /questiondown /Agrave /Aacute /Acircumflex
/Atilde /Adieresis /Aring /AE /Ccedilla
/Egrave /Eacute /Ecircumflex /Edieresis /Igrave
/Iacute /Icircumflex /Idieresis /Eth /Ntilde
/Ograve /Oacute /Ocircumflex /Otilde /Odieresis
/multiply /Oslash /Ugrave /Uacute /Ucircumflex
/Udieresis /Yacute /Thorn /germandbls /agrave
/aacute /acircumflex /atilde /adieresis /aring
/ae /ccedilla /egrave /eacute /ecircumflex
/edieresis /igrave /iacute /icircumflex /idieresis
/eth /ntilde /ograve /oacute /ocircumflex
/otilde /odieresis /divide /oslash /ugrave
/uacute /ucircumflex /udieresis /yacute /thorn
/ydieresis
] def
%%EndResource
%FOPBeginFontReencode
/Courier-Oblique findfont
dup length dict begin
  {1 index /FID ne {def} {pop pop} ifelse} forall
  /Encoding WinAnsiEncoding def
  currentdict
end
/Courier-Oblique exch definefont pop
/Courier-BoldOblique findfont
dup length dict begin
  {1 index /FID ne {def} {pop pop} ifelse} forall
  /Encoding WinAnsiEncoding def
  currentdict
end
/Courier-BoldOblique exch definefont pop
/Courier-Bold findfont
dup length dict begin
  {1 index /FID ne {def} {pop pop} ifelse} forall
  /Encoding WinAnsiEncoding def
  currentdict
end
/Courier-Bold exch definefont pop
/Helvetica findfont
dup length dict begin
  {1 index /FID ne {def} {pop pop} ifelse} forall
  /Encoding WinAnsiEncoding def
  currentdict
end
/Helvetica exch definefont pop
/Helvetica-Oblique findfont
dup length dict begin
  {1 index /FID ne {def} {pop pop} ifelse} forall
  /Encoding WinAnsiEncoding def
  currentdict
end
/Helvetica-Oblique exch definefont pop
/Helvetica-Bold findfont
dup length dict begin
  {1 index /FID ne {def} {pop pop} ifelse} forall
  /Encoding WinAnsiEncoding def
  currentdict
end
/Helvetica-Bold exch definefont pop
/Helvetica-BoldOblique findfont
dup length dict begin
  {1 index /FID ne {def} {pop pop} ifelse} forall
  /Encoding WinAnsiEncoding def
  currentdict
end
/Helvetica-BoldOblique exch definefont pop
/Times-Roman findfont
dup length dict begin
  {1 index /FID ne {def} {pop pop} ifelse} forall
  /Encoding WinAnsiEncoding def
  currentdict
end
/Times-Roman exch definefont pop
/Times-Italic findfont
dup length dict begin
  {1 index /FID ne {def} {pop pop} ifelse} forall
  /Encoding WinAnsiEncoding def
  currentdict
end
/Times-Italic exch definefont pop
/Times-Bold findfont
dup length dict begin
  {1 index /FID ne {def} {pop pop} ifelse} forall
  /Encoding WinAnsiEncoding def
  currentdict
end
/Times-Bold exch definefont pop
/Times-BoldItalic findfont
dup length dict begin
  {1 index /FID ne {def} {pop pop} ifelse} forall
  /Encoding WinAnsiEncoding def
  currentdict
end
/Times-BoldItalic exch definefont pop
/Courier findfont
dup length dict begin
  {1 index /FID ne {def} {pop pop} ifelse} forall
  /Encoding WinAnsiEncoding def
  currentdict
end
/Courier exch definefont pop
%FOPEndFontReencode
%%EndProlog
%%Page: 1 1
%%PageBoundingBox: 0 0 420 315
%%BeginPageSetup
[1 0 0 -1 0 315] CT
%%EndPageSetup
GS
[0.75 0 0 0.75 0 0] CT
1 GC
N
0 0 560 420 re
f
GR
GS
[0.75 0 0 0.75 0 0] CT
1 GC
N
0 0 560 420 re
f
GR
GS
[0.75 0 0 0.75 0 0] CT
1 GC
N
73 365 M
507 365 L
507 31 L
73 31 L
cp
f
GR
GS
[0.75 0 0 0.75 0 0] CT
0.149 GC
2 setlinecap
1 LJ
0.667 LW
N
73 365 M
507 365 L
S
GR
GS
[0.75 0 0 0.75 0 0] CT
0.149 GC
2 setlinecap
1 LJ
0.667 LW
N
73 365 M
73 373.68 L
S
GR
GS
[0.75 0 0 0.75 0 0] CT
0.149 GC
2 setlinecap
1 LJ
0.667 LW
N
145.333 365 M
145.333 373.68 L
S
GR
GS
[0.75 0 0 0.75 0 0] CT
0.149 GC
2 setlinecap
1 LJ
0.667 LW
N
217.667 365 M
217.667 373.68 L
S
GR
GS
[0.75 0 0 0.75 0 0] CT
0.149 GC
2 setlinecap
1 LJ
0.667 LW
N
290 365 M
290 373.68 L
S
GR
GS
[0.75 0 0 0.75 0 0] CT
0.149 GC
2 setlinecap
1 LJ
0.667 LW
N
362.333 365 M
362.333 373.68 L
S
GR
GS
[0.75 0 0 0.75 0 0] CT
0.149 GC
2 setlinecap
1 LJ
0.667 LW
N
434.667 365 M
434.667 373.68 L
S
GR
GS
[0.75 0 0 0.75 0 0] CT
0.149 GC
2 setlinecap
1 LJ
0.667 LW
N
507 365 M
507 373.68 L
S
GR
GS
[0.75 0 0 0.75 0 0] CT
0.149 GC
2 setlinecap
1 LJ
0.667 LW
N
73 365 M
73 369.34 L
S
GR
GS
[0.75 0 0 0.75 0 0] CT
0.149 GC
2 setlinecap
1 LJ
0.667 LW
N
94.775 365 M
94.775 369.34 L
S
GR
GS
[0.75 0 0 0.75 0 0] CT
0.149 GC
2 setlinecap
1 LJ
0.667 LW
N
107.512 365 M
107.512 369.34 L
S
GR
GS
[0.75 0 0 0.75 0 0] CT
0.149 GC
2 setlinecap
1 LJ
0.667 LW
N
116.549 365 M
116.549 369.34 L
S
GR
GS
[0.75 0 0 0.75 0 0] CT
0.149 GC
2 setlinecap
1 LJ
0.667 LW
N
123.559 365 M
123.559 369.34 L
S
GR
GS
[0.75 0 0 0.75 0 0] CT
0.149 GC
2 setlinecap
1 LJ
0.667 LW
N
129.286 365 M
129.286 369.34 L
S
GR
GS
[0.75 0 0 0.75 0 0] CT
0.149 GC
2 setlinecap
1 LJ
0.667 LW
N
134.129 365 M
134.129 369.34 L
S
GR
GS
[0.75 0 0 0.75 0 0] CT
0.149 GC
2 setlinecap
1 LJ
0.667 LW
N
138.324 365 M
138.324 369.34 L
S
GR
GS
[0.75 0 0 0.75 0 0] CT
0.149 GC
2 setlinecap
1 LJ
0.667 LW
N
142.024 365 M
142.024 369.34 L
S
GR
GS
[0.75 0 0 0.75 0 0] CT
0.149 GC
2 setlinecap
1 LJ
0.667 LW
N
145.333 365 M
145.333 369.34 L
S
GR
GS
[0.75 0 0 0.75 0 0] CT
0.149 GC
2 setlinecap
1 LJ
0.667 LW
N
167.108 365 M
167.108 369.34 L
S
GR
GS
[0.75 0 0 0.75 0 0] CT
0.149 GC
2 setlinecap
1 LJ
0.667 LW
N
179.845 365 M
179.845 369.34 L
S
GR
GS
[0.75 0 0 0.75 0 0] CT
0.149 GC
2 setlinecap
1 LJ
0.667 LW
N
188.882 365 M
188.882 369.34 L
S
GR
GS
[0.75 0 0 0.75 0 0] CT
0.149 GC
2 setlinecap
1 LJ
0.667 LW
N
195.892 365 M
195.892 369.34 L
S
GR
GS
[0.75 0 0 0.75 0 0] CT
0.149 GC
2 setlinecap
1 LJ
0.667 LW
N
201.62 365 M
201.62 369.34 L
S
GR
GS
[0.75 0 0 0.75 0 0] CT
0.149 GC
2 setlinecap
1 LJ
0.667 LW
N
206.462 365 M
206.462 369.34 L
S
GR
GS
[0.75 0 0 0.75 0 0] CT
0.149 GC
2 setlinecap
1 LJ
0.667 LW
N
210.657 365 M
210.657 369.34 L
S
GR
GS
[0.75 0 0 0.75 0 0] CT
0.149 GC
2 setlinecap
1 LJ
0.667 LW
N
214.357 365 M
214.357 369.34 L
S
GR
GS
[0.75 0 0 0.75 0 0] CT
0.149 GC
2 setlinecap
1 LJ
0.667 LW
N
217.667 365 M
217.667 369.34 L
S
GR
GS
[0.75 0 0 0.75 0 0] CT
0.149 GC
2 setlinecap
1 LJ
0.667 LW
N
239.441 365 M
239.441 369.34 L
S
GR
GS
[0.75 0 0 0.75 0 0] CT
0.149 GC
2 setlinecap
1 LJ
0.667 LW
N
252.178 365 M
252.178 369.34 L
S
GR
GS
[0.75 0 0 0.75 0 0] CT
0.149 GC
2 setlinecap
1 LJ
0.667 LW
N
261.216 365 M
261.216 369.34 L
S
GR
GS
[0.75 0 0 0.75 0 0] CT
0.149 GC
2 setlinecap
1 LJ
0.667 LW
N
268.225 365 M
268.225 369.34 L
S
GR
GS
[0.75 0 0 0.75 0 0] CT
0.149 GC
2 setlinecap
1 LJ
0.667 LW
N
273.953 365 M
273.953 369.34 L
S
GR
GS
[0.75 0 0 0.75 0 0] CT
0.149 GC
2 setlinecap
1 LJ
0.667 LW
N
278.795 365 M
278.795 369.34 L
S
GR
GS
[0.75 0 0 0.75 0 0] CT
0.149 GC
2 setlinecap
1 LJ
0.667 LW
N
282.99 365 M
282.99 369.34 L
S
GR
GS
[0.75 0 0 0.75 0 0] CT
0.149 GC
2 setlinecap
1 LJ
0.667 LW
N
286.69 365 M
286.69 369.34 L
S
GR
GS
[0.75 0 0 0.75 0 0] CT
0.149 GC
2 setlinecap
1 LJ
0.667 LW
N
290 365 M
290 369.34 L
S
GR
GS
[0.75 0 0 0.75 0 0] CT
0.149 GC
2 setlinecap
1 LJ
0.667 LW
N
311.775 365 M
311.775 369.34 L
S
GR
GS
[0.75 0 0 0.75 0 0] CT
0.149 GC
2 setlinecap
1 LJ
0.667 LW
N
324.512 365 M
324.512 369.34 L
S
GR
GS
[0.75 0 0 0.75 0 0] CT
0.149 GC
2 setlinecap
1 LJ
0.667 LW
N
333.549 365 M
333.549 369.34 L
S
GR
GS
[0.75 0 0 0.75 0 0] CT
0.149 GC
2 setlinecap
1 LJ
0.667 LW
N
340.559 365 M
340.559 369.34 L
S
GR
GS
[0.75 0 0 0.75 0 0] CT
0.149 GC
2 setlinecap
1 LJ
0.667 LW
N
346.286 365 M
346.286 369.34 L
S
GR
GS
[0.75 0 0 0.75 0 0] CT
0.149 GC
2 setlinecap
1 LJ
0.667 LW
N
351.129 365 M
351.129 369.34 L
S
GR
GS
[0.75 0 0 0.75 0 0] CT
0.149 GC
2 setlinecap
1 LJ
0.667 LW
N
355.324 365 M
355.324 369.34 L
S
GR
GS
[0.75 0 0 0.75 0 0] CT
0.149 GC
2 setlinecap
1 LJ
0.667 LW
N
359.024 365 M
359.024 369.34 L
S
GR
GS
[0.75 0 0 0.75 0 0] CT
0.149 GC
2 setlinecap
1 LJ
0.667 LW
N
362.333 365 M
362.333 369.34 L
S
GR
GS
[0.75 0 0 0.75 0 0] CT
0.149 GC
2 setlinecap
1 LJ
0.667 LW
N
384.108 365 M
384.108 369.34 L
S
GR
GS
[0.75 0 0 0.75 0 0] CT
0.149 GC
2 setlinecap
1 LJ
0.667 LW
N
396.845 365 M
396.845 369.34 L
S
GR
GS
[0.75 0 0 0.75 0 0] CT
0.149 GC
2 setlinecap
1 LJ
0.667 LW
N
405.882 365 M
405.882 369.34 L
S
GR
GS
[0.75 0 0 0.75 0 0] CT
0.149 GC
2 setlinecap
1 LJ
0.667 LW
N
412.892 365 M
412.892 369.34 L
S
GR
GS
[0.75 0 0 0.75 0 0] CT
0.149 GC
2 setlinecap
1 LJ
0.667 LW
N
418.62 365 M
418.62 369.34 L
S
GR
GS
[0.75 0 0 0.75 0 0] CT
0.149 GC
2 setlinecap
1 LJ
0.667 LW
N
423.462 365 M
423.462 369.34 L
S
GR
GS
[0.75 0 0 0.75 0 0] CT
0.149 GC
2 setlinecap
1 LJ
0.667 LW
N
427.657 365 M
427.657 369.34 L
S
GR
GS
[0.75 0 0 0.75 0 0] CT
0.149 GC
2 setlinecap
1 LJ
0.667 LW
N
431.357 365 M
431.357 369.34 L
S
GR
GS
[0.75 0 0 0.75 0 0] CT
0.149 GC
2 setlinecap
1 LJ
0.667 LW
N
434.667 365 M
434.667 369.34 L
S
GR
GS
[0.75 0 0 0.75 0 0] CT
0.149 GC
2 setlinecap
1 LJ
0.667 LW
N
434.667 365 M
434.667 369.34 L
S
GR
GS
[0.75 0 0 0.75 0 0] CT
0.149 GC
2 setlinecap
1 LJ
0.667 LW
N
456.441 365 M
456.441 369.34 L
S
GR
GS
[0.75 0 0 0.75 0 0] CT
0.149 GC
2 setlinecap
1 LJ
0.667 LW
N
469.178 365 M
469.178 369.34 L
S
GR
GS
[0.75 0 0 0.75 0 0] CT
0.149 GC
2 setlinecap
1 LJ
0.667 LW
N
478.216 365 M
478.216 369.34 L
S
GR
GS
[0.75 0 0 0.75 0 0] CT
0.149 GC
2 setlinecap
1 LJ
0.667 LW
N
485.225 365 M
485.225 369.34 L
S
GR
GS
[0.75 0 0 0.75 0 0] CT
0.149 GC
2 setlinecap
1 LJ
0.667 LW
N
490.953 365 M
490.953 369.34 L
S
GR
GS
[0.75 0 0 0.75 0 0] CT
0.149 GC
2 setlinecap
1 LJ
0.667 LW
N
495.795 365 M
495.795 369.34 L
S
GR
GS
[0.75 0 0 0.75 0 0] CT
0.149 GC
2 setlinecap
1 LJ
0.667 LW
N
499.99 365 M
499.99 369.34 L
S
GR
GS
[0.75 0 0 0.75 0 0] CT
0.149 GC
2 setlinecap
1 LJ
0.667 LW
N
503.69 365 M
503.69 369.34 L
S
GR
GS
[0.75 0 0 0.75 0 0] CT
0.149 GC
2 setlinecap
1 LJ
0.667 LW
N
507 365 M
507 369.34 L
S
GR
GS
[0.75 0 0 0.75 45 297] CT
0.149 GC
/Helvetica 13.333 F
GS
[1 0 0 1 0 0] CT
0 0 moveto 
1 -1 scale
(10) t 
GR
GR
GS
[0.75 0 0 0.75 56.25 292.5] CT
0.149 GC
/Helvetica 10.667 F
GS
[1 0 0 1 0 0] CT
0 0 moveto 
1 -1 scale
(-9) t 
GR
GR
GS
[0.75 0 0 0.75 99 297] CT
0.149 GC
/Helvetica 13.333 F
GS
[1 0 0 1 0 0] CT
0 0 moveto 
1 -1 scale
(10) t 
GR
GR
GS
[0.75 0 0 0.75 110.25 292.5] CT
0.149 GC
/Helvetica 10.667 F
GS
[1 0 0 1 0 0] CT
0 0 moveto 
1 -1 scale
(-8) t 
GR
GR
GS
[0.75 0 0 0.75 153.75 297] CT
0.149 GC
/Helvetica 13.333 F
GS
[1 0 0 1 0 0] CT
0 0 moveto 
1 -1 scale
(10) t 
GR
GR
GS
[0.75 0 0 0.75 165 292.5] CT
0.149 GC
/Helvetica 10.667 F
GS
[1 0 0 1 0 0] CT
0 0 moveto 
1 -1 scale
(-7) t 
GR
GR
GS
[0.75 0 0 0.75 207.75 297] CT
0.149 GC
/Helvetica 13.333 F
GS
[1 0 0 1 0 0] CT
0 0 moveto 
1 -1 scale
(10) t 
GR
GR
GS
[0.75 0 0 0.75 219 292.5] CT
0.149 GC
/Helvetica 10.667 F
GS
[1 0 0 1 0 0] CT
0 0 moveto 
1 -1 scale
(-6) t 
GR
GR
GS
[0.75 0 0 0.75 261.75 297] CT
0.149 GC
/Helvetica 13.333 F
GS
[1 0 0 1 0 0] CT
0 0 moveto 
1 -1 scale
(10) t 
GR
GR
GS
[0.75 0 0 0.75 273 292.5] CT
0.149 GC
/Helvetica 10.667 F
GS
[1 0 0 1 0 0] CT
0 0 moveto 
1 -1 scale
(-5) t 
GR
GR
GS
[0.75 0 0 0.75 316.5 297] CT
0.149 GC
/Helvetica 13.333 F
GS
[1 0 0 1 0 0] CT
0 0 moveto 
1 -1 scale
(10) t 
GR
GR
GS
[0.75 0 0 0.75 327.75 292.5] CT
0.149 GC
/Helvetica 10.667 F
GS
[1 0 0 1 0 0] CT
0 0 moveto 
1 -1 scale
(-4) t 
GR
GR
GS
[0.75 0 0 0.75 370.5 297] CT
0.149 GC
/Helvetica 13.333 F
GS
[1 0 0 1 0 0] CT
0 0 moveto 
1 -1 scale
(10) t 
GR
GR
GS
[0.75 0 0 0.75 381.75 292.5] CT
0.149 GC
/Helvetica 10.667 F
GS
[1 0 0 1 0 0] CT
0 0 moveto 
1 -1 scale
(-3) t 
GR
GR
GS
[0.75 0 0 0.75 213.75 312] CT
0.149 GC
N
3.016 0.172 M
2.313 0.172 1.758 -0.164 QT
1.203 -0.5 0.898 -1.07 QT
0.594 -1.641 0.594 -2.375 QT
0.594 -3.391 1.164 -4.391 QT
1.734 -5.391 2.68 -6.008 QT
3.625 -6.625 4.656 -6.625 QT
5.406 -6.625 5.984 -6.227 QT
6.563 -5.828 6.867 -5.164 QT
7.172 -4.5 7.172 -3.75 QT
7.188 -2.75 L
7.703 -3.453 8.055 -4.219 QT
8.406 -4.984 8.594 -5.813 QT
8.625 -5.891 8.719 -5.891 QT
8.891 -5.891 L
9.031 -5.891 9.031 -5.75 QT
9.031 -5.75 9.016 -5.719 QT
8.844 -5.031 8.578 -4.391 QT
8.313 -3.75 7.961 -3.164 QT
7.609 -2.578 7.188 -2.094 QT
7.188 -0.234 7.625 -0.234 QT
7.891 -0.234 8.07 -0.398 QT
8.25 -0.563 8.391 -0.805 QT
8.531 -1.047 8.563 -1.047 QT
8.75 -1.047 L
8.859 -1.047 8.859 -0.906 QT
8.859 -0.531 8.43 -0.18 QT
8 0.172 7.594 0.172 QT
7.047 0.172 6.688 -0.18 QT
6.328 -0.531 6.203 -1.094 QT
5.5 -0.5 4.68 -0.164 QT
3.859 0.172 3.016 0.172 QT
cp
3.047 -0.234 M
4.656 -0.234 6.125 -1.547 QT
6.109 -1.641 6.102 -1.766 QT
6.094 -1.891 6.094 -1.906 QT
6.094 -3.516 L
6.094 -6.234 4.625 -6.234 QT
3.75 -6.234 3.086 -5.484 QT
2.422 -4.734 2.094 -3.695 QT
1.766 -2.656 1.766 -1.781 QT
1.766 -1.141 2.094 -0.688 QT
2.422 -0.234 3.047 -0.234 QT
cp
f
GR
GS
[0.75 0 0 0.75 0 0] CT
0.149 GC
2 setlinecap
1 LJ
0.667 LW
N
73 365 M
73 31 L
S
GR
GS
[0.75 0 0 0.75 0 0] CT
0.149 GC
2 setlinecap
1 LJ
0.667 LW
N
73 355.061 M
64.32 355.061 L
S
GR
GS
[0.75 0 0 0.75 0 0] CT
0.149 GC
2 setlinecap
1 LJ
0.667 LW
N
73 247.04 M
64.32 247.04 L
S
GR
GS
[0.75 0 0 0.75 0 0] CT
0.149 GC
2 setlinecap
1 LJ
0.667 LW
N
73 139.02 M
64.32 139.02 L
S
GR
GS
[0.75 0 0 0.75 0 0] CT
0.149 GC
2 setlinecap
1 LJ
0.667 LW
N
73 31 M
64.32 31 L
S
GR
GS
[0.75 0 0 0.75 0 0] CT
0.149 GC
2 setlinecap
1 LJ
0.667 LW
N
73 360.003 M
68.66 360.003 L
S
GR
GS
[0.75 0 0 0.75 0 0] CT
0.149 GC
2 setlinecap
1 LJ
0.667 LW
N
73 355.061 M
68.66 355.061 L
S
GR
GS
[0.75 0 0 0.75 0 0] CT
0.149 GC
2 setlinecap
1 LJ
0.667 LW
N
73 322.543 M
68.66 322.543 L
S
GR
GS
[0.75 0 0 0.75 0 0] CT
0.149 GC
2 setlinecap
1 LJ
0.667 LW
N
73 303.522 M
68.66 303.522 L
S
GR
GS
[0.75 0 0 0.75 0 0] CT
0.149 GC
2 setlinecap
1 LJ
0.667 LW
N
73 290.026 M
68.66 290.026 L
S
GR
GS
[0.75 0 0 0.75 0 0] CT
0.149 GC
2 setlinecap
1 LJ
0.667 LW
N
73 279.558 M
68.66 279.558 L
S
GR
GS
[0.75 0 0 0.75 0 0] CT
0.149 GC
2 setlinecap
1 LJ
0.667 LW
N
73 271.005 M
68.66 271.005 L
S
GR
GS
[0.75 0 0 0.75 0 0] CT
0.149 GC
2 setlinecap
1 LJ
0.667 LW
N
73 263.773 M
68.66 263.773 L
S
GR
GS
[0.75 0 0 0.75 0 0] CT
0.149 GC
2 setlinecap
1 LJ
0.667 LW
N
73 257.509 M
68.66 257.509 L
S
GR
GS
[0.75 0 0 0.75 0 0] CT
0.149 GC
2 setlinecap
1 LJ
0.667 LW
N
73 251.983 M
68.66 251.983 L
S
GR
GS
[0.75 0 0 0.75 0 0] CT
0.149 GC
2 setlinecap
1 LJ
0.667 LW
N
73 247.04 M
68.66 247.04 L
S
GR
GS
[0.75 0 0 0.75 0 0] CT
0.149 GC
2 setlinecap
1 LJ
0.667 LW
N
73 214.523 M
68.66 214.523 L
S
GR
GS
[0.75 0 0 0.75 0 0] CT
0.149 GC
2 setlinecap
1 LJ
0.667 LW
N
73 195.502 M
68.66 195.502 L
S
GR
GS
[0.75 0 0 0.75 0 0] CT
0.149 GC
2 setlinecap
1 LJ
0.667 LW
N
73 182.006 M
68.66 182.006 L
S
GR
GS
[0.75 0 0 0.75 0 0] CT
0.149 GC
2 setlinecap
1 LJ
0.667 LW
N
73 171.538 M
68.66 171.538 L
S
GR
GS
[0.75 0 0 0.75 0 0] CT
0.149 GC
2 setlinecap
1 LJ
0.667 LW
N
73 162.984 M
68.66 162.984 L
S
GR
GS
[0.75 0 0 0.75 0 0] CT
0.149 GC
2 setlinecap
1 LJ
0.667 LW
N
73 155.753 M
68.66 155.753 L
S
GR
GS
[0.75 0 0 0.75 0 0] CT
0.149 GC
2 setlinecap
1 LJ
0.667 LW
N
73 149.488 M
68.66 149.488 L
S
GR
GS
[0.75 0 0 0.75 0 0] CT
0.149 GC
2 setlinecap
1 LJ
0.667 LW
N
73 143.963 M
68.66 143.963 L
S
GR
GS
[0.75 0 0 0.75 0 0] CT
0.149 GC
2 setlinecap
1 LJ
0.667 LW
N
73 139.02 M
68.66 139.02 L
S
GR
GS
[0.75 0 0 0.75 0 0] CT
0.149 GC
2 setlinecap
1 LJ
0.667 LW
N
73 106.503 M
68.66 106.503 L
S
GR
GS
[0.75 0 0 0.75 0 0] CT
0.149 GC
2 setlinecap
1 LJ
0.667 LW
N
73 87.481 M
68.66 87.481 L
S
GR
GS
[0.75 0 0 0.75 0 0] CT
0.149 GC
2 setlinecap
1 LJ
0.667 LW
N
73 73.986 M
68.66 73.986 L
S
GR
GS
[0.75 0 0 0.75 0 0] CT
0.149 GC
2 setlinecap
1 LJ
0.667 LW
N
73 63.517 M
68.66 63.517 L
S
GR
GS
[0.75 0 0 0.75 0 0] CT
0.149 GC
2 setlinecap
1 LJ
0.667 LW
N
73 54.964 M
68.66 54.964 L
S
GR
GS
[0.75 0 0 0.75 0 0] CT
0.149 GC
2 setlinecap
1 LJ
0.667 LW
N
73 47.733 M
68.66 47.733 L
S
GR
GS
[0.75 0 0 0.75 0 0] CT
0.149 GC
2 setlinecap
1 LJ
0.667 LW
N
73 41.468 M
68.66 41.468 L
S
GR
GS
[0.75 0 0 0.75 0 0] CT
0.149 GC
2 setlinecap
1 LJ
0.667 LW
N
73 35.943 M
68.66 35.943 L
S
GR
GS
[0.75 0 0 0.75 0 0] CT
0.149 GC
2 setlinecap
1 LJ
0.667 LW
N
73 31 M
68.66 31 L
S
GR
GS
[0.75 0 0 0.75 25.5 271.5] CT
0.149 GC
/Helvetica 13.333 F
GS
[1 0 0 1 0 0] CT
0 0 moveto 
1 -1 scale
(10) t 
GR
GR
GS
[0.75 0 0 0.75 36.75 267] CT
0.149 GC
/Helvetica 10.667 F
GS
[1 0 0 1 0 0] CT
0 0 moveto 
1 -1 scale
(-1) t 
GR
GR
GS
[0.75 0 0 0.75 28.5 190.5] CT
0.149 GC
/Helvetica 13.333 F
GS
[1 0 0 1 0 0] CT
0 0 moveto 
1 -1 scale
(10) t 
GR
GR
GS
[0.75 0 0 0.75 39.75 186] CT
0.149 GC
/Helvetica 10.667 F
GS
[1 0 0 1 0 0] CT
0 0 moveto 
1 -1 scale
(0) t 
GR
GR
GS
[0.75 0 0 0.75 28.5 109.5] CT
0.149 GC
/Helvetica 13.333 F
GS
[1 0 0 1 0 0] CT
0 0 moveto 
1 -1 scale
(10) t 
GR
GR
GS
[0.75 0 0 0.75 39.75 105] CT
0.149 GC
/Helvetica 10.667 F
GS
[1 0 0 1 0 0] CT
0 0 moveto 
1 -1 scale
(1) t 
GR
GR
GS
[0.75 0 0 0.75 28.5 28.5] CT
0.149 GC
/Helvetica 13.333 F
GS
[1 0 0 1 0 0] CT
0 0 moveto 
1 -1 scale
(10) t 
GR
GR
GS
[0.75 0 0 0.75 39.75 24] CT
0.149 GC
/Helvetica 10.667 F
GS
[1 0 0 1 0 0] CT
0 0 moveto 
1 -1 scale
(2) t 
GR
GR
GS
[0.75 0 0 0.75 0 0] CT
1 0 0 RC
1 LJ
2.667 LW
N
73 84.994 M
129.286 182.485 L
148.328 221.619 L
160.098 240.68 L
168.641 252.667 L
175.35 262.472 L
180.875 271.402 L
185.573 279.767 L
189.658 287.624 L
193.273 294.973 L
196.514 301.812 L
199.452 308.138 L
202.139 313.957 L
204.614 319.279 L
206.908 324.118 L
209.046 328.492 L
211.047 332.421 L
212.929 335.931 L
214.704 339.05 L
216.384 341.807 L
217.979 344.234 L
219.497 346.363 L
220.945 348.226 L
222.329 349.852 L
223.655 351.27 L
224.927 352.507 L
226.149 353.585 L
227.326 354.526 L
228.46 355.35 L
229.555 356.072 L
230.613 356.706 L
231.636 357.266 L
232.627 357.76 L
233.588 358.2 L
234.52 358.592 L
235.426 358.943 L
236.306 359.258 L
237.162 359.543 L
237.995 359.802 L
238.807 360.037 L
239.598 360.253 L
240.37 360.451 L
241.123 360.634 L
241.859 360.804 L
242.578 360.961 L
243.281 361.109 L
243.968 361.247 L
244.641 361.377 L
245.299 361.5 L
245.944 361.616 L
246.577 361.727 L
247.196 361.832 L
247.804 361.932 L
248.4 362.028 L
248.985 362.12 L
249.559 362.208 L
250.123 362.293 L
250.677 362.374 L
251.222 362.453 L
251.757 362.529 L
252.283 362.603 L
252.801 362.674 L
253.31 362.743 L
253.811 362.809 L
254.304 362.874 L
254.79 362.937 L
255.268 362.998 L
255.739 363.057 L
256.203 363.115 L
256.66 363.171 L
257.111 363.225 L
257.555 363.278 L
257.993 363.329 L
258.425 363.379 L
258.852 363.428 L
259.272 363.475 L
259.687 363.521 L
260.097 363.566 L
260.501 363.61 L
260.9 363.652 L
261.294 363.693 L
261.684 363.733 L
262.068 363.772 L
262.448 363.81 L
262.823 363.847 L
263.194 363.883 L
263.561 363.918 L
263.923 363.952 L
264.281 363.985 L
264.635 364.017 L
264.986 364.049 L
265.332 364.079 L
265.674 364.109 L
266.013 364.137 L
266.349 364.165 L
266.68 364.193 L
267.009 364.219 L
267.333 364.244 L
267.973 364.294 L
268.288 364.317 L
268.6 364.34 L
268.909 364.362 L
269.215 364.383 L
269.518 364.404 L
269.818 364.425 L
270.115 364.444 L
270.41 364.463 L
270.701 364.482 L
271.277 364.517 L
271.561 364.534 L
271.842 364.551 L
272.121 364.566 L
272.397 364.582 L
272.671 364.597 L
273.211 364.625 L
273.478 364.639 L
273.743 364.652 L
274.005 364.665 L
274.524 364.689 L
274.78 364.701 L
275.286 364.723 L
275.536 364.734 L
275.784 364.744 L
276.03 364.754 L
276.516 364.773 L
276.756 364.782 L
277.231 364.799 L
277.466 364.807 L
277.931 364.822 L
278.161 364.83 L
278.616 364.844 L
278.84 364.85 L
279.285 364.863 L
279.505 364.869 L
279.941 364.88 L
280.157 364.886 L
280.584 364.896 L
280.795 364.901 L
281.213 364.91 L
281.42 364.914 L
281.83 364.922 L
282.033 364.926 L
282.635 364.937 L
282.833 364.94 L
283.225 364.947 L
283.419 364.949 L
283.995 364.958 L
284.185 364.96 L
284.56 364.965 L
284.747 364.967 L
285.299 364.973 L
285.481 364.975 L
285.841 364.978 L
286.02 364.98 L
286.55 364.984 L
286.725 364.985 L
287.244 364.989 L
287.415 364.99 L
287.922 364.993 L
288.09 364.993 L
288.587 364.996 L
288.75 364.996 L
289.237 364.998 L
289.398 364.998 L
289.874 364.999 L
290.032 364.999 L
290.653 365 L
290.806 365 L
291.111 365 L
291.262 365 L
291.413 365 L
291.86 365 L
292.008 364.999 L
292.592 364.999 L
292.736 364.998 L
293.307 364.997 L
293.448 364.997 L
293.867 364.995 L
294.006 364.995 L
294.554 364.993 L
294.69 364.992 L
295.226 364.99 L
295.359 364.99 L
295.884 364.987 L
296.014 364.986 L
296.656 364.983 L
296.783 364.982 L
297.285 364.979 L
297.409 364.979 L
297.902 364.976 L
298.024 364.975 L
298.626 364.971 L
298.745 364.97 L
299.217 364.967 L
299.334 364.966 L
299.913 364.961 L
300.027 364.961 L
300.592 364.956 L
300.704 364.955 L
301.258 364.951 L
301.368 364.95 L
301.91 364.945 L
302.017 364.944 L
302.654 364.939 L
302.758 364.938 L
303.277 364.933 L
303.38 364.932 L
303.99 364.926 L
304.09 364.925 L
304.588 364.92 L
304.686 364.919 L
305.271 364.913 L
305.368 364.912 L
305.94 364.906 L
306.035 364.905 L
306.595 364.899 L
306.688 364.898 L
307.328 364.891 L
307.418 364.89 L
307.955 364.884 L
308.043 364.883 L
308.656 364.875 L
308.743 364.874 L
309.258 364.868 L
309.342 364.867 L
309.931 364.859 L
310.014 364.858 L
310.59 364.85 L
310.672 364.849 L
311.316 364.84 L
311.395 364.839 L
311.947 364.831 L
312.025 364.83 L
312.642 364.821 L
312.718 364.82 L
313.322 364.81 L
313.397 364.809 L
313.988 364.799 L
314.061 364.798 L
314.64 364.788 L
314.712 364.787 L
315.279 364.777 L
315.349 364.775 L
315.973 364.764 L
316.042 364.762 L
316.653 364.75 L
316.72 364.749 L
317.318 364.736 L
317.384 364.735 L
317.97 364.722 L
318.034 364.721 L
318.608 364.707 L
318.671 364.706 L
319.295 364.691 L
319.357 364.689 L
319.968 364.673 L
320.029 364.672 L
320.627 364.655 L
320.686 364.654 L
321.33 364.635 L
321.388 364.633 L
321.961 364.616 L
322.017 364.614 L
322.635 364.594 L
322.69 364.592 L
323.295 364.571 L
323.349 364.569 L
323.995 364.545 L
324.048 364.543 L
324.627 364.52 L
324.679 364.518 L
325.298 364.492 L
325.349 364.49 L
325.955 364.463 L
326.005 364.46 L
326.647 364.43 L
326.696 364.427 L
327.325 364.395 L
327.372 364.393 L
327.988 364.359 L
328.035 364.356 L
328.637 364.321 L
328.683 364.318 L
329.318 364.279 L
329.363 364.276 L
329.985 364.234 L
330.029 364.231 L
330.638 364.188 L
330.681 364.185 L
331.32 364.136 L
331.362 364.133 L
331.987 364.081 L
332.029 364.078 L
332.641 364.024 L
332.681 364.021 L
333.321 363.961 L
333.36 363.957 L
333.986 363.894 L
334.025 363.89 L
334.637 363.824 L
334.675 363.82 L
335.313 363.746 L
335.35 363.742 L
335.974 363.665 L
336.01 363.661 L
336.657 363.575 L
336.693 363.57 L
337.326 363.481 L
337.361 363.476 L
337.981 363.382 L
338.015 363.377 L
338.655 363.274 L
338.689 363.268 L
339.316 363.16 L
339.348 363.154 L
339.995 363.035 L
340.027 363.029 L
340.659 362.904 L
340.691 362.898 L
341.31 362.768 L
341.341 362.761 L
341.978 362.618 L
342.008 362.611 L
342.661 362.455 L
342.69 362.448 L
343.329 362.285 L
343.358 362.277 L
343.984 362.107 L
344.012 362.099 L
344.653 361.914 L
344.681 361.906 L
345.308 361.713 L
345.335 361.705 L
345.976 361.496 L
346.002 361.487 L
346.656 361.26 L
346.682 361.251 L
347.322 361.016 L
347.347 361.006 L
347.998 360.753 L
348.023 360.743 L
348.66 360.48 L
348.685 360.469 L
349.333 360.187 L
349.357 360.176 L
349.991 359.884 L
350.014 359.873 L
350.659 359.559 L
350.681 359.548 L
351.312 359.225 L
351.335 359.214 L
351.996 358.857 L
352.018 358.845 L
352.666 358.478 L
352.687 358.466 L
353.321 358.089 L
353.342 358.076 L
353.984 357.676 L
354.004 357.663 L
354.653 357.241 L
354.673 357.227 L
355.328 356.781 L
355.347 356.768 L
355.988 356.312 L
356.007 356.298 L
356.654 355.819 L
356.673 355.804 L
357.324 355.302 L
357.342 355.288 L
357.998 354.762 L
358.016 354.747 L
358.659 354.214 L
358.676 354.199 L
359.322 353.643 L
359.34 353.628 L
359.989 353.05 L
360.006 353.035 L
360.659 352.435 L
360.676 352.42 L
361.331 351.8 L
361.347 351.784 L
361.989 351.16 L
362.005 351.144 L
362.665 350.485 L
362.68 350.469 L
363.326 349.807 L
363.341 349.791 L
363.989 349.112 L
364.003 349.096 L
364.667 348.385 L
364.681 348.37 L
365.33 347.659 L
365.345 347.644 L
365.994 346.919 L
366.008 346.904 L
366.658 346.167 L
366.672 346.151 L
367.322 345.403 L
367.335 345.388 L
367.998 344.614 L
368.011 344.599 L
368.66 343.833 L
368.673 343.817 L
369.333 343.028 L
369.346 343.013 L
369.992 342.234 L
370.005 342.219 L
370.662 341.42 L
370.674 341.405 L
371.33 340.604 L
371.342 340.589 L
371.995 339.786 L
372.007 339.772 L
372.658 338.968 L
372.669 338.954 L
373.329 338.138 L
373.34 338.125 L
373.997 337.311 L
374.008 337.298 L
374.662 336.489 L
374.672 336.475 L
375.323 335.671 L
375.334 335.658 L
375.991 334.848 L
376.001 334.835 L
376.665 334.02 L
376.675 334.008 L
377.325 333.214 L
377.335 333.202 L
377.99 332.405 L
378 332.394 L
378.661 331.597 L
378.67 331.586 L
379.326 330.801 L
379.335 330.79 L
379.996 330.008 L
380.005 329.997 L
380.66 329.228 L
380.669 329.218 L
381.328 328.454 L
381.336 328.444 L
381.998 327.685 L
382.007 327.676 L
382.663 326.934 L
382.671 326.924 L
383.33 326.19 L
383.338 326.181 L
383.999 325.454 L
384.007 325.446 L
384.662 324.738 L
384.67 324.729 L
385.326 324.031 L
385.334 324.023 L
385.999 323.328 L
386.007 323.32 L
386.665 322.644 L
386.672 322.637 L
387.331 321.973 L
387.338 321.966 L
387.997 321.315 L
388.004 321.308 L
388.663 320.67 L
388.67 320.664 L
389.329 320.04 L
389.335 320.033 L
390 319.417 L
390.006 319.411 L
390.663 318.816 L
390.67 318.81 L
391.332 318.223 L
391.338 318.218 L
391.999 317.646 L
392.005 317.641 L
392.664 317.085 L
392.67 317.08 L
393.332 316.534 L
393.338 316.529 L
393.999 315.999 L
394.004 315.994 L
394.662 315.48 L
394.668 315.475 L
395.329 314.972 L
395.334 314.968 L
395.997 314.476 L
396.003 314.472 L
396.662 313.997 L
396.668 313.993 L
397.329 313.529 L
397.335 313.525 L
397.998 313.074 L
398.003 313.07 L
398.662 312.634 L
398.667 312.631 L
399.332 312.204 L
399.336 312.201 L
399.997 311.789 L
400.002 311.786 L
400.662 311.387 L
400.667 311.384 L
401.332 310.994 L
401.337 310.991 L
401.997 310.616 L
402.001 310.614 L
402.665 310.248 L
402.669 310.246 L
403.332 309.893 L
403.336 309.89 L
403.998 309.549 L
404.002 309.547 L
404.666 309.215 L
404.67 309.213 L
405.333 308.893 L
405.337 308.891 L
405.997 308.583 L
406.001 308.581 L
406.667 308.28 L
406.67 308.279 L
407.33 307.991 L
407.334 307.989 L
407.998 307.709 L
408.001 307.707 L
408.666 307.437 L
408.67 307.435 L
409.331 307.175 L
409.334 307.174 L
409.999 306.921 L
410.003 306.92 L
410.664 306.678 L
410.667 306.677 L
411.331 306.442 L
411.334 306.441 L
411.998 306.215 L
412.001 306.213 L
412.666 305.995 L
412.669 305.994 L
413.333 305.783 L
413.336 305.782 L
413.998 305.58 L
414.001 305.579 L
414.664 305.384 L
414.667 305.383 L
415.331 305.194 L
415.334 305.194 L
415.998 305.012 L
416.001 305.011 L
416.665 304.836 L
416.668 304.836 L
417.332 304.667 L
417.335 304.667 L
417.999 304.505 L
418.002 304.504 L
418.665 304.348 L
418.667 304.348 L
419.332 304.197 L
419.335 304.197 L
419.998 304.052 L
420 304.052 L
420.665 303.913 L
420.667 303.912 L
421.332 303.778 L
421.335 303.778 L
422 303.649 L
422.002 303.648 L
422.665 303.525 L
422.667 303.525 L
423.332 303.405 L
423.335 303.405 L
423.999 303.291 L
424.001 303.29 L
424.665 303.18 L
424.667 303.18 L
425.333 303.074 L
425.335 303.074 L
425.998 302.972 L
426.001 302.972 L
426.666 302.874 L
426.668 302.874 L
427.332 302.78 L
427.334 302.78 L
427.999 302.69 L
428.001 302.689 L
428.666 302.603 L
428.668 302.602 L
429.332 302.519 L
429.334 302.519 L
429.999 302.439 L
430 302.439 L
430.666 302.362 L
430.667 302.362 L
431.333 302.288 L
431.335 302.288 L
432 302.217 L
432.002 302.217 L
432.667 302.149 L
432.668 302.148 L
433.332 302.083 L
433.334 302.083 L
433.999 302.02 L
434 302.02 L
434.666 301.96 L
434.667 301.96 L
435.332 301.902 L
435.334 301.902 L
435.999 301.846 L
436 301.846 L
436.666 301.793 L
436.668 301.793 L
437.332 301.742 L
437.334 301.742 L
437.999 301.692 L
438.001 301.692 L
438.666 301.645 L
438.667 301.645 L
439.332 301.6 L
439.334 301.6 L
439.999 301.556 L
440.001 301.556 L
440.666 301.515 L
440.667 301.515 L
441.333 301.475 L
441.334 301.475 L
441.999 301.436 L
442.001 301.436 L
442.666 301.399 L
442.668 301.399 L
443.333 301.364 L
443.334 301.364 L
443.999 301.33 L
444 301.33 L
444.666 301.298 L
444.667 301.297 L
445.333 301.266 L
445.334 301.266 L
446 301.236 L
446.001 301.236 L
446.666 301.208 L
446.667 301.208 L
447.333 301.18 L
447.334 301.18 L
448 301.153 L
448.001 301.153 L
448.667 301.128 L
448.668 301.128 L
449.332 301.104 L
449.333 301.104 L
450 301.08 L
450.001 301.08 L
450.667 301.058 L
450.668 301.058 L
451.332 301.036 L
451.333 301.036 L
452 301.016 L
452.001 301.016 L
452.667 300.996 L
452.668 300.996 L
453.333 300.977 L
453.333 300.977 L
453.999 300.959 L
454 300.959 L
454.666 300.941 L
454.667 300.941 L
455.333 300.924 L
455.334 300.924 L
455.999 300.908 L
456 300.908 L
456.666 300.892 L
456.667 300.892 L
457.333 300.877 L
457.333 300.877 L
458 300.863 L
458 300.863 L
458.667 300.849 L
458.667 300.849 L
459.333 300.836 L
459.334 300.836 L
459.999 300.823 L
460 300.823 L
460.666 300.811 L
460.667 300.811 L
461.333 300.799 L
461.334 300.799 L
462 300.788 L
462 300.788 L
462.666 300.777 L
462.667 300.777 L
463.333 300.766 L
463.334 300.766 L
464 300.756 L
464.001 300.756 L
464.666 300.746 L
464.667 300.746 L
465.333 300.736 L
465.334 300.736 L
466 300.727 L
466 300.727 L
466.666 300.718 L
466.667 300.718 L
467.333 300.709 L
467.333 300.709 L
468 300.701 L
468 300.701 L
468.667 300.693 L
468.667 300.693 L
469.333 300.685 L
469.334 300.685 L
470 300.677 L
470 300.677 L
470.666 300.669 L
470.667 300.669 L
471.333 300.661 L
471.333 300.661 L
472 300.654 L
472 300.654 L
472.666 300.647 L
472.667 300.647 L
473.333 300.639 L
473.334 300.639 L
474 300.632 L
474 300.632 L
474.667 300.625 L
474.667 300.625 L
475.333 300.617 L
475.333 300.617 L
475.333 300.617 L
476 300.61 L
476 300.61 L
476.667 300.603 L
476.667 300.603 L
477.333 300.595 L
477.333 300.595 L
478 300.588 L
478 300.588 L
478.667 300.58 L
478.667 300.58 L
479.333 300.572 L
479.333 300.572 L
480 300.564 L
480 300.564 L
480.667 300.556 L
480.667 300.556 L
481.333 300.547 L
481.334 300.547 L
482 300.538 L
482 300.538 L
482.666 300.529 L
482.667 300.529 L
483.333 300.519 L
483.333 300.519 L
484 300.509 L
484 300.509 L
484.667 300.498 L
484.667 300.498 L
485.333 300.487 L
485.334 300.487 L
486 300.475 L
486 300.475 L
486.666 300.462 L
486.667 300.462 L
487.333 300.448 L
487.333 300.448 L
488 300.434 L
488 300.434 L
488.667 300.418 L
488.667 300.418 L
489.333 300.402 L
489.334 300.402 L
490 300.384 L
490 300.384 L
490.666 300.365 L
490.667 300.365 L
491.333 300.345 L
491.334 300.345 L
492 300.323 L
492 300.323 L
492.667 300.299 L
492.667 300.299 L
493.333 300.274 L
493.333 300.274 L
494 300.246 L
494 300.246 L
494.667 300.217 L
494.667 300.217 L
495.333 300.185 L
495.333 300.185 L
496 300.151 L
496 300.151 L
496.667 300.114 L
496.667 300.114 L
497.333 300.074 L
497.333 300.074 L
498 300.031 L
498 300.031 L
498.667 299.985 L
498.667 299.985 L
499.333 299.935 L
499.333 299.935 L
500 299.881 L
500 299.881 L
500.667 299.822 L
500.667 299.822 L
501.333 299.759 L
501.333 299.759 L
502 299.691 L
502 299.691 L
502.667 299.618 L
502.667 299.618 L
503.333 299.539 L
503.333 299.539 L
504 299.454 L
504 299.454 L
504.667 299.362 L
504.667 299.362 L
505.333 299.263 L
505.333 299.263 L
506 299.157 L
506 299.157 L
506.667 299.043 L
506.667 299.043 L
507 298.982 L
S
GR
%%Trailer
%%Pages: 1
%%EOF
