%!PS-Adobe-3.0 EPSF-3.0
%%Creator: (MATLAB, The Mathworks, Inc. Version 9.5.0.944444 \(R2018b\). Operating System: Windows 10)
%%Title: F:/Studium/__Bachelorarbeit/tex/images/tikhonov1-lcurve.eps
%%CreationDate: 2020-07-26T15:59:32
%%Pages: (atend)
%%BoundingBox: 0 0 420 315
%%LanguageLevel: 3
%%EndComments
%%BeginProlog
%%BeginResource: procset (Apache XML Graphics Std ProcSet) 1.2 0
%%Version: 1.2 0
%%Copyright: (Copyright 2001-2003,2010 The Apache Software Foundation. License terms: http://www.apache.org/licenses/LICENSE-2.0)
/bd{bind def}bind def
/ld{load def}bd
/GR/grestore ld
/GS/gsave ld
/RM/rmoveto ld
/C/curveto ld
/t/show ld
/L/lineto ld
/ML/setmiterlimit ld
/CT/concat ld
/f/fill ld
/N/newpath ld
/S/stroke ld
/CC/setcmykcolor ld
/A/ashow ld
/cp/closepath ld
/RC/setrgbcolor ld
/LJ/setlinejoin ld
/GC/setgray ld
/LW/setlinewidth ld
/M/moveto ld
/re {4 2 roll M
1 index 0 rlineto
0 exch rlineto
neg 0 rlineto
cp } bd
/_ctm matrix def
/_tm matrix def
/BT { _ctm currentmatrix pop matrix _tm copy pop 0 0 moveto } bd
/ET { _ctm setmatrix } bd
/iTm { _ctm setmatrix _tm concat } bd
/Tm { _tm astore pop iTm 0 0 moveto } bd
/ux 0.0 def
/uy 0.0 def
/F {
  /Tp exch def
  /Tf exch def
  Tf findfont Tp scalefont setfont
  /cf Tf def  /cs Tp def
} bd
/ULS {currentpoint /uy exch def /ux exch def} bd
/ULE {
  /Tcx currentpoint pop def
  gsave
  newpath
  cf findfont cs scalefont dup
  /FontMatrix get 0 get /Ts exch def /FontInfo get dup
  /UnderlinePosition get Ts mul /To exch def
  /UnderlineThickness get Ts mul /Tt exch def
  ux uy To add moveto  Tcx uy To add lineto
  Tt setlinewidth stroke
  grestore
} bd
/OLE {
  /Tcx currentpoint pop def
  gsave
  newpath
  cf findfont cs scalefont dup
  /FontMatrix get 0 get /Ts exch def /FontInfo get dup
  /UnderlinePosition get Ts mul /To exch def
  /UnderlineThickness get Ts mul /Tt exch def
  ux uy To add cs add moveto Tcx uy To add cs add lineto
  Tt setlinewidth stroke
  grestore
} bd
/SOE {
  /Tcx currentpoint pop def
  gsave
  newpath
  cf findfont cs scalefont dup
  /FontMatrix get 0 get /Ts exch def /FontInfo get dup
  /UnderlinePosition get Ts mul /To exch def
  /UnderlineThickness get Ts mul /Tt exch def
  ux uy To add cs 10 mul 26 idiv add moveto Tcx uy To add cs 10 mul 26 idiv add lineto
  Tt setlinewidth stroke
  grestore
} bd
/QT {
/Y22 exch store
/X22 exch store
/Y21 exch store
/X21 exch store
currentpoint
/Y21 load 2 mul add 3 div exch
/X21 load 2 mul add 3 div exch
/X21 load 2 mul /X22 load add 3 div
/Y21 load 2 mul /Y22 load add 3 div
/X22 load /Y22 load curveto
} bd
/SSPD {
dup length /d exch dict def
{
/v exch def
/k exch def
currentpagedevice k known {
/cpdv currentpagedevice k get def
v cpdv ne {
/upd false def
/nullv v type /nulltype eq def
/nullcpdv cpdv type /nulltype eq def
nullv nullcpdv or
{
/upd true def
} {
/sametype v type cpdv type eq def
sametype {
v type /arraytype eq {
/vlen v length def
/cpdvlen cpdv length def
vlen cpdvlen eq {
0 1 vlen 1 sub {
/i exch def
/obj v i get def
/cpdobj cpdv i get def
obj cpdobj ne {
/upd true def
exit
} if
} for
} {
/upd true def
} ifelse
} {
v type /dicttype eq {
v {
/dv exch def
/dk exch def
/cpddv cpdv dk get def
dv cpddv ne {
/upd true def
exit
} if
} forall
} {
/upd true def
} ifelse
} ifelse
} if
} ifelse
upd true eq {
d k v put
} if
} if
} if
} forall
d length 0 gt {
d setpagedevice
} if
} bd
/RE { % /NewFontName [NewEncodingArray] /FontName RE -
  findfont dup length dict begin
  {
    1 index /FID ne
    {def} {pop pop} ifelse
  } forall
  /Encoding exch def
  /FontName 1 index def
  currentdict definefont pop
  end
} bind def
%%EndResource
%%BeginResource: procset (Apache XML Graphics EPS ProcSet) 1.0 0
%%Version: 1.0 0
%%Copyright: (Copyright 2002-2003 The Apache Software Foundation. License terms: http://www.apache.org/licenses/LICENSE-2.0)
/BeginEPSF { %def
/b4_Inc_state save def         % Save state for cleanup
/dict_count countdictstack def % Count objects on dict stack
/op_count count 1 sub def      % Count objects on operand stack
userdict begin                 % Push userdict on dict stack
/showpage { } def              % Redefine showpage, { } = null proc
0 setgray 0 setlinecap         % Prepare graphics state
1 setlinewidth 0 setlinejoin
10 setmiterlimit [ ] 0 setdash newpath
/languagelevel where           % If level not equal to 1 then
{pop languagelevel             % set strokeadjust and
1 ne                           % overprint to their defaults.
{false setstrokeadjust false setoverprint
} if
} if
} bd
/EndEPSF { %def
count op_count sub {pop} repeat            % Clean up stacks
countdictstack dict_count sub {end} repeat
b4_Inc_state restore
} bd
%%EndResource
%FOPBeginFontDict
%%IncludeResource: font Courier-Oblique
%%IncludeResource: font Courier-BoldOblique
%%IncludeResource: font Courier-Bold
%%IncludeResource: font ZapfDingbats
%%IncludeResource: font Symbol
%%IncludeResource: font Helvetica
%%IncludeResource: font Helvetica-Oblique
%%IncludeResource: font Helvetica-Bold
%%IncludeResource: font Helvetica-BoldOblique
%%IncludeResource: font Times-Roman
%%IncludeResource: font Times-Italic
%%IncludeResource: font Times-Bold
%%IncludeResource: font Times-BoldItalic
%%IncludeResource: font Courier
%FOPEndFontDict
%%BeginResource: encoding WinAnsiEncoding
/WinAnsiEncoding [
/.notdef /.notdef /.notdef /.notdef /.notdef
/.notdef /.notdef /.notdef /.notdef /.notdef
/.notdef /.notdef /.notdef /.notdef /.notdef
/.notdef /.notdef /.notdef /.notdef /.notdef
/.notdef /.notdef /.notdef /.notdef /.notdef
/.notdef /.notdef /.notdef /.notdef /.notdef
/.notdef /.notdef /space /exclam /quotedbl
/numbersign /dollar /percent /ampersand /quotesingle
/parenleft /parenright /asterisk /plus /comma
/hyphen /period /slash /zero /one
/two /three /four /five /six
/seven /eight /nine /colon /semicolon
/less /equal /greater /question /at
/A /B /C /D /E
/F /G /H /I /J
/K /L /M /N /O
/P /Q /R /S /T
/U /V /W /X /Y
/Z /bracketleft /backslash /bracketright /asciicircum
/underscore /quoteleft /a /b /c
/d /e /f /g /h
/i /j /k /l /m
/n /o /p /q /r
/s /t /u /v /w
/x /y /z /braceleft /bar
/braceright /asciitilde /bullet /Euro /bullet
/quotesinglbase /florin /quotedblbase /ellipsis /dagger
/daggerdbl /circumflex /perthousand /Scaron /guilsinglleft
/OE /bullet /Zcaron /bullet /bullet
/quoteleft /quoteright /quotedblleft /quotedblright /bullet
/endash /emdash /asciitilde /trademark /scaron
/guilsinglright /oe /bullet /zcaron /Ydieresis
/space /exclamdown /cent /sterling /currency
/yen /brokenbar /section /dieresis /copyright
/ordfeminine /guillemotleft /logicalnot /sfthyphen /registered
/macron /degree /plusminus /twosuperior /threesuperior
/acute /mu /paragraph /middot /cedilla
/onesuperior /ordmasculine /guillemotright /onequarter /onehalf
/threequarters /questiondown /Agrave /Aacute /Acircumflex
/Atilde /Adieresis /Aring /AE /Ccedilla
/Egrave /Eacute /Ecircumflex /Edieresis /Igrave
/Iacute /Icircumflex /Idieresis /Eth /Ntilde
/Ograve /Oacute /Ocircumflex /Otilde /Odieresis
/multiply /Oslash /Ugrave /Uacute /Ucircumflex
/Udieresis /Yacute /Thorn /germandbls /agrave
/aacute /acircumflex /atilde /adieresis /aring
/ae /ccedilla /egrave /eacute /ecircumflex
/edieresis /igrave /iacute /icircumflex /idieresis
/eth /ntilde /ograve /oacute /ocircumflex
/otilde /odieresis /divide /oslash /ugrave
/uacute /ucircumflex /udieresis /yacute /thorn
/ydieresis
] def
%%EndResource
%FOPBeginFontReencode
/Courier-Oblique findfont
dup length dict begin
  {1 index /FID ne {def} {pop pop} ifelse} forall
  /Encoding WinAnsiEncoding def
  currentdict
end
/Courier-Oblique exch definefont pop
/Courier-BoldOblique findfont
dup length dict begin
  {1 index /FID ne {def} {pop pop} ifelse} forall
  /Encoding WinAnsiEncoding def
  currentdict
end
/Courier-BoldOblique exch definefont pop
/Courier-Bold findfont
dup length dict begin
  {1 index /FID ne {def} {pop pop} ifelse} forall
  /Encoding WinAnsiEncoding def
  currentdict
end
/Courier-Bold exch definefont pop
/Helvetica findfont
dup length dict begin
  {1 index /FID ne {def} {pop pop} ifelse} forall
  /Encoding WinAnsiEncoding def
  currentdict
end
/Helvetica exch definefont pop
/Helvetica-Oblique findfont
dup length dict begin
  {1 index /FID ne {def} {pop pop} ifelse} forall
  /Encoding WinAnsiEncoding def
  currentdict
end
/Helvetica-Oblique exch definefont pop
/Helvetica-Bold findfont
dup length dict begin
  {1 index /FID ne {def} {pop pop} ifelse} forall
  /Encoding WinAnsiEncoding def
  currentdict
end
/Helvetica-Bold exch definefont pop
/Helvetica-BoldOblique findfont
dup length dict begin
  {1 index /FID ne {def} {pop pop} ifelse} forall
  /Encoding WinAnsiEncoding def
  currentdict
end
/Helvetica-BoldOblique exch definefont pop
/Times-Roman findfont
dup length dict begin
  {1 index /FID ne {def} {pop pop} ifelse} forall
  /Encoding WinAnsiEncoding def
  currentdict
end
/Times-Roman exch definefont pop
/Times-Italic findfont
dup length dict begin
  {1 index /FID ne {def} {pop pop} ifelse} forall
  /Encoding WinAnsiEncoding def
  currentdict
end
/Times-Italic exch definefont pop
/Times-Bold findfont
dup length dict begin
  {1 index /FID ne {def} {pop pop} ifelse} forall
  /Encoding WinAnsiEncoding def
  currentdict
end
/Times-Bold exch definefont pop
/Times-BoldItalic findfont
dup length dict begin
  {1 index /FID ne {def} {pop pop} ifelse} forall
  /Encoding WinAnsiEncoding def
  currentdict
end
/Times-BoldItalic exch definefont pop
/Courier findfont
dup length dict begin
  {1 index /FID ne {def} {pop pop} ifelse} forall
  /Encoding WinAnsiEncoding def
  currentdict
end
/Courier exch definefont pop
%FOPEndFontReencode
%%EndProlog
%%Page: 1 1
%%PageBoundingBox: 0 0 420 315
%%BeginPageSetup
[1 0 0 -1 0 315] CT
%%EndPageSetup
GS
[0.75 0 0 0.75 0 0] CT
1 GC
N
0 0 560 420 re
f
GR
GS
[0.75 0 0 0.75 0 0] CT
1 GC
N
0 0 560 420 re
f
GR
GS
[0.75 0 0 0.75 0 0] CT
1 GC
N
73 374 M
507 374 L
507 31 L
73 31 L
cp
f
GR
GS
[0.75 0 0 0.75 0 0] CT
0.149 GC
2 setlinecap
1 LJ
0.667 LW
N
73 374 M
507 374 L
S
GR
GS
[0.75 0 0 0.75 0 0] CT
0.149 GC
2 setlinecap
1 LJ
0.667 LW
N
73 374 M
73 382.68 L
S
GR
GS
[0.75 0 0 0.75 0 0] CT
0.149 GC
2 setlinecap
1 LJ
0.667 LW
N
217.667 374 M
217.667 382.68 L
S
GR
GS
[0.75 0 0 0.75 0 0] CT
0.149 GC
2 setlinecap
1 LJ
0.667 LW
N
362.333 374 M
362.333 382.68 L
S
GR
GS
[0.75 0 0 0.75 0 0] CT
0.149 GC
2 setlinecap
1 LJ
0.667 LW
N
73 374 M
73 378.34 L
S
GR
GS
[0.75 0 0 0.75 0 0] CT
0.149 GC
2 setlinecap
1 LJ
0.667 LW
N
116.549 374 M
116.549 378.34 L
S
GR
GS
[0.75 0 0 0.75 0 0] CT
0.149 GC
2 setlinecap
1 LJ
0.667 LW
N
142.024 374 M
142.024 378.34 L
S
GR
GS
[0.75 0 0 0.75 0 0] CT
0.149 GC
2 setlinecap
1 LJ
0.667 LW
N
160.098 374 M
160.098 378.34 L
S
GR
GS
[0.75 0 0 0.75 0 0] CT
0.149 GC
2 setlinecap
1 LJ
0.667 LW
N
174.118 374 M
174.118 378.34 L
S
GR
GS
[0.75 0 0 0.75 0 0] CT
0.149 GC
2 setlinecap
1 LJ
0.667 LW
N
185.573 374 M
185.573 378.34 L
S
GR
GS
[0.75 0 0 0.75 0 0] CT
0.149 GC
2 setlinecap
1 LJ
0.667 LW
N
195.258 374 M
195.258 378.34 L
S
GR
GS
[0.75 0 0 0.75 0 0] CT
0.149 GC
2 setlinecap
1 LJ
0.667 LW
N
203.647 374 M
203.647 378.34 L
S
GR
GS
[0.75 0 0 0.75 0 0] CT
0.149 GC
2 setlinecap
1 LJ
0.667 LW
N
211.047 374 M
211.047 378.34 L
S
GR
GS
[0.75 0 0 0.75 0 0] CT
0.149 GC
2 setlinecap
1 LJ
0.667 LW
N
217.667 374 M
217.667 378.34 L
S
GR
GS
[0.75 0 0 0.75 0 0] CT
0.149 GC
2 setlinecap
1 LJ
0.667 LW
N
261.216 374 M
261.216 378.34 L
S
GR
GS
[0.75 0 0 0.75 0 0] CT
0.149 GC
2 setlinecap
1 LJ
0.667 LW
N
286.69 374 M
286.69 378.34 L
S
GR
GS
[0.75 0 0 0.75 0 0] CT
0.149 GC
2 setlinecap
1 LJ
0.667 LW
N
304.765 374 M
304.765 378.34 L
S
GR
GS
[0.75 0 0 0.75 0 0] CT
0.149 GC
2 setlinecap
1 LJ
0.667 LW
N
318.784 374 M
318.784 378.34 L
S
GR
GS
[0.75 0 0 0.75 0 0] CT
0.149 GC
2 setlinecap
1 LJ
0.667 LW
N
330.239 374 M
330.239 378.34 L
S
GR
GS
[0.75 0 0 0.75 0 0] CT
0.149 GC
2 setlinecap
1 LJ
0.667 LW
N
339.924 374 M
339.924 378.34 L
S
GR
GS
[0.75 0 0 0.75 0 0] CT
0.149 GC
2 setlinecap
1 LJ
0.667 LW
N
348.314 374 M
348.314 378.34 L
S
GR
GS
[0.75 0 0 0.75 0 0] CT
0.149 GC
2 setlinecap
1 LJ
0.667 LW
N
355.714 374 M
355.714 378.34 L
S
GR
GS
[0.75 0 0 0.75 0 0] CT
0.149 GC
2 setlinecap
1 LJ
0.667 LW
N
362.333 374 M
362.333 378.34 L
S
GR
GS
[0.75 0 0 0.75 0 0] CT
0.149 GC
2 setlinecap
1 LJ
0.667 LW
N
362.333 374 M
362.333 378.34 L
S
GR
GS
[0.75 0 0 0.75 0 0] CT
0.149 GC
2 setlinecap
1 LJ
0.667 LW
N
405.882 374 M
405.882 378.34 L
S
GR
GS
[0.75 0 0 0.75 0 0] CT
0.149 GC
2 setlinecap
1 LJ
0.667 LW
N
431.357 374 M
431.357 378.34 L
S
GR
GS
[0.75 0 0 0.75 0 0] CT
0.149 GC
2 setlinecap
1 LJ
0.667 LW
N
449.431 374 M
449.431 378.34 L
S
GR
GS
[0.75 0 0 0.75 0 0] CT
0.149 GC
2 setlinecap
1 LJ
0.667 LW
N
463.451 374 M
463.451 378.34 L
S
GR
GS
[0.75 0 0 0.75 0 0] CT
0.149 GC
2 setlinecap
1 LJ
0.667 LW
N
474.906 374 M
474.906 378.34 L
S
GR
GS
[0.75 0 0 0.75 0 0] CT
0.149 GC
2 setlinecap
1 LJ
0.667 LW
N
484.591 374 M
484.591 378.34 L
S
GR
GS
[0.75 0 0 0.75 0 0] CT
0.149 GC
2 setlinecap
1 LJ
0.667 LW
N
492.98 374 M
492.98 378.34 L
S
GR
GS
[0.75 0 0 0.75 0 0] CT
0.149 GC
2 setlinecap
1 LJ
0.667 LW
N
500.38 374 M
500.38 378.34 L
S
GR
GS
[0.75 0 0 0.75 42.75 303.75] CT
0.149 GC
/Helvetica 13.333 F
GS
[1 0 0 1 0 0] CT
0 0 moveto 
1 -1 scale
(10) t 
GR
GR
GS
[0.75 0 0 0.75 54 299.25] CT
0.149 GC
/Helvetica 10.667 F
GS
[1 0 0 1 0 0] CT
0 0 moveto 
1 -1 scale
(-13) t 
GR
GR
GS
[0.75 0 0 0.75 151.5 303.75] CT
0.149 GC
/Helvetica 13.333 F
GS
[1 0 0 1 0 0] CT
0 0 moveto 
1 -1 scale
(10) t 
GR
GR
GS
[0.75 0 0 0.75 162.75 299.25] CT
0.149 GC
/Helvetica 10.667 F
GS
[1 0 0 1 0 0] CT
0 0 moveto 
1 -1 scale
(-12) t 
GR
GR
GS
[0.75 0 0 0.75 259.5 303.75] CT
0.149 GC
/Helvetica 13.333 F
GS
[1 0 0 1 0 0] CT
0 0 moveto 
1 -1 scale
(10) t 
GR
GR
GS
[0.75 0 0 0.75 270.75 299.25] CT
0.149 GC
/Helvetica 10.667 F
GS
[1 0 0 1 0 0] CT
0 0 moveto 
1 -1 scale
(-11) t 
GR
GR
GS
[0.75 0 0 0.75 0 0] CT
0.149 GC
2 setlinecap
1 LJ
0.667 LW
N
73 374 M
73 31 L
S
GR
GS
[0.75 0 0 0.75 0 0] CT
0.149 GC
2 setlinecap
1 LJ
0.667 LW
N
73 334.686 M
64.32 334.686 L
S
GR
GS
[0.75 0 0 0.75 0 0] CT
0.149 GC
2 setlinecap
1 LJ
0.667 LW
N
73 273.826 M
64.32 273.826 L
S
GR
GS
[0.75 0 0 0.75 0 0] CT
0.149 GC
2 setlinecap
1 LJ
0.667 LW
N
73 221.105 M
64.32 221.105 L
S
GR
GS
[0.75 0 0 0.75 0 0] CT
0.149 GC
2 setlinecap
1 LJ
0.667 LW
N
73 174.603 M
64.32 174.603 L
S
GR
GS
[0.75 0 0 0.75 0 0] CT
0.149 GC
2 setlinecap
1 LJ
0.667 LW
N
73 133.005 M
64.32 133.005 L
S
GR
GS
[0.75 0 0 0.75 0 0] CT
0.149 GC
2 setlinecap
1 LJ
0.667 LW
N
73 95.375 M
64.32 95.375 L
S
GR
GS
[0.75 0 0 0.75 0 0] CT
0.149 GC
2 setlinecap
1 LJ
0.667 LW
N
73 61.022 M
64.32 61.022 L
S
GR
GS
[0.75 0 0 0.75 0 0] CT
0.149 GC
2 setlinecap
1 LJ
0.667 LW
N
73 361.926 M
68.66 361.926 L
S
GR
GS
[0.75 0 0 0.75 0 0] CT
0.149 GC
2 setlinecap
1 LJ
0.667 LW
N
73 348.071 M
68.66 348.071 L
S
GR
GS
[0.75 0 0 0.75 0 0] CT
0.149 GC
2 setlinecap
1 LJ
0.667 LW
N
73 321.741 M
68.66 321.741 L
S
GR
GS
[0.75 0 0 0.75 0 0] CT
0.149 GC
2 setlinecap
1 LJ
0.667 LW
N
73 309.206 M
68.66 309.206 L
S
GR
GS
[0.75 0 0 0.75 0 0] CT
0.149 GC
2 setlinecap
1 LJ
0.667 LW
N
73 297.057 M
68.66 297.057 L
S
GR
GS
[0.75 0 0 0.75 0 0] CT
0.149 GC
2 setlinecap
1 LJ
0.667 LW
N
73 285.27 M
68.66 285.27 L
S
GR
GS
[0.75 0 0 0.75 0 0] CT
0.149 GC
2 setlinecap
1 LJ
0.667 LW
N
73 262.703 M
68.66 262.703 L
S
GR
GS
[0.75 0 0 0.75 0 0] CT
0.149 GC
2 setlinecap
1 LJ
0.667 LW
N
73 251.886 M
68.66 251.886 L
S
GR
GS
[0.75 0 0 0.75 0 0] CT
0.149 GC
2 setlinecap
1 LJ
0.667 LW
N
73 241.357 M
68.66 241.357 L
S
GR
GS
[0.75 0 0 0.75 0 0] CT
0.149 GC
2 setlinecap
1 LJ
0.667 LW
N
73 231.101 M
68.66 231.101 L
S
GR
GS
[0.75 0 0 0.75 0 0] CT
0.149 GC
2 setlinecap
1 LJ
0.667 LW
N
73 211.357 M
68.66 211.357 L
S
GR
GS
[0.75 0 0 0.75 0 0] CT
0.149 GC
2 setlinecap
1 LJ
0.667 LW
N
73 201.842 M
68.66 201.842 L
S
GR
GS
[0.75 0 0 0.75 0 0] CT
0.149 GC
2 setlinecap
1 LJ
0.667 LW
N
73 192.552 M
68.66 192.552 L
S
GR
GS
[0.75 0 0 0.75 0 0] CT
0.149 GC
2 setlinecap
1 LJ
0.667 LW
N
73 183.476 M
68.66 183.476 L
S
GR
GS
[0.75 0 0 0.75 0 0] CT
0.149 GC
2 setlinecap
1 LJ
0.667 LW
N
73 165.926 M
68.66 165.926 L
S
GR
GS
[0.75 0 0 0.75 0 0] CT
0.149 GC
2 setlinecap
1 LJ
0.667 LW
N
73 157.435 M
68.66 157.435 L
S
GR
GS
[0.75 0 0 0.75 0 0] CT
0.149 GC
2 setlinecap
1 LJ
0.667 LW
N
73 149.122 M
68.66 149.122 L
S
GR
GS
[0.75 0 0 0.75 0 0] CT
0.149 GC
2 setlinecap
1 LJ
0.667 LW
N
73 140.982 M
68.66 140.982 L
S
GR
GS
[0.75 0 0 0.75 0 0] CT
0.149 GC
2 setlinecap
1 LJ
0.667 LW
N
73 125.187 M
68.66 125.187 L
S
GR
GS
[0.75 0 0 0.75 0 0] CT
0.149 GC
2 setlinecap
1 LJ
0.667 LW
N
73 117.52 M
68.66 117.52 L
S
GR
GS
[0.75 0 0 0.75 0 0] CT
0.149 GC
2 setlinecap
1 LJ
0.667 LW
N
73 110 M
68.66 110 L
S
GR
GS
[0.75 0 0 0.75 0 0] CT
0.149 GC
2 setlinecap
1 LJ
0.667 LW
N
73 102.62 M
68.66 102.62 L
S
GR
GS
[0.75 0 0 0.75 0 0] CT
0.149 GC
2 setlinecap
1 LJ
0.667 LW
N
73 88.261 M
68.66 88.261 L
S
GR
GS
[0.75 0 0 0.75 0 0] CT
0.149 GC
2 setlinecap
1 LJ
0.667 LW
N
73 81.273 M
68.66 81.273 L
S
GR
GS
[0.75 0 0 0.75 0 0] CT
0.149 GC
2 setlinecap
1 LJ
0.667 LW
N
73 74.407 M
68.66 74.407 L
S
GR
GS
[0.75 0 0 0.75 0 0] CT
0.149 GC
2 setlinecap
1 LJ
0.667 LW
N
73 67.658 M
68.66 67.658 L
S
GR
GS
[0.75 0 0 0.75 0 0] CT
0.149 GC
2 setlinecap
1 LJ
0.667 LW
N
73 54.496 M
68.66 54.496 L
S
GR
GS
[0.75 0 0 0.75 0 0] CT
0.149 GC
2 setlinecap
1 LJ
0.667 LW
N
73 48.076 M
68.66 48.076 L
S
GR
GS
[0.75 0 0 0.75 0 0] CT
0.149 GC
2 setlinecap
1 LJ
0.667 LW
N
73 41.759 M
68.66 41.759 L
S
GR
GS
[0.75 0 0 0.75 0 0] CT
0.149 GC
2 setlinecap
1 LJ
0.667 LW
N
73 35.541 M
68.66 35.541 L
S
GR
GS
[0.75 0 0 0.75 44.24 251.01482] CT
0.149 GC
/Helvetica 13.333 F
GS
[1 0 0 1 0 0] CT
-8 5.5 moveto 
1 -1 scale
(3) t 
GR
GR
GS
[0.75 0 0 0.75 44.24 205.36919] CT
0.149 GC
/Helvetica 13.333 F
GS
[1 0 0 1 0 0] CT
-19 5.5 moveto 
1 -1 scale
(3.5) t 
GR
GR
GS
[0.75 0 0 0.75 44.24 165.82911] CT
0.149 GC
/Helvetica 13.333 F
GS
[1 0 0 1 0 0] CT
-8 5.5 moveto 
1 -1 scale
(4) t 
GR
GR
GS
[0.75 0 0 0.75 44.24 130.95232] CT
0.149 GC
/Helvetica 13.333 F
GS
[1 0 0 1 0 0] CT
-19 5.5 moveto 
1 -1 scale
(4.5) t 
GR
GR
GS
[0.75 0 0 0.75 44.24 99.75396] CT
0.149 GC
/Helvetica 13.333 F
GS
[1 0 0 1 0 0] CT
-8 5.5 moveto 
1 -1 scale
(5) t 
GR
GR
GS
[0.75 0 0 0.75 44.24 71.5316] CT
0.149 GC
/Helvetica 13.333 F
GS
[1 0 0 1 0 0] CT
-19 5.5 moveto 
1 -1 scale
(5.5) t 
GR
GR
GS
[0.75 0 0 0.75 44.24 45.76661] CT
0.149 GC
/Helvetica 13.333 F
GS
[1 0 0 1 0 0] CT
-8 5.5 moveto 
1 -1 scale
(6) t 
GR
GR
GS
[0.75 0 0 0.75 61.48099 23.25] CT
0 0.447 0.741 RC
10.0 ML
N
-5.657 -5.657 M
5.657 5.657 L
-5.657 5.657 M
5.657 -5.657 L
S
GR
GS
[0.75 0 0 0.75 62.42699 270.17773] CT
0 0.447 0.741 RC
10.0 ML
N
-5.657 -5.657 M
5.657 5.657 L
-5.657 5.657 M
5.657 -5.657 L
S
GR
GS
[0.75 0 0 0.75 64.18748 270.36296] CT
0 0.447 0.741 RC
10.0 ML
N
-5.657 -5.657 M
5.657 5.657 L
-5.657 5.657 M
5.657 -5.657 L
S
GR
GS
[0.75 0 0 0.75 70.73999 270.65144] CT
0 0.447 0.741 RC
10.0 ML
N
-5.657 -5.657 M
5.657 5.657 L
-5.657 5.657 M
5.657 -5.657 L
S
GR
GS
[0.75 0 0 0.75 84.17221 271.03374] CT
0 0.447 0.741 RC
10.0 ML
N
-5.657 -5.657 M
5.657 5.657 L
-5.657 5.657 M
5.657 -5.657 L
S
GR
GS
[0.75 0 0 0.75 102.85636 271.49226] CT
0 0.447 0.741 RC
10.0 ML
N
-5.657 -5.657 M
5.657 5.657 L
-5.657 5.657 M
5.657 -5.657 L
S
GR
GS
[0.75 0 0 0.75 123.38277 272.00745] CT
0 0.447 0.741 RC
10.0 ML
N
-5.657 -5.657 M
5.657 5.657 L
-5.657 5.657 M
5.657 -5.657 L
S
GR
GS
[0.75 0 0 0.75 143.30333 272.55956] CT
0 0.447 0.741 RC
10.0 ML
N
-5.657 -5.657 M
5.657 5.657 L
-5.657 5.657 M
5.657 -5.657 L
S
GR
GS
[0.75 0 0 0.75 161.54173 273.13017] CT
0 0.447 0.741 RC
10.0 ML
N
-5.657 -5.657 M
5.657 5.657 L
-5.657 5.657 M
5.657 -5.657 L
S
GR
GS
[0.75 0 0 0.75 177.81948 273.7031] CT
0 0.447 0.741 RC
10.0 ML
N
-5.657 -5.657 M
5.657 5.657 L
-5.657 5.657 M
5.657 -5.657 L
S
GR
GS
[0.75 0 0 0.75 192.19947 274.26498] CT
0 0.447 0.741 RC
10.0 ML
N
-5.657 -5.657 M
5.657 5.657 L
-5.657 5.657 M
5.657 -5.657 L
S
GR
GS
[0.75 0 0 0.75 204.8627 274.80549] CT
0 0.447 0.741 RC
10.0 ML
N
-5.657 -5.657 M
5.657 5.657 L
-5.657 5.657 M
5.657 -5.657 L
S
GR
GS
[0.75 0 0 0.75 216.01538 275.31722] CT
0 0.447 0.741 RC
10.0 ML
N
-5.657 -5.657 M
5.657 5.657 L
-5.657 5.657 M
5.657 -5.657 L
S
GR
GS
[0.75 0 0 0.75 225.85398 275.79536] CT
0 0.447 0.741 RC
10.0 ML
N
-5.657 -5.657 M
5.657 5.657 L
-5.657 5.657 M
5.657 -5.657 L
S
GR
GS
[0.75 0 0 0.75 234.55408 276.23726] CT
0 0.447 0.741 RC
10.0 ML
N
-5.657 -5.657 M
5.657 5.657 L
-5.657 5.657 M
5.657 -5.657 L
S
GR
GS
[0.75 0 0 0.75 242.26833 276.64206] CT
0 0.447 0.741 RC
10.0 ML
N
-5.657 -5.657 M
5.657 5.657 L
-5.657 5.657 M
5.657 -5.657 L
S
GR
GS
[0.75 0 0 0.75 249.1279 277.01017] CT
0 0.447 0.741 RC
10.0 ML
N
-5.657 -5.657 M
5.657 5.657 L
-5.657 5.657 M
5.657 -5.657 L
S
GR
GS
[0.75 0 0 0.75 255.24506 277.34301] CT
0 0.447 0.741 RC
10.0 ML
N
-5.657 -5.657 M
5.657 5.657 L
-5.657 5.657 M
5.657 -5.657 L
S
GR
GS
[0.75 0 0 0.75 260.71577 277.64255] CT
0 0.447 0.741 RC
10.0 ML
N
-5.657 -5.657 M
5.657 5.657 L
-5.657 5.657 M
5.657 -5.657 L
S
GR
GS
[0.75 0 0 0.75 265.62227 277.91116] CT
0 0.447 0.741 RC
10.0 ML
N
-5.657 -5.657 M
5.657 5.657 L
-5.657 5.657 M
5.657 -5.657 L
S
GR
GS
[0.75 0 0 0.75 270.03488 278.1514] CT
0 0.447 0.741 RC
10.0 ML
N
-5.657 -5.657 M
5.657 5.657 L
-5.657 5.657 M
5.657 -5.657 L
S
GR
GS
[0.75 0 0 0.75 274.01413 278.36581] CT
0 0.447 0.741 RC
10.0 ML
N
-5.657 -5.657 M
5.657 5.657 L
-5.657 5.657 M
5.657 -5.657 L
S
GR
GS
[0.75 0 0 0.75 277.61222 278.55698] CT
0 0.447 0.741 RC
10.0 ML
N
-5.657 -5.657 M
5.657 5.657 L
-5.657 5.657 M
5.657 -5.657 L
S
GR
GS
[0.75 0 0 0.75 280.87408 278.72726] CT
0 0.447 0.741 RC
10.0 ML
N
-5.657 -5.657 M
5.657 5.657 L
-5.657 5.657 M
5.657 -5.657 L
S
GR
GS
[0.75 0 0 0.75 283.83872 278.8789] CT
0 0.447 0.741 RC
10.0 ML
N
-5.657 -5.657 M
5.657 5.657 L
-5.657 5.657 M
5.657 -5.657 L
S
GR
GS
[0.75 0 0 0.75 286.53999 279.01396] CT
0 0.447 0.741 RC
10.0 ML
N
-5.657 -5.657 M
5.657 5.657 L
-5.657 5.657 M
5.657 -5.657 L
S
GR
GS
[0.75 0 0 0.75 289.00731 279.13431] CT
0 0.447 0.741 RC
10.0 ML
N
-5.657 -5.657 M
5.657 5.657 L
-5.657 5.657 M
5.657 -5.657 L
S
GR
GS
[0.75 0 0 0.75 291.26646 279.24163] CT
0 0.447 0.741 RC
10.0 ML
N
-5.657 -5.657 M
5.657 5.657 L
-5.657 5.657 M
5.657 -5.657 L
S
GR
GS
[0.75 0 0 0.75 293.33988 279.33744] CT
0 0.447 0.741 RC
10.0 ML
N
-5.657 -5.657 M
5.657 5.657 L
-5.657 5.657 M
5.657 -5.657 L
S
GR
GS
[0.75 0 0 0.75 295.24736 279.42307] CT
0 0.447 0.741 RC
10.0 ML
N
-5.657 -5.657 M
5.657 5.657 L
-5.657 5.657 M
5.657 -5.657 L
S
GR
GS
[0.75 0 0 0.75 297.00623 279.49969] CT
0 0.447 0.741 RC
10.0 ML
N
-5.657 -5.657 M
5.657 5.657 L
-5.657 5.657 M
5.657 -5.657 L
S
GR
GS
[0.75 0 0 0.75 298.63181 279.56838] CT
0 0.447 0.741 RC
10.0 ML
N
-5.657 -5.657 M
5.657 5.657 L
-5.657 5.657 M
5.657 -5.657 L
S
GR
GS
[0.75 0 0 0.75 300.13763 279.63009] CT
0 0.447 0.741 RC
10.0 ML
N
-5.657 -5.657 M
5.657 5.657 L
-5.657 5.657 M
5.657 -5.657 L
S
GR
GS
[0.75 0 0 0.75 301.53571 279.68557] CT
0 0.447 0.741 RC
10.0 ML
N
-5.657 -5.657 M
5.657 5.657 L
-5.657 5.657 M
5.657 -5.657 L
S
GR
GS
[0.75 0 0 0.75 302.83665 279.7356] CT
0 0.447 0.741 RC
10.0 ML
N
-5.657 -5.657 M
5.657 5.657 L
-5.657 5.657 M
5.657 -5.657 L
S
GR
GS
[0.75 0 0 0.75 304.05002 279.78078] CT
0 0.447 0.741 RC
10.0 ML
N
-5.657 -5.657 M
5.657 5.657 L
-5.657 5.657 M
5.657 -5.657 L
S
GR
GS
[0.75 0 0 0.75 305.18422 279.82171] CT
0 0.447 0.741 RC
10.0 ML
N
-5.657 -5.657 M
5.657 5.657 L
-5.657 5.657 M
5.657 -5.657 L
S
GR
GS
[0.75 0 0 0.75 306.24687 279.85881] CT
0 0.447 0.741 RC
10.0 ML
N
-5.657 -5.657 M
5.657 5.657 L
-5.657 5.657 M
5.657 -5.657 L
S
GR
GS
[0.75 0 0 0.75 307.24477 279.89257] CT
0 0.447 0.741 RC
10.0 ML
N
-5.657 -5.657 M
5.657 5.657 L
-5.657 5.657 M
5.657 -5.657 L
S
GR
GS
[0.75 0 0 0.75 308.18404 279.92333] CT
0 0.447 0.741 RC
10.0 ML
N
-5.657 -5.657 M
5.657 5.657 L
-5.657 5.657 M
5.657 -5.657 L
S
GR
GS
[0.75 0 0 0.75 309.07018 279.95146] CT
0 0.447 0.741 RC
10.0 ML
N
-5.657 -5.657 M
5.657 5.657 L
-5.657 5.657 M
5.657 -5.657 L
S
GR
GS
[0.75 0 0 0.75 309.90813 279.97721] CT
0 0.447 0.741 RC
10.0 ML
N
-5.657 -5.657 M
5.657 5.657 L
-5.657 5.657 M
5.657 -5.657 L
S
GR
GS
[0.75 0 0 0.75 310.70245 280.00088] CT
0 0.447 0.741 RC
10.0 ML
N
-5.657 -5.657 M
5.657 5.657 L
-5.657 5.657 M
5.657 -5.657 L
S
GR
GS
[0.75 0 0 0.75 311.45721 280.02269] CT
0 0.447 0.741 RC
10.0 ML
N
-5.657 -5.657 M
5.657 5.657 L
-5.657 5.657 M
5.657 -5.657 L
S
GR
GS
[0.75 0 0 0.75 312.17608 280.04283] CT
0 0.447 0.741 RC
10.0 ML
N
-5.657 -5.657 M
5.657 5.657 L
-5.657 5.657 M
5.657 -5.657 L
S
GR
GS
[0.75 0 0 0.75 312.8625 280.06146] CT
0 0.447 0.741 RC
10.0 ML
N
-5.657 -5.657 M
5.657 5.657 L
-5.657 5.657 M
5.657 -5.657 L
S
GR
GS
[0.75 0 0 0.75 313.51952 280.07879] CT
0 0.447 0.741 RC
10.0 ML
N
-5.657 -5.657 M
5.657 5.657 L
-5.657 5.657 M
5.657 -5.657 L
S
GR
GS
[0.75 0 0 0.75 314.15 280.09492] CT
0 0.447 0.741 RC
10.0 ML
N
-5.657 -5.657 M
5.657 5.657 L
-5.657 5.657 M
5.657 -5.657 L
S
GR
GS
[0.75 0 0 0.75 314.75652 280.10999] CT
0 0.447 0.741 RC
10.0 ML
N
-5.657 -5.657 M
5.657 5.657 L
-5.657 5.657 M
5.657 -5.657 L
S
GR
GS
[0.75 0 0 0.75 315.34145 280.12411] CT
0 0.447 0.741 RC
10.0 ML
N
-5.657 -5.657 M
5.657 5.657 L
-5.657 5.657 M
5.657 -5.657 L
S
GR
GS
[0.75 0 0 0.75 315.90699 280.13736] CT
0 0.447 0.741 RC
10.0 ML
N
-5.657 -5.657 M
5.657 5.657 L
-5.657 5.657 M
5.657 -5.657 L
S
GR
GS
[0.75 0 0 0.75 316.45516 280.14988] CT
0 0.447 0.741 RC
10.0 ML
N
-5.657 -5.657 M
5.657 5.657 L
-5.657 5.657 M
5.657 -5.657 L
S
GR
GS
[0.75 0 0 0.75 316.98786 280.16169] CT
0 0.447 0.741 RC
10.0 ML
N
-5.657 -5.657 M
5.657 5.657 L
-5.657 5.657 M
5.657 -5.657 L
S
GR
GS
[0.75 0 0 0.75 317.50678 280.17288] CT
0 0.447 0.741 RC
10.0 ML
N
-5.657 -5.657 M
5.657 5.657 L
-5.657 5.657 M
5.657 -5.657 L
S
GR
GS
[0.75 0 0 0.75 318.01353 280.18353] CT
0 0.447 0.741 RC
10.0 ML
N
-5.657 -5.657 M
5.657 5.657 L
-5.657 5.657 M
5.657 -5.657 L
S
GR
GS
[0.75 0 0 0.75 318.50961 280.19369] CT
0 0.447 0.741 RC
10.0 ML
N
-5.657 -5.657 M
5.657 5.657 L
-5.657 5.657 M
5.657 -5.657 L
S
GR
GS
[0.75 0 0 0.75 318.99639 280.20339] CT
0 0.447 0.741 RC
10.0 ML
N
-5.657 -5.657 M
5.657 5.657 L
-5.657 5.657 M
5.657 -5.657 L
S
GR
GS
[0.75 0 0 0.75 319.47517 280.21271] CT
0 0.447 0.741 RC
10.0 ML
N
-5.657 -5.657 M
5.657 5.657 L
-5.657 5.657 M
5.657 -5.657 L
S
GR
GS
[0.75 0 0 0.75 319.94717 280.22166] CT
0 0.447 0.741 RC
10.0 ML
N
-5.657 -5.657 M
5.657 5.657 L
-5.657 5.657 M
5.657 -5.657 L
S
GR
GS
[0.75 0 0 0.75 320.41351 280.23029] CT
0 0.447 0.741 RC
10.0 ML
N
-5.657 -5.657 M
5.657 5.657 L
-5.657 5.657 M
5.657 -5.657 L
S
GR
GS
[0.75 0 0 0.75 320.87519 280.23862] CT
0 0.447 0.741 RC
10.0 ML
N
-5.657 -5.657 M
5.657 5.657 L
-5.657 5.657 M
5.657 -5.657 L
S
GR
GS
[0.75 0 0 0.75 321.33325 280.2467] CT
0 0.447 0.741 RC
10.0 ML
N
-5.657 -5.657 M
5.657 5.657 L
-5.657 5.657 M
5.657 -5.657 L
S
GR
GS
[0.75 0 0 0.75 321.78861 280.25455] CT
0 0.447 0.741 RC
10.0 ML
N
-5.657 -5.657 M
5.657 5.657 L
-5.657 5.657 M
5.657 -5.657 L
S
GR
GS
[0.75 0 0 0.75 322.24212 280.26219] CT
0 0.447 0.741 RC
10.0 ML
N
-5.657 -5.657 M
5.657 5.657 L
-5.657 5.657 M
5.657 -5.657 L
S
GR
GS
[0.75 0 0 0.75 322.6946 280.26965] CT
0 0.447 0.741 RC
10.0 ML
N
-5.657 -5.657 M
5.657 5.657 L
-5.657 5.657 M
5.657 -5.657 L
S
GR
GS
[0.75 0 0 0.75 323.14677 280.27695] CT
0 0.447 0.741 RC
10.0 ML
N
-5.657 -5.657 M
5.657 5.657 L
-5.657 5.657 M
5.657 -5.657 L
S
GR
GS
[0.75 0 0 0.75 323.59941 280.2841] CT
0 0.447 0.741 RC
10.0 ML
N
-5.657 -5.657 M
5.657 5.657 L
-5.657 5.657 M
5.657 -5.657 L
S
GR
GS
[0.75 0 0 0.75 324.05315 280.29112] CT
0 0.447 0.741 RC
10.0 ML
N
-5.657 -5.657 M
5.657 5.657 L
-5.657 5.657 M
5.657 -5.657 L
S
GR
GS
[0.75 0 0 0.75 324.50864 280.29803] CT
0 0.447 0.741 RC
10.0 ML
N
-5.657 -5.657 M
5.657 5.657 L
-5.657 5.657 M
5.657 -5.657 L
S
GR
GS
[0.75 0 0 0.75 324.96648 280.30483] CT
0 0.447 0.741 RC
10.0 ML
N
-5.657 -5.657 M
5.657 5.657 L
-5.657 5.657 M
5.657 -5.657 L
S
GR
GS
[0.75 0 0 0.75 325.42717 280.31156] CT
0 0.447 0.741 RC
10.0 ML
N
-5.657 -5.657 M
5.657 5.657 L
-5.657 5.657 M
5.657 -5.657 L
S
GR
GS
[0.75 0 0 0.75 325.8913 280.3182] CT
0 0.447 0.741 RC
10.0 ML
N
-5.657 -5.657 M
5.657 5.657 L
-5.657 5.657 M
5.657 -5.657 L
S
GR
GS
[0.75 0 0 0.75 326.35931 280.32479] CT
0 0.447 0.741 RC
10.0 ML
N
-5.657 -5.657 M
5.657 5.657 L
-5.657 5.657 M
5.657 -5.657 L
S
GR
GS
[0.75 0 0 0.75 326.83173 280.33131] CT
0 0.447 0.741 RC
10.0 ML
N
-5.657 -5.657 M
5.657 5.657 L
-5.657 5.657 M
5.657 -5.657 L
S
GR
GS
[0.75 0 0 0.75 327.3089 280.33779] CT
0 0.447 0.741 RC
10.0 ML
N
-5.657 -5.657 M
5.657 5.657 L
-5.657 5.657 M
5.657 -5.657 L
S
GR
GS
[0.75 0 0 0.75 327.79127 280.34422] CT
0 0.447 0.741 RC
10.0 ML
N
-5.657 -5.657 M
5.657 5.657 L
-5.657 5.657 M
5.657 -5.657 L
S
GR
GS
[0.75 0 0 0.75 328.2792 280.35063] CT
0 0.447 0.741 RC
10.0 ML
N
-5.657 -5.657 M
5.657 5.657 L
-5.657 5.657 M
5.657 -5.657 L
S
GR
GS
[0.75 0 0 0.75 328.77303 280.35702] CT
0 0.447 0.741 RC
10.0 ML
N
-5.657 -5.657 M
5.657 5.657 L
-5.657 5.657 M
5.657 -5.657 L
S
GR
GS
[0.75 0 0 0.75 329.27309 280.36338] CT
0 0.447 0.741 RC
10.0 ML
N
-5.657 -5.657 M
5.657 5.657 L
-5.657 5.657 M
5.657 -5.657 L
S
GR
GS
[0.75 0 0 0.75 329.7797 280.36972] CT
0 0.447 0.741 RC
10.0 ML
N
-5.657 -5.657 M
5.657 5.657 L
-5.657 5.657 M
5.657 -5.657 L
S
GR
GS
[0.75 0 0 0.75 330.29308 280.37606] CT
0 0.447 0.741 RC
10.0 ML
N
-5.657 -5.657 M
5.657 5.657 L
-5.657 5.657 M
5.657 -5.657 L
S
GR
GS
[0.75 0 0 0.75 330.81354 280.3824] CT
0 0.447 0.741 RC
10.0 ML
N
-5.657 -5.657 M
5.657 5.657 L
-5.657 5.657 M
5.657 -5.657 L
S
GR
GS
[0.75 0 0 0.75 331.34125 280.38876] CT
0 0.447 0.741 RC
10.0 ML
N
-5.657 -5.657 M
5.657 5.657 L
-5.657 5.657 M
5.657 -5.657 L
S
GR
GS
[0.75 0 0 0.75 331.87646 280.3951] CT
0 0.447 0.741 RC
10.0 ML
N
-5.657 -5.657 M
5.657 5.657 L
-5.657 5.657 M
5.657 -5.657 L
S
GR
GS
[0.75 0 0 0.75 332.41937 280.40147] CT
0 0.447 0.741 RC
10.0 ML
N
-5.657 -5.657 M
5.657 5.657 L
-5.657 5.657 M
5.657 -5.657 L
S
GR
GS
[0.75 0 0 0.75 332.97011 280.40783] CT
0 0.447 0.741 RC
10.0 ML
N
-5.657 -5.657 M
5.657 5.657 L
-5.657 5.657 M
5.657 -5.657 L
S
GR
GS
[0.75 0 0 0.75 333.52885 280.41424] CT
0 0.447 0.741 RC
10.0 ML
N
-5.657 -5.657 M
5.657 5.657 L
-5.657 5.657 M
5.657 -5.657 L
S
GR
GS
[0.75 0 0 0.75 334.0957 280.42065] CT
0 0.447 0.741 RC
10.0 ML
N
-5.657 -5.657 M
5.657 5.657 L
-5.657 5.657 M
5.657 -5.657 L
S
GR
GS
[0.75 0 0 0.75 334.67079 280.42708] CT
0 0.447 0.741 RC
10.0 ML
N
-5.657 -5.657 M
5.657 5.657 L
-5.657 5.657 M
5.657 -5.657 L
S
GR
GS
[0.75 0 0 0.75 335.25421 280.43353] CT
0 0.447 0.741 RC
10.0 ML
N
-5.657 -5.657 M
5.657 5.657 L
-5.657 5.657 M
5.657 -5.657 L
S
GR
GS
[0.75 0 0 0.75 335.84603 280.44003] CT
0 0.447 0.741 RC
10.0 ML
N
-5.657 -5.657 M
5.657 5.657 L
-5.657 5.657 M
5.657 -5.657 L
S
GR
GS
[0.75 0 0 0.75 336.44632 280.44653] CT
0 0.447 0.741 RC
10.0 ML
N
-5.657 -5.657 M
5.657 5.657 L
-5.657 5.657 M
5.657 -5.657 L
S
GR
GS
[0.75 0 0 0.75 337.05512 280.4531] CT
0 0.447 0.741 RC
10.0 ML
N
-5.657 -5.657 M
5.657 5.657 L
-5.657 5.657 M
5.657 -5.657 L
S
GR
GS
[0.75 0 0 0.75 337.67249 280.45967] CT
0 0.447 0.741 RC
10.0 ML
N
-5.657 -5.657 M
5.657 5.657 L
-5.657 5.657 M
5.657 -5.657 L
S
GR
GS
[0.75 0 0 0.75 338.29839 280.46631] CT
0 0.447 0.741 RC
10.0 ML
N
-5.657 -5.657 M
5.657 5.657 L
-5.657 5.657 M
5.657 -5.657 L
S
GR
GS
[0.75 0 0 0.75 338.93285 280.47295] CT
0 0.447 0.741 RC
10.0 ML
N
-5.657 -5.657 M
5.657 5.657 L
-5.657 5.657 M
5.657 -5.657 L
S
GR
GS
[0.75 0 0 0.75 339.57584 280.47965] CT
0 0.447 0.741 RC
10.0 ML
N
-5.657 -5.657 M
5.657 5.657 L
-5.657 5.657 M
5.657 -5.657 L
S
GR
GS
[0.75 0 0 0.75 340.22738 280.4864] CT
0 0.447 0.741 RC
10.0 ML
N
-5.657 -5.657 M
5.657 5.657 L
-5.657 5.657 M
5.657 -5.657 L
S
GR
GS
[0.75 0 0 0.75 340.88741 280.49318] CT
0 0.447 0.741 RC
10.0 ML
N
-5.657 -5.657 M
5.657 5.657 L
-5.657 5.657 M
5.657 -5.657 L
S
GR
GS
[0.75 0 0 0.75 341.55585 280.5] CT
0 0.447 0.741 RC
10.0 ML
N
-5.657 -5.657 M
5.657 5.657 L
-5.657 5.657 M
5.657 -5.657 L
S
GR
GS
[0.75 0 0 0.75 0 0] CT
1 GC
N
496 60 M
496 42 L
382 42 L
382 60 L
cp
f
GR
GS
[0.75 0 0 0.75 321.66728 38.25] CT
N
3.719 5.864 M
3.047 5.333 2.57 4.646 QT
2.094 3.958 1.781 3.185 QT
1.469 2.411 1.32 1.567 QT
1.172 0.724 1.172 -0.12 QT
1.172 -0.979 1.32 -1.823 QT
1.469 -2.667 1.781 -3.448 QT
2.094 -4.229 2.586 -4.909 QT
3.078 -5.589 3.719 -6.104 QT
3.719 -6.12 3.781 -6.12 QT
3.891 -6.12 L
3.922 -6.12 3.953 -6.089 QT
3.984 -6.058 3.984 -6.011 QT
3.984 -5.964 3.969 -5.933 QT
3.375 -5.37 2.984 -4.714 QT
2.594 -4.058 2.359 -3.315 QT
2.125 -2.573 2.016 -1.776 QT
1.906 -0.979 1.906 -0.12 QT
1.906 3.692 3.953 5.677 QT
3.984 5.708 3.984 5.771 QT
3.984 5.802 3.953 5.841 QT
3.922 5.88 3.891 5.88 QT
3.781 5.88 L
3.719 5.88 3.719 5.864 QT
cp
f
GR
GS
[0.75 0 0 0.75 321.66728 38.25] CT
N
6.76 3.021 M
5.995 3.021 5.557 2.442 QT
5.12 1.864 5.12 1.099 QT
5.12 0.317 5.518 -0.503 QT
5.917 -1.323 6.596 -1.87 QT
7.276 -2.417 8.057 -2.417 QT
8.401 -2.417 8.69 -2.222 QT
8.979 -2.026 9.135 -1.698 QT
9.807 -4.386 L
9.854 -4.589 9.87 -4.698 QT
9.87 -4.901 9.089 -4.901 QT
8.964 -4.901 8.964 -5.058 QT
8.964 -5.089 8.987 -5.159 QT
9.01 -5.229 9.042 -5.276 QT
9.073 -5.323 9.135 -5.323 QT
10.745 -5.448 L
10.901 -5.448 10.901 -5.292 QT
9.167 1.614 L
9.089 1.802 9.089 2.177 QT
9.089 2.692 9.432 2.692 QT
9.807 2.692 10.003 2.216 QT
10.198 1.739 10.339 1.114 QT
10.354 1.052 10.432 1.052 QT
10.573 1.052 L
10.62 1.052 10.651 1.091 QT
10.682 1.13 10.682 1.161 QT
10.464 2.005 10.214 2.513 QT
9.964 3.021 9.401 3.021 QT
9.01 3.021 8.698 2.778 QT
8.385 2.536 8.307 2.146 QT
7.526 3.021 6.76 3.021 QT
cp
6.76 2.692 M
7.198 2.692 7.604 2.372 QT
8.01 2.052 8.307 1.614 QT
8.323 1.599 8.323 1.567 QT
8.979 -1.089 L
8.901 -1.511 8.659 -1.815 QT
8.417 -2.12 8.026 -2.12 QT
7.62 -2.12 7.268 -1.784 QT
6.917 -1.448 6.682 -0.995 QT
6.448 -0.526 6.237 0.317 QT
6.026 1.161 6.026 1.614 QT
6.026 2.036 6.206 2.364 QT
6.385 2.692 6.76 2.692 QT
cp
f
GR
GS
[0.75 0 0 0.75 321.66728 38.25] CT
N
14.631 5.864 M
13.959 5.333 13.483 4.646 QT
13.006 3.958 12.694 3.185 QT
12.381 2.411 12.233 1.567 QT
12.084 0.724 12.084 -0.12 QT
12.084 -0.979 12.233 -1.823 QT
12.381 -2.667 12.694 -3.448 QT
13.006 -4.229 13.498 -4.909 QT
13.991 -5.589 14.631 -6.104 QT
14.631 -6.12 14.694 -6.12 QT
14.803 -6.12 L
14.834 -6.12 14.866 -6.089 QT
14.897 -6.058 14.897 -6.011 QT
14.897 -5.964 14.881 -5.933 QT
14.288 -5.37 13.897 -4.714 QT
13.506 -4.058 13.272 -3.315 QT
13.038 -2.573 12.928 -1.776 QT
12.819 -0.979 12.819 -0.12 QT
12.819 3.692 14.866 5.677 QT
14.897 5.708 14.897 5.771 QT
14.897 5.802 14.866 5.841 QT
14.834 5.88 14.803 5.88 QT
14.694 5.88 L
14.631 5.88 14.631 5.864 QT
cp
f
GR
GS
[0.75 0 0 0.75 321.66728 38.25] CT
N
18.001 3.021 M
17.423 3.021 16.985 2.747 QT
16.548 2.474 16.306 2.021 QT
16.064 1.567 16.064 0.974 QT
16.064 0.161 16.517 -0.636 QT
16.97 -1.433 17.72 -1.925 QT
18.47 -2.417 19.298 -2.417 QT
19.907 -2.417 20.368 -2.104 QT
20.829 -1.792 21.071 -1.261 QT
21.314 -0.729 21.314 -0.12 QT
21.329 0.677 L
21.735 0.114 22.025 -0.495 QT
22.314 -1.104 22.454 -1.761 QT
22.485 -1.839 22.548 -1.839 QT
22.689 -1.839 L
22.798 -1.839 22.798 -1.729 QT
22.798 -1.714 22.798 -1.698 QT
22.657 -1.136 22.446 -0.628 QT
22.235 -0.12 21.946 0.349 QT
21.657 0.817 21.329 1.208 QT
21.329 2.692 21.673 2.692 QT
21.892 2.692 22.04 2.56 QT
22.189 2.427 22.298 2.239 QT
22.407 2.052 22.423 2.036 QT
22.579 2.036 L
22.673 2.036 22.673 2.161 QT
22.673 2.458 22.329 2.739 QT
21.985 3.021 21.657 3.021 QT
21.22 3.021 20.931 2.739 QT
20.642 2.458 20.532 2.005 QT
19.97 2.474 19.314 2.747 QT
18.657 3.021 18.001 3.021 QT
cp
18.017 2.692 M
19.298 2.692 20.485 1.646 QT
20.47 1.567 20.462 1.466 QT
20.454 1.364 20.454 1.349 QT
20.454 0.067 L
20.454 -2.12 19.282 -2.12 QT
18.579 -2.12 18.048 -1.518 QT
17.517 -0.917 17.251 -0.081 QT
16.985 0.755 16.985 1.442 QT
16.985 1.974 17.251 2.333 QT
17.517 2.692 18.017 2.692 QT
cp
f
GR
GS
[0.75 0 0 0.75 321.66728 38.25] CT
N
24.081 5.88 M
23.972 5.88 23.972 5.771 QT
23.972 5.724 24.003 5.692 QT
26.05 3.692 26.05 -0.12 QT
26.05 -3.933 24.019 -5.917 QT
23.972 -5.948 23.972 -6.011 QT
23.972 -6.058 24.003 -6.089 QT
24.034 -6.12 24.081 -6.12 QT
24.191 -6.12 L
24.222 -6.12 24.253 -6.104 QT
25.113 -5.417 25.683 -4.448 QT
26.253 -3.479 26.527 -2.378 QT
26.8 -1.276 26.8 -0.12 QT
26.8 0.724 26.652 1.552 QT
26.503 2.38 26.191 3.177 QT
25.878 3.974 25.402 4.653 QT
24.925 5.333 24.253 5.864 QT
24.222 5.88 24.191 5.88 QT
24.081 5.88 L
cp
f
GR
GS
[0.75 0 0 0.75 321.66728 38.25] CT
N
29.154 5.036 M
29.154 4.989 29.201 4.942 QT
29.639 4.521 29.881 3.982 QT
30.123 3.442 30.123 2.833 QT
30.123 2.692 L
29.92 2.88 29.639 2.88 QT
29.357 2.88 29.17 2.685 QT
28.982 2.489 28.982 2.224 QT
28.982 1.942 29.17 1.755 QT
29.357 1.567 29.639 1.567 QT
30.06 1.567 30.248 1.958 QT
30.435 2.349 30.435 2.833 QT
30.435 3.505 30.162 4.107 QT
29.889 4.708 29.404 5.177 QT
29.357 5.208 29.326 5.208 QT
29.279 5.208 29.217 5.153 QT
29.154 5.099 29.154 5.036 QT
cp
f
GR
GS
[0.75 0 0 0.75 321.66728 38.25] CT
N
36.159 5.224 M
36.722 2.989 L
36.206 2.989 35.714 2.794 QT
35.222 2.599 34.917 2.216 QT
34.613 1.833 34.613 1.286 QT
34.613 0.974 34.73 0.575 QT
34.847 0.177 34.972 -0.159 QT
35.097 -0.495 35.3 -1.042 QT
35.456 -1.479 35.456 -1.761 QT
35.456 -2.12 35.206 -2.12 QT
34.722 -2.12 34.417 -1.628 QT
34.113 -1.136 33.956 -0.526 QT
33.941 -0.448 33.863 -0.448 QT
33.722 -0.448 L
33.628 -0.448 33.628 -0.573 QT
33.628 -0.604 L
33.816 -1.323 34.214 -1.87 QT
34.613 -2.417 35.222 -2.417 QT
35.644 -2.417 35.941 -2.136 QT
36.238 -1.854 36.238 -1.433 QT
36.238 -1.198 36.144 -0.964 QT
35.925 -0.417 35.808 -0.097 QT
35.691 0.224 35.573 0.638 QT
35.456 1.052 35.456 1.364 QT
35.456 1.958 35.823 2.278 QT
36.191 2.599 36.8 2.677 QT
38.816 -5.37 L
38.831 -5.448 38.909 -5.448 QT
39.05 -5.448 L
39.144 -5.448 39.144 -5.323 QT
37.144 2.692 L
37.269 2.692 L
37.784 2.692 38.339 2.396 QT
38.894 2.099 39.355 1.614 QT
39.816 1.13 40.089 0.567 QT
40.363 0.005 40.363 -0.479 QT
40.363 -0.839 40.245 -1.042 QT
40.128 -1.245 39.941 -1.464 QT
39.753 -1.683 39.753 -1.808 QT
39.753 -2.042 39.941 -2.237 QT
40.128 -2.433 40.363 -2.433 QT
40.659 -2.433 40.784 -2.167 QT
40.909 -1.901 40.909 -1.573 QT
40.909 -1.229 40.839 -0.878 QT
40.769 -0.526 40.644 -0.042 QT
40.363 1.052 39.488 1.927 QT
39.191 2.224 38.831 2.474 QT
38.472 2.724 38.073 2.872 QT
37.675 3.021 37.269 3.021 QT
37.066 3.021 L
36.503 5.271 L
36.488 5.349 36.409 5.349 QT
36.269 5.349 L
36.222 5.349 36.191 5.31 QT
36.159 5.271 36.159 5.224 QT
cp
f
GR
GS
[0.75 0 0 0.75 321.66728 38.25] CT
N
45.266 5.864 M
44.594 5.333 44.118 4.646 QT
43.641 3.958 43.329 3.185 QT
43.016 2.411 42.868 1.567 QT
42.719 0.724 42.719 -0.12 QT
42.719 -0.979 42.868 -1.823 QT
43.016 -2.667 43.329 -3.448 QT
43.641 -4.229 44.133 -4.909 QT
44.625 -5.589 45.266 -6.104 QT
45.266 -6.12 45.329 -6.12 QT
45.438 -6.12 L
45.469 -6.12 45.5 -6.089 QT
45.532 -6.058 45.532 -6.011 QT
45.532 -5.964 45.516 -5.933 QT
44.922 -5.37 44.532 -4.714 QT
44.141 -4.058 43.907 -3.315 QT
43.672 -2.573 43.563 -1.776 QT
43.454 -0.979 43.454 -0.12 QT
43.454 3.692 45.5 5.677 QT
45.532 5.708 45.532 5.771 QT
45.532 5.802 45.5 5.841 QT
45.469 5.88 45.438 5.88 QT
45.329 5.88 L
45.266 5.88 45.266 5.864 QT
cp
f
GR
GS
[0.75 0 0 0.75 321.66728 38.25] CT
N
48.636 3.021 M
48.058 3.021 47.62 2.747 QT
47.183 2.474 46.94 2.021 QT
46.698 1.567 46.698 0.974 QT
46.698 0.161 47.151 -0.636 QT
47.605 -1.433 48.355 -1.925 QT
49.105 -2.417 49.933 -2.417 QT
50.542 -2.417 51.003 -2.104 QT
51.464 -1.792 51.706 -1.261 QT
51.948 -0.729 51.948 -0.12 QT
51.964 0.677 L
52.37 0.114 52.659 -0.495 QT
52.948 -1.104 53.089 -1.761 QT
53.12 -1.839 53.183 -1.839 QT
53.323 -1.839 L
53.433 -1.839 53.433 -1.729 QT
53.433 -1.714 53.433 -1.698 QT
53.292 -1.136 53.081 -0.628 QT
52.87 -0.12 52.581 0.349 QT
52.292 0.817 51.964 1.208 QT
51.964 2.692 52.308 2.692 QT
52.526 2.692 52.675 2.56 QT
52.823 2.427 52.933 2.239 QT
53.042 2.052 53.058 2.036 QT
53.214 2.036 L
53.308 2.036 53.308 2.161 QT
53.308 2.458 52.964 2.739 QT
52.62 3.021 52.292 3.021 QT
51.855 3.021 51.565 2.739 QT
51.276 2.458 51.167 2.005 QT
50.605 2.474 49.948 2.747 QT
49.292 3.021 48.636 3.021 QT
cp
48.651 2.692 M
49.933 2.692 51.12 1.646 QT
51.105 1.567 51.097 1.466 QT
51.089 1.364 51.089 1.349 QT
51.089 0.067 L
51.089 -2.12 49.917 -2.12 QT
49.214 -2.12 48.683 -1.518 QT
48.151 -0.917 47.886 -0.081 QT
47.62 0.755 47.62 1.442 QT
47.62 1.974 47.886 2.333 QT
48.151 2.692 48.651 2.692 QT
cp
f
GR
GS
[0.75 0 0 0.75 321.66728 38.25] CT
N
54.716 5.88 M
54.607 5.88 54.607 5.771 QT
54.607 5.724 54.638 5.692 QT
56.685 3.692 56.685 -0.12 QT
56.685 -3.933 54.654 -5.917 QT
54.607 -5.948 54.607 -6.011 QT
54.607 -6.058 54.638 -6.089 QT
54.669 -6.12 54.716 -6.12 QT
54.825 -6.12 L
54.857 -6.12 54.888 -6.104 QT
55.747 -5.417 56.318 -4.448 QT
56.888 -3.479 57.161 -2.378 QT
57.435 -1.276 57.435 -0.12 QT
57.435 0.724 57.286 1.552 QT
57.138 2.38 56.825 3.177 QT
56.513 3.974 56.036 4.653 QT
55.56 5.333 54.888 5.864 QT
54.857 5.88 54.825 5.88 QT
54.716 5.88 L
cp
f
GR
GS
[0.75 0 0 0.75 321.66728 38.25] CT
N
59.383 5.88 M
59.273 5.88 59.273 5.771 QT
59.273 5.724 59.305 5.692 QT
61.351 3.692 61.351 -0.12 QT
61.351 -3.933 59.32 -5.917 QT
59.273 -5.948 59.273 -6.011 QT
59.273 -6.058 59.305 -6.089 QT
59.336 -6.12 59.383 -6.12 QT
59.492 -6.12 L
59.523 -6.12 59.555 -6.104 QT
60.414 -5.417 60.984 -4.448 QT
61.555 -3.479 61.828 -2.378 QT
62.101 -1.276 62.101 -0.12 QT
62.101 0.724 61.953 1.552 QT
61.805 2.38 61.492 3.177 QT
61.18 3.974 60.703 4.653 QT
60.226 5.333 59.555 5.864 QT
59.523 5.88 59.492 5.88 QT
59.383 5.88 L
cp
f
GR
GS
[0.75 0 0 0.75 304.45777 38.25] CT
0 0.447 0.741 RC
10.0 ML
N
-5.657 -5.657 M
5.657 5.657 L
-5.657 5.657 M
5.657 -5.657 L
S
GR
GS
[0.75 0 0 0.75 0 0] CT
0.149 GC
10.0 ML
0.667 LW
N
382 60 M
382 42 L
496 42 L
496 60 L
cp
S
GR
%%Trailer
%%Pages: 1
%%EOF
