%!PS-Adobe-3.0 EPSF-3.0
%%Creator: (MATLAB, The Mathworks, Inc. Version 9.5.0.944444 \(R2018b\). Operating System: Windows 10)
%%Title: F:/Studium/__Bachelorarbeit/tex/images/tikhonov-undersmoothed-1E-7.eps
%%CreationDate: 2020-07-26T15:20:34
%%Pages: (atend)
%%BoundingBox: 0 0 420 315
%%LanguageLevel: 3
%%EndComments
%%BeginProlog
%%BeginResource: procset (Apache XML Graphics Std ProcSet) 1.2 0
%%Version: 1.2 0
%%Copyright: (Copyright 2001-2003,2010 The Apache Software Foundation. License terms: http://www.apache.org/licenses/LICENSE-2.0)
/bd{bind def}bind def
/ld{load def}bd
/GR/grestore ld
/GS/gsave ld
/RM/rmoveto ld
/C/curveto ld
/t/show ld
/L/lineto ld
/ML/setmiterlimit ld
/CT/concat ld
/f/fill ld
/N/newpath ld
/S/stroke ld
/CC/setcmykcolor ld
/A/ashow ld
/cp/closepath ld
/RC/setrgbcolor ld
/LJ/setlinejoin ld
/GC/setgray ld
/LW/setlinewidth ld
/M/moveto ld
/re {4 2 roll M
1 index 0 rlineto
0 exch rlineto
neg 0 rlineto
cp } bd
/_ctm matrix def
/_tm matrix def
/BT { _ctm currentmatrix pop matrix _tm copy pop 0 0 moveto } bd
/ET { _ctm setmatrix } bd
/iTm { _ctm setmatrix _tm concat } bd
/Tm { _tm astore pop iTm 0 0 moveto } bd
/ux 0.0 def
/uy 0.0 def
/F {
  /Tp exch def
  /Tf exch def
  Tf findfont Tp scalefont setfont
  /cf Tf def  /cs Tp def
} bd
/ULS {currentpoint /uy exch def /ux exch def} bd
/ULE {
  /Tcx currentpoint pop def
  gsave
  newpath
  cf findfont cs scalefont dup
  /FontMatrix get 0 get /Ts exch def /FontInfo get dup
  /UnderlinePosition get Ts mul /To exch def
  /UnderlineThickness get Ts mul /Tt exch def
  ux uy To add moveto  Tcx uy To add lineto
  Tt setlinewidth stroke
  grestore
} bd
/OLE {
  /Tcx currentpoint pop def
  gsave
  newpath
  cf findfont cs scalefont dup
  /FontMatrix get 0 get /Ts exch def /FontInfo get dup
  /UnderlinePosition get Ts mul /To exch def
  /UnderlineThickness get Ts mul /Tt exch def
  ux uy To add cs add moveto Tcx uy To add cs add lineto
  Tt setlinewidth stroke
  grestore
} bd
/SOE {
  /Tcx currentpoint pop def
  gsave
  newpath
  cf findfont cs scalefont dup
  /FontMatrix get 0 get /Ts exch def /FontInfo get dup
  /UnderlinePosition get Ts mul /To exch def
  /UnderlineThickness get Ts mul /Tt exch def
  ux uy To add cs 10 mul 26 idiv add moveto Tcx uy To add cs 10 mul 26 idiv add lineto
  Tt setlinewidth stroke
  grestore
} bd
/QT {
/Y22 exch store
/X22 exch store
/Y21 exch store
/X21 exch store
currentpoint
/Y21 load 2 mul add 3 div exch
/X21 load 2 mul add 3 div exch
/X21 load 2 mul /X22 load add 3 div
/Y21 load 2 mul /Y22 load add 3 div
/X22 load /Y22 load curveto
} bd
/SSPD {
dup length /d exch dict def
{
/v exch def
/k exch def
currentpagedevice k known {
/cpdv currentpagedevice k get def
v cpdv ne {
/upd false def
/nullv v type /nulltype eq def
/nullcpdv cpdv type /nulltype eq def
nullv nullcpdv or
{
/upd true def
} {
/sametype v type cpdv type eq def
sametype {
v type /arraytype eq {
/vlen v length def
/cpdvlen cpdv length def
vlen cpdvlen eq {
0 1 vlen 1 sub {
/i exch def
/obj v i get def
/cpdobj cpdv i get def
obj cpdobj ne {
/upd true def
exit
} if
} for
} {
/upd true def
} ifelse
} {
v type /dicttype eq {
v {
/dv exch def
/dk exch def
/cpddv cpdv dk get def
dv cpddv ne {
/upd true def
exit
} if
} forall
} {
/upd true def
} ifelse
} ifelse
} if
} ifelse
upd true eq {
d k v put
} if
} if
} if
} forall
d length 0 gt {
d setpagedevice
} if
} bd
/RE { % /NewFontName [NewEncodingArray] /FontName RE -
  findfont dup length dict begin
  {
    1 index /FID ne
    {def} {pop pop} ifelse
  } forall
  /Encoding exch def
  /FontName 1 index def
  currentdict definefont pop
  end
} bind def
%%EndResource
%%BeginResource: procset (Apache XML Graphics EPS ProcSet) 1.0 0
%%Version: 1.0 0
%%Copyright: (Copyright 2002-2003 The Apache Software Foundation. License terms: http://www.apache.org/licenses/LICENSE-2.0)
/BeginEPSF { %def
/b4_Inc_state save def         % Save state for cleanup
/dict_count countdictstack def % Count objects on dict stack
/op_count count 1 sub def      % Count objects on operand stack
userdict begin                 % Push userdict on dict stack
/showpage { } def              % Redefine showpage, { } = null proc
0 setgray 0 setlinecap         % Prepare graphics state
1 setlinewidth 0 setlinejoin
10 setmiterlimit [ ] 0 setdash newpath
/languagelevel where           % If level not equal to 1 then
{pop languagelevel             % set strokeadjust and
1 ne                           % overprint to their defaults.
{false setstrokeadjust false setoverprint
} if
} if
} bd
/EndEPSF { %def
count op_count sub {pop} repeat            % Clean up stacks
countdictstack dict_count sub {end} repeat
b4_Inc_state restore
} bd
%%EndResource
%FOPBeginFontDict
%%IncludeResource: font Courier-Oblique
%%IncludeResource: font Courier-BoldOblique
%%IncludeResource: font Courier-Bold
%%IncludeResource: font ZapfDingbats
%%IncludeResource: font Symbol
%%IncludeResource: font Helvetica
%%IncludeResource: font Helvetica-Oblique
%%IncludeResource: font Helvetica-Bold
%%IncludeResource: font Helvetica-BoldOblique
%%IncludeResource: font Times-Roman
%%IncludeResource: font Times-Italic
%%IncludeResource: font Times-Bold
%%IncludeResource: font Times-BoldItalic
%%IncludeResource: font Courier
%FOPEndFontDict
%%BeginResource: encoding WinAnsiEncoding
/WinAnsiEncoding [
/.notdef /.notdef /.notdef /.notdef /.notdef
/.notdef /.notdef /.notdef /.notdef /.notdef
/.notdef /.notdef /.notdef /.notdef /.notdef
/.notdef /.notdef /.notdef /.notdef /.notdef
/.notdef /.notdef /.notdef /.notdef /.notdef
/.notdef /.notdef /.notdef /.notdef /.notdef
/.notdef /.notdef /space /exclam /quotedbl
/numbersign /dollar /percent /ampersand /quotesingle
/parenleft /parenright /asterisk /plus /comma
/hyphen /period /slash /zero /one
/two /three /four /five /six
/seven /eight /nine /colon /semicolon
/less /equal /greater /question /at
/A /B /C /D /E
/F /G /H /I /J
/K /L /M /N /O
/P /Q /R /S /T
/U /V /W /X /Y
/Z /bracketleft /backslash /bracketright /asciicircum
/underscore /quoteleft /a /b /c
/d /e /f /g /h
/i /j /k /l /m
/n /o /p /q /r
/s /t /u /v /w
/x /y /z /braceleft /bar
/braceright /asciitilde /bullet /Euro /bullet
/quotesinglbase /florin /quotedblbase /ellipsis /dagger
/daggerdbl /circumflex /perthousand /Scaron /guilsinglleft
/OE /bullet /Zcaron /bullet /bullet
/quoteleft /quoteright /quotedblleft /quotedblright /bullet
/endash /emdash /asciitilde /trademark /scaron
/guilsinglright /oe /bullet /zcaron /Ydieresis
/space /exclamdown /cent /sterling /currency
/yen /brokenbar /section /dieresis /copyright
/ordfeminine /guillemotleft /logicalnot /sfthyphen /registered
/macron /degree /plusminus /twosuperior /threesuperior
/acute /mu /paragraph /middot /cedilla
/onesuperior /ordmasculine /guillemotright /onequarter /onehalf
/threequarters /questiondown /Agrave /Aacute /Acircumflex
/Atilde /Adieresis /Aring /AE /Ccedilla
/Egrave /Eacute /Ecircumflex /Edieresis /Igrave
/Iacute /Icircumflex /Idieresis /Eth /Ntilde
/Ograve /Oacute /Ocircumflex /Otilde /Odieresis
/multiply /Oslash /Ugrave /Uacute /Ucircumflex
/Udieresis /Yacute /Thorn /germandbls /agrave
/aacute /acircumflex /atilde /adieresis /aring
/ae /ccedilla /egrave /eacute /ecircumflex
/edieresis /igrave /iacute /icircumflex /idieresis
/eth /ntilde /ograve /oacute /ocircumflex
/otilde /odieresis /divide /oslash /ugrave
/uacute /ucircumflex /udieresis /yacute /thorn
/ydieresis
] def
%%EndResource
%FOPBeginFontReencode
/Courier-Oblique findfont
dup length dict begin
  {1 index /FID ne {def} {pop pop} ifelse} forall
  /Encoding WinAnsiEncoding def
  currentdict
end
/Courier-Oblique exch definefont pop
/Courier-BoldOblique findfont
dup length dict begin
  {1 index /FID ne {def} {pop pop} ifelse} forall
  /Encoding WinAnsiEncoding def
  currentdict
end
/Courier-BoldOblique exch definefont pop
/Courier-Bold findfont
dup length dict begin
  {1 index /FID ne {def} {pop pop} ifelse} forall
  /Encoding WinAnsiEncoding def
  currentdict
end
/Courier-Bold exch definefont pop
/Helvetica findfont
dup length dict begin
  {1 index /FID ne {def} {pop pop} ifelse} forall
  /Encoding WinAnsiEncoding def
  currentdict
end
/Helvetica exch definefont pop
/Helvetica-Oblique findfont
dup length dict begin
  {1 index /FID ne {def} {pop pop} ifelse} forall
  /Encoding WinAnsiEncoding def
  currentdict
end
/Helvetica-Oblique exch definefont pop
/Helvetica-Bold findfont
dup length dict begin
  {1 index /FID ne {def} {pop pop} ifelse} forall
  /Encoding WinAnsiEncoding def
  currentdict
end
/Helvetica-Bold exch definefont pop
/Helvetica-BoldOblique findfont
dup length dict begin
  {1 index /FID ne {def} {pop pop} ifelse} forall
  /Encoding WinAnsiEncoding def
  currentdict
end
/Helvetica-BoldOblique exch definefont pop
/Times-Roman findfont
dup length dict begin
  {1 index /FID ne {def} {pop pop} ifelse} forall
  /Encoding WinAnsiEncoding def
  currentdict
end
/Times-Roman exch definefont pop
/Times-Italic findfont
dup length dict begin
  {1 index /FID ne {def} {pop pop} ifelse} forall
  /Encoding WinAnsiEncoding def
  currentdict
end
/Times-Italic exch definefont pop
/Times-Bold findfont
dup length dict begin
  {1 index /FID ne {def} {pop pop} ifelse} forall
  /Encoding WinAnsiEncoding def
  currentdict
end
/Times-Bold exch definefont pop
/Times-BoldItalic findfont
dup length dict begin
  {1 index /FID ne {def} {pop pop} ifelse} forall
  /Encoding WinAnsiEncoding def
  currentdict
end
/Times-BoldItalic exch definefont pop
/Courier findfont
dup length dict begin
  {1 index /FID ne {def} {pop pop} ifelse} forall
  /Encoding WinAnsiEncoding def
  currentdict
end
/Courier exch definefont pop
%FOPEndFontReencode
%%EndProlog
%%Page: 1 1
%%PageBoundingBox: 0 0 420 315
%%BeginPageSetup
[1 0 0 -1 0 315] CT
%%EndPageSetup
GS
[0.75 0 0 0.75 0 0] CT
1 GC
N
0 0 560 420 re
f
GR
GS
[0.75 0 0 0.75 0 0] CT
1 GC
N
0 0 560 420 re
f
GR
GS
[0.75 0 0 0.75 0 0] CT
1 GC
N
73 374 M
507 374 L
507 31 L
73 31 L
cp
f
GR
GS
[0.75 0 0 0.75 0 0] CT
0.149 GC
2 setlinecap
1 LJ
0.667 LW
N
73 374 M
507 374 L
S
GR
GS
[0.75 0 0 0.75 0 0] CT
0.149 GC
2 setlinecap
1 LJ
0.667 LW
N
73 374 M
73 382.68 L
S
GR
GS
[0.75 0 0 0.75 0 0] CT
0.149 GC
2 setlinecap
1 LJ
0.667 LW
N
116.4 374 M
116.4 382.68 L
S
GR
GS
[0.75 0 0 0.75 0 0] CT
0.149 GC
2 setlinecap
1 LJ
0.667 LW
N
159.8 374 M
159.8 382.68 L
S
GR
GS
[0.75 0 0 0.75 0 0] CT
0.149 GC
2 setlinecap
1 LJ
0.667 LW
N
203.2 374 M
203.2 382.68 L
S
GR
GS
[0.75 0 0 0.75 0 0] CT
0.149 GC
2 setlinecap
1 LJ
0.667 LW
N
246.6 374 M
246.6 382.68 L
S
GR
GS
[0.75 0 0 0.75 0 0] CT
0.149 GC
2 setlinecap
1 LJ
0.667 LW
N
290 374 M
290 382.68 L
S
GR
GS
[0.75 0 0 0.75 0 0] CT
0.149 GC
2 setlinecap
1 LJ
0.667 LW
N
333.4 374 M
333.4 382.68 L
S
GR
GS
[0.75 0 0 0.75 0 0] CT
0.149 GC
2 setlinecap
1 LJ
0.667 LW
N
376.8 374 M
376.8 382.68 L
S
GR
GS
[0.75 0 0 0.75 0 0] CT
0.149 GC
2 setlinecap
1 LJ
0.667 LW
N
420.2 374 M
420.2 382.68 L
S
GR
GS
[0.75 0 0 0.75 0 0] CT
0.149 GC
2 setlinecap
1 LJ
0.667 LW
N
463.6 374 M
463.6 382.68 L
S
GR
GS
[0.75 0 0 0.75 0 0] CT
0.149 GC
2 setlinecap
1 LJ
0.667 LW
N
507 374 M
507 382.68 L
S
GR
GS
[0.75 0 0 0.75 0 0] CT
0.149 GC
2 setlinecap
1 LJ
0.667 LW
N
81.68 374 M
81.68 378.34 L
S
GR
GS
[0.75 0 0 0.75 0 0] CT
0.149 GC
2 setlinecap
1 LJ
0.667 LW
N
90.36 374 M
90.36 378.34 L
S
GR
GS
[0.75 0 0 0.75 0 0] CT
0.149 GC
2 setlinecap
1 LJ
0.667 LW
N
99.04 374 M
99.04 378.34 L
S
GR
GS
[0.75 0 0 0.75 0 0] CT
0.149 GC
2 setlinecap
1 LJ
0.667 LW
N
107.72 374 M
107.72 378.34 L
S
GR
GS
[0.75 0 0 0.75 0 0] CT
0.149 GC
2 setlinecap
1 LJ
0.667 LW
N
125.08 374 M
125.08 378.34 L
S
GR
GS
[0.75 0 0 0.75 0 0] CT
0.149 GC
2 setlinecap
1 LJ
0.667 LW
N
133.76 374 M
133.76 378.34 L
S
GR
GS
[0.75 0 0 0.75 0 0] CT
0.149 GC
2 setlinecap
1 LJ
0.667 LW
N
142.44 374 M
142.44 378.34 L
S
GR
GS
[0.75 0 0 0.75 0 0] CT
0.149 GC
2 setlinecap
1 LJ
0.667 LW
N
151.12 374 M
151.12 378.34 L
S
GR
GS
[0.75 0 0 0.75 0 0] CT
0.149 GC
2 setlinecap
1 LJ
0.667 LW
N
168.48 374 M
168.48 378.34 L
S
GR
GS
[0.75 0 0 0.75 0 0] CT
0.149 GC
2 setlinecap
1 LJ
0.667 LW
N
177.16 374 M
177.16 378.34 L
S
GR
GS
[0.75 0 0 0.75 0 0] CT
0.149 GC
2 setlinecap
1 LJ
0.667 LW
N
185.84 374 M
185.84 378.34 L
S
GR
GS
[0.75 0 0 0.75 0 0] CT
0.149 GC
2 setlinecap
1 LJ
0.667 LW
N
194.52 374 M
194.52 378.34 L
S
GR
GS
[0.75 0 0 0.75 0 0] CT
0.149 GC
2 setlinecap
1 LJ
0.667 LW
N
211.88 374 M
211.88 378.34 L
S
GR
GS
[0.75 0 0 0.75 0 0] CT
0.149 GC
2 setlinecap
1 LJ
0.667 LW
N
220.56 374 M
220.56 378.34 L
S
GR
GS
[0.75 0 0 0.75 0 0] CT
0.149 GC
2 setlinecap
1 LJ
0.667 LW
N
229.24 374 M
229.24 378.34 L
S
GR
GS
[0.75 0 0 0.75 0 0] CT
0.149 GC
2 setlinecap
1 LJ
0.667 LW
N
237.92 374 M
237.92 378.34 L
S
GR
GS
[0.75 0 0 0.75 0 0] CT
0.149 GC
2 setlinecap
1 LJ
0.667 LW
N
255.28 374 M
255.28 378.34 L
S
GR
GS
[0.75 0 0 0.75 0 0] CT
0.149 GC
2 setlinecap
1 LJ
0.667 LW
N
263.96 374 M
263.96 378.34 L
S
GR
GS
[0.75 0 0 0.75 0 0] CT
0.149 GC
2 setlinecap
1 LJ
0.667 LW
N
272.64 374 M
272.64 378.34 L
S
GR
GS
[0.75 0 0 0.75 0 0] CT
0.149 GC
2 setlinecap
1 LJ
0.667 LW
N
281.32 374 M
281.32 378.34 L
S
GR
GS
[0.75 0 0 0.75 0 0] CT
0.149 GC
2 setlinecap
1 LJ
0.667 LW
N
298.68 374 M
298.68 378.34 L
S
GR
GS
[0.75 0 0 0.75 0 0] CT
0.149 GC
2 setlinecap
1 LJ
0.667 LW
N
307.36 374 M
307.36 378.34 L
S
GR
GS
[0.75 0 0 0.75 0 0] CT
0.149 GC
2 setlinecap
1 LJ
0.667 LW
N
316.04 374 M
316.04 378.34 L
S
GR
GS
[0.75 0 0 0.75 0 0] CT
0.149 GC
2 setlinecap
1 LJ
0.667 LW
N
324.72 374 M
324.72 378.34 L
S
GR
GS
[0.75 0 0 0.75 0 0] CT
0.149 GC
2 setlinecap
1 LJ
0.667 LW
N
342.08 374 M
342.08 378.34 L
S
GR
GS
[0.75 0 0 0.75 0 0] CT
0.149 GC
2 setlinecap
1 LJ
0.667 LW
N
350.76 374 M
350.76 378.34 L
S
GR
GS
[0.75 0 0 0.75 0 0] CT
0.149 GC
2 setlinecap
1 LJ
0.667 LW
N
359.44 374 M
359.44 378.34 L
S
GR
GS
[0.75 0 0 0.75 0 0] CT
0.149 GC
2 setlinecap
1 LJ
0.667 LW
N
368.12 374 M
368.12 378.34 L
S
GR
GS
[0.75 0 0 0.75 0 0] CT
0.149 GC
2 setlinecap
1 LJ
0.667 LW
N
385.48 374 M
385.48 378.34 L
S
GR
GS
[0.75 0 0 0.75 0 0] CT
0.149 GC
2 setlinecap
1 LJ
0.667 LW
N
394.16 374 M
394.16 378.34 L
S
GR
GS
[0.75 0 0 0.75 0 0] CT
0.149 GC
2 setlinecap
1 LJ
0.667 LW
N
402.84 374 M
402.84 378.34 L
S
GR
GS
[0.75 0 0 0.75 0 0] CT
0.149 GC
2 setlinecap
1 LJ
0.667 LW
N
411.52 374 M
411.52 378.34 L
S
GR
GS
[0.75 0 0 0.75 0 0] CT
0.149 GC
2 setlinecap
1 LJ
0.667 LW
N
428.88 374 M
428.88 378.34 L
S
GR
GS
[0.75 0 0 0.75 0 0] CT
0.149 GC
2 setlinecap
1 LJ
0.667 LW
N
437.56 374 M
437.56 378.34 L
S
GR
GS
[0.75 0 0 0.75 0 0] CT
0.149 GC
2 setlinecap
1 LJ
0.667 LW
N
446.24 374 M
446.24 378.34 L
S
GR
GS
[0.75 0 0 0.75 0 0] CT
0.149 GC
2 setlinecap
1 LJ
0.667 LW
N
454.92 374 M
454.92 378.34 L
S
GR
GS
[0.75 0 0 0.75 0 0] CT
0.149 GC
2 setlinecap
1 LJ
0.667 LW
N
472.28 374 M
472.28 378.34 L
S
GR
GS
[0.75 0 0 0.75 0 0] CT
0.149 GC
2 setlinecap
1 LJ
0.667 LW
N
480.96 374 M
480.96 378.34 L
S
GR
GS
[0.75 0 0 0.75 0 0] CT
0.149 GC
2 setlinecap
1 LJ
0.667 LW
N
489.64 374 M
489.64 378.34 L
S
GR
GS
[0.75 0 0 0.75 0 0] CT
0.149 GC
2 setlinecap
1 LJ
0.667 LW
N
498.32 374 M
498.32 378.34 L
S
GR
GS
[0.75 0 0 0.75 54.75 291.01] CT
0.149 GC
/Helvetica 13.333 F
GS
[1 0 0 1 0 0] CT
-4 14 moveto 
1 -1 scale
(0) t 
GR
GR
GS
[0.75 0 0 0.75 87.3 291.01] CT
0.149 GC
/Helvetica 13.333 F
GS
[1 0 0 1 0 0] CT
-9.5 14 moveto 
1 -1 scale
(0.1) t 
GR
GR
GS
[0.75 0 0 0.75 119.85 291.01] CT
0.149 GC
/Helvetica 13.333 F
GS
[1 0 0 1 0 0] CT
-9.5 14 moveto 
1 -1 scale
(0.2) t 
GR
GR
GS
[0.75 0 0 0.75 152.40001 291.01] CT
0.149 GC
/Helvetica 13.333 F
GS
[1 0 0 1 0 0] CT
-9.5 14 moveto 
1 -1 scale
(0.3) t 
GR
GR
GS
[0.75 0 0 0.75 184.95 291.01] CT
0.149 GC
/Helvetica 13.333 F
GS
[1 0 0 1 0 0] CT
-9.5 14 moveto 
1 -1 scale
(0.4) t 
GR
GR
GS
[0.75 0 0 0.75 217.5 291.01] CT
0.149 GC
/Helvetica 13.333 F
GS
[1 0 0 1 0 0] CT
-9.5 14 moveto 
1 -1 scale
(0.5) t 
GR
GR
GS
[0.75 0 0 0.75 250.05002 291.01] CT
0.149 GC
/Helvetica 13.333 F
GS
[1 0 0 1 0 0] CT
-9.5 14 moveto 
1 -1 scale
(0.6) t 
GR
GR
GS
[0.75 0 0 0.75 282.59999 291.01] CT
0.149 GC
/Helvetica 13.333 F
GS
[1 0 0 1 0 0] CT
-9.5 14 moveto 
1 -1 scale
(0.7) t 
GR
GR
GS
[0.75 0 0 0.75 315.15001 291.01] CT
0.149 GC
/Helvetica 13.333 F
GS
[1 0 0 1 0 0] CT
-9.5 14 moveto 
1 -1 scale
(0.8) t 
GR
GR
GS
[0.75 0 0 0.75 347.69998 291.01] CT
0.149 GC
/Helvetica 13.333 F
GS
[1 0 0 1 0 0] CT
-9.5 14 moveto 
1 -1 scale
(0.9) t 
GR
GR
GS
[0.75 0 0 0.75 380.25 291.01] CT
0.149 GC
/Helvetica 13.333 F
GS
[1 0 0 1 0 0] CT
-4 14 moveto 
1 -1 scale
(1) t 
GR
GR
GS
[0.75 0 0 0.75 0 0] CT
0.149 GC
2 setlinecap
1 LJ
0.667 LW
N
73 374 M
73 31 L
S
GR
GS
[0.75 0 0 0.75 0 0] CT
0.149 GC
2 setlinecap
1 LJ
0.667 LW
N
73 374 M
64.32 374 L
S
GR
GS
[0.75 0 0 0.75 0 0] CT
0.149 GC
2 setlinecap
1 LJ
0.667 LW
N
73 316.833 M
64.32 316.833 L
S
GR
GS
[0.75 0 0 0.75 0 0] CT
0.149 GC
2 setlinecap
1 LJ
0.667 LW
N
73 259.667 M
64.32 259.667 L
S
GR
GS
[0.75 0 0 0.75 0 0] CT
0.149 GC
2 setlinecap
1 LJ
0.667 LW
N
73 202.5 M
64.32 202.5 L
S
GR
GS
[0.75 0 0 0.75 0 0] CT
0.149 GC
2 setlinecap
1 LJ
0.667 LW
N
73 145.333 M
64.32 145.333 L
S
GR
GS
[0.75 0 0 0.75 0 0] CT
0.149 GC
2 setlinecap
1 LJ
0.667 LW
N
73 88.167 M
64.32 88.167 L
S
GR
GS
[0.75 0 0 0.75 0 0] CT
0.149 GC
2 setlinecap
1 LJ
0.667 LW
N
73 31 M
64.32 31 L
S
GR
GS
[0.75 0 0 0.75 0 0] CT
0.149 GC
2 setlinecap
1 LJ
0.667 LW
N
73 362.567 M
68.66 362.567 L
S
GR
GS
[0.75 0 0 0.75 0 0] CT
0.149 GC
2 setlinecap
1 LJ
0.667 LW
N
73 351.133 M
68.66 351.133 L
S
GR
GS
[0.75 0 0 0.75 0 0] CT
0.149 GC
2 setlinecap
1 LJ
0.667 LW
N
73 339.7 M
68.66 339.7 L
S
GR
GS
[0.75 0 0 0.75 0 0] CT
0.149 GC
2 setlinecap
1 LJ
0.667 LW
N
73 328.267 M
68.66 328.267 L
S
GR
GS
[0.75 0 0 0.75 0 0] CT
0.149 GC
2 setlinecap
1 LJ
0.667 LW
N
73 305.4 M
68.66 305.4 L
S
GR
GS
[0.75 0 0 0.75 0 0] CT
0.149 GC
2 setlinecap
1 LJ
0.667 LW
N
73 293.967 M
68.66 293.967 L
S
GR
GS
[0.75 0 0 0.75 0 0] CT
0.149 GC
2 setlinecap
1 LJ
0.667 LW
N
73 282.533 M
68.66 282.533 L
S
GR
GS
[0.75 0 0 0.75 0 0] CT
0.149 GC
2 setlinecap
1 LJ
0.667 LW
N
73 271.1 M
68.66 271.1 L
S
GR
GS
[0.75 0 0 0.75 0 0] CT
0.149 GC
2 setlinecap
1 LJ
0.667 LW
N
73 248.233 M
68.66 248.233 L
S
GR
GS
[0.75 0 0 0.75 0 0] CT
0.149 GC
2 setlinecap
1 LJ
0.667 LW
N
73 236.8 M
68.66 236.8 L
S
GR
GS
[0.75 0 0 0.75 0 0] CT
0.149 GC
2 setlinecap
1 LJ
0.667 LW
N
73 225.367 M
68.66 225.367 L
S
GR
GS
[0.75 0 0 0.75 0 0] CT
0.149 GC
2 setlinecap
1 LJ
0.667 LW
N
73 213.933 M
68.66 213.933 L
S
GR
GS
[0.75 0 0 0.75 0 0] CT
0.149 GC
2 setlinecap
1 LJ
0.667 LW
N
73 191.067 M
68.66 191.067 L
S
GR
GS
[0.75 0 0 0.75 0 0] CT
0.149 GC
2 setlinecap
1 LJ
0.667 LW
N
73 179.633 M
68.66 179.633 L
S
GR
GS
[0.75 0 0 0.75 0 0] CT
0.149 GC
2 setlinecap
1 LJ
0.667 LW
N
73 168.2 M
68.66 168.2 L
S
GR
GS
[0.75 0 0 0.75 0 0] CT
0.149 GC
2 setlinecap
1 LJ
0.667 LW
N
73 156.767 M
68.66 156.767 L
S
GR
GS
[0.75 0 0 0.75 0 0] CT
0.149 GC
2 setlinecap
1 LJ
0.667 LW
N
73 133.9 M
68.66 133.9 L
S
GR
GS
[0.75 0 0 0.75 0 0] CT
0.149 GC
2 setlinecap
1 LJ
0.667 LW
N
73 122.467 M
68.66 122.467 L
S
GR
GS
[0.75 0 0 0.75 0 0] CT
0.149 GC
2 setlinecap
1 LJ
0.667 LW
N
73 111.033 M
68.66 111.033 L
S
GR
GS
[0.75 0 0 0.75 0 0] CT
0.149 GC
2 setlinecap
1 LJ
0.667 LW
N
73 99.6 M
68.66 99.6 L
S
GR
GS
[0.75 0 0 0.75 0 0] CT
0.149 GC
2 setlinecap
1 LJ
0.667 LW
N
73 76.733 M
68.66 76.733 L
S
GR
GS
[0.75 0 0 0.75 0 0] CT
0.149 GC
2 setlinecap
1 LJ
0.667 LW
N
73 65.3 M
68.66 65.3 L
S
GR
GS
[0.75 0 0 0.75 0 0] CT
0.149 GC
2 setlinecap
1 LJ
0.667 LW
N
73 53.867 M
68.66 53.867 L
S
GR
GS
[0.75 0 0 0.75 0 0] CT
0.149 GC
2 setlinecap
1 LJ
0.667 LW
N
73 42.433 M
68.66 42.433 L
S
GR
GS
[0.75 0 0 0.75 44.24 280.5] CT
0.149 GC
/Helvetica 13.333 F
GS
[1 0 0 1 0 0] CT
-20 5.5 moveto 
1 -1 scale
(-15) t 
GR
GR
GS
[0.75 0 0 0.75 44.24 237.62501] CT
0.149 GC
/Helvetica 13.333 F
GS
[1 0 0 1 0 0] CT
-20 5.5 moveto 
1 -1 scale
(-10) t 
GR
GR
GS
[0.75 0 0 0.75 44.24 194.74999] CT
0.149 GC
/Helvetica 13.333 F
GS
[1 0 0 1 0 0] CT
-12 5.5 moveto 
1 -1 scale
(-5) t 
GR
GR
GS
[0.75 0 0 0.75 44.24 151.875] CT
0.149 GC
/Helvetica 13.333 F
GS
[1 0 0 1 0 0] CT
-8 5.5 moveto 
1 -1 scale
(0) t 
GR
GR
GS
[0.75 0 0 0.75 44.24 109] CT
0.149 GC
/Helvetica 13.333 F
GS
[1 0 0 1 0 0] CT
-8 5.5 moveto 
1 -1 scale
(5) t 
GR
GR
GS
[0.75 0 0 0.75 44.24 66.125] CT
0.149 GC
/Helvetica 13.333 F
GS
[1 0 0 1 0 0] CT
-15 5.5 moveto 
1 -1 scale
(10) t 
GR
GR
GS
[0.75 0 0 0.75 44.24 23.25] CT
0.149 GC
/Helvetica 13.333 F
GS
[1 0 0 1 0 0] CT
-15 5.5 moveto 
1 -1 scale
(15) t 
GR
GR
GS
[0.75 0 0 0.75 0 0] CT
0 0.447 0.741 RC
[10 6] 0 setdash
2 LJ
0.667 LW
N
73 202.5 M
87.966 202.106 L
102.931 201.713 L
117.897 201.324 L
132.862 200.939 L
147.828 200.562 L
162.793 200.193 L
177.759 199.835 L
192.724 199.491 L
207.69 199.162 L
222.655 198.853 L
237.621 198.567 L
252.586 198.305 L
267.552 198.073 L
282.517 197.873 L
297.483 197.711 L
312.448 197.59 L
327.414 197.516 L
342.379 197.493 L
357.345 197.526 L
372.31 197.623 L
387.276 197.788 L
402.241 198.029 L
417.207 198.353 L
432.172 198.768 L
447.138 199.281 L
462.103 199.901 L
477.069 200.637 L
492.034 201.5 L
507 202.5 L
S
GR
GS
[0.75 0 0 0.75 0 0] CT
0.851 0.325 0.098 RC
1 LJ
2 LW
N
73 125.003 M
87.966 75.304 L
102.931 70.736 L
117.897 111.71 L
132.862 182.105 L
147.828 255.979 L
162.793 307.505 L
177.759 320.199 L
192.724 292.142 L
207.69 235.305 L
222.655 170.507 L
237.621 120.074 L
252.586 99.811 L
267.552 113.67 L
282.517 153.316 L
297.483 202.47 L
312.448 243.513 L
327.414 264.113 L
342.379 261.064 L
357.345 239.562 L
372.31 209.305 L
387.276 180.537 L
402.241 161.554 L
417.207 157.008 L
432.172 166.874 L
447.138 186.373 L
462.103 207.677 L
477.069 222.728 L
492.034 226.355 L
507 218.124 L
S
GR
GS
[0.75 0 0 0.75 0 0] CT
0.929 0.694 0.125 RC
1 LJ
2 LW
N
73 202.373 M
87.966 202.227 L
102.931 202.042 L
117.897 201.796 L
132.862 201.469 L
147.828 201.048 L
162.793 200.534 L
177.759 199.947 L
192.724 199.324 L
207.69 198.719 L
222.655 198.189 L
237.621 197.786 L
252.586 197.546 L
267.552 197.479 L
282.517 197.567 L
297.483 197.766 L
312.448 198.017 L
327.414 198.257 L
342.379 198.433 L
357.345 198.512 L
372.31 198.49 L
387.276 198.389 L
402.241 198.26 L
417.207 198.169 L
432.172 198.191 L
447.138 198.391 L
462.103 198.811 L
477.069 199.467 L
492.034 200.338 L
507 201.375 L
S
GR
GS
[0.75 0 0 0.75 0 0] CT
0.494 0.184 0.557 RC
1 LJ
2 LW
N
73 200.443 M
87.966 199.026 L
102.931 198.673 L
117.897 199.44 L
132.862 200.998 L
147.828 202.747 L
162.793 204.007 L
177.759 204.238 L
192.724 203.205 L
207.69 201.045 L
222.655 198.226 L
237.621 195.418 L
252.586 193.301 L
267.552 192.377 L
282.517 192.845 L
297.483 194.563 L
312.448 197.101 L
327.414 199.861 L
342.379 202.223 L
357.345 203.68 L
372.31 203.932 L
387.276 202.94 L
402.241 200.944 L
417.207 198.41 L
432.172 195.933 L
447.138 194.101 L
462.103 193.376 L
477.069 193.995 L
492.034 195.938 L
507 198.93 L
S
GR
GS
[0.75 0 0 0.75 0 0] CT
1 GC
N
496 105 M
496 42 L
384 42 L
384 105 L
cp
f
GR
GS
[0.75 0 0 0.75 323.02464 38.38906] CT
N
1.953 4.755 M
1.969 4.614 2.125 4.614 QT
2.141 4.614 2.352 4.732 QT
2.563 4.849 2.82 4.942 QT
3.078 5.036 3.328 5.036 QT
3.563 5.036 3.711 4.841 QT
3.859 4.646 3.859 4.427 QT
3.859 4.114 3.531 3.989 QT
1.484 3.192 L
0.969 2.989 0.625 2.583 QT
0.281 2.177 0.281 1.661 QT
0.281 1.192 0.523 0.692 QT
0.766 0.192 1.156 -0.214 QT
1.547 -0.62 1.984 -0.87 QT
1.625 -1.089 1.43 -1.417 QT
1.234 -1.745 1.234 -2.151 QT
1.234 -2.573 1.406 -2.933 QT
1.578 -3.292 1.883 -3.597 QT
2.188 -3.901 2.555 -4.104 QT
2.922 -4.308 3.297 -4.417 QT
3.234 -4.667 3.234 -4.854 QT
3.234 -5.511 3.5 -5.511 QT
3.563 -5.511 3.609 -5.464 QT
3.656 -5.417 3.656 -5.354 QT
3.656 -5.292 3.625 -5.097 QT
3.594 -4.901 3.594 -4.854 QT
3.594 -4.651 3.641 -4.479 QT
3.953 -4.558 4.234 -4.558 QT
5.344 -4.558 5.344 -4.214 QT
5.344 -3.808 4.109 -3.808 QT
3.734 -3.808 3.5 -4.058 QT
3.156 -3.886 2.867 -3.565 QT
2.578 -3.245 2.414 -2.847 QT
2.25 -2.448 2.25 -2.042 QT
2.25 -1.479 2.563 -1.136 QT
3 -1.292 3.422 -1.292 QT
4.531 -1.292 4.531 -0.948 QT
4.531 -0.542 3.297 -0.542 QT
2.797 -0.542 2.359 -0.698 QT
1.828 -0.401 1.383 0.185 QT
0.938 0.771 0.938 1.302 QT
0.938 1.661 1.195 1.927 QT
1.453 2.192 1.828 2.349 QT
3.953 3.177 L
4.219 3.286 4.398 3.521 QT
4.578 3.755 4.578 4.052 QT
4.578 4.536 4.195 4.942 QT
3.813 5.349 3.328 5.349 QT
3.172 5.349 2.828 5.263 QT
2.484 5.177 2.219 5.044 QT
1.953 4.911 1.953 4.755 QT
cp
2.938 -0.917 M
3.094 -0.854 3.328 -0.854 QT
3.906 -0.854 4.156 -0.917 QT
3.922 -0.964 3.406 -0.964 QT
3.203 -0.964 2.938 -0.917 QT
cp
3.844 -4.183 M
3.953 -4.12 4.141 -4.12 QT
4.719 -4.12 4.969 -4.183 QT
3.844 -4.183 L
cp
f
GR
GS
[0.75 0 0 0.75 323.02464 38.38906] CT
N
13.521 5.864 M
12.849 5.333 12.372 4.646 QT
11.896 3.958 11.583 3.185 QT
11.271 2.411 11.122 1.567 QT
10.974 0.724 10.974 -0.12 QT
10.974 -0.979 11.122 -1.823 QT
11.271 -2.667 11.583 -3.448 QT
11.896 -4.229 12.388 -4.909 QT
12.88 -5.589 13.521 -6.104 QT
13.521 -6.12 13.583 -6.12 QT
13.693 -6.12 L
13.724 -6.12 13.755 -6.089 QT
13.786 -6.058 13.786 -6.011 QT
13.786 -5.964 13.771 -5.933 QT
13.177 -5.37 12.786 -4.714 QT
12.396 -4.058 12.161 -3.315 QT
11.927 -2.573 11.818 -1.776 QT
11.708 -0.979 11.708 -0.12 QT
11.708 3.692 13.755 5.677 QT
13.786 5.708 13.786 5.771 QT
13.786 5.802 13.755 5.841 QT
13.724 5.88 13.693 5.88 QT
13.583 5.88 L
13.521 5.88 13.521 5.864 QT
cp
f
GR
GS
[0.75 0 0 0.75 323.02464 38.38906] CT
N
17.453 3.021 M
16.719 3.021 16.109 2.63 QT
15.5 2.239 15.148 1.599 QT
14.797 0.958 14.797 0.255 QT
14.797 -0.448 15.117 -1.081 QT
15.438 -1.714 16.008 -2.104 QT
16.578 -2.495 17.281 -2.495 QT
17.844 -2.495 18.25 -2.315 QT
18.656 -2.136 18.922 -1.808 QT
19.188 -1.479 19.32 -1.034 QT
19.453 -0.589 19.453 -0.058 QT
19.453 0.114 19.328 0.114 QT
15.859 0.114 L
15.859 0.239 L
15.859 1.239 16.258 1.95 QT
16.656 2.661 17.563 2.661 QT
17.938 2.661 18.25 2.497 QT
18.563 2.333 18.789 2.044 QT
19.016 1.755 19.109 1.411 QT
19.109 1.38 19.148 1.341 QT
19.188 1.302 19.219 1.302 QT
19.328 1.302 L
19.453 1.302 19.453 1.458 QT
19.281 2.146 18.719 2.583 QT
18.156 3.021 17.453 3.021 QT
cp
15.859 -0.198 M
18.594 -0.198 L
18.594 -0.636 18.469 -1.104 QT
18.344 -1.573 18.055 -1.878 QT
17.766 -2.183 17.281 -2.183 QT
16.609 -2.183 16.234 -1.55 QT
15.859 -0.917 15.859 -0.198 QT
cp
f
GR
GS
[0.75 0 0 0.75 323.02464 38.38906] CT
N
19.943 2.88 M
19.943 2.458 L
20.411 2.458 20.81 2.278 QT
21.208 2.099 21.49 1.755 QT
22.583 0.364 L
21.161 -1.479 L
20.958 -1.745 20.708 -1.808 QT
20.458 -1.87 20.005 -1.87 QT
20.005 -2.292 L
22.505 -2.292 L
22.505 -1.87 L
22.349 -1.87 22.208 -1.8 QT
22.068 -1.729 22.068 -1.604 QT
22.068 -1.558 22.099 -1.479 QT
23.068 -0.245 L
23.786 -1.167 L
23.927 -1.339 23.927 -1.511 QT
23.927 -1.667 23.833 -1.768 QT
23.74 -1.87 23.583 -1.87 QT
23.583 -2.292 L
25.786 -2.292 L
25.786 -1.87 L
25.333 -1.87 24.927 -1.69 QT
24.521 -1.511 24.24 -1.167 QT
23.286 0.052 L
24.818 2.083 L
25.052 2.333 25.294 2.396 QT
25.536 2.458 25.99 2.458 QT
25.99 2.88 L
23.505 2.88 L
23.505 2.458 L
23.646 2.458 23.779 2.388 QT
23.911 2.317 23.911 2.177 QT
23.911 2.13 23.88 2.083 QT
22.802 0.646 L
21.943 1.755 L
21.802 1.896 21.802 2.099 QT
21.802 2.239 21.904 2.349 QT
22.005 2.458 22.146 2.458 QT
22.146 2.88 L
19.943 2.88 L
cp
f
GR
GS
[0.75 0 0 0.75 323.02464 38.38906] CT
N
26.62 1.708 M
26.62 0.989 27.182 0.536 QT
27.745 0.083 28.534 -0.097 QT
29.323 -0.276 30.026 -0.276 QT
30.026 -0.776 L
30.026 -1.12 29.878 -1.44 QT
29.729 -1.761 29.44 -1.972 QT
29.151 -2.183 28.807 -2.183 QT
28.01 -2.183 27.589 -1.823 QT
27.823 -1.823 27.971 -1.651 QT
28.12 -1.479 28.12 -1.245 QT
28.12 -1.011 27.948 -0.839 QT
27.776 -0.667 27.542 -0.667 QT
27.307 -0.667 27.135 -0.839 QT
26.964 -1.011 26.964 -1.245 QT
26.964 -1.886 27.534 -2.19 QT
28.104 -2.495 28.807 -2.495 QT
29.292 -2.495 29.784 -2.292 QT
30.276 -2.089 30.589 -1.698 QT
30.901 -1.308 30.901 -0.792 QT
30.901 1.911 L
30.901 2.146 31.003 2.341 QT
31.104 2.536 31.307 2.536 QT
31.51 2.536 31.604 2.333 QT
31.698 2.13 31.698 1.911 QT
31.698 1.146 L
32.057 1.146 L
32.057 1.911 L
32.057 2.177 31.917 2.419 QT
31.776 2.661 31.534 2.81 QT
31.292 2.958 31.026 2.958 QT
30.667 2.958 30.417 2.685 QT
30.167 2.411 30.135 2.036 QT
29.917 2.474 29.479 2.747 QT
29.042 3.021 28.557 3.021 QT
28.089 3.021 27.651 2.88 QT
27.214 2.739 26.917 2.45 QT
26.62 2.161 26.62 1.708 QT
cp
27.589 1.708 M
27.589 2.13 27.901 2.411 QT
28.214 2.692 28.635 2.692 QT
29.026 2.692 29.339 2.505 QT
29.651 2.317 29.839 1.982 QT
30.026 1.646 30.026 1.271 QT
30.026 0.021 L
29.479 0.021 28.909 0.2 QT
28.339 0.38 27.964 0.763 QT
27.589 1.146 27.589 1.708 QT
cp
f
GR
GS
[0.75 0 0 0.75 323.02464 38.38906] CT
N
32.448 2.88 M
32.448 2.458 L
32.854 2.458 33.12 2.396 QT
33.385 2.333 33.385 2.083 QT
33.385 -4.229 L
33.385 -4.542 33.292 -4.69 QT
33.198 -4.839 33.01 -4.87 QT
32.823 -4.901 32.448 -4.901 QT
32.448 -5.323 L
34.229 -5.448 L
34.229 0.255 L
35.839 -1.167 L
36.073 -1.386 36.073 -1.589 QT
36.073 -1.729 35.971 -1.8 QT
35.87 -1.87 35.729 -1.87 QT
35.729 -2.292 L
37.995 -2.292 L
37.995 -1.87 L
37.182 -1.87 36.354 -1.167 QT
35.51 -0.417 L
37.042 1.755 L
37.354 2.192 37.565 2.325 QT
37.776 2.458 38.276 2.458 QT
38.276 2.88 L
35.885 2.88 L
35.885 2.458 L
36.292 2.458 36.292 2.208 QT
36.292 2.021 36.073 1.755 QT
34.917 0.114 L
34.182 0.739 L
34.182 2.083 L
34.182 2.333 34.448 2.396 QT
34.714 2.458 35.12 2.458 QT
35.12 2.88 L
32.448 2.88 L
cp
f
GR
GS
[0.75 0 0 0.75 323.02464 38.38906] CT
N
39.688 1.442 M
39.688 -1.87 L
38.703 -1.87 L
38.703 -2.183 L
39.484 -2.183 39.852 -2.917 QT
40.219 -3.651 40.219 -4.511 QT
40.563 -4.511 L
40.563 -2.292 L
42.266 -2.292 L
42.266 -1.87 L
40.563 -1.87 L
40.563 1.411 L
40.563 1.911 40.734 2.286 QT
40.906 2.661 41.328 2.661 QT
41.75 2.661 41.93 2.263 QT
42.109 1.864 42.109 1.411 QT
42.109 0.708 L
42.453 0.708 L
42.453 1.442 L
42.453 1.817 42.313 2.185 QT
42.172 2.552 41.906 2.786 QT
41.641 3.021 41.25 3.021 QT
40.531 3.021 40.109 2.583 QT
39.688 2.146 39.688 1.442 QT
cp
f
GR
GS
[0.75 0 0 0.75 323.02464 38.38906] CT
N
43.917 5.88 M
43.807 5.88 43.807 5.771 QT
43.807 5.724 43.839 5.692 QT
45.886 3.692 45.886 -0.12 QT
45.886 -3.933 43.854 -5.917 QT
43.807 -5.948 43.807 -6.011 QT
43.807 -6.058 43.839 -6.089 QT
43.87 -6.12 43.917 -6.12 QT
44.026 -6.12 L
44.057 -6.12 44.089 -6.104 QT
44.948 -5.417 45.518 -4.448 QT
46.089 -3.479 46.362 -2.378 QT
46.636 -1.276 46.636 -0.12 QT
46.636 0.724 46.487 1.552 QT
46.339 2.38 46.026 3.177 QT
45.714 3.974 45.237 4.653 QT
44.761 5.333 44.089 5.864 QT
44.057 5.88 44.026 5.88 QT
43.917 5.88 L
cp
f
GR
GS
[0.75 0 0 0.75 0 0] CT
0 0.447 0.741 RC
[10 6] 0 setdash
2 LJ
0.667 LW
N
387.974 51.185 M
427.719 51.185 L
S
GR
GS
[0.75 0 0 0.75 323.02464 49.54635] CT
N
2.422 3.021 M
1.844 3.021 1.406 2.747 QT
0.969 2.474 0.727 2.021 QT
0.484 1.567 0.484 0.974 QT
0.484 0.161 0.938 -0.636 QT
1.391 -1.433 2.141 -1.925 QT
2.891 -2.417 3.719 -2.417 QT
4.328 -2.417 4.789 -2.104 QT
5.25 -1.792 5.492 -1.261 QT
5.734 -0.729 5.734 -0.12 QT
5.75 0.677 L
6.156 0.114 6.445 -0.495 QT
6.734 -1.104 6.875 -1.761 QT
6.906 -1.839 6.969 -1.839 QT
7.109 -1.839 L
7.219 -1.839 7.219 -1.729 QT
7.219 -1.714 7.219 -1.698 QT
7.078 -1.136 6.867 -0.628 QT
6.656 -0.12 6.367 0.349 QT
6.078 0.817 5.75 1.208 QT
5.75 2.692 6.094 2.692 QT
6.313 2.692 6.461 2.56 QT
6.609 2.427 6.719 2.239 QT
6.828 2.052 6.844 2.036 QT
7 2.036 L
7.094 2.036 7.094 2.161 QT
7.094 2.458 6.75 2.739 QT
6.406 3.021 6.078 3.021 QT
5.641 3.021 5.352 2.739 QT
5.063 2.458 4.953 2.005 QT
4.391 2.474 3.734 2.747 QT
3.078 3.021 2.422 3.021 QT
cp
2.438 2.692 M
3.719 2.692 4.906 1.646 QT
4.891 1.567 4.883 1.466 QT
4.875 1.364 4.875 1.349 QT
4.875 0.067 L
4.875 -2.12 3.703 -2.12 QT
3 -2.12 2.469 -1.518 QT
1.938 -0.917 1.672 -0.081 QT
1.406 0.755 1.406 1.442 QT
1.406 1.974 1.672 2.333 QT
1.938 2.692 2.438 2.692 QT
cp
f
GR
GS
[0.75 0 0 0.75 323.02464 49.54635] CT
N
11.96 1.286 M
11.851 1.286 11.788 1.208 QT
11.726 1.13 11.726 1.052 QT
11.726 0.942 11.788 0.872 QT
11.851 0.802 11.96 0.802 QT
19.492 0.802 L
19.585 0.802 19.648 0.872 QT
19.71 0.942 19.71 1.052 QT
19.71 1.13 19.648 1.208 QT
19.585 1.286 19.492 1.286 QT
11.96 1.286 L
cp
11.96 -1.042 M
11.851 -1.042 11.788 -1.112 QT
11.726 -1.183 11.726 -1.292 QT
11.726 -1.37 11.788 -1.448 QT
11.851 -1.526 11.96 -1.526 QT
19.492 -1.526 L
19.585 -1.526 19.648 -1.448 QT
19.71 -1.37 19.71 -1.292 QT
19.71 -1.183 19.648 -1.112 QT
19.585 -1.042 19.492 -1.042 QT
11.96 -1.042 L
cp
f
GR
GS
[0.75 0 0 0.75 323.02464 49.54635] CT
N
24.83 2.88 M
24.83 2.458 L
26.33 2.458 26.33 2.083 QT
26.33 -4.229 L
25.721 -3.917 24.768 -3.917 QT
24.768 -4.339 L
26.236 -4.339 26.986 -5.12 QT
27.158 -5.12 L
27.189 -5.12 27.229 -5.081 QT
27.268 -5.042 27.268 -5.011 QT
27.268 2.083 L
27.268 2.458 28.768 2.458 QT
28.768 2.88 L
24.83 2.88 L
cp
f
GR
GS
[0.75 0 0 0.75 323.02464 49.54635] CT
N
32.721 3.146 M
31.252 3.146 30.721 1.935 QT
30.189 0.724 30.189 -0.948 QT
30.189 -1.995 30.377 -2.909 QT
30.564 -3.823 31.135 -4.472 QT
31.705 -5.12 32.721 -5.12 QT
33.518 -5.12 34.018 -4.729 QT
34.518 -4.339 34.783 -3.729 QT
35.049 -3.12 35.143 -2.417 QT
35.236 -1.714 35.236 -0.948 QT
35.236 0.083 35.049 0.982 QT
34.861 1.88 34.307 2.513 QT
33.752 3.146 32.721 3.146 QT
cp
32.721 2.833 M
33.393 2.833 33.721 2.146 QT
34.049 1.458 34.127 0.63 QT
34.205 -0.198 34.205 -1.136 QT
34.205 -2.042 34.127 -2.808 QT
34.049 -3.573 33.721 -4.19 QT
33.393 -4.808 32.721 -4.808 QT
32.049 -4.808 31.721 -4.183 QT
31.393 -3.558 31.314 -2.8 QT
31.236 -2.042 31.236 -1.136 QT
31.236 -0.479 31.268 0.114 QT
31.299 0.708 31.439 1.341 QT
31.58 1.974 31.893 2.403 QT
32.205 2.833 32.721 2.833 QT
cp
f
GR
GS
[0.75 0 0 0.75 323.02464 49.54635] CT
N
36.533 -3.318 M
36.471 -3.318 36.432 -3.365 QT
36.393 -3.412 36.393 -3.475 QT
36.393 -3.537 36.432 -3.584 QT
36.471 -3.631 36.533 -3.631 QT
41.127 -3.631 L
41.189 -3.631 41.229 -3.584 QT
41.268 -3.537 41.268 -3.475 QT
41.268 -3.412 41.229 -3.365 QT
41.189 -3.318 41.127 -3.318 QT
36.533 -3.318 L
cp
f
GR
GS
[0.75 0 0 0.75 323.02464 49.54635] CT
N
43.16 -1.818 M
43.379 -1.553 43.926 -1.553 QT
44.223 -1.553 44.488 -1.764 QT
44.754 -1.975 44.895 -2.272 QT
45.067 -2.615 45.113 -2.998 QT
45.16 -3.381 45.16 -3.943 QT
45.02 -3.631 44.762 -3.42 QT
44.504 -3.209 44.176 -3.209 QT
43.707 -3.209 43.348 -3.459 QT
42.988 -3.709 42.793 -4.123 QT
42.598 -4.537 42.598 -5.006 QT
42.598 -5.49 42.817 -5.904 QT
43.035 -6.318 43.418 -6.561 QT
43.801 -6.803 44.301 -6.803 QT
44.785 -6.803 45.106 -6.537 QT
45.426 -6.272 45.598 -5.858 QT
45.77 -5.443 45.84 -4.983 QT
45.91 -4.522 45.91 -4.068 QT
45.91 -3.443 45.684 -2.803 QT
45.457 -2.162 45.004 -1.733 QT
44.551 -1.303 43.926 -1.303 QT
43.442 -1.303 43.113 -1.522 QT
42.785 -1.74 42.785 -2.193 QT
42.785 -2.365 42.903 -2.475 QT
43.02 -2.584 43.176 -2.584 QT
43.332 -2.584 43.449 -2.475 QT
43.567 -2.365 43.567 -2.193 QT
43.567 -2.037 43.449 -1.928 QT
43.332 -1.818 43.176 -1.818 QT
43.16 -1.818 L
cp
44.207 -3.428 M
44.535 -3.428 44.746 -3.647 QT
44.957 -3.865 45.051 -4.193 QT
45.145 -4.522 45.145 -4.85 QT
45.145 -4.99 L
45.145 -5.022 L
45.145 -5.631 44.965 -6.1 QT
44.785 -6.568 44.301 -6.568 QT
43.973 -6.568 43.778 -6.436 QT
43.582 -6.303 43.488 -6.068 QT
43.395 -5.834 43.371 -5.576 QT
43.348 -5.318 43.348 -5.006 QT
43.348 -4.553 43.387 -4.233 QT
43.426 -3.912 43.621 -3.67 QT
43.817 -3.428 44.207 -3.428 QT
cp
f
GR
GS
[0.75 0 0 0.75 0 0] CT
0.851 0.325 0.098 RC
1 LJ
2 LW
N
387.974 66.062 M
427.719 66.062 L
S
GR
GS
[0.75 0 0 0.75 323.02464 60.70365] CT
N
/f1157331853{2.422 3.021 M
1.844 3.021 1.406 2.747 QT
0.969 2.474 0.727 2.021 QT
0.484 1.567 0.484 0.974 QT
0.484 0.161 0.938 -0.636 QT
1.391 -1.433 2.141 -1.925 QT
2.891 -2.417 3.719 -2.417 QT
4.328 -2.417 4.789 -2.104 QT
5.25 -1.792 5.492 -1.261 QT
5.734 -0.729 5.734 -0.12 QT
5.75 0.677 L
6.156 0.114 6.445 -0.495 QT
6.734 -1.104 6.875 -1.761 QT
6.906 -1.839 6.969 -1.839 QT
7.109 -1.839 L
7.219 -1.839 7.219 -1.729 QT
7.219 -1.714 7.219 -1.698 QT
7.078 -1.136 6.867 -0.628 QT
6.656 -0.12 6.367 0.349 QT
6.078 0.817 5.75 1.208 QT
5.75 2.692 6.094 2.692 QT
6.313 2.692 6.461 2.56 QT
6.609 2.427 6.719 2.239 QT
6.828 2.052 6.844 2.036 QT
7 2.036 L
7.094 2.036 7.094 2.161 QT
7.094 2.458 6.75 2.739 QT
6.406 3.021 6.078 3.021 QT
5.641 3.021 5.352 2.739 QT
5.063 2.458 4.953 2.005 QT
4.391 2.474 3.734 2.747 QT
3.078 3.021 2.422 3.021 QT
cp
2.438 2.692 M
3.719 2.692 4.906 1.646 QT
4.891 1.567 4.883 1.466 QT
4.875 1.364 4.875 1.349 QT
4.875 0.067 L
4.875 -2.12 3.703 -2.12 QT
3 -2.12 2.469 -1.518 QT
1.938 -0.917 1.672 -0.081 QT
1.406 0.755 1.406 1.442 QT
1.406 1.974 1.672 2.333 QT
1.938 2.692 2.438 2.692 QT
cp}def
f1157331853
f
GR
GS
[0.75 0 0 0.75 323.02464 60.70365] CT
N
/f-311357189{11.96 1.286 M
11.851 1.286 11.788 1.208 QT
11.726 1.13 11.726 1.052 QT
11.726 0.942 11.788 0.872 QT
11.851 0.802 11.96 0.802 QT
19.492 0.802 L
19.585 0.802 19.648 0.872 QT
19.71 0.942 19.71 1.052 QT
19.71 1.13 19.648 1.208 QT
19.585 1.286 19.492 1.286 QT
11.96 1.286 L
cp
11.96 -1.042 M
11.851 -1.042 11.788 -1.112 QT
11.726 -1.183 11.726 -1.292 QT
11.726 -1.37 11.788 -1.448 QT
11.851 -1.526 11.96 -1.526 QT
19.492 -1.526 L
19.585 -1.526 19.648 -1.448 QT
19.71 -1.37 19.71 -1.292 QT
19.71 -1.183 19.648 -1.112 QT
19.585 -1.042 19.492 -1.042 QT
11.96 -1.042 L
cp}def
f-311357189
f
GR
GS
[0.75 0 0 0.75 323.02464 60.70365] CT
N
/f682099253{24.768 1.521 M
24.893 1.864 25.143 2.153 QT
25.393 2.442 25.744 2.599 QT
26.096 2.755 26.471 2.755 QT
27.33 2.755 27.658 2.083 QT
27.986 1.411 27.986 0.458 QT
27.986 0.036 27.979 -0.245 QT
27.971 -0.526 27.893 -0.792 QT
27.783 -1.214 27.51 -1.534 QT
27.236 -1.854 26.83 -1.854 QT
26.424 -1.854 26.135 -1.729 QT
25.846 -1.604 25.666 -1.44 QT
25.486 -1.276 25.346 -1.097 QT
25.205 -0.917 25.158 -0.901 QT
25.033 -0.901 L
25.002 -0.901 24.955 -0.94 QT
24.908 -0.979 24.908 -1.011 QT
24.908 -5.026 L
24.908 -5.042 24.947 -5.081 QT
24.986 -5.12 25.033 -5.12 QT
25.064 -5.12 L
25.877 -4.729 26.783 -4.729 QT
27.674 -4.729 28.502 -5.12 QT
28.533 -5.12 L
28.58 -5.12 28.611 -5.089 QT
28.643 -5.058 28.643 -5.026 QT
28.643 -4.901 L
28.643 -4.854 28.627 -4.854 QT
28.205 -4.308 27.588 -4.003 QT
26.971 -3.698 26.314 -3.698 QT
25.83 -3.698 25.33 -3.823 QT
25.33 -1.558 L
25.721 -1.886 26.033 -2.026 QT
26.346 -2.167 26.846 -2.167 QT
27.502 -2.167 28.025 -1.784 QT
28.549 -1.401 28.83 -0.784 QT
29.111 -0.167 29.111 0.458 QT
29.111 1.192 28.76 1.802 QT
28.408 2.411 27.799 2.778 QT
27.189 3.146 26.471 3.146 QT
25.877 3.146 25.385 2.841 QT
24.893 2.536 24.604 2.021 QT
24.314 1.505 24.314 0.927 QT
24.314 0.646 24.494 0.482 QT
24.674 0.317 24.939 0.317 QT
25.205 0.317 25.377 0.489 QT
25.549 0.661 25.549 0.927 QT
25.549 1.177 25.377 1.357 QT
25.205 1.536 24.939 1.536 QT
24.893 1.536 24.838 1.528 QT
24.783 1.521 24.768 1.521 QT
cp}def
f682099253
f
GR
GS
[0.75 0 0 0.75 323.02464 60.70365] CT
N
/f-370830779{33.403 -0.12 M
33.403 -0.292 33.489 -0.44 QT
33.575 -0.589 33.731 -0.683 QT
33.887 -0.776 34.059 -0.776 QT
34.231 -0.776 34.387 -0.683 QT
34.544 -0.589 34.63 -0.44 QT
34.715 -0.292 34.715 -0.12 QT
34.715 0.146 34.528 0.341 QT
34.34 0.536 34.059 0.536 QT
33.794 0.536 33.598 0.341 QT
33.403 0.146 33.403 -0.12 QT
cp}def
f-370830779
f
GR
GS
[0.75 0 0 0.75 323.02464 60.70365] CT
N
/f-37955313{39.497 2.88 M
39.497 2.458 L
40.997 2.458 40.997 2.083 QT
40.997 -4.229 L
40.387 -3.917 39.434 -3.917 QT
39.434 -4.339 L
40.903 -4.339 41.653 -5.12 QT
41.825 -5.12 L
41.856 -5.12 41.895 -5.081 QT
41.934 -5.042 41.934 -5.011 QT
41.934 2.083 L
41.934 2.458 43.434 2.458 QT
43.434 2.88 L
39.497 2.88 L
cp}def
f-37955313
f
GR
GS
[0.75 0 0 0.75 323.02464 60.70365] CT
N
/f1277862586{47.387 3.146 M
45.919 3.146 45.387 1.935 QT
44.856 0.724 44.856 -0.948 QT
44.856 -1.995 45.044 -2.909 QT
45.231 -3.823 45.801 -4.472 QT
46.372 -5.12 47.387 -5.12 QT
48.184 -5.12 48.684 -4.729 QT
49.184 -4.339 49.45 -3.729 QT
49.715 -3.12 49.809 -2.417 QT
49.903 -1.714 49.903 -0.948 QT
49.903 0.083 49.715 0.982 QT
49.528 1.88 48.973 2.513 QT
48.419 3.146 47.387 3.146 QT
cp
47.387 2.833 M
48.059 2.833 48.387 2.146 QT
48.715 1.458 48.794 0.63 QT
48.872 -0.198 48.872 -1.136 QT
48.872 -2.042 48.794 -2.808 QT
48.715 -3.573 48.387 -4.19 QT
48.059 -4.808 47.387 -4.808 QT
46.715 -4.808 46.387 -4.183 QT
46.059 -3.558 45.981 -2.8 QT
45.903 -2.042 45.903 -1.136 QT
45.903 -0.479 45.934 0.114 QT
45.965 0.708 46.106 1.341 QT
46.247 1.974 46.559 2.403 QT
46.872 2.833 47.387 2.833 QT
cp}def
f1277862586
f
GR
GS
[0.75 0 0 0.75 323.02464 60.70365] CT
N
/f711937402{51.2 -3.318 M
51.137 -3.318 51.098 -3.365 QT
51.059 -3.412 51.059 -3.475 QT
51.059 -3.537 51.098 -3.584 QT
51.137 -3.631 51.2 -3.631 QT
55.794 -3.631 L
55.856 -3.631 55.895 -3.584 QT
55.934 -3.537 55.934 -3.475 QT
55.934 -3.412 55.895 -3.365 QT
55.856 -3.318 55.794 -3.318 QT
51.2 -3.318 L
cp}def
f711937402
f
GR
GS
[0.75 0 0 0.75 323.02464 60.70365] CT
N
/f-2129427857{57.264 -2.693 M
57.264 -3.178 57.577 -3.545 QT
57.889 -3.912 58.389 -4.162 QT
58.093 -4.35 L
57.811 -4.522 57.639 -4.826 QT
57.468 -5.131 57.468 -5.459 QT
57.468 -5.834 57.671 -6.147 QT
57.874 -6.459 58.21 -6.631 QT
58.546 -6.803 58.921 -6.803 QT
59.28 -6.803 59.608 -6.662 QT
59.936 -6.522 60.147 -6.248 QT
60.358 -5.975 60.358 -5.6 QT
60.358 -5.334 60.233 -5.108 QT
60.108 -4.881 59.889 -4.693 QT
59.671 -4.506 59.421 -4.381 QT
59.874 -4.084 L
60.186 -3.881 60.382 -3.545 QT
60.577 -3.209 60.577 -2.834 QT
60.577 -2.397 60.343 -2.045 QT
60.108 -1.693 59.725 -1.498 QT
59.343 -1.303 58.921 -1.303 QT
58.514 -1.303 58.124 -1.467 QT
57.733 -1.631 57.499 -1.951 QT
57.264 -2.272 57.264 -2.693 QT
cp
57.686 -2.693 M
57.686 -2.381 57.866 -2.115 QT
58.046 -1.85 58.327 -1.701 QT
58.608 -1.553 58.921 -1.553 QT
59.389 -1.553 59.764 -1.826 QT
60.139 -2.1 60.139 -2.553 QT
60.139 -2.693 60.085 -2.85 QT
60.03 -3.006 59.921 -3.123 QT
59.811 -3.24 59.671 -3.318 QT
58.608 -4.022 L
58.358 -3.881 58.147 -3.678 QT
57.936 -3.475 57.811 -3.225 QT
57.686 -2.975 57.686 -2.693 QT
cp
58.249 -5.131 M
59.218 -4.506 L
59.546 -4.709 59.764 -4.983 QT
59.983 -5.256 59.983 -5.6 QT
59.983 -5.881 59.827 -6.1 QT
59.671 -6.318 59.428 -6.443 QT
59.186 -6.568 58.921 -6.568 QT
58.671 -6.568 58.428 -6.475 QT
58.186 -6.381 58.022 -6.201 QT
57.858 -6.022 57.858 -5.772 QT
57.858 -5.397 58.249 -5.131 QT
cp}def
f-2129427857
f
GR
GS
[0.75 0 0 0.75 0 0] CT
0.929 0.694 0.125 RC
1 LJ
2 LW
N
387.974 80.938 M
427.719 80.938 L
S
GR
GS
[0.75 0 0 0.75 323.02464 71.86094] CT
N
f1157331853
f
GR
GS
[0.75 0 0 0.75 323.02464 71.86094] CT
N
f-311357189
f
GR
GS
[0.75 0 0 0.75 323.02464 71.86094] CT
N
/f117795480{24.83 2.88 M
24.83 2.458 L
26.33 2.458 26.33 2.083 QT
26.33 -4.229 L
25.721 -3.917 24.768 -3.917 QT
24.768 -4.339 L
26.236 -4.339 26.986 -5.12 QT
27.158 -5.12 L
27.189 -5.12 27.229 -5.081 QT
27.268 -5.042 27.268 -5.011 QT
27.268 2.083 L
27.268 2.458 28.768 2.458 QT
28.768 2.88 L
24.83 2.88 L
cp}def
f117795480
f
GR
GS
[0.75 0 0 0.75 323.02464 71.86094] CT
N
/f2051400626{32.721 3.146 M
31.252 3.146 30.721 1.935 QT
30.189 0.724 30.189 -0.948 QT
30.189 -1.995 30.377 -2.909 QT
30.564 -3.823 31.135 -4.472 QT
31.705 -5.12 32.721 -5.12 QT
33.518 -5.12 34.018 -4.729 QT
34.518 -4.339 34.783 -3.729 QT
35.049 -3.12 35.143 -2.417 QT
35.236 -1.714 35.236 -0.948 QT
35.236 0.083 35.049 0.982 QT
34.861 1.88 34.307 2.513 QT
33.752 3.146 32.721 3.146 QT
cp
32.721 2.833 M
33.393 2.833 33.721 2.146 QT
34.049 1.458 34.127 0.63 QT
34.205 -0.198 34.205 -1.136 QT
34.205 -2.042 34.127 -2.808 QT
34.049 -3.573 33.721 -4.19 QT
33.393 -4.808 32.721 -4.808 QT
32.049 -4.808 31.721 -4.183 QT
31.393 -3.558 31.314 -2.8 QT
31.236 -2.042 31.236 -1.136 QT
31.236 -0.479 31.268 0.114 QT
31.299 0.708 31.439 1.341 QT
31.58 1.974 31.893 2.403 QT
32.205 2.833 32.721 2.833 QT
cp}def
f2051400626
f
GR
GS
[0.75 0 0 0.75 323.02464 71.86094] CT
N
/f2054515879{36.533 -3.318 M
36.471 -3.318 36.432 -3.365 QT
36.393 -3.412 36.393 -3.475 QT
36.393 -3.537 36.432 -3.584 QT
36.471 -3.631 36.533 -3.631 QT
41.127 -3.631 L
41.189 -3.631 41.229 -3.584 QT
41.268 -3.537 41.268 -3.475 QT
41.268 -3.412 41.229 -3.365 QT
41.189 -3.318 41.127 -3.318 QT
36.533 -3.318 L
cp}def
f2054515879
f
GR
GS
[0.75 0 0 0.75 323.02464 71.86094] CT
N
/f-1652969180{42.598 -2.693 M
42.598 -3.178 42.91 -3.545 QT
43.223 -3.912 43.723 -4.162 QT
43.426 -4.35 L
43.145 -4.522 42.973 -4.826 QT
42.801 -5.131 42.801 -5.459 QT
42.801 -5.834 43.004 -6.147 QT
43.207 -6.459 43.543 -6.631 QT
43.879 -6.803 44.254 -6.803 QT
44.613 -6.803 44.942 -6.662 QT
45.27 -6.522 45.481 -6.248 QT
45.692 -5.975 45.692 -5.6 QT
45.692 -5.334 45.567 -5.108 QT
45.442 -4.881 45.223 -4.693 QT
45.004 -4.506 44.754 -4.381 QT
45.207 -4.084 L
45.52 -3.881 45.715 -3.545 QT
45.91 -3.209 45.91 -2.834 QT
45.91 -2.397 45.676 -2.045 QT
45.442 -1.693 45.059 -1.498 QT
44.676 -1.303 44.254 -1.303 QT
43.848 -1.303 43.457 -1.467 QT
43.067 -1.631 42.832 -1.951 QT
42.598 -2.272 42.598 -2.693 QT
cp
43.02 -2.693 M
43.02 -2.381 43.199 -2.115 QT
43.379 -1.85 43.66 -1.701 QT
43.942 -1.553 44.254 -1.553 QT
44.723 -1.553 45.098 -1.826 QT
45.473 -2.1 45.473 -2.553 QT
45.473 -2.693 45.418 -2.85 QT
45.363 -3.006 45.254 -3.123 QT
45.145 -3.24 45.004 -3.318 QT
43.942 -4.022 L
43.692 -3.881 43.481 -3.678 QT
43.27 -3.475 43.145 -3.225 QT
43.02 -2.975 43.02 -2.693 QT
cp
43.582 -5.131 M
44.551 -4.506 L
44.879 -4.709 45.098 -4.983 QT
45.317 -5.256 45.317 -5.6 QT
45.317 -5.881 45.16 -6.1 QT
45.004 -6.318 44.762 -6.443 QT
44.52 -6.568 44.254 -6.568 QT
44.004 -6.568 43.762 -6.475 QT
43.52 -6.381 43.356 -6.201 QT
43.192 -6.022 43.192 -5.772 QT
43.192 -5.397 43.582 -5.131 QT
cp}def
f-1652969180
f
GR
GS
[0.75 0 0 0.75 0 0] CT
0.494 0.184 0.557 RC
1 LJ
2 LW
N
387.974 95.815 M
427.719 95.815 L
S
GR
GS
[0.75 0 0 0.75 0 0] CT
0.149 GC
10.0 ML
0.667 LW
N
384 105 M
384 42 L
496 42 L
496 105 L
cp
S
GR
%%Trailer
%%Pages: 1
%%EOF
