%!PS-Adobe-3.0 EPSF-3.0
%%Creator: (MATLAB, The Mathworks, Inc. Version 9.5.0.944444 \(R2018b\). Operating System: Windows 10)
%%Title: F:/Studium/__Bachelorarbeit/tex/images/tikhonov-oversmoothed-0.9S1.eps
%%CreationDate: 2020-06-30T17:02:53
%%Pages: (atend)
%%BoundingBox: 0 0 420 315
%%LanguageLevel: 3
%%EndComments
%%BeginProlog
%%BeginResource: procset (Apache XML Graphics Std ProcSet) 1.2 0
%%Version: 1.2 0
%%Copyright: (Copyright 2001-2003,2010 The Apache Software Foundation. License terms: http://www.apache.org/licenses/LICENSE-2.0)
/bd{bind def}bind def
/ld{load def}bd
/GR/grestore ld
/GS/gsave ld
/RM/rmoveto ld
/C/curveto ld
/t/show ld
/L/lineto ld
/ML/setmiterlimit ld
/CT/concat ld
/f/fill ld
/N/newpath ld
/S/stroke ld
/CC/setcmykcolor ld
/A/ashow ld
/cp/closepath ld
/RC/setrgbcolor ld
/LJ/setlinejoin ld
/GC/setgray ld
/LW/setlinewidth ld
/M/moveto ld
/re {4 2 roll M
1 index 0 rlineto
0 exch rlineto
neg 0 rlineto
cp } bd
/_ctm matrix def
/_tm matrix def
/BT { _ctm currentmatrix pop matrix _tm copy pop 0 0 moveto } bd
/ET { _ctm setmatrix } bd
/iTm { _ctm setmatrix _tm concat } bd
/Tm { _tm astore pop iTm 0 0 moveto } bd
/ux 0.0 def
/uy 0.0 def
/F {
  /Tp exch def
  /Tf exch def
  Tf findfont Tp scalefont setfont
  /cf Tf def  /cs Tp def
} bd
/ULS {currentpoint /uy exch def /ux exch def} bd
/ULE {
  /Tcx currentpoint pop def
  gsave
  newpath
  cf findfont cs scalefont dup
  /FontMatrix get 0 get /Ts exch def /FontInfo get dup
  /UnderlinePosition get Ts mul /To exch def
  /UnderlineThickness get Ts mul /Tt exch def
  ux uy To add moveto  Tcx uy To add lineto
  Tt setlinewidth stroke
  grestore
} bd
/OLE {
  /Tcx currentpoint pop def
  gsave
  newpath
  cf findfont cs scalefont dup
  /FontMatrix get 0 get /Ts exch def /FontInfo get dup
  /UnderlinePosition get Ts mul /To exch def
  /UnderlineThickness get Ts mul /Tt exch def
  ux uy To add cs add moveto Tcx uy To add cs add lineto
  Tt setlinewidth stroke
  grestore
} bd
/SOE {
  /Tcx currentpoint pop def
  gsave
  newpath
  cf findfont cs scalefont dup
  /FontMatrix get 0 get /Ts exch def /FontInfo get dup
  /UnderlinePosition get Ts mul /To exch def
  /UnderlineThickness get Ts mul /Tt exch def
  ux uy To add cs 10 mul 26 idiv add moveto Tcx uy To add cs 10 mul 26 idiv add lineto
  Tt setlinewidth stroke
  grestore
} bd
/QT {
/Y22 exch store
/X22 exch store
/Y21 exch store
/X21 exch store
currentpoint
/Y21 load 2 mul add 3 div exch
/X21 load 2 mul add 3 div exch
/X21 load 2 mul /X22 load add 3 div
/Y21 load 2 mul /Y22 load add 3 div
/X22 load /Y22 load curveto
} bd
/SSPD {
dup length /d exch dict def
{
/v exch def
/k exch def
currentpagedevice k known {
/cpdv currentpagedevice k get def
v cpdv ne {
/upd false def
/nullv v type /nulltype eq def
/nullcpdv cpdv type /nulltype eq def
nullv nullcpdv or
{
/upd true def
} {
/sametype v type cpdv type eq def
sametype {
v type /arraytype eq {
/vlen v length def
/cpdvlen cpdv length def
vlen cpdvlen eq {
0 1 vlen 1 sub {
/i exch def
/obj v i get def
/cpdobj cpdv i get def
obj cpdobj ne {
/upd true def
exit
} if
} for
} {
/upd true def
} ifelse
} {
v type /dicttype eq {
v {
/dv exch def
/dk exch def
/cpddv cpdv dk get def
dv cpddv ne {
/upd true def
exit
} if
} forall
} {
/upd true def
} ifelse
} ifelse
} if
} ifelse
upd true eq {
d k v put
} if
} if
} if
} forall
d length 0 gt {
d setpagedevice
} if
} bd
/RE { % /NewFontName [NewEncodingArray] /FontName RE -
  findfont dup length dict begin
  {
    1 index /FID ne
    {def} {pop pop} ifelse
  } forall
  /Encoding exch def
  /FontName 1 index def
  currentdict definefont pop
  end
} bind def
%%EndResource
%%BeginResource: procset (Apache XML Graphics EPS ProcSet) 1.0 0
%%Version: 1.0 0
%%Copyright: (Copyright 2002-2003 The Apache Software Foundation. License terms: http://www.apache.org/licenses/LICENSE-2.0)
/BeginEPSF { %def
/b4_Inc_state save def         % Save state for cleanup
/dict_count countdictstack def % Count objects on dict stack
/op_count count 1 sub def      % Count objects on operand stack
userdict begin                 % Push userdict on dict stack
/showpage { } def              % Redefine showpage, { } = null proc
0 setgray 0 setlinecap         % Prepare graphics state
1 setlinewidth 0 setlinejoin
10 setmiterlimit [ ] 0 setdash newpath
/languagelevel where           % If level not equal to 1 then
{pop languagelevel             % set strokeadjust and
1 ne                           % overprint to their defaults.
{false setstrokeadjust false setoverprint
} if
} if
} bd
/EndEPSF { %def
count op_count sub {pop} repeat            % Clean up stacks
countdictstack dict_count sub {end} repeat
b4_Inc_state restore
} bd
%%EndResource
%FOPBeginFontDict
%%IncludeResource: font Courier-Oblique
%%IncludeResource: font Courier-BoldOblique
%%IncludeResource: font Courier-Bold
%%IncludeResource: font ZapfDingbats
%%IncludeResource: font Symbol
%%IncludeResource: font Helvetica
%%IncludeResource: font Helvetica-Oblique
%%IncludeResource: font Helvetica-Bold
%%IncludeResource: font Helvetica-BoldOblique
%%IncludeResource: font Times-Roman
%%IncludeResource: font Times-Italic
%%IncludeResource: font Times-Bold
%%IncludeResource: font Times-BoldItalic
%%IncludeResource: font Courier
%FOPEndFontDict
%%BeginResource: encoding WinAnsiEncoding
/WinAnsiEncoding [
/.notdef /.notdef /.notdef /.notdef /.notdef
/.notdef /.notdef /.notdef /.notdef /.notdef
/.notdef /.notdef /.notdef /.notdef /.notdef
/.notdef /.notdef /.notdef /.notdef /.notdef
/.notdef /.notdef /.notdef /.notdef /.notdef
/.notdef /.notdef /.notdef /.notdef /.notdef
/.notdef /.notdef /space /exclam /quotedbl
/numbersign /dollar /percent /ampersand /quotesingle
/parenleft /parenright /asterisk /plus /comma
/hyphen /period /slash /zero /one
/two /three /four /five /six
/seven /eight /nine /colon /semicolon
/less /equal /greater /question /at
/A /B /C /D /E
/F /G /H /I /J
/K /L /M /N /O
/P /Q /R /S /T
/U /V /W /X /Y
/Z /bracketleft /backslash /bracketright /asciicircum
/underscore /quoteleft /a /b /c
/d /e /f /g /h
/i /j /k /l /m
/n /o /p /q /r
/s /t /u /v /w
/x /y /z /braceleft /bar
/braceright /asciitilde /bullet /Euro /bullet
/quotesinglbase /florin /quotedblbase /ellipsis /dagger
/daggerdbl /circumflex /perthousand /Scaron /guilsinglleft
/OE /bullet /Zcaron /bullet /bullet
/quoteleft /quoteright /quotedblleft /quotedblright /bullet
/endash /emdash /asciitilde /trademark /scaron
/guilsinglright /oe /bullet /zcaron /Ydieresis
/space /exclamdown /cent /sterling /currency
/yen /brokenbar /section /dieresis /copyright
/ordfeminine /guillemotleft /logicalnot /sfthyphen /registered
/macron /degree /plusminus /twosuperior /threesuperior
/acute /mu /paragraph /middot /cedilla
/onesuperior /ordmasculine /guillemotright /onequarter /onehalf
/threequarters /questiondown /Agrave /Aacute /Acircumflex
/Atilde /Adieresis /Aring /AE /Ccedilla
/Egrave /Eacute /Ecircumflex /Edieresis /Igrave
/Iacute /Icircumflex /Idieresis /Eth /Ntilde
/Ograve /Oacute /Ocircumflex /Otilde /Odieresis
/multiply /Oslash /Ugrave /Uacute /Ucircumflex
/Udieresis /Yacute /Thorn /germandbls /agrave
/aacute /acircumflex /atilde /adieresis /aring
/ae /ccedilla /egrave /eacute /ecircumflex
/edieresis /igrave /iacute /icircumflex /idieresis
/eth /ntilde /ograve /oacute /ocircumflex
/otilde /odieresis /divide /oslash /ugrave
/uacute /ucircumflex /udieresis /yacute /thorn
/ydieresis
] def
%%EndResource
%FOPBeginFontReencode
/Courier-Oblique findfont
dup length dict begin
  {1 index /FID ne {def} {pop pop} ifelse} forall
  /Encoding WinAnsiEncoding def
  currentdict
end
/Courier-Oblique exch definefont pop
/Courier-BoldOblique findfont
dup length dict begin
  {1 index /FID ne {def} {pop pop} ifelse} forall
  /Encoding WinAnsiEncoding def
  currentdict
end
/Courier-BoldOblique exch definefont pop
/Courier-Bold findfont
dup length dict begin
  {1 index /FID ne {def} {pop pop} ifelse} forall
  /Encoding WinAnsiEncoding def
  currentdict
end
/Courier-Bold exch definefont pop
/Helvetica findfont
dup length dict begin
  {1 index /FID ne {def} {pop pop} ifelse} forall
  /Encoding WinAnsiEncoding def
  currentdict
end
/Helvetica exch definefont pop
/Helvetica-Oblique findfont
dup length dict begin
  {1 index /FID ne {def} {pop pop} ifelse} forall
  /Encoding WinAnsiEncoding def
  currentdict
end
/Helvetica-Oblique exch definefont pop
/Helvetica-Bold findfont
dup length dict begin
  {1 index /FID ne {def} {pop pop} ifelse} forall
  /Encoding WinAnsiEncoding def
  currentdict
end
/Helvetica-Bold exch definefont pop
/Helvetica-BoldOblique findfont
dup length dict begin
  {1 index /FID ne {def} {pop pop} ifelse} forall
  /Encoding WinAnsiEncoding def
  currentdict
end
/Helvetica-BoldOblique exch definefont pop
/Times-Roman findfont
dup length dict begin
  {1 index /FID ne {def} {pop pop} ifelse} forall
  /Encoding WinAnsiEncoding def
  currentdict
end
/Times-Roman exch definefont pop
/Times-Italic findfont
dup length dict begin
  {1 index /FID ne {def} {pop pop} ifelse} forall
  /Encoding WinAnsiEncoding def
  currentdict
end
/Times-Italic exch definefont pop
/Times-Bold findfont
dup length dict begin
  {1 index /FID ne {def} {pop pop} ifelse} forall
  /Encoding WinAnsiEncoding def
  currentdict
end
/Times-Bold exch definefont pop
/Times-BoldItalic findfont
dup length dict begin
  {1 index /FID ne {def} {pop pop} ifelse} forall
  /Encoding WinAnsiEncoding def
  currentdict
end
/Times-BoldItalic exch definefont pop
/Courier findfont
dup length dict begin
  {1 index /FID ne {def} {pop pop} ifelse} forall
  /Encoding WinAnsiEncoding def
  currentdict
end
/Courier exch definefont pop
%FOPEndFontReencode
%%EndProlog
%%Page: 1 1
%%PageBoundingBox: 0 0 420 315
%%BeginPageSetup
[1 0 0 -1 0 315] CT
%%EndPageSetup
GS
[0.75 0 0 0.75 0 0] CT
1 GC
N
0 0 560 420 re
f
GR
GS
[0.75 0 0 0.75 0 0] CT
1 GC
N
0 0 560 420 re
f
GR
GS
[0.75 0 0 0.75 0 0] CT
1 GC
N
73 374 M
507 374 L
507 31 L
73 31 L
cp
f
GR
GS
[0.75 0 0 0.75 0 0] CT
0.149 GC
2 setlinecap
1 LJ
0.667 LW
N
73 374 M
507 374 L
S
GR
GS
[0.75 0 0 0.75 0 0] CT
0.149 GC
2 setlinecap
1 LJ
0.667 LW
N
73 31 M
507 31 L
S
GR
GS
[0.75 0 0 0.75 0 0] CT
0.149 GC
2 setlinecap
1 LJ
0.667 LW
N
73 374 M
73 369.66 L
S
GR
GS
[0.75 0 0 0.75 0 0] CT
0.149 GC
2 setlinecap
1 LJ
0.667 LW
N
116.4 374 M
116.4 369.66 L
S
GR
GS
[0.75 0 0 0.75 0 0] CT
0.149 GC
2 setlinecap
1 LJ
0.667 LW
N
159.8 374 M
159.8 369.66 L
S
GR
GS
[0.75 0 0 0.75 0 0] CT
0.149 GC
2 setlinecap
1 LJ
0.667 LW
N
203.2 374 M
203.2 369.66 L
S
GR
GS
[0.75 0 0 0.75 0 0] CT
0.149 GC
2 setlinecap
1 LJ
0.667 LW
N
246.6 374 M
246.6 369.66 L
S
GR
GS
[0.75 0 0 0.75 0 0] CT
0.149 GC
2 setlinecap
1 LJ
0.667 LW
N
290 374 M
290 369.66 L
S
GR
GS
[0.75 0 0 0.75 0 0] CT
0.149 GC
2 setlinecap
1 LJ
0.667 LW
N
333.4 374 M
333.4 369.66 L
S
GR
GS
[0.75 0 0 0.75 0 0] CT
0.149 GC
2 setlinecap
1 LJ
0.667 LW
N
376.8 374 M
376.8 369.66 L
S
GR
GS
[0.75 0 0 0.75 0 0] CT
0.149 GC
2 setlinecap
1 LJ
0.667 LW
N
420.2 374 M
420.2 369.66 L
S
GR
GS
[0.75 0 0 0.75 0 0] CT
0.149 GC
2 setlinecap
1 LJ
0.667 LW
N
463.6 374 M
463.6 369.66 L
S
GR
GS
[0.75 0 0 0.75 0 0] CT
0.149 GC
2 setlinecap
1 LJ
0.667 LW
N
507 374 M
507 369.66 L
S
GR
GS
[0.75 0 0 0.75 0 0] CT
0.149 GC
2 setlinecap
1 LJ
0.667 LW
N
73 31 M
73 35.34 L
S
GR
GS
[0.75 0 0 0.75 0 0] CT
0.149 GC
2 setlinecap
1 LJ
0.667 LW
N
116.4 31 M
116.4 35.34 L
S
GR
GS
[0.75 0 0 0.75 0 0] CT
0.149 GC
2 setlinecap
1 LJ
0.667 LW
N
159.8 31 M
159.8 35.34 L
S
GR
GS
[0.75 0 0 0.75 0 0] CT
0.149 GC
2 setlinecap
1 LJ
0.667 LW
N
203.2 31 M
203.2 35.34 L
S
GR
GS
[0.75 0 0 0.75 0 0] CT
0.149 GC
2 setlinecap
1 LJ
0.667 LW
N
246.6 31 M
246.6 35.34 L
S
GR
GS
[0.75 0 0 0.75 0 0] CT
0.149 GC
2 setlinecap
1 LJ
0.667 LW
N
290 31 M
290 35.34 L
S
GR
GS
[0.75 0 0 0.75 0 0] CT
0.149 GC
2 setlinecap
1 LJ
0.667 LW
N
333.4 31 M
333.4 35.34 L
S
GR
GS
[0.75 0 0 0.75 0 0] CT
0.149 GC
2 setlinecap
1 LJ
0.667 LW
N
376.8 31 M
376.8 35.34 L
S
GR
GS
[0.75 0 0 0.75 0 0] CT
0.149 GC
2 setlinecap
1 LJ
0.667 LW
N
420.2 31 M
420.2 35.34 L
S
GR
GS
[0.75 0 0 0.75 0 0] CT
0.149 GC
2 setlinecap
1 LJ
0.667 LW
N
463.6 31 M
463.6 35.34 L
S
GR
GS
[0.75 0 0 0.75 0 0] CT
0.149 GC
2 setlinecap
1 LJ
0.667 LW
N
507 31 M
507 35.34 L
S
GR
GS
[0.75 0 0 0.75 54.75 284.50001] CT
0.149 GC
/Helvetica 13.333 F
GS
[1 0 0 1 0 0] CT
-4 14 moveto 
1 -1 scale
(0) t 
GR
GR
GS
[0.75 0 0 0.75 87.3 284.50001] CT
0.149 GC
/Helvetica 13.333 F
GS
[1 0 0 1 0 0] CT
-9.5 14 moveto 
1 -1 scale
(0.1) t 
GR
GR
GS
[0.75 0 0 0.75 119.85 284.50001] CT
0.149 GC
/Helvetica 13.333 F
GS
[1 0 0 1 0 0] CT
-9.5 14 moveto 
1 -1 scale
(0.2) t 
GR
GR
GS
[0.75 0 0 0.75 152.40001 284.50001] CT
0.149 GC
/Helvetica 13.333 F
GS
[1 0 0 1 0 0] CT
-9.5 14 moveto 
1 -1 scale
(0.3) t 
GR
GR
GS
[0.75 0 0 0.75 184.95 284.50001] CT
0.149 GC
/Helvetica 13.333 F
GS
[1 0 0 1 0 0] CT
-9.5 14 moveto 
1 -1 scale
(0.4) t 
GR
GR
GS
[0.75 0 0 0.75 217.5 284.50001] CT
0.149 GC
/Helvetica 13.333 F
GS
[1 0 0 1 0 0] CT
-9.5 14 moveto 
1 -1 scale
(0.5) t 
GR
GR
GS
[0.75 0 0 0.75 250.05002 284.50001] CT
0.149 GC
/Helvetica 13.333 F
GS
[1 0 0 1 0 0] CT
-9.5 14 moveto 
1 -1 scale
(0.6) t 
GR
GR
GS
[0.75 0 0 0.75 282.59999 284.50001] CT
0.149 GC
/Helvetica 13.333 F
GS
[1 0 0 1 0 0] CT
-9.5 14 moveto 
1 -1 scale
(0.7) t 
GR
GR
GS
[0.75 0 0 0.75 315.15001 284.50001] CT
0.149 GC
/Helvetica 13.333 F
GS
[1 0 0 1 0 0] CT
-9.5 14 moveto 
1 -1 scale
(0.8) t 
GR
GR
GS
[0.75 0 0 0.75 347.69998 284.50001] CT
0.149 GC
/Helvetica 13.333 F
GS
[1 0 0 1 0 0] CT
-9.5 14 moveto 
1 -1 scale
(0.9) t 
GR
GR
GS
[0.75 0 0 0.75 380.25 284.50001] CT
0.149 GC
/Helvetica 13.333 F
GS
[1 0 0 1 0 0] CT
-4 14 moveto 
1 -1 scale
(1) t 
GR
GR
GS
[0.75 0 0 0.75 0 0] CT
0.149 GC
2 setlinecap
1 LJ
0.667 LW
N
73 374 M
73 31 L
S
GR
GS
[0.75 0 0 0.75 0 0] CT
0.149 GC
2 setlinecap
1 LJ
0.667 LW
N
507 374 M
507 31 L
S
GR
GS
[0.75 0 0 0.75 0 0] CT
0.149 GC
2 setlinecap
1 LJ
0.667 LW
N
73 374 M
77.34 374 L
S
GR
GS
[0.75 0 0 0.75 0 0] CT
0.149 GC
2 setlinecap
1 LJ
0.667 LW
N
73 335.889 M
77.34 335.889 L
S
GR
GS
[0.75 0 0 0.75 0 0] CT
0.149 GC
2 setlinecap
1 LJ
0.667 LW
N
73 297.778 M
77.34 297.778 L
S
GR
GS
[0.75 0 0 0.75 0 0] CT
0.149 GC
2 setlinecap
1 LJ
0.667 LW
N
73 259.667 M
77.34 259.667 L
S
GR
GS
[0.75 0 0 0.75 0 0] CT
0.149 GC
2 setlinecap
1 LJ
0.667 LW
N
73 221.556 M
77.34 221.556 L
S
GR
GS
[0.75 0 0 0.75 0 0] CT
0.149 GC
2 setlinecap
1 LJ
0.667 LW
N
73 183.444 M
77.34 183.444 L
S
GR
GS
[0.75 0 0 0.75 0 0] CT
0.149 GC
2 setlinecap
1 LJ
0.667 LW
N
73 145.333 M
77.34 145.333 L
S
GR
GS
[0.75 0 0 0.75 0 0] CT
0.149 GC
2 setlinecap
1 LJ
0.667 LW
N
73 107.222 M
77.34 107.222 L
S
GR
GS
[0.75 0 0 0.75 0 0] CT
0.149 GC
2 setlinecap
1 LJ
0.667 LW
N
73 69.111 M
77.34 69.111 L
S
GR
GS
[0.75 0 0 0.75 0 0] CT
0.149 GC
2 setlinecap
1 LJ
0.667 LW
N
73 31 M
77.34 31 L
S
GR
GS
[0.75 0 0 0.75 0 0] CT
0.149 GC
2 setlinecap
1 LJ
0.667 LW
N
507 374 M
502.66 374 L
S
GR
GS
[0.75 0 0 0.75 0 0] CT
0.149 GC
2 setlinecap
1 LJ
0.667 LW
N
507 335.889 M
502.66 335.889 L
S
GR
GS
[0.75 0 0 0.75 0 0] CT
0.149 GC
2 setlinecap
1 LJ
0.667 LW
N
507 297.778 M
502.66 297.778 L
S
GR
GS
[0.75 0 0 0.75 0 0] CT
0.149 GC
2 setlinecap
1 LJ
0.667 LW
N
507 259.667 M
502.66 259.667 L
S
GR
GS
[0.75 0 0 0.75 0 0] CT
0.149 GC
2 setlinecap
1 LJ
0.667 LW
N
507 221.556 M
502.66 221.556 L
S
GR
GS
[0.75 0 0 0.75 0 0] CT
0.149 GC
2 setlinecap
1 LJ
0.667 LW
N
507 183.444 M
502.66 183.444 L
S
GR
GS
[0.75 0 0 0.75 0 0] CT
0.149 GC
2 setlinecap
1 LJ
0.667 LW
N
507 145.333 M
502.66 145.333 L
S
GR
GS
[0.75 0 0 0.75 0 0] CT
0.149 GC
2 setlinecap
1 LJ
0.667 LW
N
507 107.222 M
502.66 107.222 L
S
GR
GS
[0.75 0 0 0.75 0 0] CT
0.149 GC
2 setlinecap
1 LJ
0.667 LW
N
507 69.111 M
502.66 69.111 L
S
GR
GS
[0.75 0 0 0.75 0 0] CT
0.149 GC
2 setlinecap
1 LJ
0.667 LW
N
507 31 M
502.66 31 L
S
GR
GS
[0.75 0 0 0.75 50.75 280.5] CT
0.149 GC
/Helvetica 13.333 F
GS
[1 0 0 1 0 0] CT
-8 5.5 moveto 
1 -1 scale
(0) t 
GR
GR
GS
[0.75 0 0 0.75 50.75 251.91666] CT
0.149 GC
/Helvetica 13.333 F
GS
[1 0 0 1 0 0] CT
-26 5.5 moveto 
1 -1 scale
(0.05) t 
GR
GR
GS
[0.75 0 0 0.75 50.75 223.33333] CT
0.149 GC
/Helvetica 13.333 F
GS
[1 0 0 1 0 0] CT
-19 5.5 moveto 
1 -1 scale
(0.1) t 
GR
GR
GS
[0.75 0 0 0.75 50.75 194.74999] CT
0.149 GC
/Helvetica 13.333 F
GS
[1 0 0 1 0 0] CT
-26 5.5 moveto 
1 -1 scale
(0.15) t 
GR
GR
GS
[0.75 0 0 0.75 50.75 166.16667] CT
0.149 GC
/Helvetica 13.333 F
GS
[1 0 0 1 0 0] CT
-19 5.5 moveto 
1 -1 scale
(0.2) t 
GR
GR
GS
[0.75 0 0 0.75 50.75 137.58333] CT
0.149 GC
/Helvetica 13.333 F
GS
[1 0 0 1 0 0] CT
-26 5.5 moveto 
1 -1 scale
(0.25) t 
GR
GR
GS
[0.75 0 0 0.75 50.75 109] CT
0.149 GC
/Helvetica 13.333 F
GS
[1 0 0 1 0 0] CT
-19 5.5 moveto 
1 -1 scale
(0.3) t 
GR
GR
GS
[0.75 0 0 0.75 50.75 80.41667] CT
0.149 GC
/Helvetica 13.333 F
GS
[1 0 0 1 0 0] CT
-26 5.5 moveto 
1 -1 scale
(0.35) t 
GR
GR
GS
[0.75 0 0 0.75 50.75 51.83333] CT
0.149 GC
/Helvetica 13.333 F
GS
[1 0 0 1 0 0] CT
-19 5.5 moveto 
1 -1 scale
(0.4) t 
GR
GR
GS
[0.75 0 0 0.75 50.75 23.25001] CT
0.149 GC
/Helvetica 13.333 F
GS
[1 0 0 1 0 0] CT
-26 5.5 moveto 
1 -1 scale
(0.45) t 
GR
GR
GS
[0.75 0 0 0.75 0 0] CT
0 0.447 0.741 RC
1 LJ
0.667 LW
N
73 374 M
87.966 347.732 L
102.931 321.564 L
117.897 295.602 L
132.862 269.963 L
147.828 244.775 L
162.793 220.178 L
177.759 196.321 L
192.724 173.368 L
207.69 151.495 L
222.655 130.894 L
237.621 111.77 L
252.586 94.344 L
267.552 78.857 L
282.517 65.565 L
297.483 54.743 L
312.448 46.69 L
327.414 41.722 L
342.379 40.18 L
357.345 42.429 L
372.31 48.859 L
387.276 59.888 L
402.241 75.962 L
417.207 97.557 L
432.172 125.181 L
447.138 159.376 L
462.103 200.72 L
477.069 249.828 L
492.034 307.356 L
507 374 L
S
GR
GS
[0.75 0 0 0.75 0 0] CT
0.851 0.325 0.098 RC
1 LJ
0.667 LW
N
73 341.704 M
87.966 309.739 L
102.931 278.434 L
117.897 248.109 L
132.862 219.076 L
147.828 191.633 L
162.793 166.061 L
177.759 142.623 L
192.724 121.559 L
207.69 103.085 L
222.655 87.392 L
237.621 74.639 L
252.586 64.958 L
267.552 58.449 L
282.517 55.177 L
297.483 55.177 L
312.448 58.449 L
327.414 64.958 L
342.379 74.639 L
357.345 87.392 L
372.31 103.085 L
387.276 121.559 L
402.241 142.623 L
417.207 166.061 L
432.172 191.633 L
447.138 219.076 L
462.103 248.109 L
477.069 278.434 L
492.034 309.739 L
507 341.704 L
S
GR
GS
[0.75 0 0 0.75 0 0] CT
1 GC
N
496 76 M
496 42 L
387 42 L
387 76 L
cp
f
GR
GS
[0.75 0 0 0.75 325.47155 38.31956] CT
N
1.953 4.755 M
1.969 4.614 2.125 4.614 QT
2.141 4.614 2.352 4.732 QT
2.563 4.849 2.82 4.942 QT
3.078 5.036 3.328 5.036 QT
3.563 5.036 3.711 4.841 QT
3.859 4.646 3.859 4.427 QT
3.859 4.114 3.531 3.989 QT
1.484 3.192 L
0.969 2.989 0.625 2.583 QT
0.281 2.177 0.281 1.661 QT
0.281 1.192 0.523 0.692 QT
0.766 0.192 1.156 -0.214 QT
1.547 -0.62 1.984 -0.87 QT
1.625 -1.089 1.43 -1.417 QT
1.234 -1.745 1.234 -2.151 QT
1.234 -2.573 1.406 -2.933 QT
1.578 -3.292 1.883 -3.597 QT
2.188 -3.901 2.555 -4.104 QT
2.922 -4.308 3.297 -4.417 QT
3.234 -4.667 3.234 -4.854 QT
3.234 -5.511 3.5 -5.511 QT
3.563 -5.511 3.609 -5.464 QT
3.656 -5.417 3.656 -5.354 QT
3.656 -5.292 3.625 -5.097 QT
3.594 -4.901 3.594 -4.854 QT
3.594 -4.651 3.641 -4.479 QT
3.953 -4.558 4.234 -4.558 QT
5.344 -4.558 5.344 -4.214 QT
5.344 -3.808 4.109 -3.808 QT
3.734 -3.808 3.5 -4.058 QT
3.156 -3.886 2.867 -3.565 QT
2.578 -3.245 2.414 -2.847 QT
2.25 -2.448 2.25 -2.042 QT
2.25 -1.479 2.563 -1.136 QT
3 -1.292 3.422 -1.292 QT
4.531 -1.292 4.531 -0.948 QT
4.531 -0.542 3.297 -0.542 QT
2.797 -0.542 2.359 -0.698 QT
1.828 -0.401 1.383 0.185 QT
0.938 0.771 0.938 1.302 QT
0.938 1.661 1.195 1.927 QT
1.453 2.192 1.828 2.349 QT
3.953 3.177 L
4.219 3.286 4.398 3.521 QT
4.578 3.755 4.578 4.052 QT
4.578 4.536 4.195 4.942 QT
3.813 5.349 3.328 5.349 QT
3.172 5.349 2.828 5.263 QT
2.484 5.177 2.219 5.044 QT
1.953 4.911 1.953 4.755 QT
cp
2.938 -0.917 M
3.094 -0.854 3.328 -0.854 QT
3.906 -0.854 4.156 -0.917 QT
3.922 -0.964 3.406 -0.964 QT
3.203 -0.964 2.938 -0.917 QT
cp
3.844 -4.183 M
3.953 -4.12 4.141 -4.12 QT
4.719 -4.12 4.969 -4.183 QT
3.844 -4.183 L
cp
f
GR
GS
[0.75 0 0 0.75 325.47155 38.31956] CT
N
13.521 5.864 M
12.849 5.333 12.372 4.646 QT
11.896 3.958 11.583 3.185 QT
11.271 2.411 11.122 1.567 QT
10.974 0.724 10.974 -0.12 QT
10.974 -0.979 11.122 -1.823 QT
11.271 -2.667 11.583 -3.448 QT
11.896 -4.229 12.388 -4.909 QT
12.88 -5.589 13.521 -6.104 QT
13.521 -6.12 13.583 -6.12 QT
13.693 -6.12 L
13.724 -6.12 13.755 -6.089 QT
13.786 -6.058 13.786 -6.011 QT
13.786 -5.964 13.771 -5.933 QT
13.177 -5.37 12.786 -4.714 QT
12.396 -4.058 12.161 -3.315 QT
11.927 -2.573 11.818 -1.776 QT
11.708 -0.979 11.708 -0.12 QT
11.708 3.692 13.755 5.677 QT
13.786 5.708 13.786 5.771 QT
13.786 5.802 13.755 5.841 QT
13.724 5.88 13.693 5.88 QT
13.583 5.88 L
13.521 5.88 13.521 5.864 QT
cp
f
GR
GS
[0.75 0 0 0.75 325.47155 38.31956] CT
N
17.453 3.021 M
16.719 3.021 16.109 2.63 QT
15.5 2.239 15.148 1.599 QT
14.797 0.958 14.797 0.255 QT
14.797 -0.448 15.117 -1.081 QT
15.438 -1.714 16.008 -2.104 QT
16.578 -2.495 17.281 -2.495 QT
17.844 -2.495 18.25 -2.315 QT
18.656 -2.136 18.922 -1.808 QT
19.188 -1.479 19.32 -1.034 QT
19.453 -0.589 19.453 -0.058 QT
19.453 0.114 19.328 0.114 QT
15.859 0.114 L
15.859 0.239 L
15.859 1.239 16.258 1.95 QT
16.656 2.661 17.563 2.661 QT
17.938 2.661 18.25 2.497 QT
18.563 2.333 18.789 2.044 QT
19.016 1.755 19.109 1.411 QT
19.109 1.38 19.148 1.341 QT
19.188 1.302 19.219 1.302 QT
19.328 1.302 L
19.453 1.302 19.453 1.458 QT
19.281 2.146 18.719 2.583 QT
18.156 3.021 17.453 3.021 QT
cp
15.859 -0.198 M
18.594 -0.198 L
18.594 -0.636 18.469 -1.104 QT
18.344 -1.573 18.055 -1.878 QT
17.766 -2.183 17.281 -2.183 QT
16.609 -2.183 16.234 -1.55 QT
15.859 -0.917 15.859 -0.198 QT
cp
f
GR
GS
[0.75 0 0 0.75 325.47155 38.31956] CT
N
19.943 2.88 M
19.943 2.458 L
20.411 2.458 20.81 2.278 QT
21.208 2.099 21.49 1.755 QT
22.583 0.364 L
21.161 -1.479 L
20.958 -1.745 20.708 -1.808 QT
20.458 -1.87 20.005 -1.87 QT
20.005 -2.292 L
22.505 -2.292 L
22.505 -1.87 L
22.349 -1.87 22.208 -1.8 QT
22.068 -1.729 22.068 -1.604 QT
22.068 -1.558 22.099 -1.479 QT
23.068 -0.245 L
23.786 -1.167 L
23.927 -1.339 23.927 -1.511 QT
23.927 -1.667 23.833 -1.768 QT
23.74 -1.87 23.583 -1.87 QT
23.583 -2.292 L
25.786 -2.292 L
25.786 -1.87 L
25.333 -1.87 24.927 -1.69 QT
24.521 -1.511 24.24 -1.167 QT
23.286 0.052 L
24.818 2.083 L
25.052 2.333 25.294 2.396 QT
25.536 2.458 25.99 2.458 QT
25.99 2.88 L
23.505 2.88 L
23.505 2.458 L
23.646 2.458 23.779 2.388 QT
23.911 2.317 23.911 2.177 QT
23.911 2.13 23.88 2.083 QT
22.802 0.646 L
21.943 1.755 L
21.802 1.896 21.802 2.099 QT
21.802 2.239 21.904 2.349 QT
22.005 2.458 22.146 2.458 QT
22.146 2.88 L
19.943 2.88 L
cp
f
GR
GS
[0.75 0 0 0.75 325.47155 38.31956] CT
N
26.62 1.708 M
26.62 0.989 27.182 0.536 QT
27.745 0.083 28.534 -0.097 QT
29.323 -0.276 30.026 -0.276 QT
30.026 -0.776 L
30.026 -1.12 29.878 -1.44 QT
29.729 -1.761 29.44 -1.972 QT
29.151 -2.183 28.807 -2.183 QT
28.01 -2.183 27.589 -1.823 QT
27.823 -1.823 27.971 -1.651 QT
28.12 -1.479 28.12 -1.245 QT
28.12 -1.011 27.948 -0.839 QT
27.776 -0.667 27.542 -0.667 QT
27.307 -0.667 27.135 -0.839 QT
26.964 -1.011 26.964 -1.245 QT
26.964 -1.886 27.534 -2.19 QT
28.104 -2.495 28.807 -2.495 QT
29.292 -2.495 29.784 -2.292 QT
30.276 -2.089 30.589 -1.698 QT
30.901 -1.308 30.901 -0.792 QT
30.901 1.911 L
30.901 2.146 31.003 2.341 QT
31.104 2.536 31.307 2.536 QT
31.51 2.536 31.604 2.333 QT
31.698 2.13 31.698 1.911 QT
31.698 1.146 L
32.057 1.146 L
32.057 1.911 L
32.057 2.177 31.917 2.419 QT
31.776 2.661 31.534 2.81 QT
31.292 2.958 31.026 2.958 QT
30.667 2.958 30.417 2.685 QT
30.167 2.411 30.135 2.036 QT
29.917 2.474 29.479 2.747 QT
29.042 3.021 28.557 3.021 QT
28.089 3.021 27.651 2.88 QT
27.214 2.739 26.917 2.45 QT
26.62 2.161 26.62 1.708 QT
cp
27.589 1.708 M
27.589 2.13 27.901 2.411 QT
28.214 2.692 28.635 2.692 QT
29.026 2.692 29.339 2.505 QT
29.651 2.317 29.839 1.982 QT
30.026 1.646 30.026 1.271 QT
30.026 0.021 L
29.479 0.021 28.909 0.2 QT
28.339 0.38 27.964 0.763 QT
27.589 1.146 27.589 1.708 QT
cp
f
GR
GS
[0.75 0 0 0.75 325.47155 38.31956] CT
N
32.448 2.88 M
32.448 2.458 L
32.854 2.458 33.12 2.396 QT
33.385 2.333 33.385 2.083 QT
33.385 -4.229 L
33.385 -4.542 33.292 -4.69 QT
33.198 -4.839 33.01 -4.87 QT
32.823 -4.901 32.448 -4.901 QT
32.448 -5.323 L
34.229 -5.448 L
34.229 0.255 L
35.839 -1.167 L
36.073 -1.386 36.073 -1.589 QT
36.073 -1.729 35.971 -1.8 QT
35.87 -1.87 35.729 -1.87 QT
35.729 -2.292 L
37.995 -2.292 L
37.995 -1.87 L
37.182 -1.87 36.354 -1.167 QT
35.51 -0.417 L
37.042 1.755 L
37.354 2.192 37.565 2.325 QT
37.776 2.458 38.276 2.458 QT
38.276 2.88 L
35.885 2.88 L
35.885 2.458 L
36.292 2.458 36.292 2.208 QT
36.292 2.021 36.073 1.755 QT
34.917 0.114 L
34.182 0.739 L
34.182 2.083 L
34.182 2.333 34.448 2.396 QT
34.714 2.458 35.12 2.458 QT
35.12 2.88 L
32.448 2.88 L
cp
f
GR
GS
[0.75 0 0 0.75 325.47155 38.31956] CT
N
39.688 1.442 M
39.688 -1.87 L
38.703 -1.87 L
38.703 -2.183 L
39.484 -2.183 39.852 -2.917 QT
40.219 -3.651 40.219 -4.511 QT
40.563 -4.511 L
40.563 -2.292 L
42.266 -2.292 L
42.266 -1.87 L
40.563 -1.87 L
40.563 1.411 L
40.563 1.911 40.734 2.286 QT
40.906 2.661 41.328 2.661 QT
41.75 2.661 41.93 2.263 QT
42.109 1.864 42.109 1.411 QT
42.109 0.708 L
42.453 0.708 L
42.453 1.442 L
42.453 1.817 42.313 2.185 QT
42.172 2.552 41.906 2.786 QT
41.641 3.021 41.25 3.021 QT
40.531 3.021 40.109 2.583 QT
39.688 2.146 39.688 1.442 QT
cp
f
GR
GS
[0.75 0 0 0.75 325.47155 38.31956] CT
N
43.917 5.88 M
43.807 5.88 43.807 5.771 QT
43.807 5.724 43.839 5.692 QT
45.886 3.692 45.886 -0.12 QT
45.886 -3.933 43.854 -5.917 QT
43.807 -5.948 43.807 -6.011 QT
43.807 -6.058 43.839 -6.089 QT
43.87 -6.12 43.917 -6.12 QT
44.026 -6.12 L
44.057 -6.12 44.089 -6.104 QT
44.948 -5.417 45.518 -4.448 QT
46.089 -3.479 46.362 -2.378 QT
46.636 -1.276 46.636 -0.12 QT
46.636 0.724 46.487 1.552 QT
46.339 2.38 46.026 3.177 QT
45.714 3.974 45.237 4.653 QT
44.761 5.333 44.089 5.864 QT
44.057 5.88 44.026 5.88 QT
43.917 5.88 L
cp
f
GR
GS
[0.75 0 0 0.75 0 0] CT
0 0.447 0.741 RC
1 LJ
0.667 LW
N
390.997 51.093 M
430.965 51.093 L
S
GR
GS
[0.75 0 0 0.75 325.47155 49.77236] CT
N
2.234 -6.799 M
2.578 -7.221 L
3.047 -7.752 3.516 -7.752 QT
3.75 -7.752 4.016 -7.619 QT
4.281 -7.486 4.555 -7.353 QT
4.828 -7.221 5.063 -7.221 QT
5.547 -7.221 5.984 -7.752 QT
6.234 -7.549 L
5.875 -7.142 L
5.406 -6.596 4.938 -6.596 QT
4.719 -6.596 4.445 -6.736 QT
4.172 -6.877 3.898 -7.01 QT
3.625 -7.142 3.391 -7.142 QT
2.922 -7.142 2.469 -6.596 QT
2.234 -6.799 L
cp
f
GR
GS
[0.75 0 0 0.75 325.47155 49.77236] CT
N
1.953 5.305 M
1.969 5.165 2.125 5.165 QT
2.141 5.165 2.352 5.282 QT
2.563 5.399 2.82 5.493 QT
3.078 5.587 3.328 5.587 QT
3.563 5.587 3.711 5.391 QT
3.859 5.196 3.859 4.977 QT
3.859 4.665 3.531 4.54 QT
1.484 3.743 L
0.969 3.54 0.625 3.134 QT
0.281 2.727 0.281 2.212 QT
0.281 1.743 0.523 1.243 QT
0.766 0.743 1.156 0.337 QT
1.547 -0.07 1.984 -0.32 QT
1.625 -0.538 1.43 -0.866 QT
1.234 -1.195 1.234 -1.601 QT
1.234 -2.023 1.406 -2.382 QT
1.578 -2.741 1.883 -3.046 QT
2.188 -3.351 2.555 -3.554 QT
2.922 -3.757 3.297 -3.866 QT
3.234 -4.116 3.234 -4.304 QT
3.234 -4.96 3.5 -4.96 QT
3.563 -4.96 3.609 -4.913 QT
3.656 -4.866 3.656 -4.804 QT
3.656 -4.741 3.625 -4.546 QT
3.594 -4.351 3.594 -4.304 QT
3.594 -4.101 3.641 -3.929 QT
3.953 -4.007 4.234 -4.007 QT
5.344 -4.007 5.344 -3.663 QT
5.344 -3.257 4.109 -3.257 QT
3.734 -3.257 3.5 -3.507 QT
3.156 -3.335 2.867 -3.015 QT
2.578 -2.695 2.414 -2.296 QT
2.25 -1.898 2.25 -1.491 QT
2.25 -0.929 2.563 -0.585 QT
3 -0.741 3.422 -0.741 QT
4.531 -0.741 4.531 -0.398 QT
4.531 0.009 3.297 0.009 QT
2.797 0.009 2.359 -0.148 QT
1.828 0.149 1.383 0.735 QT
0.938 1.321 0.938 1.852 QT
0.938 2.212 1.195 2.477 QT
1.453 2.743 1.828 2.899 QT
3.953 3.727 L
4.219 3.837 4.398 4.071 QT
4.578 4.305 4.578 4.602 QT
4.578 5.087 4.195 5.493 QT
3.813 5.899 3.328 5.899 QT
3.172 5.899 2.828 5.813 QT
2.484 5.727 2.219 5.595 QT
1.953 5.462 1.953 5.305 QT
cp
2.938 -0.366 M
3.094 -0.304 3.328 -0.304 QT
3.906 -0.304 4.156 -0.366 QT
3.922 -0.413 3.406 -0.413 QT
3.203 -0.413 2.938 -0.366 QT
cp
3.844 -3.632 M
3.953 -3.57 4.141 -3.57 QT
4.719 -3.57 4.969 -3.632 QT
3.844 -3.632 L
cp
f
GR
GS
[0.75 0 0 0.75 325.47155 49.77236] CT
N
6.859 5.324 M
6.484 5.324 6.188 5.145 QT
5.891 4.965 5.734 4.66 QT
5.578 4.355 5.578 3.965 QT
5.578 3.418 5.875 2.887 QT
6.172 2.355 6.68 2.027 QT
7.188 1.699 7.734 1.699 QT
8.141 1.699 8.445 1.91 QT
8.75 2.121 8.914 2.473 QT
9.078 2.824 9.078 3.23 QT
9.078 3.762 L
9.359 3.387 9.547 2.98 QT
9.734 2.574 9.844 2.137 QT
9.859 2.09 9.906 2.09 QT
10 2.09 L
10.063 2.09 10.063 2.152 QT
10.063 2.168 10.063 2.184 QT
9.969 2.543 9.828 2.887 QT
9.688 3.23 9.5 3.543 QT
9.313 3.855 9.078 4.121 QT
9.078 5.105 9.313 5.105 QT
9.469 5.105 9.563 5.02 QT
9.656 4.934 9.727 4.801 QT
9.797 4.668 9.813 4.668 QT
9.922 4.668 L
9.984 4.668 9.984 4.746 QT
9.984 4.949 9.75 5.137 QT
9.516 5.324 9.297 5.324 QT
9.016 5.324 8.82 5.137 QT
8.625 4.949 8.563 4.637 QT
8.188 4.965 7.75 5.145 QT
7.313 5.324 6.859 5.324 QT
cp
6.875 5.105 M
7.734 5.105 8.516 4.402 QT
8.516 4.355 8.508 4.285 QT
8.5 4.215 8.5 4.215 QT
8.5 3.355 L
8.5 1.902 7.719 1.902 QT
7.25 1.902 6.898 2.301 QT
6.547 2.699 6.367 3.254 QT
6.188 3.809 6.188 4.277 QT
6.188 4.621 6.367 4.863 QT
6.547 5.105 6.875 5.105 QT
cp
f
GR
GS
[0.75 0 0 0.75 325.47155 49.77236] CT
N
18.973 6.415 M
18.301 5.884 17.825 5.196 QT
17.348 4.509 17.036 3.735 QT
16.723 2.962 16.575 2.118 QT
16.426 1.274 16.426 0.43 QT
16.426 -0.429 16.575 -1.273 QT
16.723 -2.116 17.036 -2.898 QT
17.348 -3.679 17.841 -4.359 QT
18.333 -5.038 18.973 -5.554 QT
18.973 -5.57 19.036 -5.57 QT
19.145 -5.57 L
19.176 -5.57 19.208 -5.538 QT
19.239 -5.507 19.239 -5.46 QT
19.239 -5.413 19.223 -5.382 QT
18.63 -4.82 18.239 -4.163 QT
17.848 -3.507 17.614 -2.765 QT
17.38 -2.023 17.27 -1.226 QT
17.161 -0.429 17.161 0.43 QT
17.161 4.243 19.208 6.227 QT
19.239 6.259 19.239 6.321 QT
19.239 6.352 19.208 6.391 QT
19.176 6.43 19.145 6.43 QT
19.036 6.43 L
18.973 6.43 18.973 6.415 QT
cp
f
GR
GS
[0.75 0 0 0.75 325.47155 49.77236] CT
N
21.953 3.43 M
21.953 3.009 L
22.546 3.009 23.117 2.938 QT
23.687 2.868 23.687 2.634 QT
23.687 -3.96 L
23.687 -4.226 23.546 -4.288 QT
23.406 -4.351 23.078 -4.351 QT
22.578 -4.351 L
21.593 -4.351 21.171 -3.913 QT
20.953 -3.695 20.859 -3.218 QT
20.765 -2.741 20.703 -2.023 QT
20.359 -2.023 L
20.578 -4.773 L
27.921 -4.773 L
28.14 -2.023 L
27.796 -2.023 L
27.718 -2.788 27.632 -3.241 QT
27.546 -3.695 27.328 -3.913 QT
26.906 -4.351 25.921 -4.351 QT
25.421 -4.351 L
25.203 -4.351 25.085 -4.327 QT
24.968 -4.304 24.89 -4.226 QT
24.812 -4.148 24.812 -3.96 QT
24.812 2.634 L
24.812 2.868 25.382 2.938 QT
25.953 3.009 26.546 3.009 QT
26.546 3.43 L
21.953 3.43 L
cp
f
GR
GS
[0.75 0 0 0.75 325.47155 49.77236] CT
N
29.26 3.602 M
29.26 0.805 L
29.26 0.712 29.369 0.712 QT
29.51 0.712 L
29.557 0.712 29.58 0.735 QT
29.604 0.759 29.604 0.805 QT
29.604 1.977 30.338 2.626 QT
31.072 3.274 32.244 3.274 QT
32.666 3.274 33.018 3.032 QT
33.369 2.79 33.565 2.399 QT
33.76 2.009 33.76 1.602 QT
33.76 1.227 33.611 0.884 QT
33.463 0.54 33.19 0.29 QT
32.916 0.04 32.572 -0.038 QT
31.01 -0.413 L
30.244 -0.632 29.752 -1.265 QT
29.26 -1.898 29.26 -2.695 QT
29.26 -3.304 29.58 -3.851 QT
29.9 -4.398 30.432 -4.718 QT
30.963 -5.038 31.588 -5.038 QT
32.791 -5.038 33.494 -4.21 QT
33.994 -4.991 L
34.025 -5.038 34.072 -5.038 QT
34.15 -5.038 L
34.197 -5.038 34.229 -5.007 QT
34.26 -4.976 34.26 -4.929 QT
34.26 -2.148 L
34.26 -2.038 34.15 -2.038 QT
34.01 -2.038 L
33.9 -2.038 33.9 -2.148 QT
33.9 -2.46 33.799 -2.82 QT
33.697 -3.179 33.518 -3.515 QT
33.338 -3.851 33.119 -4.054 QT
32.541 -4.648 31.588 -4.648 QT
31.182 -4.648 30.838 -4.437 QT
30.494 -4.226 30.283 -3.866 QT
30.072 -3.507 30.072 -3.116 QT
30.072 -2.601 30.393 -2.187 QT
30.713 -1.773 31.229 -1.632 QT
32.791 -1.257 L
33.182 -1.163 33.525 -0.921 QT
33.869 -0.679 34.096 -0.351 QT
34.322 -0.023 34.447 0.368 QT
34.572 0.759 34.572 1.18 QT
34.572 1.837 34.275 2.415 QT
33.979 2.993 33.44 3.345 QT
32.9 3.696 32.244 3.696 QT
31.854 3.696 31.44 3.61 QT
31.025 3.524 30.674 3.337 QT
30.322 3.149 30.025 2.868 QT
29.525 3.665 L
29.494 3.696 29.432 3.696 QT
29.369 3.696 L
29.26 3.696 29.26 3.602 QT
cp
f
GR
GS
[0.75 0 0 0.75 325.47155 49.77236] CT
N
39.473 3.571 M
36.645 -3.96 L
36.552 -4.21 36.247 -4.28 QT
35.942 -4.351 35.489 -4.351 QT
35.489 -4.773 L
38.786 -4.773 L
38.786 -4.351 L
37.786 -4.351 37.786 -4.038 QT
37.786 -4.023 37.794 -4.007 QT
37.802 -3.991 37.802 -3.96 QT
40.098 2.165 L
42.27 -3.632 L
42.302 -3.679 42.302 -3.788 QT
42.302 -4.07 42.028 -4.21 QT
41.755 -4.351 41.427 -4.351 QT
41.427 -4.773 L
44.02 -4.773 L
44.02 -4.351 L
43.567 -4.351 43.223 -4.179 QT
42.88 -4.007 42.739 -3.632 QT
40.02 3.571 L
39.989 3.696 39.833 3.696 QT
39.677 3.696 L
39.52 3.696 39.473 3.571 QT
cp
f
GR
GS
[0.75 0 0 0.75 325.47155 49.77236] CT
N
44.661 3.43 M
44.661 3.009 L
45.895 3.009 45.895 2.634 QT
45.895 -3.96 L
45.895 -4.351 44.661 -4.351 QT
44.661 -4.773 L
49.083 -4.773 L
49.895 -4.773 50.575 -4.413 QT
51.255 -4.054 51.739 -3.468 QT
52.223 -2.882 52.481 -2.132 QT
52.739 -1.382 52.739 -0.585 QT
52.739 0.165 52.473 0.884 QT
52.208 1.602 51.716 2.18 QT
51.223 2.759 50.544 3.095 QT
49.864 3.43 49.083 3.43 QT
44.661 3.43 L
cp
46.973 2.634 M
46.973 2.884 47.114 2.946 QT
47.255 3.009 47.583 3.009 QT
48.77 3.009 L
49.38 3.009 49.934 2.743 QT
50.489 2.477 50.848 1.993 QT
51.239 1.493 51.364 0.868 QT
51.489 0.243 51.489 -0.585 QT
51.489 -1.46 51.364 -2.116 QT
51.239 -2.773 50.848 -3.288 QT
50.489 -3.804 49.942 -4.077 QT
49.395 -4.351 48.77 -4.351 QT
47.583 -4.351 L
47.364 -4.351 47.239 -4.327 QT
47.114 -4.304 47.044 -4.226 QT
46.973 -4.148 46.973 -3.96 QT
46.973 2.634 L
cp
f
GR
GS
[0.75 0 0 0.75 325.47155 49.77236] CT
N
54.203 6.43 M
54.093 6.43 54.093 6.321 QT
54.093 6.274 54.124 6.243 QT
56.171 4.243 56.171 0.43 QT
56.171 -3.382 54.14 -5.366 QT
54.093 -5.398 54.093 -5.46 QT
54.093 -5.507 54.124 -5.538 QT
54.156 -5.57 54.203 -5.57 QT
54.312 -5.57 L
54.343 -5.57 54.374 -5.554 QT
55.234 -4.866 55.804 -3.898 QT
56.374 -2.929 56.648 -1.827 QT
56.921 -0.726 56.921 0.43 QT
56.921 1.274 56.773 2.102 QT
56.624 2.93 56.312 3.727 QT
55.999 4.524 55.523 5.204 QT
55.046 5.884 54.374 6.415 QT
54.343 6.43 54.312 6.43 QT
54.203 6.43 L
cp
f
GR
GS
[0.75 0 0 0.75 0 0] CT
0.851 0.325 0.098 RC
1 LJ
0.667 LW
N
390.997 66.363 M
430.965 66.363 L
S
GR
GS
[0.75 0 0 0.75 0 0] CT
0.149 GC
10.0 ML
0.667 LW
N
387 76 M
387 42 L
496 42 L
496 76 L
cp
S
GR
%%Trailer
%%Pages: 1
%%EOF
