%!PS-Adobe-3.0 EPSF-3.0
%%Creator: (MATLAB, The Mathworks, Inc. Version 9.5.0.944444 \(R2018b\). Operating System: Windows 10)
%%Title: F:/Studium/__Bachelorarbeit/tex/images/tikhonov2-errorplot.eps
%%CreationDate: 2020-07-26T14:33:05
%%Pages: (atend)
%%BoundingBox: 0 0 420 315
%%LanguageLevel: 3
%%EndComments
%%BeginProlog
%%BeginResource: procset (Apache XML Graphics Std ProcSet) 1.2 0
%%Version: 1.2 0
%%Copyright: (Copyright 2001-2003,2010 The Apache Software Foundation. License terms: http://www.apache.org/licenses/LICENSE-2.0)
/bd{bind def}bind def
/ld{load def}bd
/GR/grestore ld
/GS/gsave ld
/RM/rmoveto ld
/C/curveto ld
/t/show ld
/L/lineto ld
/ML/setmiterlimit ld
/CT/concat ld
/f/fill ld
/N/newpath ld
/S/stroke ld
/CC/setcmykcolor ld
/A/ashow ld
/cp/closepath ld
/RC/setrgbcolor ld
/LJ/setlinejoin ld
/GC/setgray ld
/LW/setlinewidth ld
/M/moveto ld
/re {4 2 roll M
1 index 0 rlineto
0 exch rlineto
neg 0 rlineto
cp } bd
/_ctm matrix def
/_tm matrix def
/BT { _ctm currentmatrix pop matrix _tm copy pop 0 0 moveto } bd
/ET { _ctm setmatrix } bd
/iTm { _ctm setmatrix _tm concat } bd
/Tm { _tm astore pop iTm 0 0 moveto } bd
/ux 0.0 def
/uy 0.0 def
/F {
  /Tp exch def
  /Tf exch def
  Tf findfont Tp scalefont setfont
  /cf Tf def  /cs Tp def
} bd
/ULS {currentpoint /uy exch def /ux exch def} bd
/ULE {
  /Tcx currentpoint pop def
  gsave
  newpath
  cf findfont cs scalefont dup
  /FontMatrix get 0 get /Ts exch def /FontInfo get dup
  /UnderlinePosition get Ts mul /To exch def
  /UnderlineThickness get Ts mul /Tt exch def
  ux uy To add moveto  Tcx uy To add lineto
  Tt setlinewidth stroke
  grestore
} bd
/OLE {
  /Tcx currentpoint pop def
  gsave
  newpath
  cf findfont cs scalefont dup
  /FontMatrix get 0 get /Ts exch def /FontInfo get dup
  /UnderlinePosition get Ts mul /To exch def
  /UnderlineThickness get Ts mul /Tt exch def
  ux uy To add cs add moveto Tcx uy To add cs add lineto
  Tt setlinewidth stroke
  grestore
} bd
/SOE {
  /Tcx currentpoint pop def
  gsave
  newpath
  cf findfont cs scalefont dup
  /FontMatrix get 0 get /Ts exch def /FontInfo get dup
  /UnderlinePosition get Ts mul /To exch def
  /UnderlineThickness get Ts mul /Tt exch def
  ux uy To add cs 10 mul 26 idiv add moveto Tcx uy To add cs 10 mul 26 idiv add lineto
  Tt setlinewidth stroke
  grestore
} bd
/QT {
/Y22 exch store
/X22 exch store
/Y21 exch store
/X21 exch store
currentpoint
/Y21 load 2 mul add 3 div exch
/X21 load 2 mul add 3 div exch
/X21 load 2 mul /X22 load add 3 div
/Y21 load 2 mul /Y22 load add 3 div
/X22 load /Y22 load curveto
} bd
/SSPD {
dup length /d exch dict def
{
/v exch def
/k exch def
currentpagedevice k known {
/cpdv currentpagedevice k get def
v cpdv ne {
/upd false def
/nullv v type /nulltype eq def
/nullcpdv cpdv type /nulltype eq def
nullv nullcpdv or
{
/upd true def
} {
/sametype v type cpdv type eq def
sametype {
v type /arraytype eq {
/vlen v length def
/cpdvlen cpdv length def
vlen cpdvlen eq {
0 1 vlen 1 sub {
/i exch def
/obj v i get def
/cpdobj cpdv i get def
obj cpdobj ne {
/upd true def
exit
} if
} for
} {
/upd true def
} ifelse
} {
v type /dicttype eq {
v {
/dv exch def
/dk exch def
/cpddv cpdv dk get def
dv cpddv ne {
/upd true def
exit
} if
} forall
} {
/upd true def
} ifelse
} ifelse
} if
} ifelse
upd true eq {
d k v put
} if
} if
} if
} forall
d length 0 gt {
d setpagedevice
} if
} bd
/RE { % /NewFontName [NewEncodingArray] /FontName RE -
  findfont dup length dict begin
  {
    1 index /FID ne
    {def} {pop pop} ifelse
  } forall
  /Encoding exch def
  /FontName 1 index def
  currentdict definefont pop
  end
} bind def
%%EndResource
%%BeginResource: procset (Apache XML Graphics EPS ProcSet) 1.0 0
%%Version: 1.0 0
%%Copyright: (Copyright 2002-2003 The Apache Software Foundation. License terms: http://www.apache.org/licenses/LICENSE-2.0)
/BeginEPSF { %def
/b4_Inc_state save def         % Save state for cleanup
/dict_count countdictstack def % Count objects on dict stack
/op_count count 1 sub def      % Count objects on operand stack
userdict begin                 % Push userdict on dict stack
/showpage { } def              % Redefine showpage, { } = null proc
0 setgray 0 setlinecap         % Prepare graphics state
1 setlinewidth 0 setlinejoin
10 setmiterlimit [ ] 0 setdash newpath
/languagelevel where           % If level not equal to 1 then
{pop languagelevel             % set strokeadjust and
1 ne                           % overprint to their defaults.
{false setstrokeadjust false setoverprint
} if
} if
} bd
/EndEPSF { %def
count op_count sub {pop} repeat            % Clean up stacks
countdictstack dict_count sub {end} repeat
b4_Inc_state restore
} bd
%%EndResource
%FOPBeginFontDict
%%IncludeResource: font Courier-Oblique
%%IncludeResource: font Courier-BoldOblique
%%IncludeResource: font Courier-Bold
%%IncludeResource: font ZapfDingbats
%%IncludeResource: font Symbol
%%IncludeResource: font Helvetica
%%IncludeResource: font Helvetica-Oblique
%%IncludeResource: font Helvetica-Bold
%%IncludeResource: font Helvetica-BoldOblique
%%IncludeResource: font Times-Roman
%%IncludeResource: font Times-Italic
%%IncludeResource: font Times-Bold
%%IncludeResource: font Times-BoldItalic
%%IncludeResource: font Courier
%FOPEndFontDict
%%BeginResource: encoding WinAnsiEncoding
/WinAnsiEncoding [
/.notdef /.notdef /.notdef /.notdef /.notdef
/.notdef /.notdef /.notdef /.notdef /.notdef
/.notdef /.notdef /.notdef /.notdef /.notdef
/.notdef /.notdef /.notdef /.notdef /.notdef
/.notdef /.notdef /.notdef /.notdef /.notdef
/.notdef /.notdef /.notdef /.notdef /.notdef
/.notdef /.notdef /space /exclam /quotedbl
/numbersign /dollar /percent /ampersand /quotesingle
/parenleft /parenright /asterisk /plus /comma
/hyphen /period /slash /zero /one
/two /three /four /five /six
/seven /eight /nine /colon /semicolon
/less /equal /greater /question /at
/A /B /C /D /E
/F /G /H /I /J
/K /L /M /N /O
/P /Q /R /S /T
/U /V /W /X /Y
/Z /bracketleft /backslash /bracketright /asciicircum
/underscore /quoteleft /a /b /c
/d /e /f /g /h
/i /j /k /l /m
/n /o /p /q /r
/s /t /u /v /w
/x /y /z /braceleft /bar
/braceright /asciitilde /bullet /Euro /bullet
/quotesinglbase /florin /quotedblbase /ellipsis /dagger
/daggerdbl /circumflex /perthousand /Scaron /guilsinglleft
/OE /bullet /Zcaron /bullet /bullet
/quoteleft /quoteright /quotedblleft /quotedblright /bullet
/endash /emdash /asciitilde /trademark /scaron
/guilsinglright /oe /bullet /zcaron /Ydieresis
/space /exclamdown /cent /sterling /currency
/yen /brokenbar /section /dieresis /copyright
/ordfeminine /guillemotleft /logicalnot /sfthyphen /registered
/macron /degree /plusminus /twosuperior /threesuperior
/acute /mu /paragraph /middot /cedilla
/onesuperior /ordmasculine /guillemotright /onequarter /onehalf
/threequarters /questiondown /Agrave /Aacute /Acircumflex
/Atilde /Adieresis /Aring /AE /Ccedilla
/Egrave /Eacute /Ecircumflex /Edieresis /Igrave
/Iacute /Icircumflex /Idieresis /Eth /Ntilde
/Ograve /Oacute /Ocircumflex /Otilde /Odieresis
/multiply /Oslash /Ugrave /Uacute /Ucircumflex
/Udieresis /Yacute /Thorn /germandbls /agrave
/aacute /acircumflex /atilde /adieresis /aring
/ae /ccedilla /egrave /eacute /ecircumflex
/edieresis /igrave /iacute /icircumflex /idieresis
/eth /ntilde /ograve /oacute /ocircumflex
/otilde /odieresis /divide /oslash /ugrave
/uacute /ucircumflex /udieresis /yacute /thorn
/ydieresis
] def
%%EndResource
%FOPBeginFontReencode
/Courier-Oblique findfont
dup length dict begin
  {1 index /FID ne {def} {pop pop} ifelse} forall
  /Encoding WinAnsiEncoding def
  currentdict
end
/Courier-Oblique exch definefont pop
/Courier-BoldOblique findfont
dup length dict begin
  {1 index /FID ne {def} {pop pop} ifelse} forall
  /Encoding WinAnsiEncoding def
  currentdict
end
/Courier-BoldOblique exch definefont pop
/Courier-Bold findfont
dup length dict begin
  {1 index /FID ne {def} {pop pop} ifelse} forall
  /Encoding WinAnsiEncoding def
  currentdict
end
/Courier-Bold exch definefont pop
/Helvetica findfont
dup length dict begin
  {1 index /FID ne {def} {pop pop} ifelse} forall
  /Encoding WinAnsiEncoding def
  currentdict
end
/Helvetica exch definefont pop
/Helvetica-Oblique findfont
dup length dict begin
  {1 index /FID ne {def} {pop pop} ifelse} forall
  /Encoding WinAnsiEncoding def
  currentdict
end
/Helvetica-Oblique exch definefont pop
/Helvetica-Bold findfont
dup length dict begin
  {1 index /FID ne {def} {pop pop} ifelse} forall
  /Encoding WinAnsiEncoding def
  currentdict
end
/Helvetica-Bold exch definefont pop
/Helvetica-BoldOblique findfont
dup length dict begin
  {1 index /FID ne {def} {pop pop} ifelse} forall
  /Encoding WinAnsiEncoding def
  currentdict
end
/Helvetica-BoldOblique exch definefont pop
/Times-Roman findfont
dup length dict begin
  {1 index /FID ne {def} {pop pop} ifelse} forall
  /Encoding WinAnsiEncoding def
  currentdict
end
/Times-Roman exch definefont pop
/Times-Italic findfont
dup length dict begin
  {1 index /FID ne {def} {pop pop} ifelse} forall
  /Encoding WinAnsiEncoding def
  currentdict
end
/Times-Italic exch definefont pop
/Times-Bold findfont
dup length dict begin
  {1 index /FID ne {def} {pop pop} ifelse} forall
  /Encoding WinAnsiEncoding def
  currentdict
end
/Times-Bold exch definefont pop
/Times-BoldItalic findfont
dup length dict begin
  {1 index /FID ne {def} {pop pop} ifelse} forall
  /Encoding WinAnsiEncoding def
  currentdict
end
/Times-BoldItalic exch definefont pop
/Courier findfont
dup length dict begin
  {1 index /FID ne {def} {pop pop} ifelse} forall
  /Encoding WinAnsiEncoding def
  currentdict
end
/Courier exch definefont pop
%FOPEndFontReencode
%%EndProlog
%%Page: 1 1
%%PageBoundingBox: 0 0 420 315
%%BeginPageSetup
[1 0 0 -1 0 315] CT
%%EndPageSetup
GS
[0.75 0 0 0.75 0 0] CT
1 GC
N
0 0 560 420 re
f
GR
GS
[0.75 0 0 0.75 0 0] CT
1 GC
N
0 0 560 420 re
f
GR
GS
[0.75 0 0 0.75 0 0] CT
1 GC
N
73 365 M
507 365 L
507 31 L
73 31 L
cp
f
GR
GS
[0.75 0 0 0.75 0 0] CT
0.149 GC
2 setlinecap
1 LJ
0.667 LW
N
73 365 M
507 365 L
S
GR
GS
[0.75 0 0 0.75 0 0] CT
0.149 GC
2 setlinecap
1 LJ
0.667 LW
N
73 365 M
73 373.68 L
S
GR
GS
[0.75 0 0 0.75 0 0] CT
0.149 GC
2 setlinecap
1 LJ
0.667 LW
N
145.333 365 M
145.333 373.68 L
S
GR
GS
[0.75 0 0 0.75 0 0] CT
0.149 GC
2 setlinecap
1 LJ
0.667 LW
N
217.667 365 M
217.667 373.68 L
S
GR
GS
[0.75 0 0 0.75 0 0] CT
0.149 GC
2 setlinecap
1 LJ
0.667 LW
N
290 365 M
290 373.68 L
S
GR
GS
[0.75 0 0 0.75 0 0] CT
0.149 GC
2 setlinecap
1 LJ
0.667 LW
N
362.333 365 M
362.333 373.68 L
S
GR
GS
[0.75 0 0 0.75 0 0] CT
0.149 GC
2 setlinecap
1 LJ
0.667 LW
N
434.667 365 M
434.667 373.68 L
S
GR
GS
[0.75 0 0 0.75 0 0] CT
0.149 GC
2 setlinecap
1 LJ
0.667 LW
N
507 365 M
507 373.68 L
S
GR
GS
[0.75 0 0 0.75 0 0] CT
0.149 GC
2 setlinecap
1 LJ
0.667 LW
N
73 365 M
73 369.34 L
S
GR
GS
[0.75 0 0 0.75 0 0] CT
0.149 GC
2 setlinecap
1 LJ
0.667 LW
N
94.775 365 M
94.775 369.34 L
S
GR
GS
[0.75 0 0 0.75 0 0] CT
0.149 GC
2 setlinecap
1 LJ
0.667 LW
N
107.512 365 M
107.512 369.34 L
S
GR
GS
[0.75 0 0 0.75 0 0] CT
0.149 GC
2 setlinecap
1 LJ
0.667 LW
N
116.549 365 M
116.549 369.34 L
S
GR
GS
[0.75 0 0 0.75 0 0] CT
0.149 GC
2 setlinecap
1 LJ
0.667 LW
N
123.559 365 M
123.559 369.34 L
S
GR
GS
[0.75 0 0 0.75 0 0] CT
0.149 GC
2 setlinecap
1 LJ
0.667 LW
N
129.286 365 M
129.286 369.34 L
S
GR
GS
[0.75 0 0 0.75 0 0] CT
0.149 GC
2 setlinecap
1 LJ
0.667 LW
N
134.129 365 M
134.129 369.34 L
S
GR
GS
[0.75 0 0 0.75 0 0] CT
0.149 GC
2 setlinecap
1 LJ
0.667 LW
N
138.324 365 M
138.324 369.34 L
S
GR
GS
[0.75 0 0 0.75 0 0] CT
0.149 GC
2 setlinecap
1 LJ
0.667 LW
N
142.024 365 M
142.024 369.34 L
S
GR
GS
[0.75 0 0 0.75 0 0] CT
0.149 GC
2 setlinecap
1 LJ
0.667 LW
N
145.333 365 M
145.333 369.34 L
S
GR
GS
[0.75 0 0 0.75 0 0] CT
0.149 GC
2 setlinecap
1 LJ
0.667 LW
N
167.108 365 M
167.108 369.34 L
S
GR
GS
[0.75 0 0 0.75 0 0] CT
0.149 GC
2 setlinecap
1 LJ
0.667 LW
N
179.845 365 M
179.845 369.34 L
S
GR
GS
[0.75 0 0 0.75 0 0] CT
0.149 GC
2 setlinecap
1 LJ
0.667 LW
N
188.882 365 M
188.882 369.34 L
S
GR
GS
[0.75 0 0 0.75 0 0] CT
0.149 GC
2 setlinecap
1 LJ
0.667 LW
N
195.892 365 M
195.892 369.34 L
S
GR
GS
[0.75 0 0 0.75 0 0] CT
0.149 GC
2 setlinecap
1 LJ
0.667 LW
N
201.62 365 M
201.62 369.34 L
S
GR
GS
[0.75 0 0 0.75 0 0] CT
0.149 GC
2 setlinecap
1 LJ
0.667 LW
N
206.462 365 M
206.462 369.34 L
S
GR
GS
[0.75 0 0 0.75 0 0] CT
0.149 GC
2 setlinecap
1 LJ
0.667 LW
N
210.657 365 M
210.657 369.34 L
S
GR
GS
[0.75 0 0 0.75 0 0] CT
0.149 GC
2 setlinecap
1 LJ
0.667 LW
N
214.357 365 M
214.357 369.34 L
S
GR
GS
[0.75 0 0 0.75 0 0] CT
0.149 GC
2 setlinecap
1 LJ
0.667 LW
N
217.667 365 M
217.667 369.34 L
S
GR
GS
[0.75 0 0 0.75 0 0] CT
0.149 GC
2 setlinecap
1 LJ
0.667 LW
N
239.441 365 M
239.441 369.34 L
S
GR
GS
[0.75 0 0 0.75 0 0] CT
0.149 GC
2 setlinecap
1 LJ
0.667 LW
N
252.178 365 M
252.178 369.34 L
S
GR
GS
[0.75 0 0 0.75 0 0] CT
0.149 GC
2 setlinecap
1 LJ
0.667 LW
N
261.216 365 M
261.216 369.34 L
S
GR
GS
[0.75 0 0 0.75 0 0] CT
0.149 GC
2 setlinecap
1 LJ
0.667 LW
N
268.225 365 M
268.225 369.34 L
S
GR
GS
[0.75 0 0 0.75 0 0] CT
0.149 GC
2 setlinecap
1 LJ
0.667 LW
N
273.953 365 M
273.953 369.34 L
S
GR
GS
[0.75 0 0 0.75 0 0] CT
0.149 GC
2 setlinecap
1 LJ
0.667 LW
N
278.795 365 M
278.795 369.34 L
S
GR
GS
[0.75 0 0 0.75 0 0] CT
0.149 GC
2 setlinecap
1 LJ
0.667 LW
N
282.99 365 M
282.99 369.34 L
S
GR
GS
[0.75 0 0 0.75 0 0] CT
0.149 GC
2 setlinecap
1 LJ
0.667 LW
N
286.69 365 M
286.69 369.34 L
S
GR
GS
[0.75 0 0 0.75 0 0] CT
0.149 GC
2 setlinecap
1 LJ
0.667 LW
N
290 365 M
290 369.34 L
S
GR
GS
[0.75 0 0 0.75 0 0] CT
0.149 GC
2 setlinecap
1 LJ
0.667 LW
N
311.775 365 M
311.775 369.34 L
S
GR
GS
[0.75 0 0 0.75 0 0] CT
0.149 GC
2 setlinecap
1 LJ
0.667 LW
N
324.512 365 M
324.512 369.34 L
S
GR
GS
[0.75 0 0 0.75 0 0] CT
0.149 GC
2 setlinecap
1 LJ
0.667 LW
N
333.549 365 M
333.549 369.34 L
S
GR
GS
[0.75 0 0 0.75 0 0] CT
0.149 GC
2 setlinecap
1 LJ
0.667 LW
N
340.559 365 M
340.559 369.34 L
S
GR
GS
[0.75 0 0 0.75 0 0] CT
0.149 GC
2 setlinecap
1 LJ
0.667 LW
N
346.286 365 M
346.286 369.34 L
S
GR
GS
[0.75 0 0 0.75 0 0] CT
0.149 GC
2 setlinecap
1 LJ
0.667 LW
N
351.129 365 M
351.129 369.34 L
S
GR
GS
[0.75 0 0 0.75 0 0] CT
0.149 GC
2 setlinecap
1 LJ
0.667 LW
N
355.324 365 M
355.324 369.34 L
S
GR
GS
[0.75 0 0 0.75 0 0] CT
0.149 GC
2 setlinecap
1 LJ
0.667 LW
N
359.024 365 M
359.024 369.34 L
S
GR
GS
[0.75 0 0 0.75 0 0] CT
0.149 GC
2 setlinecap
1 LJ
0.667 LW
N
362.333 365 M
362.333 369.34 L
S
GR
GS
[0.75 0 0 0.75 0 0] CT
0.149 GC
2 setlinecap
1 LJ
0.667 LW
N
384.108 365 M
384.108 369.34 L
S
GR
GS
[0.75 0 0 0.75 0 0] CT
0.149 GC
2 setlinecap
1 LJ
0.667 LW
N
396.845 365 M
396.845 369.34 L
S
GR
GS
[0.75 0 0 0.75 0 0] CT
0.149 GC
2 setlinecap
1 LJ
0.667 LW
N
405.882 365 M
405.882 369.34 L
S
GR
GS
[0.75 0 0 0.75 0 0] CT
0.149 GC
2 setlinecap
1 LJ
0.667 LW
N
412.892 365 M
412.892 369.34 L
S
GR
GS
[0.75 0 0 0.75 0 0] CT
0.149 GC
2 setlinecap
1 LJ
0.667 LW
N
418.62 365 M
418.62 369.34 L
S
GR
GS
[0.75 0 0 0.75 0 0] CT
0.149 GC
2 setlinecap
1 LJ
0.667 LW
N
423.462 365 M
423.462 369.34 L
S
GR
GS
[0.75 0 0 0.75 0 0] CT
0.149 GC
2 setlinecap
1 LJ
0.667 LW
N
427.657 365 M
427.657 369.34 L
S
GR
GS
[0.75 0 0 0.75 0 0] CT
0.149 GC
2 setlinecap
1 LJ
0.667 LW
N
431.357 365 M
431.357 369.34 L
S
GR
GS
[0.75 0 0 0.75 0 0] CT
0.149 GC
2 setlinecap
1 LJ
0.667 LW
N
434.667 365 M
434.667 369.34 L
S
GR
GS
[0.75 0 0 0.75 0 0] CT
0.149 GC
2 setlinecap
1 LJ
0.667 LW
N
456.441 365 M
456.441 369.34 L
S
GR
GS
[0.75 0 0 0.75 0 0] CT
0.149 GC
2 setlinecap
1 LJ
0.667 LW
N
469.178 365 M
469.178 369.34 L
S
GR
GS
[0.75 0 0 0.75 0 0] CT
0.149 GC
2 setlinecap
1 LJ
0.667 LW
N
478.216 365 M
478.216 369.34 L
S
GR
GS
[0.75 0 0 0.75 0 0] CT
0.149 GC
2 setlinecap
1 LJ
0.667 LW
N
485.225 365 M
485.225 369.34 L
S
GR
GS
[0.75 0 0 0.75 0 0] CT
0.149 GC
2 setlinecap
1 LJ
0.667 LW
N
490.953 365 M
490.953 369.34 L
S
GR
GS
[0.75 0 0 0.75 0 0] CT
0.149 GC
2 setlinecap
1 LJ
0.667 LW
N
495.795 365 M
495.795 369.34 L
S
GR
GS
[0.75 0 0 0.75 0 0] CT
0.149 GC
2 setlinecap
1 LJ
0.667 LW
N
499.99 365 M
499.99 369.34 L
S
GR
GS
[0.75 0 0 0.75 0 0] CT
0.149 GC
2 setlinecap
1 LJ
0.667 LW
N
503.69 365 M
503.69 369.34 L
S
GR
GS
[0.75 0 0 0.75 0 0] CT
0.149 GC
2 setlinecap
1 LJ
0.667 LW
N
507 365 M
507 369.34 L
S
GR
GS
[0.75 0 0 0.75 42.75 297] CT
0.149 GC
/Helvetica 13.333 F
GS
[1 0 0 1 0 0] CT
0 0 moveto 
1 -1 scale
(10) t 
GR
GR
GS
[0.75 0 0 0.75 54 292.5] CT
0.149 GC
/Helvetica 10.667 F
GS
[1 0 0 1 0 0] CT
0 0 moveto 
1 -1 scale
(-10) t 
GR
GR
GS
[0.75 0 0 0.75 99 297] CT
0.149 GC
/Helvetica 13.333 F
GS
[1 0 0 1 0 0] CT
0 0 moveto 
1 -1 scale
(10) t 
GR
GR
GS
[0.75 0 0 0.75 110.25 292.5] CT
0.149 GC
/Helvetica 10.667 F
GS
[1 0 0 1 0 0] CT
0 0 moveto 
1 -1 scale
(-9) t 
GR
GR
GS
[0.75 0 0 0.75 153.75 297] CT
0.149 GC
/Helvetica 13.333 F
GS
[1 0 0 1 0 0] CT
0 0 moveto 
1 -1 scale
(10) t 
GR
GR
GS
[0.75 0 0 0.75 165 292.5] CT
0.149 GC
/Helvetica 10.667 F
GS
[1 0 0 1 0 0] CT
0 0 moveto 
1 -1 scale
(-8) t 
GR
GR
GS
[0.75 0 0 0.75 207.75 297] CT
0.149 GC
/Helvetica 13.333 F
GS
[1 0 0 1 0 0] CT
0 0 moveto 
1 -1 scale
(10) t 
GR
GR
GS
[0.75 0 0 0.75 219 292.5] CT
0.149 GC
/Helvetica 10.667 F
GS
[1 0 0 1 0 0] CT
0 0 moveto 
1 -1 scale
(-7) t 
GR
GR
GS
[0.75 0 0 0.75 261.75 297] CT
0.149 GC
/Helvetica 13.333 F
GS
[1 0 0 1 0 0] CT
0 0 moveto 
1 -1 scale
(10) t 
GR
GR
GS
[0.75 0 0 0.75 273 292.5] CT
0.149 GC
/Helvetica 10.667 F
GS
[1 0 0 1 0 0] CT
0 0 moveto 
1 -1 scale
(-6) t 
GR
GR
GS
[0.75 0 0 0.75 316.5 297] CT
0.149 GC
/Helvetica 13.333 F
GS
[1 0 0 1 0 0] CT
0 0 moveto 
1 -1 scale
(10) t 
GR
GR
GS
[0.75 0 0 0.75 327.75 292.5] CT
0.149 GC
/Helvetica 10.667 F
GS
[1 0 0 1 0 0] CT
0 0 moveto 
1 -1 scale
(-5) t 
GR
GR
GS
[0.75 0 0 0.75 370.5 297] CT
0.149 GC
/Helvetica 13.333 F
GS
[1 0 0 1 0 0] CT
0 0 moveto 
1 -1 scale
(10) t 
GR
GR
GS
[0.75 0 0 0.75 381.75 292.5] CT
0.149 GC
/Helvetica 10.667 F
GS
[1 0 0 1 0 0] CT
0 0 moveto 
1 -1 scale
(-4) t 
GR
GR
GS
[0.75 0 0 0.75 213.75 312] CT
0.149 GC
N
3.016 0.172 M
2.313 0.172 1.758 -0.164 QT
1.203 -0.5 0.898 -1.07 QT
0.594 -1.641 0.594 -2.375 QT
0.594 -3.391 1.164 -4.391 QT
1.734 -5.391 2.68 -6.008 QT
3.625 -6.625 4.656 -6.625 QT
5.406 -6.625 5.984 -6.227 QT
6.563 -5.828 6.867 -5.164 QT
7.172 -4.5 7.172 -3.75 QT
7.188 -2.75 L
7.703 -3.453 8.055 -4.219 QT
8.406 -4.984 8.594 -5.813 QT
8.625 -5.891 8.719 -5.891 QT
8.891 -5.891 L
9.031 -5.891 9.031 -5.75 QT
9.031 -5.75 9.016 -5.719 QT
8.844 -5.031 8.578 -4.391 QT
8.313 -3.75 7.961 -3.164 QT
7.609 -2.578 7.188 -2.094 QT
7.188 -0.234 7.625 -0.234 QT
7.891 -0.234 8.07 -0.398 QT
8.25 -0.563 8.391 -0.805 QT
8.531 -1.047 8.563 -1.047 QT
8.75 -1.047 L
8.859 -1.047 8.859 -0.906 QT
8.859 -0.531 8.43 -0.18 QT
8 0.172 7.594 0.172 QT
7.047 0.172 6.688 -0.18 QT
6.328 -0.531 6.203 -1.094 QT
5.5 -0.5 4.68 -0.164 QT
3.859 0.172 3.016 0.172 QT
cp
3.047 -0.234 M
4.656 -0.234 6.125 -1.547 QT
6.109 -1.641 6.102 -1.766 QT
6.094 -1.891 6.094 -1.906 QT
6.094 -3.516 L
6.094 -6.234 4.625 -6.234 QT
3.75 -6.234 3.086 -5.484 QT
2.422 -4.734 2.094 -3.695 QT
1.766 -2.656 1.766 -1.781 QT
1.766 -1.141 2.094 -0.688 QT
2.422 -0.234 3.047 -0.234 QT
cp
f
GR
GS
[0.75 0 0 0.75 0 0] CT
0.149 GC
2 setlinecap
1 LJ
0.667 LW
N
73 365 M
73 31 L
S
GR
GS
[0.75 0 0 0.75 0 0] CT
0.149 GC
2 setlinecap
1 LJ
0.667 LW
N
73 365 M
64.32 365 L
S
GR
GS
[0.75 0 0 0.75 0 0] CT
0.149 GC
2 setlinecap
1 LJ
0.667 LW
N
73 225.974 M
64.32 225.974 L
S
GR
GS
[0.75 0 0 0.75 0 0] CT
0.149 GC
2 setlinecap
1 LJ
0.667 LW
N
73 86.948 M
64.32 86.948 L
S
GR
GS
[0.75 0 0 0.75 0 0] CT
0.149 GC
2 setlinecap
1 LJ
0.667 LW
N
73 365 M
68.66 365 L
S
GR
GS
[0.75 0 0 0.75 0 0] CT
0.149 GC
2 setlinecap
1 LJ
0.667 LW
N
73 323.149 M
68.66 323.149 L
S
GR
GS
[0.75 0 0 0.75 0 0] CT
0.149 GC
2 setlinecap
1 LJ
0.667 LW
N
73 298.668 M
68.66 298.668 L
S
GR
GS
[0.75 0 0 0.75 0 0] CT
0.149 GC
2 setlinecap
1 LJ
0.667 LW
N
73 281.298 M
68.66 281.298 L
S
GR
GS
[0.75 0 0 0.75 0 0] CT
0.149 GC
2 setlinecap
1 LJ
0.667 LW
N
73 267.825 M
68.66 267.825 L
S
GR
GS
[0.75 0 0 0.75 0 0] CT
0.149 GC
2 setlinecap
1 LJ
0.667 LW
N
73 256.817 M
68.66 256.817 L
S
GR
GS
[0.75 0 0 0.75 0 0] CT
0.149 GC
2 setlinecap
1 LJ
0.667 LW
N
73 247.509 M
68.66 247.509 L
S
GR
GS
[0.75 0 0 0.75 0 0] CT
0.149 GC
2 setlinecap
1 LJ
0.667 LW
N
73 239.447 M
68.66 239.447 L
S
GR
GS
[0.75 0 0 0.75 0 0] CT
0.149 GC
2 setlinecap
1 LJ
0.667 LW
N
73 232.336 M
68.66 232.336 L
S
GR
GS
[0.75 0 0 0.75 0 0] CT
0.149 GC
2 setlinecap
1 LJ
0.667 LW
N
73 225.974 M
68.66 225.974 L
S
GR
GS
[0.75 0 0 0.75 0 0] CT
0.149 GC
2 setlinecap
1 LJ
0.667 LW
N
73 184.123 M
68.66 184.123 L
S
GR
GS
[0.75 0 0 0.75 0 0] CT
0.149 GC
2 setlinecap
1 LJ
0.667 LW
N
73 159.642 M
68.66 159.642 L
S
GR
GS
[0.75 0 0 0.75 0 0] CT
0.149 GC
2 setlinecap
1 LJ
0.667 LW
N
73 142.272 M
68.66 142.272 L
S
GR
GS
[0.75 0 0 0.75 0 0] CT
0.149 GC
2 setlinecap
1 LJ
0.667 LW
N
73 128.799 M
68.66 128.799 L
S
GR
GS
[0.75 0 0 0.75 0 0] CT
0.149 GC
2 setlinecap
1 LJ
0.667 LW
N
73 117.791 M
68.66 117.791 L
S
GR
GS
[0.75 0 0 0.75 0 0] CT
0.149 GC
2 setlinecap
1 LJ
0.667 LW
N
73 108.484 M
68.66 108.484 L
S
GR
GS
[0.75 0 0 0.75 0 0] CT
0.149 GC
2 setlinecap
1 LJ
0.667 LW
N
73 100.421 M
68.66 100.421 L
S
GR
GS
[0.75 0 0 0.75 0 0] CT
0.149 GC
2 setlinecap
1 LJ
0.667 LW
N
73 93.31 M
68.66 93.31 L
S
GR
GS
[0.75 0 0 0.75 0 0] CT
0.149 GC
2 setlinecap
1 LJ
0.667 LW
N
73 86.948 M
68.66 86.948 L
S
GR
GS
[0.75 0 0 0.75 0 0] CT
0.149 GC
2 setlinecap
1 LJ
0.667 LW
N
73 45.097 M
68.66 45.097 L
S
GR
GS
[0.75 0 0 0.75 28.5 279] CT
0.149 GC
/Helvetica 13.333 F
GS
[1 0 0 1 0 0] CT
0 0 moveto 
1 -1 scale
(10) t 
GR
GR
GS
[0.75 0 0 0.75 39.75 274.5] CT
0.149 GC
/Helvetica 10.667 F
GS
[1 0 0 1 0 0] CT
0 0 moveto 
1 -1 scale
(0) t 
GR
GR
GS
[0.75 0 0 0.75 28.5 174.75] CT
0.149 GC
/Helvetica 13.333 F
GS
[1 0 0 1 0 0] CT
0 0 moveto 
1 -1 scale
(10) t 
GR
GR
GS
[0.75 0 0 0.75 39.75 170.25] CT
0.149 GC
/Helvetica 10.667 F
GS
[1 0 0 1 0 0] CT
0 0 moveto 
1 -1 scale
(1) t 
GR
GR
GS
[0.75 0 0 0.75 28.5 70.5] CT
0.149 GC
/Helvetica 13.333 F
GS
[1 0 0 1 0 0] CT
0 0 moveto 
1 -1 scale
(10) t 
GR
GR
GS
[0.75 0 0 0.75 39.75 66] CT
0.149 GC
/Helvetica 10.667 F
GS
[1 0 0 1 0 0] CT
0 0 moveto 
1 -1 scale
(2) t 
GR
GR
GS
[0.75 0 0 0.75 0 0] CT
1 0 0 RC
1 LJ
2.667 LW
N
73 31 M
129.286 120.906 L
148.328 163.876 L
160.098 191.018 L
168.641 208.414 L
175.35 221.366 L
180.875 232.366 L
185.573 242.348 L
189.658 251.633 L
193.273 260.321 L
196.514 268.441 L
199.452 275.998 L
202.139 282.995 L
204.614 289.439 L
206.908 295.34 L
209.046 300.716 L
211.047 305.588 L
212.929 309.983 L
214.704 313.933 L
216.384 317.471 L
217.979 320.632 L
219.497 323.453 L
220.945 325.969 L
222.329 328.215 L
223.655 330.221 L
224.927 332.017 L
226.149 333.629 L
227.326 335.082 L
228.46 336.396 L
229.555 337.589 L
230.613 338.678 L
231.636 339.675 L
232.627 340.593 L
233.588 341.442 L
234.52 342.231 L
235.426 342.966 L
236.306 343.655 L
237.162 344.302 L
237.995 344.912 L
238.807 345.489 L
239.598 346.037 L
240.37 346.558 L
241.123 347.055 L
241.859 347.529 L
242.578 347.983 L
243.281 348.418 L
243.968 348.835 L
244.641 349.236 L
245.299 349.622 L
245.944 349.993 L
246.577 350.351 L
247.196 350.696 L
247.804 351.028 L
248.4 351.349 L
248.985 351.659 L
249.559 351.957 L
250.123 352.246 L
250.677 352.525 L
251.222 352.794 L
251.757 353.054 L
252.283 353.305 L
252.801 353.548 L
253.31 353.782 L
253.811 354.008 L
254.304 354.227 L
254.79 354.438 L
255.268 354.642 L
255.739 354.839 L
256.203 355.03 L
256.66 355.213 L
257.111 355.391 L
257.555 355.562 L
257.993 355.728 L
258.425 355.887 L
258.852 356.042 L
259.272 356.19 L
259.687 356.334 L
260.097 356.473 L
260.501 356.606 L
260.9 356.736 L
261.294 356.86 L
261.684 356.98 L
262.068 357.097 L
262.448 357.209 L
262.823 357.317 L
263.194 357.421 L
263.561 357.522 L
263.923 357.619 L
264.281 357.712 L
264.635 357.803 L
264.986 357.89 L
265.332 357.974 L
265.674 358.055 L
266.013 358.134 L
266.349 358.209 L
266.68 358.282 L
267.009 358.352 L
267.333 358.42 L
267.973 358.549 L
268.288 358.61 L
268.6 358.669 L
268.909 358.725 L
269.215 358.78 L
269.518 358.833 L
269.818 358.884 L
270.115 358.933 L
270.41 358.981 L
270.701 359.027 L
271.277 359.114 L
271.561 359.155 L
271.842 359.195 L
272.121 359.233 L
272.397 359.27 L
272.671 359.306 L
273.211 359.374 L
273.478 359.406 L
273.743 359.437 L
274.005 359.467 L
274.524 359.524 L
274.78 359.55 L
275.286 359.601 L
275.536 359.626 L
275.784 359.649 L
276.03 359.671 L
276.516 359.714 L
276.756 359.734 L
277.231 359.772 L
277.466 359.791 L
277.931 359.825 L
278.161 359.841 L
278.616 359.872 L
278.84 359.886 L
279.285 359.914 L
279.505 359.927 L
279.941 359.951 L
280.157 359.963 L
280.584 359.984 L
280.795 359.995 L
281.213 360.014 L
281.42 360.023 L
281.83 360.04 L
282.033 360.048 L
282.635 360.07 L
282.833 360.077 L
283.225 360.089 L
283.419 360.095 L
283.995 360.111 L
284.185 360.115 L
284.56 360.124 L
284.747 360.128 L
285.299 360.139 L
285.481 360.142 L
285.841 360.147 L
286.02 360.15 L
286.55 360.156 L
286.725 360.158 L
287.244 360.162 L
287.415 360.163 L
287.922 360.165 L
288.09 360.166 L
288.422 360.166 L
288.587 360.166 L
288.75 360.166 L
289.237 360.164 L
289.398 360.164 L
289.874 360.161 L
290.032 360.159 L
290.653 360.153 L
290.806 360.151 L
291.262 360.145 L
291.413 360.143 L
291.86 360.135 L
292.008 360.133 L
292.592 360.121 L
292.736 360.118 L
293.307 360.104 L
293.448 360.1 L
293.867 360.089 L
294.006 360.085 L
294.554 360.068 L
294.69 360.063 L
295.226 360.044 L
295.359 360.04 L
295.884 360.019 L
296.014 360.014 L
296.656 359.986 L
296.783 359.98 L
297.285 359.957 L
297.409 359.951 L
297.902 359.925 L
298.024 359.919 L
298.626 359.885 L
298.745 359.878 L
299.217 359.849 L
299.334 359.842 L
299.913 359.804 L
300.027 359.797 L
300.592 359.757 L
300.704 359.749 L
301.258 359.706 L
301.368 359.698 L
301.91 359.654 L
302.017 359.645 L
302.654 359.589 L
302.758 359.58 L
303.277 359.531 L
303.38 359.521 L
303.99 359.46 L
304.09 359.449 L
304.588 359.396 L
304.686 359.385 L
305.271 359.319 L
305.368 359.307 L
305.94 359.238 L
306.035 359.226 L
306.595 359.154 L
306.688 359.142 L
307.328 359.054 L
307.418 359.041 L
307.955 358.962 L
308.043 358.949 L
308.656 358.854 L
308.743 358.84 L
309.258 358.755 L
309.342 358.741 L
309.931 358.639 L
310.014 358.624 L
310.59 358.518 L
310.672 358.502 L
311.316 358.377 L
311.395 358.361 L
311.947 358.247 L
312.025 358.231 L
312.642 358.096 L
312.718 358.079 L
313.322 357.94 L
313.397 357.923 L
313.988 357.779 L
314.061 357.761 L
314.64 357.614 L
314.712 357.595 L
315.279 357.443 L
315.349 357.424 L
315.973 357.248 L
316.042 357.228 L
316.653 357.047 L
316.72 357.027 L
317.318 356.842 L
317.384 356.821 L
317.97 356.631 L
318.034 356.609 L
318.608 356.415 L
318.671 356.393 L
319.295 356.172 L
319.357 356.15 L
319.968 355.924 L
320.029 355.901 L
320.627 355.67 L
320.686 355.647 L
321.33 355.389 L
321.388 355.365 L
321.961 355.126 L
322.017 355.102 L
322.635 354.835 L
322.69 354.81 L
323.295 354.539 L
323.349 354.514 L
323.995 354.214 L
324.048 354.189 L
324.627 353.911 L
324.679 353.886 L
325.298 353.579 L
325.349 353.553 L
325.955 353.244 L
326.005 353.218 L
326.647 352.88 L
326.696 352.854 L
327.325 352.513 L
327.372 352.487 L
327.988 352.145 L
328.035 352.119 L
328.637 351.776 L
328.683 351.75 L
329.318 351.38 L
329.363 351.353 L
329.985 350.983 L
330.029 350.956 L
330.638 350.587 L
330.681 350.56 L
331.32 350.165 L
331.362 350.139 L
331.987 349.745 L
332.029 349.719 L
332.641 349.327 L
332.681 349.301 L
333.321 348.887 L
333.36 348.861 L
333.986 348.45 L
334.025 348.424 L
334.637 348.017 L
334.675 347.991 L
335.313 347.564 L
335.35 347.539 L
335.974 347.116 L
336.01 347.092 L
336.657 346.651 L
336.693 346.627 L
337.326 346.193 L
337.361 346.169 L
337.981 345.742 L
338.015 345.719 L
338.655 345.276 L
338.689 345.253 L
339.316 344.82 L
339.348 344.797 L
339.995 344.35 L
340.027 344.328 L
340.659 343.891 L
340.691 343.87 L
341.31 343.443 L
341.341 343.422 L
341.978 342.984 L
342.008 342.964 L
342.661 342.517 L
342.69 342.497 L
343.329 342.063 L
343.358 342.044 L
343.984 341.622 L
344.012 341.603 L
344.653 341.174 L
344.681 341.156 L
345.308 340.74 L
345.335 340.723 L
345.976 340.302 L
346.002 340.285 L
346.656 339.862 L
346.682 339.845 L
347.322 339.436 L
347.347 339.42 L
347.998 339.009 L
348.023 338.993 L
348.66 338.597 L
348.685 338.582 L
349.333 338.185 L
349.357 338.171 L
349.991 337.789 L
350.014 337.775 L
350.659 337.394 L
350.681 337.38 L
351.312 337.014 L
351.335 337.001 L
351.996 336.624 L
352.018 336.611 L
352.666 336.25 L
352.687 336.238 L
353.321 335.891 L
353.342 335.879 L
353.984 335.536 L
354.004 335.525 L
354.653 335.185 L
354.673 335.175 L
355.328 334.84 L
355.347 334.83 L
355.988 334.51 L
356.007 334.5 L
356.654 334.185 L
356.673 334.176 L
357.324 333.866 L
357.342 333.858 L
357.998 333.554 L
358.016 333.545 L
358.659 333.256 L
358.676 333.248 L
359.322 332.964 L
359.34 332.956 L
359.989 332.679 L
360.006 332.672 L
360.659 332.4 L
360.676 332.394 L
361.331 332.129 L
361.347 332.123 L
361.989 331.871 L
362.005 331.865 L
362.665 331.614 L
362.68 331.608 L
363.326 331.369 L
363.341 331.364 L
363.989 331.132 L
364.003 331.127 L
364.667 330.897 L
364.681 330.892 L
365.33 330.673 L
365.345 330.669 L
365.994 330.457 L
366.008 330.452 L
366.658 330.247 L
366.672 330.243 L
367.322 330.045 L
367.335 330.041 L
367.998 329.845 L
368.011 329.841 L
368.66 329.656 L
368.673 329.652 L
369.333 329.47 L
369.346 329.467 L
369.992 329.294 L
370.005 329.291 L
370.662 329.121 L
370.674 329.118 L
371.33 328.955 L
371.342 328.952 L
371.995 328.795 L
372.007 328.793 L
372.658 328.642 L
372.669 328.639 L
373.329 328.491 L
373.34 328.489 L
373.997 328.347 L
374.008 328.345 L
374.662 328.209 L
374.672 328.206 L
375.323 328.076 L
375.334 328.074 L
375.991 327.946 L
376.001 327.944 L
376.665 327.821 L
376.675 327.819 L
377.325 327.702 L
377.335 327.7 L
377.99 327.587 L
378 327.585 L
378.661 327.475 L
378.67 327.473 L
379.326 327.368 L
379.335 327.367 L
379.996 327.265 L
380.005 327.263 L
380.66 327.166 L
380.669 327.164 L
381.328 327.07 L
381.336 327.069 L
381.998 326.978 L
382.007 326.977 L
382.663 326.89 L
382.671 326.888 L
383.33 326.804 L
383.338 326.803 L
383.999 326.722 L
384.007 326.721 L
384.662 326.644 L
384.67 326.643 L
385.326 326.569 L
385.334 326.568 L
385.999 326.496 L
386.007 326.495 L
386.665 326.426 L
386.672 326.425 L
387.331 326.359 L
387.338 326.358 L
387.997 326.294 L
388.004 326.293 L
388.663 326.232 L
388.67 326.232 L
389.329 326.173 L
389.335 326.172 L
390 326.115 L
390.006 326.114 L
390.663 326.06 L
390.67 326.06 L
391.332 326.007 L
391.338 326.007 L
391.999 325.956 L
392.005 325.956 L
392.664 325.908 L
392.67 325.907 L
393.332 325.861 L
393.338 325.861 L
393.999 325.816 L
394.004 325.816 L
394.662 325.773 L
394.668 325.773 L
395.329 325.732 L
395.334 325.731 L
395.997 325.692 L
396.003 325.691 L
396.662 325.654 L
396.668 325.653 L
397.329 325.617 L
397.335 325.617 L
397.998 325.582 L
398.003 325.581 L
398.662 325.548 L
398.667 325.548 L
399.332 325.515 L
399.336 325.515 L
399.997 325.484 L
400.002 325.484 L
400.662 325.455 L
400.667 325.454 L
401.332 325.426 L
401.337 325.426 L
401.997 325.398 L
402.001 325.398 L
402.665 325.372 L
402.669 325.372 L
403.332 325.347 L
403.336 325.347 L
403.998 325.322 L
404.002 325.322 L
404.666 325.299 L
404.67 325.299 L
405.333 325.277 L
405.337 325.277 L
405.997 325.255 L
406.001 325.255 L
406.667 325.235 L
406.67 325.235 L
407.33 325.215 L
407.334 325.215 L
407.998 325.196 L
408.001 325.196 L
408.666 325.178 L
408.67 325.178 L
409.331 325.161 L
409.334 325.161 L
409.999 325.144 L
410.003 325.144 L
410.664 325.128 L
410.667 325.128 L
411.331 325.113 L
411.334 325.113 L
411.998 325.098 L
412.001 325.098 L
412.666 325.084 L
412.669 325.084 L
413.333 325.07 L
413.336 325.07 L
413.998 325.057 L
414.001 325.057 L
414.664 325.045 L
414.667 325.045 L
415.331 325.033 L
415.334 325.033 L
415.998 325.021 L
416.001 325.021 L
416.665 325.01 L
416.668 325.01 L
417.332 325 L
417.335 325 L
417.999 324.99 L
418.002 324.99 L
418.665 324.98 L
418.667 324.98 L
419.332 324.971 L
419.335 324.971 L
419.998 324.962 L
420 324.962 L
420.665 324.954 L
420.667 324.953 L
421.332 324.945 L
421.335 324.945 L
422 324.938 L
422.002 324.937 L
422.665 324.93 L
422.667 324.93 L
423.332 324.923 L
423.335 324.923 L
423.999 324.916 L
424.001 324.916 L
424.665 324.909 L
424.667 324.909 L
425.333 324.903 L
425.335 324.903 L
425.998 324.897 L
426.001 324.897 L
426.666 324.891 L
426.668 324.891 L
427.332 324.885 L
427.334 324.885 L
427.999 324.88 L
428.001 324.88 L
428.666 324.875 L
428.668 324.875 L
429.332 324.87 L
429.334 324.87 L
429.999 324.865 L
430 324.865 L
430.666 324.861 L
430.667 324.861 L
431.333 324.856 L
431.335 324.856 L
432 324.852 L
432.002 324.852 L
432.667 324.848 L
432.668 324.848 L
433.332 324.844 L
433.334 324.844 L
433.999 324.841 L
434 324.841 L
434.666 324.837 L
434.667 324.837 L
435.332 324.834 L
435.334 324.834 L
435.999 324.831 L
436 324.831 L
436.666 324.828 L
436.668 324.828 L
437.332 324.825 L
437.334 324.825 L
437.999 324.822 L
438.001 324.822 L
438.666 324.819 L
438.667 324.819 L
439.332 324.816 L
439.334 324.816 L
439.999 324.814 L
440.001 324.814 L
440.666 324.811 L
440.667 324.811 L
441.333 324.809 L
441.334 324.809 L
441.999 324.807 L
442.001 324.807 L
442.666 324.805 L
442.668 324.805 L
443.333 324.803 L
443.334 324.803 L
443.999 324.801 L
444 324.801 L
444.666 324.799 L
444.667 324.799 L
445.333 324.797 L
445.334 324.797 L
446 324.796 L
446.001 324.796 L
446.666 324.794 L
446.667 324.794 L
447.333 324.792 L
447.334 324.792 L
448 324.791 L
448.001 324.791 L
448.667 324.789 L
448.668 324.789 L
449.332 324.788 L
449.333 324.788 L
449.999 324.787 L
450 324.787 L
450.001 324.787 L
450.667 324.785 L
450.668 324.785 L
451.332 324.784 L
451.333 324.784 L
451.999 324.783 L
452 324.783 L
452.001 324.783 L
452.667 324.782 L
452.668 324.782 L
453.332 324.781 L
453.333 324.781 L
453.333 324.781 L
453.998 324.78 L
453.999 324.78 L
454 324.78 L
454.665 324.779 L
454.666 324.779 L
454.667 324.779 L
455.333 324.778 L
455.334 324.778 L
455.999 324.777 L
456 324.777 L
456.665 324.776 L
456.666 324.776 L
456.667 324.776 L
457.332 324.775 L
457.333 324.775 L
457.333 324.775 L
458 324.774 L
458 324.774 L
458.667 324.774 L
458.667 324.774 L
459.333 324.773 L
459.334 324.773 L
459.999 324.772 L
460 324.772 L
460.666 324.772 L
460.666 324.772 L
460.667 324.772 L
461.333 324.771 L
461.333 324.771 L
461.334 324.771 L
461.998 324.77 L
462 324.77 L
462 324.77 L
462.665 324.77 L
462.666 324.77 L
462.667 324.77 L
463.332 324.769 L
463.333 324.769 L
463.334 324.769 L
463.999 324.769 L
464 324.769 L
464.001 324.769 L
464.664 324.768 L
464.666 324.768 L
464.667 324.768 L
465.331 324.768 L
465.333 324.768 L
465.334 324.768 L
465.996 324.767 L
466 324.767 L
466 324.767 L
466.664 324.767 L
466.666 324.767 L
466.667 324.767 L
467.332 324.766 L
467.333 324.766 L
467.333 324.766 L
467.996 324.766 L
468 324.766 L
468 324.766 L
468.666 324.765 L
468.667 324.765 L
468.667 324.765 L
469.329 324.765 L
469.333 324.765 L
469.334 324.765 L
469.999 324.765 L
470 324.765 L
470 324.765 L
470.666 324.764 L
470.666 324.764 L
470.667 324.764 L
471.332 324.764 L
471.333 324.764 L
471.333 324.764 L
471.997 324.764 L
472 324.764 L
472 324.764 L
472.663 324.763 L
472.666 324.763 L
472.667 324.763 L
473.331 324.763 L
473.333 324.763 L
473.334 324.763 L
473.994 324.763 L
474 324.763 L
474 324.763 L
474.661 324.762 L
474.667 324.762 L
474.667 324.762 L
475.333 324.762 L
475.333 324.762 L
475.333 324.762 L
476 324.762 L
476 324.762 L
476.662 324.762 L
476.667 324.762 L
476.667 324.762 L
477.331 324.761 L
477.333 324.761 L
477.333 324.761 L
477.993 324.761 L
478 324.761 L
478 324.761 L
478.66 324.761 L
478.667 324.761 L
478.667 324.761 L
479.331 324.761 L
479.333 324.761 L
479.333 324.761 L
479.997 324.761 L
480 324.761 L
480 324.761 L
480.667 324.76 L
480.667 324.76 L
481.328 324.76 L
481.333 324.76 L
481.334 324.76 L
481.999 324.76 L
482 324.76 L
482 324.76 L
482.659 324.76 L
482.666 324.76 L
482.667 324.76 L
483.326 324.76 L
483.333 324.76 L
483.333 324.76 L
483.989 324.76 L
484 324.76 L
484 324.76 L
484.659 324.759 L
484.667 324.759 L
484.667 324.759 L
485.322 324.759 L
485.333 324.759 L
485.334 324.759 L
485.989 324.759 L
486 324.759 L
486 324.759 L
486.659 324.759 L
486.666 324.759 L
486.667 324.759 L
487.331 324.759 L
487.333 324.759 L
487.333 324.759 L
487.99 324.759 L
488 324.759 L
488 324.759 L
488.664 324.759 L
488.667 324.759 L
488.667 324.759 L
489.32 324.759 L
489.333 324.759 L
489.334 324.759 L
489.988 324.758 L
490 324.758 L
490 324.758 L
490.652 324.758 L
490.666 324.758 L
490.667 324.758 L
491.328 324.758 L
491.333 324.758 L
491.334 324.758 L
491.996 324.758 L
492 324.758 L
492 324.758 L
492.656 324.758 L
492.667 324.758 L
492.667 324.758 L
493.324 324.758 L
493.333 324.758 L
493.333 324.758 L
493.979 324.758 L
494 324.758 L
494 324.758 L
494.663 324.758 L
494.667 324.758 L
494.667 324.758 L
495.332 324.758 L
495.333 324.758 L
495.333 324.758 L
495.983 324.758 L
496 324.758 L
496 324.758 L
496.661 324.758 L
496.667 324.758 L
496.667 324.758 L
497.317 324.758 L
497.333 324.758 L
497.333 324.758 L
497.975 324.758 L
498 324.758 L
498 324.758 L
498.661 324.757 L
498.667 324.757 L
498.667 324.757 L
499.319 324.757 L
499.333 324.757 L
499.333 324.757 L
499.974 324.757 L
500 324.757 L
500 324.757 L
500.656 324.757 L
500.667 324.757 L
500.667 324.757 L
501.302 324.757 L
501.333 324.757 L
501.333 324.757 L
501.975 324.757 L
502 324.757 L
502 324.757 L
502.64 324.757 L
502.667 324.757 L
502.667 324.757 L
503.333 324.757 L
503.333 324.757 L
503.333 324.757 L
503.978 324.757 L
504 324.757 L
504 324.757 L
504.648 324.757 L
504.667 324.757 L
504.667 324.757 L
505.304 324.757 L
505.333 324.757 L
505.333 324.757 L
505.986 324.757 L
506 324.757 L
506 324.757 L
506.65 324.757 L
506.667 324.757 L
506.667 324.757 L
506.968 324.757 L
507 324.757 L
S
GR
%%Trailer
%%Pages: 1
%%EOF
