%!PS-Adobe-3.0 EPSF-3.0
%%Creator: (MATLAB, The Mathworks, Inc. Version 9.5.0.944444 \(R2018b\). Operating System: Windows 10)
%%Title: F:/Studium/__Bachelorarbeit/tex/images/tsvd2-oversmoothed-1E-3.eps
%%CreationDate: 2020-06-30T16:49:24
%%Pages: (atend)
%%BoundingBox: 0 0 420 315
%%LanguageLevel: 3
%%EndComments
%%BeginProlog
%%BeginResource: procset (Apache XML Graphics Std ProcSet) 1.2 0
%%Version: 1.2 0
%%Copyright: (Copyright 2001-2003,2010 The Apache Software Foundation. License terms: http://www.apache.org/licenses/LICENSE-2.0)
/bd{bind def}bind def
/ld{load def}bd
/GR/grestore ld
/GS/gsave ld
/RM/rmoveto ld
/C/curveto ld
/t/show ld
/L/lineto ld
/ML/setmiterlimit ld
/CT/concat ld
/f/fill ld
/N/newpath ld
/S/stroke ld
/CC/setcmykcolor ld
/A/ashow ld
/cp/closepath ld
/RC/setrgbcolor ld
/LJ/setlinejoin ld
/GC/setgray ld
/LW/setlinewidth ld
/M/moveto ld
/re {4 2 roll M
1 index 0 rlineto
0 exch rlineto
neg 0 rlineto
cp } bd
/_ctm matrix def
/_tm matrix def
/BT { _ctm currentmatrix pop matrix _tm copy pop 0 0 moveto } bd
/ET { _ctm setmatrix } bd
/iTm { _ctm setmatrix _tm concat } bd
/Tm { _tm astore pop iTm 0 0 moveto } bd
/ux 0.0 def
/uy 0.0 def
/F {
  /Tp exch def
  /Tf exch def
  Tf findfont Tp scalefont setfont
  /cf Tf def  /cs Tp def
} bd
/ULS {currentpoint /uy exch def /ux exch def} bd
/ULE {
  /Tcx currentpoint pop def
  gsave
  newpath
  cf findfont cs scalefont dup
  /FontMatrix get 0 get /Ts exch def /FontInfo get dup
  /UnderlinePosition get Ts mul /To exch def
  /UnderlineThickness get Ts mul /Tt exch def
  ux uy To add moveto  Tcx uy To add lineto
  Tt setlinewidth stroke
  grestore
} bd
/OLE {
  /Tcx currentpoint pop def
  gsave
  newpath
  cf findfont cs scalefont dup
  /FontMatrix get 0 get /Ts exch def /FontInfo get dup
  /UnderlinePosition get Ts mul /To exch def
  /UnderlineThickness get Ts mul /Tt exch def
  ux uy To add cs add moveto Tcx uy To add cs add lineto
  Tt setlinewidth stroke
  grestore
} bd
/SOE {
  /Tcx currentpoint pop def
  gsave
  newpath
  cf findfont cs scalefont dup
  /FontMatrix get 0 get /Ts exch def /FontInfo get dup
  /UnderlinePosition get Ts mul /To exch def
  /UnderlineThickness get Ts mul /Tt exch def
  ux uy To add cs 10 mul 26 idiv add moveto Tcx uy To add cs 10 mul 26 idiv add lineto
  Tt setlinewidth stroke
  grestore
} bd
/QT {
/Y22 exch store
/X22 exch store
/Y21 exch store
/X21 exch store
currentpoint
/Y21 load 2 mul add 3 div exch
/X21 load 2 mul add 3 div exch
/X21 load 2 mul /X22 load add 3 div
/Y21 load 2 mul /Y22 load add 3 div
/X22 load /Y22 load curveto
} bd
/SSPD {
dup length /d exch dict def
{
/v exch def
/k exch def
currentpagedevice k known {
/cpdv currentpagedevice k get def
v cpdv ne {
/upd false def
/nullv v type /nulltype eq def
/nullcpdv cpdv type /nulltype eq def
nullv nullcpdv or
{
/upd true def
} {
/sametype v type cpdv type eq def
sametype {
v type /arraytype eq {
/vlen v length def
/cpdvlen cpdv length def
vlen cpdvlen eq {
0 1 vlen 1 sub {
/i exch def
/obj v i get def
/cpdobj cpdv i get def
obj cpdobj ne {
/upd true def
exit
} if
} for
} {
/upd true def
} ifelse
} {
v type /dicttype eq {
v {
/dv exch def
/dk exch def
/cpddv cpdv dk get def
dv cpddv ne {
/upd true def
exit
} if
} forall
} {
/upd true def
} ifelse
} ifelse
} if
} ifelse
upd true eq {
d k v put
} if
} if
} if
} forall
d length 0 gt {
d setpagedevice
} if
} bd
/RE { % /NewFontName [NewEncodingArray] /FontName RE -
  findfont dup length dict begin
  {
    1 index /FID ne
    {def} {pop pop} ifelse
  } forall
  /Encoding exch def
  /FontName 1 index def
  currentdict definefont pop
  end
} bind def
%%EndResource
%%BeginResource: procset (Apache XML Graphics EPS ProcSet) 1.0 0
%%Version: 1.0 0
%%Copyright: (Copyright 2002-2003 The Apache Software Foundation. License terms: http://www.apache.org/licenses/LICENSE-2.0)
/BeginEPSF { %def
/b4_Inc_state save def         % Save state for cleanup
/dict_count countdictstack def % Count objects on dict stack
/op_count count 1 sub def      % Count objects on operand stack
userdict begin                 % Push userdict on dict stack
/showpage { } def              % Redefine showpage, { } = null proc
0 setgray 0 setlinecap         % Prepare graphics state
1 setlinewidth 0 setlinejoin
10 setmiterlimit [ ] 0 setdash newpath
/languagelevel where           % If level not equal to 1 then
{pop languagelevel             % set strokeadjust and
1 ne                           % overprint to their defaults.
{false setstrokeadjust false setoverprint
} if
} if
} bd
/EndEPSF { %def
count op_count sub {pop} repeat            % Clean up stacks
countdictstack dict_count sub {end} repeat
b4_Inc_state restore
} bd
%%EndResource
%FOPBeginFontDict
%%IncludeResource: font Courier-Oblique
%%IncludeResource: font Courier-BoldOblique
%%IncludeResource: font Courier-Bold
%%IncludeResource: font ZapfDingbats
%%IncludeResource: font Symbol
%%IncludeResource: font Helvetica
%%IncludeResource: font Helvetica-Oblique
%%IncludeResource: font Helvetica-Bold
%%IncludeResource: font Helvetica-BoldOblique
%%IncludeResource: font Times-Roman
%%IncludeResource: font Times-Italic
%%IncludeResource: font Times-Bold
%%IncludeResource: font Times-BoldItalic
%%IncludeResource: font Courier
%FOPEndFontDict
%%BeginResource: encoding WinAnsiEncoding
/WinAnsiEncoding [
/.notdef /.notdef /.notdef /.notdef /.notdef
/.notdef /.notdef /.notdef /.notdef /.notdef
/.notdef /.notdef /.notdef /.notdef /.notdef
/.notdef /.notdef /.notdef /.notdef /.notdef
/.notdef /.notdef /.notdef /.notdef /.notdef
/.notdef /.notdef /.notdef /.notdef /.notdef
/.notdef /.notdef /space /exclam /quotedbl
/numbersign /dollar /percent /ampersand /quotesingle
/parenleft /parenright /asterisk /plus /comma
/hyphen /period /slash /zero /one
/two /three /four /five /six
/seven /eight /nine /colon /semicolon
/less /equal /greater /question /at
/A /B /C /D /E
/F /G /H /I /J
/K /L /M /N /O
/P /Q /R /S /T
/U /V /W /X /Y
/Z /bracketleft /backslash /bracketright /asciicircum
/underscore /quoteleft /a /b /c
/d /e /f /g /h
/i /j /k /l /m
/n /o /p /q /r
/s /t /u /v /w
/x /y /z /braceleft /bar
/braceright /asciitilde /bullet /Euro /bullet
/quotesinglbase /florin /quotedblbase /ellipsis /dagger
/daggerdbl /circumflex /perthousand /Scaron /guilsinglleft
/OE /bullet /Zcaron /bullet /bullet
/quoteleft /quoteright /quotedblleft /quotedblright /bullet
/endash /emdash /asciitilde /trademark /scaron
/guilsinglright /oe /bullet /zcaron /Ydieresis
/space /exclamdown /cent /sterling /currency
/yen /brokenbar /section /dieresis /copyright
/ordfeminine /guillemotleft /logicalnot /sfthyphen /registered
/macron /degree /plusminus /twosuperior /threesuperior
/acute /mu /paragraph /middot /cedilla
/onesuperior /ordmasculine /guillemotright /onequarter /onehalf
/threequarters /questiondown /Agrave /Aacute /Acircumflex
/Atilde /Adieresis /Aring /AE /Ccedilla
/Egrave /Eacute /Ecircumflex /Edieresis /Igrave
/Iacute /Icircumflex /Idieresis /Eth /Ntilde
/Ograve /Oacute /Ocircumflex /Otilde /Odieresis
/multiply /Oslash /Ugrave /Uacute /Ucircumflex
/Udieresis /Yacute /Thorn /germandbls /agrave
/aacute /acircumflex /atilde /adieresis /aring
/ae /ccedilla /egrave /eacute /ecircumflex
/edieresis /igrave /iacute /icircumflex /idieresis
/eth /ntilde /ograve /oacute /ocircumflex
/otilde /odieresis /divide /oslash /ugrave
/uacute /ucircumflex /udieresis /yacute /thorn
/ydieresis
] def
%%EndResource
%FOPBeginFontReencode
/Courier-Oblique findfont
dup length dict begin
  {1 index /FID ne {def} {pop pop} ifelse} forall
  /Encoding WinAnsiEncoding def
  currentdict
end
/Courier-Oblique exch definefont pop
/Courier-BoldOblique findfont
dup length dict begin
  {1 index /FID ne {def} {pop pop} ifelse} forall
  /Encoding WinAnsiEncoding def
  currentdict
end
/Courier-BoldOblique exch definefont pop
/Courier-Bold findfont
dup length dict begin
  {1 index /FID ne {def} {pop pop} ifelse} forall
  /Encoding WinAnsiEncoding def
  currentdict
end
/Courier-Bold exch definefont pop
/Helvetica findfont
dup length dict begin
  {1 index /FID ne {def} {pop pop} ifelse} forall
  /Encoding WinAnsiEncoding def
  currentdict
end
/Helvetica exch definefont pop
/Helvetica-Oblique findfont
dup length dict begin
  {1 index /FID ne {def} {pop pop} ifelse} forall
  /Encoding WinAnsiEncoding def
  currentdict
end
/Helvetica-Oblique exch definefont pop
/Helvetica-Bold findfont
dup length dict begin
  {1 index /FID ne {def} {pop pop} ifelse} forall
  /Encoding WinAnsiEncoding def
  currentdict
end
/Helvetica-Bold exch definefont pop
/Helvetica-BoldOblique findfont
dup length dict begin
  {1 index /FID ne {def} {pop pop} ifelse} forall
  /Encoding WinAnsiEncoding def
  currentdict
end
/Helvetica-BoldOblique exch definefont pop
/Times-Roman findfont
dup length dict begin
  {1 index /FID ne {def} {pop pop} ifelse} forall
  /Encoding WinAnsiEncoding def
  currentdict
end
/Times-Roman exch definefont pop
/Times-Italic findfont
dup length dict begin
  {1 index /FID ne {def} {pop pop} ifelse} forall
  /Encoding WinAnsiEncoding def
  currentdict
end
/Times-Italic exch definefont pop
/Times-Bold findfont
dup length dict begin
  {1 index /FID ne {def} {pop pop} ifelse} forall
  /Encoding WinAnsiEncoding def
  currentdict
end
/Times-Bold exch definefont pop
/Times-BoldItalic findfont
dup length dict begin
  {1 index /FID ne {def} {pop pop} ifelse} forall
  /Encoding WinAnsiEncoding def
  currentdict
end
/Times-BoldItalic exch definefont pop
/Courier findfont
dup length dict begin
  {1 index /FID ne {def} {pop pop} ifelse} forall
  /Encoding WinAnsiEncoding def
  currentdict
end
/Courier exch definefont pop
%FOPEndFontReencode
%%EndProlog
%%Page: 1 1
%%PageBoundingBox: 0 0 420 315
%%BeginPageSetup
[1 0 0 -1 0 315] CT
%%EndPageSetup
GS
[0.75 0 0 0.75 0 0] CT
1 GC
N
0 0 560 420 re
f
GR
GS
[0.75 0 0 0.75 0 0] CT
1 GC
N
0 0 560 420 re
f
GR
GS
[0.75 0 0 0.75 0 0] CT
1 GC
N
73 374 M
507 374 L
507 31 L
73 31 L
cp
f
GR
GS
[0.75 0 0 0.75 0 0] CT
0.149 GC
2 setlinecap
1 LJ
0.667 LW
N
73 374 M
507 374 L
S
GR
GS
[0.75 0 0 0.75 0 0] CT
0.149 GC
2 setlinecap
1 LJ
0.667 LW
N
73 31 M
507 31 L
S
GR
GS
[0.75 0 0 0.75 0 0] CT
0.149 GC
2 setlinecap
1 LJ
0.667 LW
N
73 374 M
73 369.66 L
S
GR
GS
[0.75 0 0 0.75 0 0] CT
0.149 GC
2 setlinecap
1 LJ
0.667 LW
N
116.4 374 M
116.4 369.66 L
S
GR
GS
[0.75 0 0 0.75 0 0] CT
0.149 GC
2 setlinecap
1 LJ
0.667 LW
N
159.8 374 M
159.8 369.66 L
S
GR
GS
[0.75 0 0 0.75 0 0] CT
0.149 GC
2 setlinecap
1 LJ
0.667 LW
N
203.2 374 M
203.2 369.66 L
S
GR
GS
[0.75 0 0 0.75 0 0] CT
0.149 GC
2 setlinecap
1 LJ
0.667 LW
N
246.6 374 M
246.6 369.66 L
S
GR
GS
[0.75 0 0 0.75 0 0] CT
0.149 GC
2 setlinecap
1 LJ
0.667 LW
N
290 374 M
290 369.66 L
S
GR
GS
[0.75 0 0 0.75 0 0] CT
0.149 GC
2 setlinecap
1 LJ
0.667 LW
N
333.4 374 M
333.4 369.66 L
S
GR
GS
[0.75 0 0 0.75 0 0] CT
0.149 GC
2 setlinecap
1 LJ
0.667 LW
N
376.8 374 M
376.8 369.66 L
S
GR
GS
[0.75 0 0 0.75 0 0] CT
0.149 GC
2 setlinecap
1 LJ
0.667 LW
N
420.2 374 M
420.2 369.66 L
S
GR
GS
[0.75 0 0 0.75 0 0] CT
0.149 GC
2 setlinecap
1 LJ
0.667 LW
N
463.6 374 M
463.6 369.66 L
S
GR
GS
[0.75 0 0 0.75 0 0] CT
0.149 GC
2 setlinecap
1 LJ
0.667 LW
N
507 374 M
507 369.66 L
S
GR
GS
[0.75 0 0 0.75 0 0] CT
0.149 GC
2 setlinecap
1 LJ
0.667 LW
N
73 31 M
73 35.34 L
S
GR
GS
[0.75 0 0 0.75 0 0] CT
0.149 GC
2 setlinecap
1 LJ
0.667 LW
N
116.4 31 M
116.4 35.34 L
S
GR
GS
[0.75 0 0 0.75 0 0] CT
0.149 GC
2 setlinecap
1 LJ
0.667 LW
N
159.8 31 M
159.8 35.34 L
S
GR
GS
[0.75 0 0 0.75 0 0] CT
0.149 GC
2 setlinecap
1 LJ
0.667 LW
N
203.2 31 M
203.2 35.34 L
S
GR
GS
[0.75 0 0 0.75 0 0] CT
0.149 GC
2 setlinecap
1 LJ
0.667 LW
N
246.6 31 M
246.6 35.34 L
S
GR
GS
[0.75 0 0 0.75 0 0] CT
0.149 GC
2 setlinecap
1 LJ
0.667 LW
N
290 31 M
290 35.34 L
S
GR
GS
[0.75 0 0 0.75 0 0] CT
0.149 GC
2 setlinecap
1 LJ
0.667 LW
N
333.4 31 M
333.4 35.34 L
S
GR
GS
[0.75 0 0 0.75 0 0] CT
0.149 GC
2 setlinecap
1 LJ
0.667 LW
N
376.8 31 M
376.8 35.34 L
S
GR
GS
[0.75 0 0 0.75 0 0] CT
0.149 GC
2 setlinecap
1 LJ
0.667 LW
N
420.2 31 M
420.2 35.34 L
S
GR
GS
[0.75 0 0 0.75 0 0] CT
0.149 GC
2 setlinecap
1 LJ
0.667 LW
N
463.6 31 M
463.6 35.34 L
S
GR
GS
[0.75 0 0 0.75 0 0] CT
0.149 GC
2 setlinecap
1 LJ
0.667 LW
N
507 31 M
507 35.34 L
S
GR
GS
[0.75 0 0 0.75 54.75 284.50001] CT
0.149 GC
/Helvetica 13.333 F
GS
[1 0 0 1 0 0] CT
-4 14 moveto 
1 -1 scale
(0) t 
GR
GR
GS
[0.75 0 0 0.75 87.3 284.50001] CT
0.149 GC
/Helvetica 13.333 F
GS
[1 0 0 1 0 0] CT
-9.5 14 moveto 
1 -1 scale
(0.1) t 
GR
GR
GS
[0.75 0 0 0.75 119.85 284.50001] CT
0.149 GC
/Helvetica 13.333 F
GS
[1 0 0 1 0 0] CT
-9.5 14 moveto 
1 -1 scale
(0.2) t 
GR
GR
GS
[0.75 0 0 0.75 152.40001 284.50001] CT
0.149 GC
/Helvetica 13.333 F
GS
[1 0 0 1 0 0] CT
-9.5 14 moveto 
1 -1 scale
(0.3) t 
GR
GR
GS
[0.75 0 0 0.75 184.95 284.50001] CT
0.149 GC
/Helvetica 13.333 F
GS
[1 0 0 1 0 0] CT
-9.5 14 moveto 
1 -1 scale
(0.4) t 
GR
GR
GS
[0.75 0 0 0.75 217.5 284.50001] CT
0.149 GC
/Helvetica 13.333 F
GS
[1 0 0 1 0 0] CT
-9.5 14 moveto 
1 -1 scale
(0.5) t 
GR
GR
GS
[0.75 0 0 0.75 250.05002 284.50001] CT
0.149 GC
/Helvetica 13.333 F
GS
[1 0 0 1 0 0] CT
-9.5 14 moveto 
1 -1 scale
(0.6) t 
GR
GR
GS
[0.75 0 0 0.75 282.59999 284.50001] CT
0.149 GC
/Helvetica 13.333 F
GS
[1 0 0 1 0 0] CT
-9.5 14 moveto 
1 -1 scale
(0.7) t 
GR
GR
GS
[0.75 0 0 0.75 315.15001 284.50001] CT
0.149 GC
/Helvetica 13.333 F
GS
[1 0 0 1 0 0] CT
-9.5 14 moveto 
1 -1 scale
(0.8) t 
GR
GR
GS
[0.75 0 0 0.75 347.69998 284.50001] CT
0.149 GC
/Helvetica 13.333 F
GS
[1 0 0 1 0 0] CT
-9.5 14 moveto 
1 -1 scale
(0.9) t 
GR
GR
GS
[0.75 0 0 0.75 380.25 284.50001] CT
0.149 GC
/Helvetica 13.333 F
GS
[1 0 0 1 0 0] CT
-4 14 moveto 
1 -1 scale
(1) t 
GR
GR
GS
[0.75 0 0 0.75 0 0] CT
0.149 GC
2 setlinecap
1 LJ
0.667 LW
N
73 374 M
73 31 L
S
GR
GS
[0.75 0 0 0.75 0 0] CT
0.149 GC
2 setlinecap
1 LJ
0.667 LW
N
507 374 M
507 31 L
S
GR
GS
[0.75 0 0 0.75 0 0] CT
0.149 GC
2 setlinecap
1 LJ
0.667 LW
N
73 347.615 M
77.34 347.615 L
S
GR
GS
[0.75 0 0 0.75 0 0] CT
0.149 GC
2 setlinecap
1 LJ
0.667 LW
N
73 294.846 M
77.34 294.846 L
S
GR
GS
[0.75 0 0 0.75 0 0] CT
0.149 GC
2 setlinecap
1 LJ
0.667 LW
N
73 242.077 M
77.34 242.077 L
S
GR
GS
[0.75 0 0 0.75 0 0] CT
0.149 GC
2 setlinecap
1 LJ
0.667 LW
N
73 189.308 M
77.34 189.308 L
S
GR
GS
[0.75 0 0 0.75 0 0] CT
0.149 GC
2 setlinecap
1 LJ
0.667 LW
N
73 136.538 M
77.34 136.538 L
S
GR
GS
[0.75 0 0 0.75 0 0] CT
0.149 GC
2 setlinecap
1 LJ
0.667 LW
N
73 83.769 M
77.34 83.769 L
S
GR
GS
[0.75 0 0 0.75 0 0] CT
0.149 GC
2 setlinecap
1 LJ
0.667 LW
N
73 31 M
77.34 31 L
S
GR
GS
[0.75 0 0 0.75 0 0] CT
0.149 GC
2 setlinecap
1 LJ
0.667 LW
N
507 347.615 M
502.66 347.615 L
S
GR
GS
[0.75 0 0 0.75 0 0] CT
0.149 GC
2 setlinecap
1 LJ
0.667 LW
N
507 294.846 M
502.66 294.846 L
S
GR
GS
[0.75 0 0 0.75 0 0] CT
0.149 GC
2 setlinecap
1 LJ
0.667 LW
N
507 242.077 M
502.66 242.077 L
S
GR
GS
[0.75 0 0 0.75 0 0] CT
0.149 GC
2 setlinecap
1 LJ
0.667 LW
N
507 189.308 M
502.66 189.308 L
S
GR
GS
[0.75 0 0 0.75 0 0] CT
0.149 GC
2 setlinecap
1 LJ
0.667 LW
N
507 136.538 M
502.66 136.538 L
S
GR
GS
[0.75 0 0 0.75 0 0] CT
0.149 GC
2 setlinecap
1 LJ
0.667 LW
N
507 83.769 M
502.66 83.769 L
S
GR
GS
[0.75 0 0 0.75 0 0] CT
0.149 GC
2 setlinecap
1 LJ
0.667 LW
N
507 31 M
502.66 31 L
S
GR
GS
[0.75 0 0 0.75 50.75 260.71154] CT
0.149 GC
/Helvetica 13.333 F
GS
[1 0 0 1 0 0] CT
-8 5.5 moveto 
1 -1 scale
(0) t 
GR
GR
GS
[0.75 0 0 0.75 50.75 221.13462] CT
0.149 GC
/Helvetica 13.333 F
GS
[1 0 0 1 0 0] CT
-19 5.5 moveto 
1 -1 scale
(0.2) t 
GR
GR
GS
[0.75 0 0 0.75 50.75 181.55769] CT
0.149 GC
/Helvetica 13.333 F
GS
[1 0 0 1 0 0] CT
-19 5.5 moveto 
1 -1 scale
(0.4) t 
GR
GR
GS
[0.75 0 0 0.75 50.75 141.98077] CT
0.149 GC
/Helvetica 13.333 F
GS
[1 0 0 1 0 0] CT
-19 5.5 moveto 
1 -1 scale
(0.6) t 
GR
GR
GS
[0.75 0 0 0.75 50.75 102.40384] CT
0.149 GC
/Helvetica 13.333 F
GS
[1 0 0 1 0 0] CT
-19 5.5 moveto 
1 -1 scale
(0.8) t 
GR
GR
GS
[0.75 0 0 0.75 50.75 62.82693] CT
0.149 GC
/Helvetica 13.333 F
GS
[1 0 0 1 0 0] CT
-8 5.5 moveto 
1 -1 scale
(1) t 
GR
GR
GS
[0.75 0 0 0.75 50.75 23.24999] CT
0.149 GC
/Helvetica 13.333 F
GS
[1 0 0 1 0 0] CT
-19 5.5 moveto 
1 -1 scale
(1.2) t 
GR
GR
GS
[0.75 0 0 0.75 0 0] CT
0 0.447 0.741 RC
1 LJ
0.667 LW
N
73 347.615 M
87.966 347.615 L
102.931 347.615 L
117.897 347.615 L
132.862 347.615 L
147.828 347.615 L
162.793 347.615 L
177.759 347.615 L
192.724 347.615 L
207.69 83.769 L
222.655 83.769 L
237.621 83.769 L
252.586 83.769 L
267.552 83.769 L
282.517 83.769 L
297.483 83.769 L
312.448 83.769 L
327.414 83.769 L
342.379 83.769 L
357.345 83.769 L
372.31 83.769 L
387.276 347.615 L
402.241 347.615 L
417.207 347.615 L
432.172 347.615 L
447.138 347.615 L
462.103 347.615 L
477.069 347.615 L
492.034 347.615 L
507 347.615 L
S
GR
GS
[0.75 0 0 0.75 0 0] CT
0.851 0.325 0.098 RC
1 LJ
0.667 LW
N
73 328.191 M
87.966 308.966 L
102.931 290.137 L
117.897 271.898 L
132.862 254.437 L
147.828 237.931 L
162.793 222.551 L
177.759 208.454 L
192.724 195.785 L
207.69 184.674 L
222.655 175.236 L
237.621 167.566 L
252.586 161.743 L
267.552 157.828 L
282.517 155.86 L
297.483 155.86 L
312.448 157.828 L
327.414 161.743 L
342.379 167.566 L
357.345 175.236 L
372.31 184.674 L
387.276 195.785 L
402.241 208.454 L
417.207 222.551 L
432.172 237.931 L
447.138 254.437 L
462.103 271.898 L
477.069 290.137 L
492.034 308.966 L
507 328.191 L
S
GR
GS
[0.75 0 0 0.75 0 0] CT
1 GC
N
496 76 M
496 42 L
434 42 L
434 76 L
cp
f
GR
GS
[0.75 0 0 0.75 360.60585 38.31956] CT
N
1.953 4.755 M
1.969 4.614 2.125 4.614 QT
2.141 4.614 2.352 4.732 QT
2.563 4.849 2.82 4.942 QT
3.078 5.036 3.328 5.036 QT
3.563 5.036 3.711 4.841 QT
3.859 4.646 3.859 4.427 QT
3.859 4.114 3.531 3.989 QT
1.484 3.192 L
0.969 2.989 0.625 2.583 QT
0.281 2.177 0.281 1.661 QT
0.281 1.192 0.523 0.692 QT
0.766 0.192 1.156 -0.214 QT
1.547 -0.62 1.984 -0.87 QT
1.625 -1.089 1.43 -1.417 QT
1.234 -1.745 1.234 -2.151 QT
1.234 -2.573 1.406 -2.933 QT
1.578 -3.292 1.883 -3.597 QT
2.188 -3.901 2.555 -4.104 QT
2.922 -4.308 3.297 -4.417 QT
3.234 -4.667 3.234 -4.854 QT
3.234 -5.511 3.5 -5.511 QT
3.563 -5.511 3.609 -5.464 QT
3.656 -5.417 3.656 -5.354 QT
3.656 -5.292 3.625 -5.097 QT
3.594 -4.901 3.594 -4.854 QT
3.594 -4.651 3.641 -4.479 QT
3.953 -4.558 4.234 -4.558 QT
5.344 -4.558 5.344 -4.214 QT
5.344 -3.808 4.109 -3.808 QT
3.734 -3.808 3.5 -4.058 QT
3.156 -3.886 2.867 -3.565 QT
2.578 -3.245 2.414 -2.847 QT
2.25 -2.448 2.25 -2.042 QT
2.25 -1.479 2.563 -1.136 QT
3 -1.292 3.422 -1.292 QT
4.531 -1.292 4.531 -0.948 QT
4.531 -0.542 3.297 -0.542 QT
2.797 -0.542 2.359 -0.698 QT
1.828 -0.401 1.383 0.185 QT
0.938 0.771 0.938 1.302 QT
0.938 1.661 1.195 1.927 QT
1.453 2.192 1.828 2.349 QT
3.953 3.177 L
4.219 3.286 4.398 3.521 QT
4.578 3.755 4.578 4.052 QT
4.578 4.536 4.195 4.942 QT
3.813 5.349 3.328 5.349 QT
3.172 5.349 2.828 5.263 QT
2.484 5.177 2.219 5.044 QT
1.953 4.911 1.953 4.755 QT
cp
2.938 -0.917 M
3.094 -0.854 3.328 -0.854 QT
3.906 -0.854 4.156 -0.917 QT
3.922 -0.964 3.406 -0.964 QT
3.203 -0.964 2.938 -0.917 QT
cp
3.844 -4.183 M
3.953 -4.12 4.141 -4.12 QT
4.719 -4.12 4.969 -4.183 QT
3.844 -4.183 L
cp
f
GR
GS
[0.75 0 0 0.75 0 0] CT
0 0.447 0.741 RC
1 LJ
0.667 LW
N
437.984 51.093 M
477.82 51.093 L
S
GR
GS
[0.75 0 0 0.75 360.60585 49.77236] CT
N
2.234 -6.799 M
2.578 -7.221 L
3.047 -7.752 3.516 -7.752 QT
3.75 -7.752 4.016 -7.619 QT
4.281 -7.486 4.555 -7.353 QT
4.828 -7.221 5.063 -7.221 QT
5.547 -7.221 5.984 -7.752 QT
6.234 -7.549 L
5.875 -7.142 L
5.406 -6.596 4.938 -6.596 QT
4.719 -6.596 4.445 -6.736 QT
4.172 -6.877 3.898 -7.01 QT
3.625 -7.142 3.391 -7.142 QT
2.922 -7.142 2.469 -6.596 QT
2.234 -6.799 L
cp
f
GR
GS
[0.75 0 0 0.75 360.60585 49.77236] CT
N
1.953 5.305 M
1.969 5.165 2.125 5.165 QT
2.141 5.165 2.352 5.282 QT
2.563 5.399 2.82 5.493 QT
3.078 5.587 3.328 5.587 QT
3.563 5.587 3.711 5.391 QT
3.859 5.196 3.859 4.977 QT
3.859 4.665 3.531 4.54 QT
1.484 3.743 L
0.969 3.54 0.625 3.134 QT
0.281 2.727 0.281 2.212 QT
0.281 1.743 0.523 1.243 QT
0.766 0.743 1.156 0.337 QT
1.547 -0.07 1.984 -0.32 QT
1.625 -0.538 1.43 -0.866 QT
1.234 -1.195 1.234 -1.601 QT
1.234 -2.023 1.406 -2.382 QT
1.578 -2.741 1.883 -3.046 QT
2.188 -3.351 2.555 -3.554 QT
2.922 -3.757 3.297 -3.866 QT
3.234 -4.116 3.234 -4.304 QT
3.234 -4.96 3.5 -4.96 QT
3.563 -4.96 3.609 -4.913 QT
3.656 -4.866 3.656 -4.804 QT
3.656 -4.741 3.625 -4.546 QT
3.594 -4.351 3.594 -4.304 QT
3.594 -4.101 3.641 -3.929 QT
3.953 -4.007 4.234 -4.007 QT
5.344 -4.007 5.344 -3.663 QT
5.344 -3.257 4.109 -3.257 QT
3.734 -3.257 3.5 -3.507 QT
3.156 -3.335 2.867 -3.015 QT
2.578 -2.695 2.414 -2.296 QT
2.25 -1.898 2.25 -1.491 QT
2.25 -0.929 2.563 -0.585 QT
3 -0.741 3.422 -0.741 QT
4.531 -0.741 4.531 -0.398 QT
4.531 0.009 3.297 0.009 QT
2.797 0.009 2.359 -0.148 QT
1.828 0.149 1.383 0.735 QT
0.938 1.321 0.938 1.852 QT
0.938 2.212 1.195 2.477 QT
1.453 2.743 1.828 2.899 QT
3.953 3.727 L
4.219 3.837 4.398 4.071 QT
4.578 4.305 4.578 4.602 QT
4.578 5.087 4.195 5.493 QT
3.813 5.899 3.328 5.899 QT
3.172 5.899 2.828 5.813 QT
2.484 5.727 2.219 5.595 QT
1.953 5.462 1.953 5.305 QT
cp
2.938 -0.366 M
3.094 -0.304 3.328 -0.304 QT
3.906 -0.304 4.156 -0.366 QT
3.922 -0.413 3.406 -0.413 QT
3.203 -0.413 2.938 -0.366 QT
cp
3.844 -3.632 M
3.953 -3.57 4.141 -3.57 QT
4.719 -3.57 4.969 -3.632 QT
3.844 -3.632 L
cp
f
GR
GS
[0.75 0 0 0.75 360.60585 49.77236] CT
N
6.859 5.324 M
6.484 5.324 6.188 5.145 QT
5.891 4.965 5.734 4.66 QT
5.578 4.355 5.578 3.965 QT
5.578 3.418 5.875 2.887 QT
6.172 2.355 6.68 2.027 QT
7.188 1.699 7.734 1.699 QT
8.141 1.699 8.445 1.91 QT
8.75 2.121 8.914 2.473 QT
9.078 2.824 9.078 3.23 QT
9.078 3.762 L
9.359 3.387 9.547 2.98 QT
9.734 2.574 9.844 2.137 QT
9.859 2.09 9.906 2.09 QT
10 2.09 L
10.063 2.09 10.063 2.152 QT
10.063 2.168 10.063 2.184 QT
9.969 2.543 9.828 2.887 QT
9.688 3.23 9.5 3.543 QT
9.313 3.855 9.078 4.121 QT
9.078 5.105 9.313 5.105 QT
9.469 5.105 9.563 5.02 QT
9.656 4.934 9.727 4.801 QT
9.797 4.668 9.813 4.668 QT
9.922 4.668 L
9.984 4.668 9.984 4.746 QT
9.984 4.949 9.75 5.137 QT
9.516 5.324 9.297 5.324 QT
9.016 5.324 8.82 5.137 QT
8.625 4.949 8.563 4.637 QT
8.188 4.965 7.75 5.145 QT
7.313 5.324 6.859 5.324 QT
cp
6.875 5.105 M
7.734 5.105 8.516 4.402 QT
8.516 4.355 8.508 4.285 QT
8.5 4.215 8.5 4.215 QT
8.5 3.355 L
8.5 1.902 7.719 1.902 QT
7.25 1.902 6.898 2.301 QT
6.547 2.699 6.367 3.254 QT
6.188 3.809 6.188 4.277 QT
6.188 4.621 6.367 4.863 QT
6.547 5.105 6.875 5.105 QT
cp
f
GR
GS
[0.75 0 0 0.75 0 0] CT
0.851 0.325 0.098 RC
1 LJ
0.667 LW
N
437.984 66.363 M
477.82 66.363 L
S
GR
GS
[0.75 0 0 0.75 0 0] CT
0.149 GC
10.0 ML
0.667 LW
N
434 76 M
434 42 L
496 42 L
496 76 L
cp
S
GR
%%Trailer
%%Pages: 1
%%EOF
