%!PS-Adobe-3.0 EPSF-3.0
%%Creator: (MATLAB, The Mathworks, Inc. Version 9.5.0.944444 \(R2018b\). Operating System: Windows 10)
%%Title: F:/Studium/__Bachelorarbeit/tex/images/tsvd2-oversmoothed-1E-7.eps
%%CreationDate: 2020-07-24T18:54:28
%%Pages: (atend)
%%BoundingBox: 0 0 420 315
%%LanguageLevel: 3
%%EndComments
%%BeginProlog
%%BeginResource: procset (Apache XML Graphics Std ProcSet) 1.2 0
%%Version: 1.2 0
%%Copyright: (Copyright 2001-2003,2010 The Apache Software Foundation. License terms: http://www.apache.org/licenses/LICENSE-2.0)
/bd{bind def}bind def
/ld{load def}bd
/GR/grestore ld
/GS/gsave ld
/RM/rmoveto ld
/C/curveto ld
/t/show ld
/L/lineto ld
/ML/setmiterlimit ld
/CT/concat ld
/f/fill ld
/N/newpath ld
/S/stroke ld
/CC/setcmykcolor ld
/A/ashow ld
/cp/closepath ld
/RC/setrgbcolor ld
/LJ/setlinejoin ld
/GC/setgray ld
/LW/setlinewidth ld
/M/moveto ld
/re {4 2 roll M
1 index 0 rlineto
0 exch rlineto
neg 0 rlineto
cp } bd
/_ctm matrix def
/_tm matrix def
/BT { _ctm currentmatrix pop matrix _tm copy pop 0 0 moveto } bd
/ET { _ctm setmatrix } bd
/iTm { _ctm setmatrix _tm concat } bd
/Tm { _tm astore pop iTm 0 0 moveto } bd
/ux 0.0 def
/uy 0.0 def
/F {
  /Tp exch def
  /Tf exch def
  Tf findfont Tp scalefont setfont
  /cf Tf def  /cs Tp def
} bd
/ULS {currentpoint /uy exch def /ux exch def} bd
/ULE {
  /Tcx currentpoint pop def
  gsave
  newpath
  cf findfont cs scalefont dup
  /FontMatrix get 0 get /Ts exch def /FontInfo get dup
  /UnderlinePosition get Ts mul /To exch def
  /UnderlineThickness get Ts mul /Tt exch def
  ux uy To add moveto  Tcx uy To add lineto
  Tt setlinewidth stroke
  grestore
} bd
/OLE {
  /Tcx currentpoint pop def
  gsave
  newpath
  cf findfont cs scalefont dup
  /FontMatrix get 0 get /Ts exch def /FontInfo get dup
  /UnderlinePosition get Ts mul /To exch def
  /UnderlineThickness get Ts mul /Tt exch def
  ux uy To add cs add moveto Tcx uy To add cs add lineto
  Tt setlinewidth stroke
  grestore
} bd
/SOE {
  /Tcx currentpoint pop def
  gsave
  newpath
  cf findfont cs scalefont dup
  /FontMatrix get 0 get /Ts exch def /FontInfo get dup
  /UnderlinePosition get Ts mul /To exch def
  /UnderlineThickness get Ts mul /Tt exch def
  ux uy To add cs 10 mul 26 idiv add moveto Tcx uy To add cs 10 mul 26 idiv add lineto
  Tt setlinewidth stroke
  grestore
} bd
/QT {
/Y22 exch store
/X22 exch store
/Y21 exch store
/X21 exch store
currentpoint
/Y21 load 2 mul add 3 div exch
/X21 load 2 mul add 3 div exch
/X21 load 2 mul /X22 load add 3 div
/Y21 load 2 mul /Y22 load add 3 div
/X22 load /Y22 load curveto
} bd
/SSPD {
dup length /d exch dict def
{
/v exch def
/k exch def
currentpagedevice k known {
/cpdv currentpagedevice k get def
v cpdv ne {
/upd false def
/nullv v type /nulltype eq def
/nullcpdv cpdv type /nulltype eq def
nullv nullcpdv or
{
/upd true def
} {
/sametype v type cpdv type eq def
sametype {
v type /arraytype eq {
/vlen v length def
/cpdvlen cpdv length def
vlen cpdvlen eq {
0 1 vlen 1 sub {
/i exch def
/obj v i get def
/cpdobj cpdv i get def
obj cpdobj ne {
/upd true def
exit
} if
} for
} {
/upd true def
} ifelse
} {
v type /dicttype eq {
v {
/dv exch def
/dk exch def
/cpddv cpdv dk get def
dv cpddv ne {
/upd true def
exit
} if
} forall
} {
/upd true def
} ifelse
} ifelse
} if
} ifelse
upd true eq {
d k v put
} if
} if
} if
} forall
d length 0 gt {
d setpagedevice
} if
} bd
/RE { % /NewFontName [NewEncodingArray] /FontName RE -
  findfont dup length dict begin
  {
    1 index /FID ne
    {def} {pop pop} ifelse
  } forall
  /Encoding exch def
  /FontName 1 index def
  currentdict definefont pop
  end
} bind def
%%EndResource
%%BeginResource: procset (Apache XML Graphics EPS ProcSet) 1.0 0
%%Version: 1.0 0
%%Copyright: (Copyright 2002-2003 The Apache Software Foundation. License terms: http://www.apache.org/licenses/LICENSE-2.0)
/BeginEPSF { %def
/b4_Inc_state save def         % Save state for cleanup
/dict_count countdictstack def % Count objects on dict stack
/op_count count 1 sub def      % Count objects on operand stack
userdict begin                 % Push userdict on dict stack
/showpage { } def              % Redefine showpage, { } = null proc
0 setgray 0 setlinecap         % Prepare graphics state
1 setlinewidth 0 setlinejoin
10 setmiterlimit [ ] 0 setdash newpath
/languagelevel where           % If level not equal to 1 then
{pop languagelevel             % set strokeadjust and
1 ne                           % overprint to their defaults.
{false setstrokeadjust false setoverprint
} if
} if
} bd
/EndEPSF { %def
count op_count sub {pop} repeat            % Clean up stacks
countdictstack dict_count sub {end} repeat
b4_Inc_state restore
} bd
%%EndResource
%FOPBeginFontDict
%%IncludeResource: font Courier-Oblique
%%IncludeResource: font Courier-BoldOblique
%%IncludeResource: font Courier-Bold
%%IncludeResource: font ZapfDingbats
%%IncludeResource: font Symbol
%%IncludeResource: font Helvetica
%%IncludeResource: font Helvetica-Oblique
%%IncludeResource: font Helvetica-Bold
%%IncludeResource: font Helvetica-BoldOblique
%%IncludeResource: font Times-Roman
%%IncludeResource: font Times-Italic
%%IncludeResource: font Times-Bold
%%IncludeResource: font Times-BoldItalic
%%IncludeResource: font Courier
%FOPEndFontDict
%%BeginResource: encoding WinAnsiEncoding
/WinAnsiEncoding [
/.notdef /.notdef /.notdef /.notdef /.notdef
/.notdef /.notdef /.notdef /.notdef /.notdef
/.notdef /.notdef /.notdef /.notdef /.notdef
/.notdef /.notdef /.notdef /.notdef /.notdef
/.notdef /.notdef /.notdef /.notdef /.notdef
/.notdef /.notdef /.notdef /.notdef /.notdef
/.notdef /.notdef /space /exclam /quotedbl
/numbersign /dollar /percent /ampersand /quotesingle
/parenleft /parenright /asterisk /plus /comma
/hyphen /period /slash /zero /one
/two /three /four /five /six
/seven /eight /nine /colon /semicolon
/less /equal /greater /question /at
/A /B /C /D /E
/F /G /H /I /J
/K /L /M /N /O
/P /Q /R /S /T
/U /V /W /X /Y
/Z /bracketleft /backslash /bracketright /asciicircum
/underscore /quoteleft /a /b /c
/d /e /f /g /h
/i /j /k /l /m
/n /o /p /q /r
/s /t /u /v /w
/x /y /z /braceleft /bar
/braceright /asciitilde /bullet /Euro /bullet
/quotesinglbase /florin /quotedblbase /ellipsis /dagger
/daggerdbl /circumflex /perthousand /Scaron /guilsinglleft
/OE /bullet /Zcaron /bullet /bullet
/quoteleft /quoteright /quotedblleft /quotedblright /bullet
/endash /emdash /asciitilde /trademark /scaron
/guilsinglright /oe /bullet /zcaron /Ydieresis
/space /exclamdown /cent /sterling /currency
/yen /brokenbar /section /dieresis /copyright
/ordfeminine /guillemotleft /logicalnot /sfthyphen /registered
/macron /degree /plusminus /twosuperior /threesuperior
/acute /mu /paragraph /middot /cedilla
/onesuperior /ordmasculine /guillemotright /onequarter /onehalf
/threequarters /questiondown /Agrave /Aacute /Acircumflex
/Atilde /Adieresis /Aring /AE /Ccedilla
/Egrave /Eacute /Ecircumflex /Edieresis /Igrave
/Iacute /Icircumflex /Idieresis /Eth /Ntilde
/Ograve /Oacute /Ocircumflex /Otilde /Odieresis
/multiply /Oslash /Ugrave /Uacute /Ucircumflex
/Udieresis /Yacute /Thorn /germandbls /agrave
/aacute /acircumflex /atilde /adieresis /aring
/ae /ccedilla /egrave /eacute /ecircumflex
/edieresis /igrave /iacute /icircumflex /idieresis
/eth /ntilde /ograve /oacute /ocircumflex
/otilde /odieresis /divide /oslash /ugrave
/uacute /ucircumflex /udieresis /yacute /thorn
/ydieresis
] def
%%EndResource
%FOPBeginFontReencode
/Courier-Oblique findfont
dup length dict begin
  {1 index /FID ne {def} {pop pop} ifelse} forall
  /Encoding WinAnsiEncoding def
  currentdict
end
/Courier-Oblique exch definefont pop
/Courier-BoldOblique findfont
dup length dict begin
  {1 index /FID ne {def} {pop pop} ifelse} forall
  /Encoding WinAnsiEncoding def
  currentdict
end
/Courier-BoldOblique exch definefont pop
/Courier-Bold findfont
dup length dict begin
  {1 index /FID ne {def} {pop pop} ifelse} forall
  /Encoding WinAnsiEncoding def
  currentdict
end
/Courier-Bold exch definefont pop
/Helvetica findfont
dup length dict begin
  {1 index /FID ne {def} {pop pop} ifelse} forall
  /Encoding WinAnsiEncoding def
  currentdict
end
/Helvetica exch definefont pop
/Helvetica-Oblique findfont
dup length dict begin
  {1 index /FID ne {def} {pop pop} ifelse} forall
  /Encoding WinAnsiEncoding def
  currentdict
end
/Helvetica-Oblique exch definefont pop
/Helvetica-Bold findfont
dup length dict begin
  {1 index /FID ne {def} {pop pop} ifelse} forall
  /Encoding WinAnsiEncoding def
  currentdict
end
/Helvetica-Bold exch definefont pop
/Helvetica-BoldOblique findfont
dup length dict begin
  {1 index /FID ne {def} {pop pop} ifelse} forall
  /Encoding WinAnsiEncoding def
  currentdict
end
/Helvetica-BoldOblique exch definefont pop
/Times-Roman findfont
dup length dict begin
  {1 index /FID ne {def} {pop pop} ifelse} forall
  /Encoding WinAnsiEncoding def
  currentdict
end
/Times-Roman exch definefont pop
/Times-Italic findfont
dup length dict begin
  {1 index /FID ne {def} {pop pop} ifelse} forall
  /Encoding WinAnsiEncoding def
  currentdict
end
/Times-Italic exch definefont pop
/Times-Bold findfont
dup length dict begin
  {1 index /FID ne {def} {pop pop} ifelse} forall
  /Encoding WinAnsiEncoding def
  currentdict
end
/Times-Bold exch definefont pop
/Times-BoldItalic findfont
dup length dict begin
  {1 index /FID ne {def} {pop pop} ifelse} forall
  /Encoding WinAnsiEncoding def
  currentdict
end
/Times-BoldItalic exch definefont pop
/Courier findfont
dup length dict begin
  {1 index /FID ne {def} {pop pop} ifelse} forall
  /Encoding WinAnsiEncoding def
  currentdict
end
/Courier exch definefont pop
%FOPEndFontReencode
%%EndProlog
%%Page: 1 1
%%PageBoundingBox: 0 0 420 315
%%BeginPageSetup
[1 0 0 -1 0 315] CT
%%EndPageSetup
GS
[0.75 0 0 0.75 0 0] CT
1 GC
N
0 0 560 420 re
f
GR
GS
[0.75 0 0 0.75 0 0] CT
1 GC
N
0 0 560 420 re
f
GR
GS
[0.75 0 0 0.75 0 0] CT
1 GC
N
73 374 M
507 374 L
507 31 L
73 31 L
cp
f
GR
GS
[0.75 0 0 0.75 0 0] CT
0.149 GC
2 setlinecap
1 LJ
0.667 LW
N
73 374 M
507 374 L
S
GR
GS
[0.75 0 0 0.75 0 0] CT
0.149 GC
2 setlinecap
1 LJ
0.667 LW
N
73 374 M
73 382.68 L
S
GR
GS
[0.75 0 0 0.75 0 0] CT
0.149 GC
2 setlinecap
1 LJ
0.667 LW
N
116.4 374 M
116.4 382.68 L
S
GR
GS
[0.75 0 0 0.75 0 0] CT
0.149 GC
2 setlinecap
1 LJ
0.667 LW
N
159.8 374 M
159.8 382.68 L
S
GR
GS
[0.75 0 0 0.75 0 0] CT
0.149 GC
2 setlinecap
1 LJ
0.667 LW
N
203.2 374 M
203.2 382.68 L
S
GR
GS
[0.75 0 0 0.75 0 0] CT
0.149 GC
2 setlinecap
1 LJ
0.667 LW
N
246.6 374 M
246.6 382.68 L
S
GR
GS
[0.75 0 0 0.75 0 0] CT
0.149 GC
2 setlinecap
1 LJ
0.667 LW
N
290 374 M
290 382.68 L
S
GR
GS
[0.75 0 0 0.75 0 0] CT
0.149 GC
2 setlinecap
1 LJ
0.667 LW
N
333.4 374 M
333.4 382.68 L
S
GR
GS
[0.75 0 0 0.75 0 0] CT
0.149 GC
2 setlinecap
1 LJ
0.667 LW
N
376.8 374 M
376.8 382.68 L
S
GR
GS
[0.75 0 0 0.75 0 0] CT
0.149 GC
2 setlinecap
1 LJ
0.667 LW
N
420.2 374 M
420.2 382.68 L
S
GR
GS
[0.75 0 0 0.75 0 0] CT
0.149 GC
2 setlinecap
1 LJ
0.667 LW
N
463.6 374 M
463.6 382.68 L
S
GR
GS
[0.75 0 0 0.75 0 0] CT
0.149 GC
2 setlinecap
1 LJ
0.667 LW
N
507 374 M
507 382.68 L
S
GR
GS
[0.75 0 0 0.75 0 0] CT
0.149 GC
2 setlinecap
1 LJ
0.667 LW
N
81.68 374 M
81.68 378.34 L
S
GR
GS
[0.75 0 0 0.75 0 0] CT
0.149 GC
2 setlinecap
1 LJ
0.667 LW
N
90.36 374 M
90.36 378.34 L
S
GR
GS
[0.75 0 0 0.75 0 0] CT
0.149 GC
2 setlinecap
1 LJ
0.667 LW
N
99.04 374 M
99.04 378.34 L
S
GR
GS
[0.75 0 0 0.75 0 0] CT
0.149 GC
2 setlinecap
1 LJ
0.667 LW
N
107.72 374 M
107.72 378.34 L
S
GR
GS
[0.75 0 0 0.75 0 0] CT
0.149 GC
2 setlinecap
1 LJ
0.667 LW
N
125.08 374 M
125.08 378.34 L
S
GR
GS
[0.75 0 0 0.75 0 0] CT
0.149 GC
2 setlinecap
1 LJ
0.667 LW
N
133.76 374 M
133.76 378.34 L
S
GR
GS
[0.75 0 0 0.75 0 0] CT
0.149 GC
2 setlinecap
1 LJ
0.667 LW
N
142.44 374 M
142.44 378.34 L
S
GR
GS
[0.75 0 0 0.75 0 0] CT
0.149 GC
2 setlinecap
1 LJ
0.667 LW
N
151.12 374 M
151.12 378.34 L
S
GR
GS
[0.75 0 0 0.75 0 0] CT
0.149 GC
2 setlinecap
1 LJ
0.667 LW
N
168.48 374 M
168.48 378.34 L
S
GR
GS
[0.75 0 0 0.75 0 0] CT
0.149 GC
2 setlinecap
1 LJ
0.667 LW
N
177.16 374 M
177.16 378.34 L
S
GR
GS
[0.75 0 0 0.75 0 0] CT
0.149 GC
2 setlinecap
1 LJ
0.667 LW
N
185.84 374 M
185.84 378.34 L
S
GR
GS
[0.75 0 0 0.75 0 0] CT
0.149 GC
2 setlinecap
1 LJ
0.667 LW
N
194.52 374 M
194.52 378.34 L
S
GR
GS
[0.75 0 0 0.75 0 0] CT
0.149 GC
2 setlinecap
1 LJ
0.667 LW
N
211.88 374 M
211.88 378.34 L
S
GR
GS
[0.75 0 0 0.75 0 0] CT
0.149 GC
2 setlinecap
1 LJ
0.667 LW
N
220.56 374 M
220.56 378.34 L
S
GR
GS
[0.75 0 0 0.75 0 0] CT
0.149 GC
2 setlinecap
1 LJ
0.667 LW
N
229.24 374 M
229.24 378.34 L
S
GR
GS
[0.75 0 0 0.75 0 0] CT
0.149 GC
2 setlinecap
1 LJ
0.667 LW
N
237.92 374 M
237.92 378.34 L
S
GR
GS
[0.75 0 0 0.75 0 0] CT
0.149 GC
2 setlinecap
1 LJ
0.667 LW
N
255.28 374 M
255.28 378.34 L
S
GR
GS
[0.75 0 0 0.75 0 0] CT
0.149 GC
2 setlinecap
1 LJ
0.667 LW
N
263.96 374 M
263.96 378.34 L
S
GR
GS
[0.75 0 0 0.75 0 0] CT
0.149 GC
2 setlinecap
1 LJ
0.667 LW
N
272.64 374 M
272.64 378.34 L
S
GR
GS
[0.75 0 0 0.75 0 0] CT
0.149 GC
2 setlinecap
1 LJ
0.667 LW
N
281.32 374 M
281.32 378.34 L
S
GR
GS
[0.75 0 0 0.75 0 0] CT
0.149 GC
2 setlinecap
1 LJ
0.667 LW
N
298.68 374 M
298.68 378.34 L
S
GR
GS
[0.75 0 0 0.75 0 0] CT
0.149 GC
2 setlinecap
1 LJ
0.667 LW
N
307.36 374 M
307.36 378.34 L
S
GR
GS
[0.75 0 0 0.75 0 0] CT
0.149 GC
2 setlinecap
1 LJ
0.667 LW
N
316.04 374 M
316.04 378.34 L
S
GR
GS
[0.75 0 0 0.75 0 0] CT
0.149 GC
2 setlinecap
1 LJ
0.667 LW
N
324.72 374 M
324.72 378.34 L
S
GR
GS
[0.75 0 0 0.75 0 0] CT
0.149 GC
2 setlinecap
1 LJ
0.667 LW
N
342.08 374 M
342.08 378.34 L
S
GR
GS
[0.75 0 0 0.75 0 0] CT
0.149 GC
2 setlinecap
1 LJ
0.667 LW
N
350.76 374 M
350.76 378.34 L
S
GR
GS
[0.75 0 0 0.75 0 0] CT
0.149 GC
2 setlinecap
1 LJ
0.667 LW
N
359.44 374 M
359.44 378.34 L
S
GR
GS
[0.75 0 0 0.75 0 0] CT
0.149 GC
2 setlinecap
1 LJ
0.667 LW
N
368.12 374 M
368.12 378.34 L
S
GR
GS
[0.75 0 0 0.75 0 0] CT
0.149 GC
2 setlinecap
1 LJ
0.667 LW
N
385.48 374 M
385.48 378.34 L
S
GR
GS
[0.75 0 0 0.75 0 0] CT
0.149 GC
2 setlinecap
1 LJ
0.667 LW
N
394.16 374 M
394.16 378.34 L
S
GR
GS
[0.75 0 0 0.75 0 0] CT
0.149 GC
2 setlinecap
1 LJ
0.667 LW
N
402.84 374 M
402.84 378.34 L
S
GR
GS
[0.75 0 0 0.75 0 0] CT
0.149 GC
2 setlinecap
1 LJ
0.667 LW
N
411.52 374 M
411.52 378.34 L
S
GR
GS
[0.75 0 0 0.75 0 0] CT
0.149 GC
2 setlinecap
1 LJ
0.667 LW
N
428.88 374 M
428.88 378.34 L
S
GR
GS
[0.75 0 0 0.75 0 0] CT
0.149 GC
2 setlinecap
1 LJ
0.667 LW
N
437.56 374 M
437.56 378.34 L
S
GR
GS
[0.75 0 0 0.75 0 0] CT
0.149 GC
2 setlinecap
1 LJ
0.667 LW
N
446.24 374 M
446.24 378.34 L
S
GR
GS
[0.75 0 0 0.75 0 0] CT
0.149 GC
2 setlinecap
1 LJ
0.667 LW
N
454.92 374 M
454.92 378.34 L
S
GR
GS
[0.75 0 0 0.75 0 0] CT
0.149 GC
2 setlinecap
1 LJ
0.667 LW
N
472.28 374 M
472.28 378.34 L
S
GR
GS
[0.75 0 0 0.75 0 0] CT
0.149 GC
2 setlinecap
1 LJ
0.667 LW
N
480.96 374 M
480.96 378.34 L
S
GR
GS
[0.75 0 0 0.75 0 0] CT
0.149 GC
2 setlinecap
1 LJ
0.667 LW
N
489.64 374 M
489.64 378.34 L
S
GR
GS
[0.75 0 0 0.75 0 0] CT
0.149 GC
2 setlinecap
1 LJ
0.667 LW
N
498.32 374 M
498.32 378.34 L
S
GR
GS
[0.75 0 0 0.75 54.75 291.01] CT
0.149 GC
/Helvetica 13.333 F
GS
[1 0 0 1 0 0] CT
-4 14 moveto 
1 -1 scale
(0) t 
GR
GR
GS
[0.75 0 0 0.75 87.3 291.01] CT
0.149 GC
/Helvetica 13.333 F
GS
[1 0 0 1 0 0] CT
-9.5 14 moveto 
1 -1 scale
(0.1) t 
GR
GR
GS
[0.75 0 0 0.75 119.85 291.01] CT
0.149 GC
/Helvetica 13.333 F
GS
[1 0 0 1 0 0] CT
-9.5 14 moveto 
1 -1 scale
(0.2) t 
GR
GR
GS
[0.75 0 0 0.75 152.40001 291.01] CT
0.149 GC
/Helvetica 13.333 F
GS
[1 0 0 1 0 0] CT
-9.5 14 moveto 
1 -1 scale
(0.3) t 
GR
GR
GS
[0.75 0 0 0.75 184.95 291.01] CT
0.149 GC
/Helvetica 13.333 F
GS
[1 0 0 1 0 0] CT
-9.5 14 moveto 
1 -1 scale
(0.4) t 
GR
GR
GS
[0.75 0 0 0.75 217.5 291.01] CT
0.149 GC
/Helvetica 13.333 F
GS
[1 0 0 1 0 0] CT
-9.5 14 moveto 
1 -1 scale
(0.5) t 
GR
GR
GS
[0.75 0 0 0.75 250.05002 291.01] CT
0.149 GC
/Helvetica 13.333 F
GS
[1 0 0 1 0 0] CT
-9.5 14 moveto 
1 -1 scale
(0.6) t 
GR
GR
GS
[0.75 0 0 0.75 282.59999 291.01] CT
0.149 GC
/Helvetica 13.333 F
GS
[1 0 0 1 0 0] CT
-9.5 14 moveto 
1 -1 scale
(0.7) t 
GR
GR
GS
[0.75 0 0 0.75 315.15001 291.01] CT
0.149 GC
/Helvetica 13.333 F
GS
[1 0 0 1 0 0] CT
-9.5 14 moveto 
1 -1 scale
(0.8) t 
GR
GR
GS
[0.75 0 0 0.75 347.69998 291.01] CT
0.149 GC
/Helvetica 13.333 F
GS
[1 0 0 1 0 0] CT
-9.5 14 moveto 
1 -1 scale
(0.9) t 
GR
GR
GS
[0.75 0 0 0.75 380.25 291.01] CT
0.149 GC
/Helvetica 13.333 F
GS
[1 0 0 1 0 0] CT
-4 14 moveto 
1 -1 scale
(1) t 
GR
GR
GS
[0.75 0 0 0.75 0 0] CT
0.149 GC
2 setlinecap
1 LJ
0.667 LW
N
73 374 M
73 31 L
S
GR
GS
[0.75 0 0 0.75 0 0] CT
0.149 GC
2 setlinecap
1 LJ
0.667 LW
N
73 374 M
64.32 374 L
S
GR
GS
[0.75 0 0 0.75 0 0] CT
0.149 GC
2 setlinecap
1 LJ
0.667 LW
N
73 345.417 M
64.32 345.417 L
S
GR
GS
[0.75 0 0 0.75 0 0] CT
0.149 GC
2 setlinecap
1 LJ
0.667 LW
N
73 316.833 M
64.32 316.833 L
S
GR
GS
[0.75 0 0 0.75 0 0] CT
0.149 GC
2 setlinecap
1 LJ
0.667 LW
N
73 288.25 M
64.32 288.25 L
S
GR
GS
[0.75 0 0 0.75 0 0] CT
0.149 GC
2 setlinecap
1 LJ
0.667 LW
N
73 259.667 M
64.32 259.667 L
S
GR
GS
[0.75 0 0 0.75 0 0] CT
0.149 GC
2 setlinecap
1 LJ
0.667 LW
N
73 231.083 M
64.32 231.083 L
S
GR
GS
[0.75 0 0 0.75 0 0] CT
0.149 GC
2 setlinecap
1 LJ
0.667 LW
N
73 202.5 M
64.32 202.5 L
S
GR
GS
[0.75 0 0 0.75 0 0] CT
0.149 GC
2 setlinecap
1 LJ
0.667 LW
N
73 173.917 M
64.32 173.917 L
S
GR
GS
[0.75 0 0 0.75 0 0] CT
0.149 GC
2 setlinecap
1 LJ
0.667 LW
N
73 145.333 M
64.32 145.333 L
S
GR
GS
[0.75 0 0 0.75 0 0] CT
0.149 GC
2 setlinecap
1 LJ
0.667 LW
N
73 116.75 M
64.32 116.75 L
S
GR
GS
[0.75 0 0 0.75 0 0] CT
0.149 GC
2 setlinecap
1 LJ
0.667 LW
N
73 88.167 M
64.32 88.167 L
S
GR
GS
[0.75 0 0 0.75 0 0] CT
0.149 GC
2 setlinecap
1 LJ
0.667 LW
N
73 59.583 M
64.32 59.583 L
S
GR
GS
[0.75 0 0 0.75 0 0] CT
0.149 GC
2 setlinecap
1 LJ
0.667 LW
N
73 31 M
64.32 31 L
S
GR
GS
[0.75 0 0 0.75 0 0] CT
0.149 GC
2 setlinecap
1 LJ
0.667 LW
N
73 368.283 M
68.66 368.283 L
S
GR
GS
[0.75 0 0 0.75 0 0] CT
0.149 GC
2 setlinecap
1 LJ
0.667 LW
N
73 362.567 M
68.66 362.567 L
S
GR
GS
[0.75 0 0 0.75 0 0] CT
0.149 GC
2 setlinecap
1 LJ
0.667 LW
N
73 356.85 M
68.66 356.85 L
S
GR
GS
[0.75 0 0 0.75 0 0] CT
0.149 GC
2 setlinecap
1 LJ
0.667 LW
N
73 351.133 M
68.66 351.133 L
S
GR
GS
[0.75 0 0 0.75 0 0] CT
0.149 GC
2 setlinecap
1 LJ
0.667 LW
N
73 339.7 M
68.66 339.7 L
S
GR
GS
[0.75 0 0 0.75 0 0] CT
0.149 GC
2 setlinecap
1 LJ
0.667 LW
N
73 333.983 M
68.66 333.983 L
S
GR
GS
[0.75 0 0 0.75 0 0] CT
0.149 GC
2 setlinecap
1 LJ
0.667 LW
N
73 328.267 M
68.66 328.267 L
S
GR
GS
[0.75 0 0 0.75 0 0] CT
0.149 GC
2 setlinecap
1 LJ
0.667 LW
N
73 322.55 M
68.66 322.55 L
S
GR
GS
[0.75 0 0 0.75 0 0] CT
0.149 GC
2 setlinecap
1 LJ
0.667 LW
N
73 311.117 M
68.66 311.117 L
S
GR
GS
[0.75 0 0 0.75 0 0] CT
0.149 GC
2 setlinecap
1 LJ
0.667 LW
N
73 305.4 M
68.66 305.4 L
S
GR
GS
[0.75 0 0 0.75 0 0] CT
0.149 GC
2 setlinecap
1 LJ
0.667 LW
N
73 299.683 M
68.66 299.683 L
S
GR
GS
[0.75 0 0 0.75 0 0] CT
0.149 GC
2 setlinecap
1 LJ
0.667 LW
N
73 293.967 M
68.66 293.967 L
S
GR
GS
[0.75 0 0 0.75 0 0] CT
0.149 GC
2 setlinecap
1 LJ
0.667 LW
N
73 282.533 M
68.66 282.533 L
S
GR
GS
[0.75 0 0 0.75 0 0] CT
0.149 GC
2 setlinecap
1 LJ
0.667 LW
N
73 276.817 M
68.66 276.817 L
S
GR
GS
[0.75 0 0 0.75 0 0] CT
0.149 GC
2 setlinecap
1 LJ
0.667 LW
N
73 271.1 M
68.66 271.1 L
S
GR
GS
[0.75 0 0 0.75 0 0] CT
0.149 GC
2 setlinecap
1 LJ
0.667 LW
N
73 265.383 M
68.66 265.383 L
S
GR
GS
[0.75 0 0 0.75 0 0] CT
0.149 GC
2 setlinecap
1 LJ
0.667 LW
N
73 253.95 M
68.66 253.95 L
S
GR
GS
[0.75 0 0 0.75 0 0] CT
0.149 GC
2 setlinecap
1 LJ
0.667 LW
N
73 248.233 M
68.66 248.233 L
S
GR
GS
[0.75 0 0 0.75 0 0] CT
0.149 GC
2 setlinecap
1 LJ
0.667 LW
N
73 242.517 M
68.66 242.517 L
S
GR
GS
[0.75 0 0 0.75 0 0] CT
0.149 GC
2 setlinecap
1 LJ
0.667 LW
N
73 236.8 M
68.66 236.8 L
S
GR
GS
[0.75 0 0 0.75 0 0] CT
0.149 GC
2 setlinecap
1 LJ
0.667 LW
N
73 225.367 M
68.66 225.367 L
S
GR
GS
[0.75 0 0 0.75 0 0] CT
0.149 GC
2 setlinecap
1 LJ
0.667 LW
N
73 219.65 M
68.66 219.65 L
S
GR
GS
[0.75 0 0 0.75 0 0] CT
0.149 GC
2 setlinecap
1 LJ
0.667 LW
N
73 213.933 M
68.66 213.933 L
S
GR
GS
[0.75 0 0 0.75 0 0] CT
0.149 GC
2 setlinecap
1 LJ
0.667 LW
N
73 208.217 M
68.66 208.217 L
S
GR
GS
[0.75 0 0 0.75 0 0] CT
0.149 GC
2 setlinecap
1 LJ
0.667 LW
N
73 196.783 M
68.66 196.783 L
S
GR
GS
[0.75 0 0 0.75 0 0] CT
0.149 GC
2 setlinecap
1 LJ
0.667 LW
N
73 191.067 M
68.66 191.067 L
S
GR
GS
[0.75 0 0 0.75 0 0] CT
0.149 GC
2 setlinecap
1 LJ
0.667 LW
N
73 185.35 M
68.66 185.35 L
S
GR
GS
[0.75 0 0 0.75 0 0] CT
0.149 GC
2 setlinecap
1 LJ
0.667 LW
N
73 179.633 M
68.66 179.633 L
S
GR
GS
[0.75 0 0 0.75 0 0] CT
0.149 GC
2 setlinecap
1 LJ
0.667 LW
N
73 168.2 M
68.66 168.2 L
S
GR
GS
[0.75 0 0 0.75 0 0] CT
0.149 GC
2 setlinecap
1 LJ
0.667 LW
N
73 162.483 M
68.66 162.483 L
S
GR
GS
[0.75 0 0 0.75 0 0] CT
0.149 GC
2 setlinecap
1 LJ
0.667 LW
N
73 156.767 M
68.66 156.767 L
S
GR
GS
[0.75 0 0 0.75 0 0] CT
0.149 GC
2 setlinecap
1 LJ
0.667 LW
N
73 151.05 M
68.66 151.05 L
S
GR
GS
[0.75 0 0 0.75 0 0] CT
0.149 GC
2 setlinecap
1 LJ
0.667 LW
N
73 139.617 M
68.66 139.617 L
S
GR
GS
[0.75 0 0 0.75 0 0] CT
0.149 GC
2 setlinecap
1 LJ
0.667 LW
N
73 133.9 M
68.66 133.9 L
S
GR
GS
[0.75 0 0 0.75 0 0] CT
0.149 GC
2 setlinecap
1 LJ
0.667 LW
N
73 128.183 M
68.66 128.183 L
S
GR
GS
[0.75 0 0 0.75 0 0] CT
0.149 GC
2 setlinecap
1 LJ
0.667 LW
N
73 122.467 M
68.66 122.467 L
S
GR
GS
[0.75 0 0 0.75 0 0] CT
0.149 GC
2 setlinecap
1 LJ
0.667 LW
N
73 111.033 M
68.66 111.033 L
S
GR
GS
[0.75 0 0 0.75 0 0] CT
0.149 GC
2 setlinecap
1 LJ
0.667 LW
N
73 105.317 M
68.66 105.317 L
S
GR
GS
[0.75 0 0 0.75 0 0] CT
0.149 GC
2 setlinecap
1 LJ
0.667 LW
N
73 99.6 M
68.66 99.6 L
S
GR
GS
[0.75 0 0 0.75 0 0] CT
0.149 GC
2 setlinecap
1 LJ
0.667 LW
N
73 93.883 M
68.66 93.883 L
S
GR
GS
[0.75 0 0 0.75 0 0] CT
0.149 GC
2 setlinecap
1 LJ
0.667 LW
N
73 82.45 M
68.66 82.45 L
S
GR
GS
[0.75 0 0 0.75 0 0] CT
0.149 GC
2 setlinecap
1 LJ
0.667 LW
N
73 76.733 M
68.66 76.733 L
S
GR
GS
[0.75 0 0 0.75 0 0] CT
0.149 GC
2 setlinecap
1 LJ
0.667 LW
N
73 71.017 M
68.66 71.017 L
S
GR
GS
[0.75 0 0 0.75 0 0] CT
0.149 GC
2 setlinecap
1 LJ
0.667 LW
N
73 65.3 M
68.66 65.3 L
S
GR
GS
[0.75 0 0 0.75 0 0] CT
0.149 GC
2 setlinecap
1 LJ
0.667 LW
N
73 53.867 M
68.66 53.867 L
S
GR
GS
[0.75 0 0 0.75 0 0] CT
0.149 GC
2 setlinecap
1 LJ
0.667 LW
N
73 48.15 M
68.66 48.15 L
S
GR
GS
[0.75 0 0 0.75 0 0] CT
0.149 GC
2 setlinecap
1 LJ
0.667 LW
N
73 42.433 M
68.66 42.433 L
S
GR
GS
[0.75 0 0 0.75 0 0] CT
0.149 GC
2 setlinecap
1 LJ
0.667 LW
N
73 36.717 M
68.66 36.717 L
S
GR
GS
[0.75 0 0 0.75 44.24 280.5] CT
0.149 GC
/Helvetica 13.333 F
GS
[1 0 0 1 0 0] CT
-23 5.5 moveto 
1 -1 scale
(-0.1) t 
GR
GR
GS
[0.75 0 0 0.75 44.24 259.06249] CT
0.149 GC
/Helvetica 13.333 F
GS
[1 0 0 1 0 0] CT
-8 5.5 moveto 
1 -1 scale
(0) t 
GR
GR
GS
[0.75 0 0 0.75 44.24 237.62501] CT
0.149 GC
/Helvetica 13.333 F
GS
[1 0 0 1 0 0] CT
-19 5.5 moveto 
1 -1 scale
(0.1) t 
GR
GR
GS
[0.75 0 0 0.75 44.24 216.1875] CT
0.149 GC
/Helvetica 13.333 F
GS
[1 0 0 1 0 0] CT
-19 5.5 moveto 
1 -1 scale
(0.2) t 
GR
GR
GS
[0.75 0 0 0.75 44.24 194.74999] CT
0.149 GC
/Helvetica 13.333 F
GS
[1 0 0 1 0 0] CT
-19 5.5 moveto 
1 -1 scale
(0.3) t 
GR
GR
GS
[0.75 0 0 0.75 44.24 173.3125] CT
0.149 GC
/Helvetica 13.333 F
GS
[1 0 0 1 0 0] CT
-19 5.5 moveto 
1 -1 scale
(0.4) t 
GR
GR
GS
[0.75 0 0 0.75 44.24 151.875] CT
0.149 GC
/Helvetica 13.333 F
GS
[1 0 0 1 0 0] CT
-19 5.5 moveto 
1 -1 scale
(0.5) t 
GR
GR
GS
[0.75 0 0 0.75 44.24 130.43749] CT
0.149 GC
/Helvetica 13.333 F
GS
[1 0 0 1 0 0] CT
-19 5.5 moveto 
1 -1 scale
(0.6) t 
GR
GR
GS
[0.75 0 0 0.75 44.24 109.00001] CT
0.149 GC
/Helvetica 13.333 F
GS
[1 0 0 1 0 0] CT
-19 5.5 moveto 
1 -1 scale
(0.7) t 
GR
GR
GS
[0.75 0 0 0.75 44.24 87.5625] CT
0.149 GC
/Helvetica 13.333 F
GS
[1 0 0 1 0 0] CT
-19 5.5 moveto 
1 -1 scale
(0.8) t 
GR
GR
GS
[0.75 0 0 0.75 44.24 66.125] CT
0.149 GC
/Helvetica 13.333 F
GS
[1 0 0 1 0 0] CT
-19 5.5 moveto 
1 -1 scale
(0.9) t 
GR
GR
GS
[0.75 0 0 0.75 44.24 44.6875] CT
0.149 GC
/Helvetica 13.333 F
GS
[1 0 0 1 0 0] CT
-8 5.5 moveto 
1 -1 scale
(1) t 
GR
GR
GS
[0.75 0 0 0.75 44.24 23.24999] CT
0.149 GC
/Helvetica 13.333 F
GS
[1 0 0 1 0 0] CT
-19 5.5 moveto 
1 -1 scale
(1.1) t 
GR
GR
GS
[0.75 0 0 0.75 0 0] CT
0 0.447 0.741 RC
[10 6] 0 setdash
2 LJ
0.667 LW
N
73 345.417 M
87.966 345.417 L
102.931 345.417 L
117.897 345.417 L
132.862 345.417 L
147.828 345.417 L
162.793 345.417 L
177.759 345.417 L
192.724 345.417 L
207.69 59.583 L
222.655 59.583 L
237.621 59.583 L
252.586 59.583 L
267.552 59.583 L
282.517 59.583 L
297.483 59.583 L
312.448 59.583 L
327.414 59.583 L
342.379 59.583 L
357.345 59.583 L
372.31 59.583 L
387.276 345.417 L
402.241 345.417 L
417.207 345.417 L
432.172 345.417 L
447.138 345.417 L
462.103 345.417 L
477.069 345.417 L
492.034 345.417 L
507 345.417 L
S
GR
GS
[0.75 0 0 0.75 0 0] CT
0.851 0.325 0.098 RC
1 LJ
2 LW
N
73 324.374 M
87.966 303.548 L
102.931 283.151 L
117.897 263.393 L
132.862 244.477 L
147.828 226.596 L
162.793 209.935 L
177.759 194.664 L
192.724 180.94 L
207.69 168.904 L
222.655 158.679 L
237.621 150.37 L
252.586 144.062 L
267.552 139.821 L
282.517 137.69 L
297.483 137.69 L
312.448 139.821 L
327.414 144.062 L
342.379 150.37 L
357.345 158.679 L
372.31 168.904 L
387.276 180.94 L
402.241 194.664 L
417.207 209.935 L
432.172 226.596 L
447.138 244.477 L
462.103 263.393 L
477.069 283.151 L
492.034 303.548 L
507 324.374 L
S
GR
GS
[0.75 0 0 0.75 0 0] CT
0.929 0.694 0.125 RC
[8 8] 0 setdash
2 LJ
2 LW
N
73 324.337 M
87.966 303.474 L
102.931 283.045 L
117.897 263.258 L
132.862 244.319 L
147.828 226.422 L
162.793 209.751 L
177.759 194.478 L
192.724 180.76 L
207.69 168.737 L
222.655 158.531 L
237.621 150.249 L
252.586 143.972 L
267.552 139.765 L
282.517 137.671 L
297.483 137.708 L
312.448 139.877 L
327.414 144.153 L
342.379 150.491 L
357.345 158.826 L
372.31 169.071 L
387.276 181.12 L
402.241 194.85 L
417.207 210.119 L
432.172 226.771 L
447.138 244.635 L
462.103 263.528 L
477.069 283.257 L
492.034 303.621 L
507 324.412 L
S
GR
GS
[0.75 0 0 0.75 0 0] CT
1 GC
N
496 90 M
496 42 L
398 42 L
398 90 L
cp
f
GR
GS
[0.75 0 0 0.75 333.46378 38.37137] CT
N
1.953 4.755 M
1.969 4.614 2.125 4.614 QT
2.141 4.614 2.352 4.732 QT
2.563 4.849 2.82 4.942 QT
3.078 5.036 3.328 5.036 QT
3.563 5.036 3.711 4.841 QT
3.859 4.646 3.859 4.427 QT
3.859 4.114 3.531 3.989 QT
1.484 3.192 L
0.969 2.989 0.625 2.583 QT
0.281 2.177 0.281 1.661 QT
0.281 1.192 0.523 0.692 QT
0.766 0.192 1.156 -0.214 QT
1.547 -0.62 1.984 -0.87 QT
1.625 -1.089 1.43 -1.417 QT
1.234 -1.745 1.234 -2.151 QT
1.234 -2.573 1.406 -2.933 QT
1.578 -3.292 1.883 -3.597 QT
2.188 -3.901 2.555 -4.104 QT
2.922 -4.308 3.297 -4.417 QT
3.234 -4.667 3.234 -4.854 QT
3.234 -5.511 3.5 -5.511 QT
3.563 -5.511 3.609 -5.464 QT
3.656 -5.417 3.656 -5.354 QT
3.656 -5.292 3.625 -5.097 QT
3.594 -4.901 3.594 -4.854 QT
3.594 -4.651 3.641 -4.479 QT
3.953 -4.558 4.234 -4.558 QT
5.344 -4.558 5.344 -4.214 QT
5.344 -3.808 4.109 -3.808 QT
3.734 -3.808 3.5 -4.058 QT
3.156 -3.886 2.867 -3.565 QT
2.578 -3.245 2.414 -2.847 QT
2.25 -2.448 2.25 -2.042 QT
2.25 -1.479 2.563 -1.136 QT
3 -1.292 3.422 -1.292 QT
4.531 -1.292 4.531 -0.948 QT
4.531 -0.542 3.297 -0.542 QT
2.797 -0.542 2.359 -0.698 QT
1.828 -0.401 1.383 0.185 QT
0.938 0.771 0.938 1.302 QT
0.938 1.661 1.195 1.927 QT
1.453 2.192 1.828 2.349 QT
3.953 3.177 L
4.219 3.286 4.398 3.521 QT
4.578 3.755 4.578 4.052 QT
4.578 4.536 4.195 4.942 QT
3.813 5.349 3.328 5.349 QT
3.172 5.349 2.828 5.263 QT
2.484 5.177 2.219 5.044 QT
1.953 4.911 1.953 4.755 QT
cp
2.938 -0.917 M
3.094 -0.854 3.328 -0.854 QT
3.906 -0.854 4.156 -0.917 QT
3.922 -0.964 3.406 -0.964 QT
3.203 -0.964 2.938 -0.917 QT
cp
3.844 -4.183 M
3.953 -4.12 4.141 -4.12 QT
4.719 -4.12 4.969 -4.183 QT
3.844 -4.183 L
cp
f
GR
GS
[0.75 0 0 0.75 333.46378 38.37137] CT
N
13.521 5.864 M
12.849 5.333 12.372 4.646 QT
11.896 3.958 11.583 3.185 QT
11.271 2.411 11.122 1.567 QT
10.974 0.724 10.974 -0.12 QT
10.974 -0.979 11.122 -1.823 QT
11.271 -2.667 11.583 -3.448 QT
11.896 -4.229 12.388 -4.909 QT
12.88 -5.589 13.521 -6.104 QT
13.521 -6.12 13.583 -6.12 QT
13.693 -6.12 L
13.724 -6.12 13.755 -6.089 QT
13.786 -6.058 13.786 -6.011 QT
13.786 -5.964 13.771 -5.933 QT
13.177 -5.37 12.786 -4.714 QT
12.396 -4.058 12.161 -3.315 QT
11.927 -2.573 11.818 -1.776 QT
11.708 -0.979 11.708 -0.12 QT
11.708 3.692 13.755 5.677 QT
13.786 5.708 13.786 5.771 QT
13.786 5.802 13.755 5.841 QT
13.724 5.88 13.693 5.88 QT
13.583 5.88 L
13.521 5.88 13.521 5.864 QT
cp
f
GR
GS
[0.75 0 0 0.75 333.46378 38.37137] CT
N
17.453 3.021 M
16.719 3.021 16.109 2.63 QT
15.5 2.239 15.148 1.599 QT
14.797 0.958 14.797 0.255 QT
14.797 -0.448 15.117 -1.081 QT
15.438 -1.714 16.008 -2.104 QT
16.578 -2.495 17.281 -2.495 QT
17.844 -2.495 18.25 -2.315 QT
18.656 -2.136 18.922 -1.808 QT
19.188 -1.479 19.32 -1.034 QT
19.453 -0.589 19.453 -0.058 QT
19.453 0.114 19.328 0.114 QT
15.859 0.114 L
15.859 0.239 L
15.859 1.239 16.258 1.95 QT
16.656 2.661 17.563 2.661 QT
17.938 2.661 18.25 2.497 QT
18.563 2.333 18.789 2.044 QT
19.016 1.755 19.109 1.411 QT
19.109 1.38 19.148 1.341 QT
19.188 1.302 19.219 1.302 QT
19.328 1.302 L
19.453 1.302 19.453 1.458 QT
19.281 2.146 18.719 2.583 QT
18.156 3.021 17.453 3.021 QT
cp
15.859 -0.198 M
18.594 -0.198 L
18.594 -0.636 18.469 -1.104 QT
18.344 -1.573 18.055 -1.878 QT
17.766 -2.183 17.281 -2.183 QT
16.609 -2.183 16.234 -1.55 QT
15.859 -0.917 15.859 -0.198 QT
cp
f
GR
GS
[0.75 0 0 0.75 333.46378 38.37137] CT
N
19.943 2.88 M
19.943 2.458 L
20.411 2.458 20.81 2.278 QT
21.208 2.099 21.49 1.755 QT
22.583 0.364 L
21.161 -1.479 L
20.958 -1.745 20.708 -1.808 QT
20.458 -1.87 20.005 -1.87 QT
20.005 -2.292 L
22.505 -2.292 L
22.505 -1.87 L
22.349 -1.87 22.208 -1.8 QT
22.068 -1.729 22.068 -1.604 QT
22.068 -1.558 22.099 -1.479 QT
23.068 -0.245 L
23.786 -1.167 L
23.927 -1.339 23.927 -1.511 QT
23.927 -1.667 23.833 -1.768 QT
23.74 -1.87 23.583 -1.87 QT
23.583 -2.292 L
25.786 -2.292 L
25.786 -1.87 L
25.333 -1.87 24.927 -1.69 QT
24.521 -1.511 24.24 -1.167 QT
23.286 0.052 L
24.818 2.083 L
25.052 2.333 25.294 2.396 QT
25.536 2.458 25.99 2.458 QT
25.99 2.88 L
23.505 2.88 L
23.505 2.458 L
23.646 2.458 23.779 2.388 QT
23.911 2.317 23.911 2.177 QT
23.911 2.13 23.88 2.083 QT
22.802 0.646 L
21.943 1.755 L
21.802 1.896 21.802 2.099 QT
21.802 2.239 21.904 2.349 QT
22.005 2.458 22.146 2.458 QT
22.146 2.88 L
19.943 2.88 L
cp
f
GR
GS
[0.75 0 0 0.75 333.46378 38.37137] CT
N
26.62 1.708 M
26.62 0.989 27.182 0.536 QT
27.745 0.083 28.534 -0.097 QT
29.323 -0.276 30.026 -0.276 QT
30.026 -0.776 L
30.026 -1.12 29.878 -1.44 QT
29.729 -1.761 29.44 -1.972 QT
29.151 -2.183 28.807 -2.183 QT
28.01 -2.183 27.589 -1.823 QT
27.823 -1.823 27.971 -1.651 QT
28.12 -1.479 28.12 -1.245 QT
28.12 -1.011 27.948 -0.839 QT
27.776 -0.667 27.542 -0.667 QT
27.307 -0.667 27.135 -0.839 QT
26.964 -1.011 26.964 -1.245 QT
26.964 -1.886 27.534 -2.19 QT
28.104 -2.495 28.807 -2.495 QT
29.292 -2.495 29.784 -2.292 QT
30.276 -2.089 30.589 -1.698 QT
30.901 -1.308 30.901 -0.792 QT
30.901 1.911 L
30.901 2.146 31.003 2.341 QT
31.104 2.536 31.307 2.536 QT
31.51 2.536 31.604 2.333 QT
31.698 2.13 31.698 1.911 QT
31.698 1.146 L
32.057 1.146 L
32.057 1.911 L
32.057 2.177 31.917 2.419 QT
31.776 2.661 31.534 2.81 QT
31.292 2.958 31.026 2.958 QT
30.667 2.958 30.417 2.685 QT
30.167 2.411 30.135 2.036 QT
29.917 2.474 29.479 2.747 QT
29.042 3.021 28.557 3.021 QT
28.089 3.021 27.651 2.88 QT
27.214 2.739 26.917 2.45 QT
26.62 2.161 26.62 1.708 QT
cp
27.589 1.708 M
27.589 2.13 27.901 2.411 QT
28.214 2.692 28.635 2.692 QT
29.026 2.692 29.339 2.505 QT
29.651 2.317 29.839 1.982 QT
30.026 1.646 30.026 1.271 QT
30.026 0.021 L
29.479 0.021 28.909 0.2 QT
28.339 0.38 27.964 0.763 QT
27.589 1.146 27.589 1.708 QT
cp
f
GR
GS
[0.75 0 0 0.75 333.46378 38.37137] CT
N
32.448 2.88 M
32.448 2.458 L
32.854 2.458 33.12 2.396 QT
33.385 2.333 33.385 2.083 QT
33.385 -4.229 L
33.385 -4.542 33.292 -4.69 QT
33.198 -4.839 33.01 -4.87 QT
32.823 -4.901 32.448 -4.901 QT
32.448 -5.323 L
34.229 -5.448 L
34.229 0.255 L
35.839 -1.167 L
36.073 -1.386 36.073 -1.589 QT
36.073 -1.729 35.971 -1.8 QT
35.87 -1.87 35.729 -1.87 QT
35.729 -2.292 L
37.995 -2.292 L
37.995 -1.87 L
37.182 -1.87 36.354 -1.167 QT
35.51 -0.417 L
37.042 1.755 L
37.354 2.192 37.565 2.325 QT
37.776 2.458 38.276 2.458 QT
38.276 2.88 L
35.885 2.88 L
35.885 2.458 L
36.292 2.458 36.292 2.208 QT
36.292 2.021 36.073 1.755 QT
34.917 0.114 L
34.182 0.739 L
34.182 2.083 L
34.182 2.333 34.448 2.396 QT
34.714 2.458 35.12 2.458 QT
35.12 2.88 L
32.448 2.88 L
cp
f
GR
GS
[0.75 0 0 0.75 333.46378 38.37137] CT
N
39.688 1.442 M
39.688 -1.87 L
38.703 -1.87 L
38.703 -2.183 L
39.484 -2.183 39.852 -2.917 QT
40.219 -3.651 40.219 -4.511 QT
40.563 -4.511 L
40.563 -2.292 L
42.266 -2.292 L
42.266 -1.87 L
40.563 -1.87 L
40.563 1.411 L
40.563 1.911 40.734 2.286 QT
40.906 2.661 41.328 2.661 QT
41.75 2.661 41.93 2.263 QT
42.109 1.864 42.109 1.411 QT
42.109 0.708 L
42.453 0.708 L
42.453 1.442 L
42.453 1.817 42.313 2.185 QT
42.172 2.552 41.906 2.786 QT
41.641 3.021 41.25 3.021 QT
40.531 3.021 40.109 2.583 QT
39.688 2.146 39.688 1.442 QT
cp
f
GR
GS
[0.75 0 0 0.75 333.46378 38.37137] CT
N
43.917 5.88 M
43.807 5.88 43.807 5.771 QT
43.807 5.724 43.839 5.692 QT
45.886 3.692 45.886 -0.12 QT
45.886 -3.933 43.854 -5.917 QT
43.807 -5.948 43.807 -6.011 QT
43.807 -6.058 43.839 -6.089 QT
43.87 -6.12 43.917 -6.12 QT
44.026 -6.12 L
44.057 -6.12 44.089 -6.104 QT
44.948 -5.417 45.518 -4.448 QT
46.089 -3.479 46.362 -2.378 QT
46.636 -1.276 46.636 -0.12 QT
46.636 0.724 46.487 1.552 QT
46.339 2.38 46.026 3.177 QT
45.714 3.974 45.237 4.653 QT
44.761 5.333 44.089 5.864 QT
44.057 5.88 44.026 5.88 QT
43.917 5.88 L
cp
f
GR
GS
[0.75 0 0 0.75 0 0] CT
0 0.447 0.741 RC
[10 6] 0 setdash
2 LJ
0.667 LW
N
401.968 51.162 M
441.643 51.162 L
S
GR
GS
[0.75 0 0 0.75 333.46378 49.5] CT
N
2.422 3.021 M
1.844 3.021 1.406 2.747 QT
0.969 2.474 0.727 2.021 QT
0.484 1.567 0.484 0.974 QT
0.484 0.161 0.938 -0.636 QT
1.391 -1.433 2.141 -1.925 QT
2.891 -2.417 3.719 -2.417 QT
4.328 -2.417 4.789 -2.104 QT
5.25 -1.792 5.492 -1.261 QT
5.734 -0.729 5.734 -0.12 QT
5.75 0.677 L
6.156 0.114 6.445 -0.495 QT
6.734 -1.104 6.875 -1.761 QT
6.906 -1.839 6.969 -1.839 QT
7.109 -1.839 L
7.219 -1.839 7.219 -1.729 QT
7.219 -1.714 7.219 -1.698 QT
7.078 -1.136 6.867 -0.628 QT
6.656 -0.12 6.367 0.349 QT
6.078 0.817 5.75 1.208 QT
5.75 2.692 6.094 2.692 QT
6.313 2.692 6.461 2.56 QT
6.609 2.427 6.719 2.239 QT
6.828 2.052 6.844 2.036 QT
7 2.036 L
7.094 2.036 7.094 2.161 QT
7.094 2.458 6.75 2.739 QT
6.406 3.021 6.078 3.021 QT
5.641 3.021 5.352 2.739 QT
5.063 2.458 4.953 2.005 QT
4.391 2.474 3.734 2.747 QT
3.078 3.021 2.422 3.021 QT
cp
2.438 2.692 M
3.719 2.692 4.906 1.646 QT
4.891 1.567 4.883 1.466 QT
4.875 1.364 4.875 1.349 QT
4.875 0.067 L
4.875 -2.12 3.703 -2.12 QT
3 -2.12 2.469 -1.518 QT
1.938 -0.917 1.672 -0.081 QT
1.406 0.755 1.406 1.442 QT
1.406 1.974 1.672 2.333 QT
1.938 2.692 2.438 2.692 QT
cp
f
GR
GS
[0.75 0 0 0.75 333.46378 49.5] CT
N
11.96 1.286 M
11.851 1.286 11.788 1.208 QT
11.726 1.13 11.726 1.052 QT
11.726 0.942 11.788 0.872 QT
11.851 0.802 11.96 0.802 QT
19.492 0.802 L
19.585 0.802 19.648 0.872 QT
19.71 0.942 19.71 1.052 QT
19.71 1.13 19.648 1.208 QT
19.585 1.286 19.492 1.286 QT
11.96 1.286 L
cp
11.96 -1.042 M
11.851 -1.042 11.788 -1.112 QT
11.726 -1.183 11.726 -1.292 QT
11.726 -1.37 11.788 -1.448 QT
11.851 -1.526 11.96 -1.526 QT
19.492 -1.526 L
19.585 -1.526 19.648 -1.448 QT
19.71 -1.37 19.71 -1.292 QT
19.71 -1.183 19.648 -1.112 QT
19.585 -1.042 19.492 -1.042 QT
11.96 -1.042 L
cp
f
GR
GS
[0.75 0 0 0.75 333.46378 49.5] CT
N
25.971 3.021 M
25.439 3.021 25.025 2.763 QT
24.611 2.505 24.385 2.067 QT
24.158 1.63 24.158 1.114 QT
24.158 0.552 24.408 -0.058 QT
24.658 -0.667 25.096 -1.183 QT
25.533 -1.698 26.08 -1.995 QT
26.627 -2.292 27.221 -2.292 QT
30.236 -2.292 L
30.361 -2.292 30.447 -2.214 QT
30.533 -2.136 30.533 -1.995 QT
30.533 -1.808 30.408 -1.683 QT
30.283 -1.558 30.111 -1.558 QT
28.643 -1.558 L
28.986 -1.042 28.986 -0.308 QT
28.986 0.302 28.752 0.888 QT
28.518 1.474 28.104 1.958 QT
27.689 2.442 27.135 2.732 QT
26.58 3.021 25.971 3.021 QT
cp
25.971 2.692 M
26.627 2.692 27.135 2.185 QT
27.643 1.677 27.916 0.935 QT
28.189 0.192 28.189 -0.448 QT
28.189 -0.964 27.9 -1.261 QT
27.611 -1.558 27.111 -1.558 QT
26.408 -1.558 25.924 -1.089 QT
25.439 -0.62 25.189 0.091 QT
24.939 0.802 24.939 1.458 QT
24.939 1.974 25.213 2.333 QT
25.486 2.692 25.971 2.692 QT
cp
f
GR
GS
[0.75 0 0 0.75 333.46378 49.5] CT
N
30.984 4.68 M
30.984 4.461 L
30.984 4.446 31 4.414 QT
32.234 3.039 L
32.515 2.742 32.695 2.532 QT
32.875 2.321 33.046 2.055 QT
33.218 1.789 33.312 1.508 QT
33.406 1.227 33.406 0.914 QT
33.406 0.586 33.289 0.289 QT
33.171 -0.008 32.929 -0.187 QT
32.687 -0.367 32.343 -0.367 QT
32 -0.367 31.726 -0.156 QT
31.453 0.055 31.328 0.383 QT
31.359 0.367 31.421 0.367 QT
31.593 0.367 31.726 0.492 QT
31.859 0.617 31.859 0.805 QT
31.859 0.992 31.726 1.117 QT
31.593 1.242 31.421 1.242 QT
31.234 1.242 31.109 1.11 QT
30.984 0.977 30.984 0.805 QT
30.984 0.508 31.093 0.242 QT
31.203 -0.023 31.414 -0.226 QT
31.625 -0.429 31.898 -0.539 QT
32.171 -0.648 32.468 -0.648 QT
32.921 -0.648 33.32 -0.453 QT
33.718 -0.258 33.945 0.094 QT
34.171 0.446 34.171 0.914 QT
34.171 1.258 34.023 1.571 QT
33.875 1.883 33.632 2.141 QT
33.39 2.399 33.023 2.727 QT
32.656 3.055 32.531 3.164 QT
31.625 4.024 L
32.39 4.024 L
32.968 4.024 33.343 4.016 QT
33.718 4.008 33.75 3.992 QT
33.843 3.883 33.937 3.258 QT
34.171 3.258 L
33.953 4.68 L
30.984 4.68 L
cp
f
GR
GS
[0.75 0 0 0.75 0 0] CT
0.851 0.325 0.098 RC
1 LJ
2 LW
N
401.968 66 M
441.643 66 L
S
GR
GS
[0.75 0 0 0.75 333.46378 60.62863] CT
N
/f1157331853{2.422 3.021 M
1.844 3.021 1.406 2.747 QT
0.969 2.474 0.727 2.021 QT
0.484 1.567 0.484 0.974 QT
0.484 0.161 0.938 -0.636 QT
1.391 -1.433 2.141 -1.925 QT
2.891 -2.417 3.719 -2.417 QT
4.328 -2.417 4.789 -2.104 QT
5.25 -1.792 5.492 -1.261 QT
5.734 -0.729 5.734 -0.12 QT
5.75 0.677 L
6.156 0.114 6.445 -0.495 QT
6.734 -1.104 6.875 -1.761 QT
6.906 -1.839 6.969 -1.839 QT
7.109 -1.839 L
7.219 -1.839 7.219 -1.729 QT
7.219 -1.714 7.219 -1.698 QT
7.078 -1.136 6.867 -0.628 QT
6.656 -0.12 6.367 0.349 QT
6.078 0.817 5.75 1.208 QT
5.75 2.692 6.094 2.692 QT
6.313 2.692 6.461 2.56 QT
6.609 2.427 6.719 2.239 QT
6.828 2.052 6.844 2.036 QT
7 2.036 L
7.094 2.036 7.094 2.161 QT
7.094 2.458 6.75 2.739 QT
6.406 3.021 6.078 3.021 QT
5.641 3.021 5.352 2.739 QT
5.063 2.458 4.953 2.005 QT
4.391 2.474 3.734 2.747 QT
3.078 3.021 2.422 3.021 QT
cp
2.438 2.692 M
3.719 2.692 4.906 1.646 QT
4.891 1.567 4.883 1.466 QT
4.875 1.364 4.875 1.349 QT
4.875 0.067 L
4.875 -2.12 3.703 -2.12 QT
3 -2.12 2.469 -1.518 QT
1.938 -0.917 1.672 -0.081 QT
1.406 0.755 1.406 1.442 QT
1.406 1.974 1.672 2.333 QT
1.938 2.692 2.438 2.692 QT
cp}def
f1157331853
f
GR
GS
[0.75 0 0 0.75 333.46378 60.62863] CT
N
/f-311357189{11.96 1.286 M
11.851 1.286 11.788 1.208 QT
11.726 1.13 11.726 1.052 QT
11.726 0.942 11.788 0.872 QT
11.851 0.802 11.96 0.802 QT
19.492 0.802 L
19.585 0.802 19.648 0.872 QT
19.71 0.942 19.71 1.052 QT
19.71 1.13 19.648 1.208 QT
19.585 1.286 19.492 1.286 QT
11.96 1.286 L
cp
11.96 -1.042 M
11.851 -1.042 11.788 -1.112 QT
11.726 -1.183 11.726 -1.292 QT
11.726 -1.37 11.788 -1.448 QT
11.851 -1.526 11.96 -1.526 QT
19.492 -1.526 L
19.585 -1.526 19.648 -1.448 QT
19.71 -1.37 19.71 -1.292 QT
19.71 -1.183 19.648 -1.112 QT
19.585 -1.042 19.492 -1.042 QT
11.96 -1.042 L
cp}def
f-311357189
f
GR
GS
[0.75 0 0 0.75 333.46378 60.62863] CT
N
/f-1989857184{25.971 3.021 M
25.439 3.021 25.025 2.763 QT
24.611 2.505 24.385 2.067 QT
24.158 1.63 24.158 1.114 QT
24.158 0.552 24.408 -0.058 QT
24.658 -0.667 25.096 -1.183 QT
25.533 -1.698 26.08 -1.995 QT
26.627 -2.292 27.221 -2.292 QT
30.236 -2.292 L
30.361 -2.292 30.447 -2.214 QT
30.533 -2.136 30.533 -1.995 QT
30.533 -1.808 30.408 -1.683 QT
30.283 -1.558 30.111 -1.558 QT
28.643 -1.558 L
28.986 -1.042 28.986 -0.308 QT
28.986 0.302 28.752 0.888 QT
28.518 1.474 28.104 1.958 QT
27.689 2.442 27.135 2.732 QT
26.58 3.021 25.971 3.021 QT
cp
25.971 2.692 M
26.627 2.692 27.135 2.185 QT
27.643 1.677 27.916 0.935 QT
28.189 0.192 28.189 -0.448 QT
28.189 -0.964 27.9 -1.261 QT
27.611 -1.558 27.111 -1.558 QT
26.408 -1.558 25.924 -1.089 QT
25.439 -0.62 25.189 0.091 QT
24.939 0.802 24.939 1.458 QT
24.939 1.974 25.213 2.333 QT
25.486 2.692 25.971 2.692 QT
cp}def
f-1989857184
f
GR
GS
[0.75 0 0 0.75 333.46378 60.62863] CT
N
/f885003131{31.343 4.055 M
31.531 4.336 31.843 4.469 QT
32.156 4.602 32.531 4.602 QT
32.984 4.602 33.179 4.203 QT
33.375 3.805 33.375 3.305 QT
33.375 3.071 33.335 2.844 QT
33.296 2.617 33.203 2.422 QT
33.109 2.227 32.937 2.11 QT
32.765 1.992 32.515 1.992 QT
31.984 1.992 L
31.921 1.992 31.921 1.93 QT
31.921 1.852 L
31.921 1.789 31.984 1.789 QT
32.421 1.758 L
32.703 1.758 32.89 1.547 QT
33.078 1.336 33.164 1.032 QT
33.25 0.727 33.25 0.461 QT
33.25 0.071 33.07 -0.172 QT
32.89 -0.414 32.531 -0.414 QT
32.218 -0.414 31.945 -0.304 QT
31.671 -0.195 31.5 0.039 QT
31.515 0.039 31.531 0.039 QT
31.546 0.039 31.562 0.039 QT
31.734 0.039 31.859 0.164 QT
31.984 0.289 31.984 0.461 QT
31.984 0.633 31.859 0.758 QT
31.734 0.883 31.562 0.883 QT
31.375 0.883 31.25 0.758 QT
31.125 0.633 31.125 0.461 QT
31.125 0.117 31.335 -0.133 QT
31.546 -0.383 31.875 -0.515 QT
32.203 -0.648 32.531 -0.648 QT
32.765 -0.648 33.039 -0.578 QT
33.312 -0.508 33.531 -0.375 QT
33.75 -0.242 33.882 -0.031 QT
34.015 0.18 34.015 0.461 QT
34.015 0.789 33.867 1.078 QT
33.718 1.367 33.46 1.571 QT
33.203 1.774 32.89 1.883 QT
33.234 1.946 33.546 2.141 QT
33.859 2.336 34.046 2.641 QT
34.234 2.946 34.234 3.289 QT
34.234 3.742 33.992 4.094 QT
33.75 4.446 33.359 4.649 QT
32.968 4.852 32.531 4.852 QT
32.156 4.852 31.773 4.711 QT
31.39 4.571 31.156 4.282 QT
30.921 3.992 30.921 3.602 QT
30.921 3.399 31.054 3.266 QT
31.187 3.133 31.375 3.133 QT
31.515 3.133 31.617 3.196 QT
31.718 3.258 31.781 3.367 QT
31.843 3.477 31.843 3.602 QT
31.843 3.789 31.71 3.922 QT
31.578 4.055 31.375 4.055 QT
31.343 4.055 L
cp}def
f885003131
f
GR
GS
[0.75 0 0 0.75 0 0] CT
0.929 0.694 0.125 RC
[8 8] 0 setdash
2 LJ
2 LW
N
401.968 80.838 M
441.643 80.838 L
S
GR
GS
[0.75 0 0 0.75 0 0] CT
0.149 GC
10.0 ML
0.667 LW
N
398 90 M
398 42 L
496 42 L
496 90 L
cp
S
GR
%%Trailer
%%Pages: 1
%%EOF
